0.01	0.13685759999999997
0.03	0.13626430000000003
0.05	0.13616250000000002
0.06999999999999999	0.1367471
0.09	0.1358849
0.11	0.06481469999999999
0.13	0.0498097
0.15000000000000002	0.062245699999999994
0.17	0.07592879999999999
0.19	0.08910789999999999
0.21000000000000002	0.10087399999999999
0.23	0.1095192
0.25	0.11848370000000001
0.27	0.12575909999999998
0.29000000000000004	0.13077840000000002
0.31	0.1372318
0.33	0.14024830000000002
0.35000000000000003	0.1440379
0.37	0.1476277
0.39	0.14939149999999998
0.41000000000000003	0.15237189999999998
0.43	0.1542291
0.45	0.15626900000000002
0.47000000000000003	0.1579468
0.49	0.15873509999999996
0.51	0.16036
0.53	0.1612774
0.55	0.16255239999999999
0.5700000000000001	0.1627047
0.59	0.1642888
0.61	0.1652151
0.63	0.1657614
0.65	0.16616380000000003
0.67	0.16676199999999997
0.6900000000000001	0.1677427
0.7100000000000001	0.16804210000000003
0.73	0.16856859999999999
0.75	0.16971560000000002
0.77	0.1702173
0.79	0.1705017
0.81	0.1708848
0.8300000000000001	0.17173460000000002
0.85	0.17207820000000001
0.87	0.1721484
0.89	0.1722494
0.91	0.17327349999999997
0.93	0.1734073
0.9500000000000001	0.17386120000000002
0.97	0.17417259999999998
0.99	0.1744764
1.01	0.17483110000000002
1.03	0.1753811
1.05	0.1754134
1.07	0.17590699999999998
1.09	0.1764783
1.11	0.1761393
1.1300000000000001	0.1766893
1.1500000000000001	0.1769782
1.17	0.1774673
1.19	0.17715880000000003
1.21	0.1777161
1.23	0.17811999999999997
1.25	0.17820789999999997
1.27	0.17869379999999999
1.29	0.1791925
1.31	0.1784539
1.33	0.17979780000000004
1.35	0.1787785
1.37	0.1792392
1.3900000000000001	0.1800319
1.4100000000000001	0.17943769999999998
1.43	0.17993149999999997
1.45	0.1806892
1.47	0.1798588
1.49	0.1807196
1.51	0.1806788
1.53	0.1804868
1.55	0.1819303
1.57	0.1818262
1.59	0.1825985