0.01	0.4360054
0.03	0.4352401
0.05	0.43543449999999995
0.06999999999999999	0.43520280000000006
0.09	0.43429700000000004
0.11	0.3704404
0.13	0.2771234
0.15000000000000002	0.22214
0.17	0.1843438
0.19	0.15995410000000002
0.21000000000000002	0.14282950000000003
0.23	0.1313992
0.25	0.12463919999999999
0.27	0.119914
0.29000000000000004	0.11656389999999998
0.31	0.11563839999999999
0.33	0.114681
0.35000000000000003	0.1135851
0.37	0.11476019999999998
0.39	0.11396310000000001
0.41000000000000003	0.1146819
0.43	0.11515560000000002
0.45	0.1160412
0.47000000000000003	0.1165997
0.49	0.11719370000000003
0.51	0.1184124
0.53	0.11950179999999999
0.55	0.1201361
0.5700000000000001	0.12085329999999998
0.59	0.12214959999999997
0.61	0.1221335
0.63	0.12347329999999998
0.65	0.12399799999999998
0.67	0.12469040000000002
0.6900000000000001	0.12519829999999998
0.7100000000000001	0.12555049999999998
0.73	0.1264856
0.75	0.127589
0.77	0.1273407
0.79	0.12831259999999997
0.81	0.12916370000000002
0.8300000000000001	0.13006790000000001
0.85	0.1294007
0.87	0.1308987
0.89	0.13109
0.91	0.13142520000000002
0.93	0.132876
0.9500000000000001	0.13223049999999997
0.97	0.1331896
0.99	0.1339686
1.01	0.1340116
1.03	0.134292
1.05	0.1351909
1.07	0.13581000000000001
1.09	0.1353709
1.11	0.1356967
1.1300000000000001	0.1363923
1.1500000000000001	0.1367103
1.17	0.13658659999999997
1.19	0.13799170000000002
1.21	0.13719209999999998
1.23	0.1383873
1.25	0.13896020000000003
1.27	0.1387163
1.29	0.1398877
1.31	0.1392605
1.33	0.1400971
1.35	0.14050140000000003
1.37	0.14042079999999998
1.3900000000000001	0.14071819999999996
1.4100000000000001	0.14106149999999998
1.43	0.14225100000000002
1.45	0.1420187
1.47	0.14256679999999997
1.49	0.142541
1.51	0.1429985
1.53	0.1430433
1.55	0.1433714
1.57	0.1433102
1.59	0.14475179999999999