31/12/1903  21:00:00.000000	-3.111440E-1	1.827720E-3
31/12/1903  21:00:00.000000	-3.144192E-1	2.436960E-3
31/12/1903  21:00:00.000000	-3.111440E-1	2.640040E-3
31/12/1903  21:00:00.000000	-3.111440E-1	6.092400E-4
31/12/1903  21:00:00.000000	-3.111440E-1	1.218480E-3
31/12/1903  21:00:00.000000	-3.111440E-1	2.233880E-3
31/12/1903  21:00:00.000000	-3.111440E-1	1.015400E-3
31/12/1903  21:00:00.000000	-3.111440E-1	2.233880E-3
31/12/1903  21:00:00.000000	-3.111440E-1	8.123200E-4
31/12/1903  21:00:00.000001	-3.111440E-1	2.233880E-3
31/12/1903  21:00:00.000001	-3.111440E-1	2.436960E-3
31/12/1903  21:00:00.000001	-3.144192E-1	8.123200E-4
31/12/1903  21:00:00.000001	-3.111440E-1	2.436960E-3
31/12/1903  21:00:00.000001	-3.111440E-1	8.123200E-4
31/12/1903  21:00:00.000001	-3.111440E-1	1.015400E-3
31/12/1903  21:00:00.000001	-3.144192E-1	2.436960E-3
31/12/1903  21:00:00.000001	-3.111440E-1	8.123200E-4
31/12/1903  21:00:00.000001	-3.144192E-1	2.640040E-3
31/12/1903  21:00:00.000002	-3.111440E-1	1.015400E-3
31/12/1903  21:00:00.000002	-3.111440E-1	2.436960E-3
31/12/1903  21:00:00.000002	-3.111440E-1	2.843120E-3
31/12/1903  21:00:00.000002	-3.144192E-1	6.092400E-4
31/12/1903  21:00:00.000002	-3.111440E-1	1.218480E-3
31/12/1903  21:00:00.000002	-3.144192E-1	2.436960E-3
31/12/1903  21:00:00.000002	-3.111440E-1	1.015400E-3
31/12/1903  21:00:00.000002	-3.144192E-1	2.030800E-3
31/12/1903  21:00:00.000002	-3.111440E-1	8.123200E-4
31/12/1903  21:00:00.000003	-3.144192E-1	2.436960E-3
31/12/1903  21:00:00.000003	-3.111440E-1	8.123200E-4
31/12/1903  21:00:00.000003	-3.144192E-1	2.233880E-3
31/12/1903  21:00:00.000003	-3.111440E-1	2.436960E-3
31/12/1903  21:00:00.000003	-3.144192E-1	1.015400E-3
31/12/1903  21:00:00.000003	-3.111440E-1	1.218480E-3
31/12/1903  21:00:00.000003	-3.111440E-1	2.436960E-3
31/12/1903  21:00:00.000003	-3.111440E-1	1.015400E-3
31/12/1903  21:00:00.000003	-3.111440E-1	2.030800E-3
31/12/1903  21:00:00.000004	-3.111440E-1	1.218480E-3
31/12/1903  21:00:00.000004	-3.144192E-1	2.233880E-3
31/12/1903  21:00:00.000004	-3.111440E-1	1.015400E-3
31/12/1903  21:00:00.000004	-3.111440E-1	2.030800E-3
31/12/1903  21:00:00.000004	-3.111440E-1	1.015400E-3
31/12/1903  21:00:00.000004	-3.144192E-1	2.233880E-3
31/12/1903  21:00:00.000004	-3.111440E-1	8.123200E-4
31/12/1903  21:00:00.000004	-3.144192E-1	2.843120E-3
31/12/1903  21:00:00.000005	-3.111440E-1	8.123200E-4
31/12/1903  21:00:00.000005	-3.144192E-1	2.436960E-3
31/12/1903  21:00:00.000005	-3.111440E-1	2.436960E-3
31/12/1903  21:00:00.000005	-3.144192E-1	1.015400E-3
31/12/1903  21:00:00.000005	-3.111440E-1	8.123200E-4
31/12/1903  21:00:00.000005	-3.144192E-1	2.233880E-3
31/12/1903  21:00:00.000005	-3.111440E-1	1.015400E-3
31/12/1903  21:00:00.000005	-3.144192E-1	2.233880E-3
31/12/1903  21:00:00.000005	-3.111440E-1	2.030800E-3
31/12/1903  21:00:00.000006	-3.144192E-1	1.015400E-3
31/12/1903  21:00:00.000006	-3.111440E-1	2.030800E-3
31/12/1903  21:00:00.000006	-3.144192E-1	1.218480E-3
31/12/1903  21:00:00.000006	-3.111440E-1	2.233880E-3
31/12/1903  21:00:00.000006	-3.144192E-1	1.218480E-3
31/12/1903  21:00:00.000006	-3.111440E-1	1.015400E-3
31/12/1903  21:00:00.000006	-3.144192E-1	2.233880E-3
31/12/1903  21:00:00.000006	-3.111440E-1	1.015400E-3
31/12/1903  21:00:00.000006	-3.144192E-1	2.030800E-3
31/12/1903  21:00:00.000007	-3.111440E-1	1.015400E-3
31/12/1903  21:00:00.000007	-3.144192E-1	2.436960E-3
31/12/1903  21:00:00.000007	-3.111440E-1	2.436960E-3
31/12/1903  21:00:00.000007	-3.144192E-1	8.123200E-4
31/12/1903  21:00:00.000007	-3.111440E-1	2.030800E-3
31/12/1903  21:00:00.000007	-3.111440E-1	1.015400E-3
31/12/1903  21:00:00.000007	-3.111440E-1	1.015400E-3
31/12/1903  21:00:00.000007	-3.144192E-1	2.436960E-3
31/12/1903  21:00:00.000007	-3.111440E-1	2.436960E-3
31/12/1903  21:00:00.000008	-3.144192E-1	1.015400E-3
31/12/1903  21:00:00.000008	-3.111440E-1	1.015400E-3
31/12/1903  21:00:00.000008	-3.144192E-1	2.233880E-3
31/12/1903  21:00:00.000008	-3.111440E-1	2.233880E-3
31/12/1903  21:00:00.000008	-3.111440E-1	1.015400E-3
31/12/1903  21:00:00.000008	-3.111440E-1	2.233880E-3
31/12/1903  21:00:00.000008	-3.111440E-1	1.015400E-3
31/12/1903  21:00:00.000008	-3.111440E-1	2.436960E-3
31/12/1903  21:00:00.000009	-3.111440E-1	8.123200E-4
31/12/1903  21:00:00.000009	-3.111440E-1	2.843120E-3
31/12/1903  21:00:00.000009	-3.144192E-1	6.092400E-4
31/12/1903  21:00:00.000009	-3.111440E-1	6.092400E-4
31/12/1903  21:00:00.000009	-3.111440E-1	2.640040E-3
31/12/1903  21:00:00.000009	-3.111440E-1	8.123200E-4
31/12/1903  21:00:00.000009	-3.111440E-1	2.233880E-3
31/12/1903  21:00:00.000009	-3.111440E-1	2.233880E-3
31/12/1903  21:00:00.000009	-3.111440E-1	8.123200E-4
31/12/1903  21:00:00.000010	-3.111440E-1	2.436960E-3
31/12/1903  21:00:00.000010	-3.144192E-1	8.123200E-4
31/12/1903  21:00:00.000010	-3.111440E-1	8.123200E-4
31/12/1903  21:00:00.000010	-3.111440E-1	2.640040E-3
31/12/1903  21:00:00.000010	-3.111440E-1	4.061600E-4
31/12/1903  21:00:00.000010	-3.144192E-1	2.436960E-3
31/12/1903  21:00:00.000010	-3.111440E-1	2.436960E-3
31/12/1903  21:00:00.000010	-3.144192E-1	8.123200E-4
31/12/1903  21:00:00.000010	-3.111440E-1	2.436960E-3
31/12/1903  21:00:00.000011	-3.111440E-1	8.123200E-4
31/12/1903  21:00:00.000011	-3.111440E-1	2.233880E-3
31/12/1903  21:00:00.000011	-3.111440E-1	8.123200E-4
31/12/1903  21:00:00.000011	-3.111440E-1	8.123200E-4
31/12/1903  21:00:00.000011	4.257760E-2	3.249280E-3
31/12/1903  21:00:00.000011	4.257760E-2	3.452360E-3
31/12/1903  21:00:00.000011	2.620160E-1	1.726180E-2
31/12/1903  21:00:00.000011	2.587408E-1	1.726180E-2
31/12/1903  21:00:00.000011	2.685664E-1	2.721272E-2
31/12/1903  21:00:00.000012	2.652912E-1	2.721272E-2
31/12/1903  21:00:00.000012	2.718416E-1	3.371128E-2
31/12/1903  21:00:00.000012	2.718416E-1	3.330512E-2
31/12/1903  21:00:00.000012	2.751168E-1	3.756980E-2
31/12/1903  21:00:00.000012	2.751168E-1	3.696056E-2
31/12/1903  21:00:00.000012	2.783920E-1	3.919444E-2
31/12/1903  21:00:00.000012	2.783920E-1	3.858520E-2
31/12/1903  21:00:00.000012	2.751168E-1	3.980368E-2
31/12/1903  21:00:00.000012	2.783920E-1	3.899136E-2
31/12/1903  21:00:00.000013	2.816672E-1	4.020984E-2
31/12/1903  21:00:00.000013	2.816672E-1	3.960060E-2
31/12/1903  21:00:00.000013	2.816672E-1	3.838212E-2
31/12/1903  21:00:00.000013	2.816672E-1	3.878828E-2
31/12/1903  21:00:00.000013	2.816672E-1	3.736672E-2
31/12/1903  21:00:00.000013	2.816672E-1	3.817904E-2
31/12/1903  21:00:00.000013	2.849424E-1	3.594516E-2
31/12/1903  21:00:00.000013	2.849424E-1	3.655440E-2
31/12/1903  21:00:00.000014	2.816672E-1	3.472668E-2
31/12/1903  21:00:00.000014	2.849424E-1	3.533592E-2
31/12/1903  21:00:00.000014	2.849424E-1	3.350820E-2
31/12/1903  21:00:00.000014	2.849424E-1	3.411744E-2
31/12/1903  21:00:00.000014	2.849424E-1	3.208664E-2
31/12/1903  21:00:00.000014	2.849424E-1	3.228972E-2
31/12/1903  21:00:00.000014	2.849424E-1	3.107124E-2
31/12/1903  21:00:00.000014	2.849424E-1	3.147740E-2
31/12/1903  21:00:00.000014	2.849424E-1	2.985276E-2
31/12/1903  21:00:00.000015	2.849424E-1	3.046200E-2
31/12/1903  21:00:00.000015	2.849424E-1	2.843120E-2
31/12/1903  21:00:00.000015	2.849424E-1	2.964968E-2
31/12/1903  21:00:00.000015	2.849424E-1	2.822812E-2
31/12/1903  21:00:00.000015	2.849424E-1	2.924352E-2
31/12/1903  21:00:00.000015	2.849424E-1	2.761888E-2
31/12/1903  21:00:00.000015	2.849424E-1	2.863428E-2
31/12/1903  21:00:00.000015	2.882176E-1	2.660348E-2
31/12/1903  21:00:00.000015	2.849424E-1	2.660348E-2
31/12/1903  21:00:00.000016	2.882176E-1	2.822812E-2
31/12/1903  21:00:00.000016	2.849424E-1	2.741580E-2
31/12/1903  21:00:00.000016	2.882176E-1	2.619732E-2
31/12/1903  21:00:00.000016	2.849424E-1	2.782196E-2
31/12/1903  21:00:00.000016	2.882176E-1	2.579116E-2
31/12/1903  21:00:00.000016	2.849424E-1	2.680656E-2
31/12/1903  21:00:00.000016	2.882176E-1	2.558808E-2
31/12/1903  21:00:00.000016	2.882176E-1	2.660348E-2
31/12/1903  21:00:00.000016	2.849424E-1	2.518192E-2
31/12/1903  21:00:00.000017	2.882176E-1	2.599424E-2
31/12/1903  21:00:00.000017	2.849424E-1	2.416652E-2
31/12/1903  21:00:00.000017	2.882176E-1	2.416652E-2
31/12/1903  21:00:00.000017	2.882176E-1	2.579116E-2
31/12/1903  21:00:00.000017	2.882176E-1	2.335420E-2
31/12/1903  21:00:00.000017	2.849424E-1	2.477576E-2
31/12/1903  21:00:00.000017	2.882176E-1	2.477576E-2
31/12/1903  21:00:00.000017	2.882176E-1	2.274496E-2
31/12/1903  21:00:00.000018	2.882176E-1	2.254188E-2
31/12/1903  21:00:00.000018	2.882176E-1	2.396344E-2
31/12/1903  21:00:00.000018	2.882176E-1	2.172956E-2
31/12/1903  21:00:00.000018	2.882176E-1	2.294804E-2
31/12/1903  21:00:00.000018	2.882176E-1	2.132340E-2
31/12/1903  21:00:00.000018	2.882176E-1	2.294804E-2
31/12/1903  21:00:00.000018	2.882176E-1	2.254188E-2
31/12/1903  21:00:00.000018	2.882176E-1	2.030800E-2
31/12/1903  21:00:00.000018	2.882176E-1	2.213572E-2
31/12/1903  21:00:00.000019	2.882176E-1	1.929260E-2
31/12/1903  21:00:00.000019	2.882176E-1	1.949568E-2
31/12/1903  21:00:00.000019	2.882176E-1	2.132340E-2
31/12/1903  21:00:00.000019	2.882176E-1	1.848028E-2
31/12/1903  21:00:00.000019	2.882176E-1	2.030800E-2
31/12/1903  21:00:00.000019	2.882176E-1	2.010492E-2
31/12/1903  21:00:00.000019	2.882176E-1	1.766796E-2
31/12/1903  21:00:00.000019	2.882176E-1	1.929260E-2
31/12/1903  21:00:00.000019	2.882176E-1	1.685564E-2
31/12/1903  21:00:00.000020	2.882176E-1	1.685564E-2
31/12/1903  21:00:00.000020	2.882176E-1	1.868336E-2
31/12/1903  21:00:00.000020	2.882176E-1	1.624640E-2
31/12/1903  21:00:00.000020	2.882176E-1	1.766796E-2
31/12/1903  21:00:00.000020	2.882176E-1	1.726180E-2
31/12/1903  21:00:00.000020	2.882176E-1	1.543408E-2
31/12/1903  21:00:00.000020	2.882176E-1	1.624640E-2
31/12/1903  21:00:00.000020	2.882176E-1	1.441868E-2
31/12/1903  21:00:00.000020	2.882176E-1	1.523100E-2
31/12/1903  21:00:00.000021	2.882176E-1	1.421560E-2
31/12/1903  21:00:00.000021	2.882176E-1	1.441868E-2
31/12/1903  21:00:00.000021	2.882176E-1	1.320020E-2
31/12/1903  21:00:00.000021	2.882176E-1	1.421560E-2
31/12/1903  21:00:00.000021	2.882176E-1	1.279404E-2
31/12/1903  21:00:00.000021	2.882176E-1	1.340328E-2
31/12/1903  21:00:00.000021	2.882176E-1	1.157556E-2
31/12/1903  21:00:00.000021	2.882176E-1	1.299712E-2
31/12/1903  21:00:00.000022	2.882176E-1	1.116940E-2
31/12/1903  21:00:00.000022	2.882176E-1	1.218480E-2
31/12/1903  21:00:00.000022	2.882176E-1	1.035708E-2
31/12/1903  21:00:00.000022	2.882176E-1	1.157556E-2
31/12/1903  21:00:00.000022	2.882176E-1	9.747840E-3
31/12/1903  21:00:00.000022	2.882176E-1	9.138600E-3
31/12/1903  21:00:00.000022	2.882176E-1	1.096632E-2
31/12/1903  21:00:00.000022	2.882176E-1	9.747840E-3
31/12/1903  21:00:00.000022	2.882176E-1	8.732440E-3
31/12/1903  21:00:00.000023	2.882176E-1	9.747840E-3
31/12/1903  21:00:00.000023	2.882176E-1	7.717040E-3
31/12/1903  21:00:00.000023	2.882176E-1	9.341680E-3
31/12/1903  21:00:00.000023	2.882176E-1	6.904720E-3
31/12/1903  21:00:00.000023	2.882176E-1	8.732440E-3
31/12/1903  21:00:00.000023	2.882176E-1	6.701640E-3
31/12/1903  21:00:00.000023	2.882176E-1	7.717040E-3
31/12/1903  21:00:00.000023	2.882176E-1	6.295480E-3
31/12/1903  21:00:00.000023	2.882176E-1	6.295480E-3
31/12/1903  21:00:00.000024	2.882176E-1	7.310880E-3
31/12/1903  21:00:00.000024	2.882176E-1	6.701640E-3
31/12/1903  21:00:00.000024	2.882176E-1	5.483160E-3
31/12/1903  21:00:00.000024	2.882176E-1	6.295480E-3
31/12/1903  21:00:00.000024	2.882176E-1	4.670840E-3
31/12/1903  21:00:00.000024	2.882176E-1	4.670840E-3
31/12/1903  21:00:00.000024	2.882176E-1	5.889320E-3
31/12/1903  21:00:00.000024	2.882176E-1	5.483160E-3
31/12/1903  21:00:00.000024	2.882176E-1	4.264680E-3
31/12/1903  21:00:00.000025	2.882176E-1	3.858520E-3
31/12/1903  21:00:00.000025	2.882176E-1	5.280080E-3
31/12/1903  21:00:00.000025	2.882176E-1	5.077000E-3
31/12/1903  21:00:00.000025	2.882176E-1	3.249280E-3
31/12/1903  21:00:00.000025	2.882176E-1	4.873920E-3
31/12/1903  21:00:00.000025	2.882176E-1	3.046200E-3
31/12/1903  21:00:00.000025	2.882176E-1	4.670840E-3
31/12/1903  21:00:00.000025	2.882176E-1	3.046200E-3
31/12/1903  21:00:00.000025	2.882176E-1	2.640040E-3
31/12/1903  21:00:00.000026	2.882176E-1	4.061600E-3
31/12/1903  21:00:00.000026	2.882176E-1	3.858520E-3
31/12/1903  21:00:00.000026	2.882176E-1	2.233880E-3
31/12/1903  21:00:00.000026	2.882176E-1	3.858520E-3
31/12/1903  21:00:00.000026	2.882176E-1	2.233880E-3
31/12/1903  21:00:00.000026	2.882176E-1	3.655440E-3
31/12/1903  21:00:00.000026	2.882176E-1	2.030800E-3
31/12/1903  21:00:00.000026	2.882176E-1	1.827720E-3
31/12/1903  21:00:00.000027	2.882176E-1	3.655440E-3
31/12/1903  21:00:00.000027	2.882176E-1	1.421560E-3
31/12/1903  21:00:00.000027	2.882176E-1	3.452360E-3
31/12/1903  21:00:00.000027	2.882176E-1	3.046200E-3
31/12/1903  21:00:00.000027	2.882176E-1	1.218480E-3
31/12/1903  21:00:00.000027	2.882176E-1	3.452360E-3
31/12/1903  21:00:00.000027	2.882176E-1	1.015400E-3
31/12/1903  21:00:00.000027	2.882176E-1	1.421560E-3
31/12/1903  21:00:00.000027	2.882176E-1	3.452360E-3
31/12/1903  21:00:00.000028	2.882176E-1	1.015400E-3
31/12/1903  21:00:00.000028	2.882176E-1	3.249280E-3
31/12/1903  21:00:00.000028	2.882176E-1	1.015400E-3
31/12/1903  21:00:00.000028	2.882176E-1	3.046200E-3
31/12/1903  21:00:00.000028	2.882176E-1	3.249280E-3
31/12/1903  21:00:00.000028	2.882176E-1	1.421560E-3
31/12/1903  21:00:00.000028	2.882176E-1	2.843120E-3
31/12/1903  21:00:00.000028	2.882176E-1	1.218480E-3
31/12/1903  21:00:00.000028	2.882176E-1	1.421560E-3
31/12/1903  21:00:00.000029	2.882176E-1	3.249280E-3
31/12/1903  21:00:00.000029	2.882176E-1	1.624640E-3
31/12/1903  21:00:00.000029	2.882176E-1	2.843120E-3
31/12/1903  21:00:00.000029	2.882176E-1	1.421560E-3
31/12/1903  21:00:00.000029	2.882176E-1	2.843120E-3
31/12/1903  21:00:00.000029	2.882176E-1	2.843120E-3
31/12/1903  21:00:00.000029	2.882176E-1	1.624640E-3
31/12/1903  21:00:00.000029	2.882176E-1	1.827720E-3
31/12/1903  21:00:00.000029	2.882176E-1	2.843120E-3
31/12/1903  21:00:00.000030	2.882176E-1	1.827720E-3
31/12/1903  21:00:00.000030	2.882176E-1	3.249280E-3
31/12/1903  21:00:00.000030	2.882176E-1	1.827720E-3
31/12/1903  21:00:00.000030	2.882176E-1	3.249280E-3
31/12/1903  21:00:00.000030	2.882176E-1	2.233880E-3
31/12/1903  21:00:00.000030	2.882176E-1	3.249280E-3
31/12/1903  21:00:00.000030	2.882176E-1	2.436960E-3
31/12/1903  21:00:00.000030	2.882176E-1	3.655440E-3
31/12/1903  21:00:00.000031	2.882176E-1	3.452360E-3
31/12/1903  21:00:00.000031	2.882176E-1	2.233880E-3
31/12/1903  21:00:00.000031	2.882176E-1	2.436960E-3
31/12/1903  21:00:00.000031	2.882176E-1	3.655440E-3
31/12/1903  21:00:00.000031	2.882176E-1	2.436960E-3
31/12/1903  21:00:00.000031	2.882176E-1	3.655440E-3
31/12/1903  21:00:00.000031	2.882176E-1	3.858520E-3
31/12/1903  21:00:00.000031	2.882176E-1	2.640040E-3
31/12/1903  21:00:00.000031	2.882176E-1	4.061600E-3
31/12/1903  21:00:00.000032	2.882176E-1	2.843120E-3
31/12/1903  21:00:00.000032	2.882176E-1	2.843120E-3
31/12/1903  21:00:00.000032	2.882176E-1	4.264680E-3
31/12/1903  21:00:00.000032	2.882176E-1	2.640040E-3
31/12/1903  21:00:00.000032	2.882176E-1	4.467760E-3
31/12/1903  21:00:00.000032	2.882176E-1	4.467760E-3
31/12/1903  21:00:00.000032	2.882176E-1	3.046200E-3
31/12/1903  21:00:00.000032	2.882176E-1	4.670840E-3
31/12/1903  21:00:00.000032	2.882176E-1	3.249280E-3
31/12/1903  21:00:00.000033	2.882176E-1	3.452360E-3
31/12/1903  21:00:00.000033	2.882176E-1	4.467760E-3
31/12/1903  21:00:00.000033	2.882176E-1	3.452360E-3
31/12/1903  21:00:00.000033	2.882176E-1	4.873920E-3
31/12/1903  21:00:00.000033	2.882176E-1	4.873920E-3
31/12/1903  21:00:00.000033	2.882176E-1	3.452360E-3
31/12/1903  21:00:00.000033	2.882176E-1	3.858520E-3
31/12/1903  21:00:00.000033	2.882176E-1	5.077000E-3
31/12/1903  21:00:00.000033	2.882176E-1	4.264680E-3
31/12/1903  21:00:00.000034	2.882176E-1	5.077000E-3
31/12/1903  21:00:00.000034	2.882176E-1	4.061600E-3
31/12/1903  21:00:00.000034	2.882176E-1	5.280080E-3
31/12/1903  21:00:00.000034	2.882176E-1	5.483160E-3
31/12/1903  21:00:00.000034	2.882176E-1	3.858520E-3
31/12/1903  21:00:00.000034	2.882176E-1	4.264680E-3
31/12/1903  21:00:00.000034	2.882176E-1	6.092400E-3
31/12/1903  21:00:00.000034	2.882176E-1	4.467760E-3
31/12/1903  21:00:00.000034	2.882176E-1	5.686240E-3
31/12/1903  21:00:00.000035	2.882176E-1	4.061600E-3
31/12/1903  21:00:00.000035	2.882176E-1	5.889320E-3
31/12/1903  21:00:00.000035	2.882176E-1	5.889320E-3
31/12/1903  21:00:00.000035	2.882176E-1	4.670840E-3
31/12/1903  21:00:00.000035	2.882176E-1	6.092400E-3
31/12/1903  21:00:00.000035	2.882176E-1	4.670840E-3
31/12/1903  21:00:00.000035	2.882176E-1	4.467760E-3
31/12/1903  21:00:00.000035	2.882176E-1	6.701640E-3
31/12/1903  21:00:00.000036	2.882176E-1	6.295480E-3
31/12/1903  21:00:00.000036	2.882176E-1	4.670840E-3
31/12/1903  21:00:00.000036	2.882176E-1	6.295480E-3
31/12/1903  21:00:00.000036	2.882176E-1	4.467760E-3
31/12/1903  21:00:00.000036	2.882176E-1	6.701640E-3
31/12/1903  21:00:00.000036	2.882176E-1	4.061600E-3
31/12/1903  21:00:00.000036	2.882176E-1	4.467760E-3
31/12/1903  21:00:00.000036	2.882176E-1	6.904720E-3
31/12/1903  21:00:00.000036	2.882176E-1	4.467760E-3
31/12/1903  21:00:00.000037	2.882176E-1	7.107800E-3
31/12/1903  21:00:00.000037	2.882176E-1	7.107800E-3
31/12/1903  21:00:00.000037	2.882176E-1	4.873920E-3
31/12/1903  21:00:00.000037	2.882176E-1	7.107800E-3
31/12/1903  21:00:00.000037	2.882176E-1	5.280080E-3
31/12/1903  21:00:00.000037	2.882176E-1	5.686240E-3
31/12/1903  21:00:00.000037	2.882176E-1	6.701640E-3
31/12/1903  21:00:00.000037	2.882176E-1	5.483160E-3
31/12/1903  21:00:00.000037	2.882176E-1	7.107800E-3
31/12/1903  21:00:00.000038	2.882176E-1	5.483160E-3
31/12/1903  21:00:00.000038	2.882176E-1	6.904720E-3
31/12/1903  21:00:00.000038	2.882176E-1	6.904720E-3
31/12/1903  21:00:00.000038	2.882176E-1	5.280080E-3
31/12/1903  21:00:00.000038	2.882176E-1	7.107800E-3
31/12/1903  21:00:00.000038	2.882176E-1	5.077000E-3
31/12/1903  21:00:00.000038	2.882176E-1	4.873920E-3
31/12/1903  21:00:00.000038	2.882176E-1	7.310880E-3
31/12/1903  21:00:00.000038	2.882176E-1	5.483160E-3
31/12/1903  21:00:00.000039	2.882176E-1	6.904720E-3
31/12/1903  21:00:00.000039	2.882176E-1	5.889320E-3
31/12/1903  21:00:00.000039	2.882176E-1	7.107800E-3
31/12/1903  21:00:00.000039	2.882176E-1	7.107800E-3
31/12/1903  21:00:00.000039	2.882176E-1	5.686240E-3
31/12/1903  21:00:00.000039	2.882176E-1	6.904720E-3
31/12/1903  21:00:00.000039	2.882176E-1	5.686240E-3
31/12/1903  21:00:00.000039	2.882176E-1	5.686240E-3
31/12/1903  21:00:00.000040	2.882176E-1	7.107800E-3
31/12/1903  21:00:00.000040	2.882176E-1	6.904720E-3
31/12/1903  21:00:00.000040	2.882176E-1	5.686240E-3
31/12/1903  21:00:00.000040	2.882176E-1	6.092400E-3
31/12/1903  21:00:00.000040	2.882176E-1	6.904720E-3
31/12/1903  21:00:00.000040	2.882176E-1	6.904720E-3
31/12/1903  21:00:00.000040	2.882176E-1	5.686240E-3
31/12/1903  21:00:00.000040	2.882176E-1	5.889320E-3
31/12/1903  21:00:00.000040	2.882176E-1	6.904720E-3
31/12/1903  21:00:00.000041	2.882176E-1	5.686240E-3
31/12/1903  21:00:00.000041	2.882176E-1	7.513960E-3
31/12/1903  21:00:00.000041	2.882176E-1	5.483160E-3
31/12/1903  21:00:00.000041	2.882176E-1	7.107800E-3
31/12/1903  21:00:00.000041	2.882176E-1	5.889320E-3
31/12/1903  21:00:00.000041	2.882176E-1	6.904720E-3
31/12/1903  21:00:00.000041	2.882176E-1	5.686240E-3
31/12/1903  21:00:00.000041	2.882176E-1	6.904720E-3
31/12/1903  21:00:00.000041	2.882176E-1	5.889320E-3
31/12/1903  21:00:00.000042	2.882176E-1	6.904720E-3
31/12/1903  21:00:00.000042	2.882176E-1	6.904720E-3
31/12/1903  21:00:00.000042	2.882176E-1	5.686240E-3
31/12/1903  21:00:00.000042	2.882176E-1	5.686240E-3
31/12/1903  21:00:00.000042	2.882176E-1	7.107800E-3
31/12/1903  21:00:00.000042	2.882176E-1	6.904720E-3
31/12/1903  21:00:00.000042	2.882176E-1	5.889320E-3
31/12/1903  21:00:00.000042	2.882176E-1	5.889320E-3
31/12/1903  21:00:00.000042	2.882176E-1	7.107800E-3
31/12/1903  21:00:00.000043	2.882176E-1	6.904720E-3
31/12/1903  21:00:00.000043	2.882176E-1	5.686240E-3
31/12/1903  21:00:00.000043	2.882176E-1	5.483160E-3
31/12/1903  21:00:00.000043	2.882176E-1	6.904720E-3
31/12/1903  21:00:00.000043	2.882176E-1	5.686240E-3
31/12/1903  21:00:00.000043	2.882176E-1	6.904720E-3
31/12/1903  21:00:00.000043	2.882176E-1	5.686240E-3
31/12/1903  21:00:00.000043	2.882176E-1	6.904720E-3
31/12/1903  21:00:00.000044	2.882176E-1	5.483160E-3
31/12/1903  21:00:00.000044	2.882176E-1	6.904720E-3
31/12/1903  21:00:00.000044	2.882176E-1	7.107800E-3
31/12/1903  21:00:00.000044	2.882176E-1	5.483160E-3
31/12/1903  21:00:00.000044	2.882176E-1	6.701640E-3
31/12/1903  21:00:00.000044	2.882176E-1	5.280080E-3
31/12/1903  21:00:00.000044	2.882176E-1	5.077000E-3
31/12/1903  21:00:00.000044	2.882176E-1	6.904720E-3
31/12/1903  21:00:00.000044	2.882176E-1	6.498560E-3
31/12/1903  21:00:00.000045	2.882176E-1	5.483160E-3
31/12/1903  21:00:00.000045	2.882176E-1	6.498560E-3
31/12/1903  21:00:00.000045	2.882176E-1	5.280080E-3
31/12/1903  21:00:00.000045	2.882176E-1	6.701640E-3
31/12/1903  21:00:00.000045	2.882176E-1	5.483160E-3
31/12/1903  21:00:00.000045	2.882176E-1	5.483160E-3
31/12/1903  21:00:00.000045	2.882176E-1	6.701640E-3
31/12/1903  21:00:00.000045	2.882176E-1	5.077000E-3
31/12/1903  21:00:00.000045	2.882176E-1	6.904720E-3
31/12/1903  21:00:00.000046	2.882176E-1	6.701640E-3
31/12/1903  21:00:00.000046	2.882176E-1	5.280080E-3
31/12/1903  21:00:00.000046	2.882176E-1	6.498560E-3
31/12/1903  21:00:00.000046	2.882176E-1	5.280080E-3
31/12/1903  21:00:00.000046	2.882176E-1	5.280080E-3
31/12/1903  21:00:00.000046	2.882176E-1	6.498560E-3
31/12/1903  21:00:00.000046	2.882176E-1	6.498560E-3
31/12/1903  21:00:00.000046	2.882176E-1	5.077000E-3
31/12/1903  21:00:00.000046	2.882176E-1	5.077000E-3
31/12/1903  21:00:00.000047	2.882176E-1	6.295480E-3
31/12/1903  21:00:00.000047	2.882176E-1	5.077000E-3
31/12/1903  21:00:00.000047	2.882176E-1	6.498560E-3
31/12/1903  21:00:00.000047	2.882176E-1	6.295480E-3
31/12/1903  21:00:00.000047	2.882176E-1	5.077000E-3
31/12/1903  21:00:00.000047	2.882176E-1	6.498560E-3
31/12/1903  21:00:00.000047	2.882176E-1	5.280080E-3
31/12/1903  21:00:00.000047	2.882176E-1	5.077000E-3
31/12/1903  21:00:00.000047	2.882176E-1	6.498560E-3
31/12/1903  21:00:00.000048	2.882176E-1	6.498560E-3
31/12/1903  21:00:00.000048	2.882176E-1	5.077000E-3
31/12/1903  21:00:00.000048	2.882176E-1	5.280080E-3
31/12/1903  21:00:00.000048	2.882176E-1	6.498560E-3
31/12/1903  21:00:00.000048	2.882176E-1	4.873920E-3
31/12/1903  21:00:00.000048	2.882176E-1	6.701640E-3
31/12/1903  21:00:00.000048	2.882176E-1	4.873920E-3
31/12/1903  21:00:00.000048	2.882176E-1	6.498560E-3
31/12/1903  21:00:00.000049	2.882176E-1	6.295480E-3
31/12/1903  21:00:00.000049	2.882176E-1	4.670840E-3
31/12/1903  21:00:00.000049	2.882176E-1	5.077000E-3
31/12/1903  21:00:00.000049	2.882176E-1	6.295480E-3
31/12/1903  21:00:00.000049	2.882176E-1	5.077000E-3
31/12/1903  21:00:00.000049	2.882176E-1	6.092400E-3
31/12/1903  21:00:00.000049	2.882176E-1	6.295480E-3
31/12/1903  21:00:00.000049	2.882176E-1	4.670840E-3
31/12/1903  21:00:00.000049	2.882176E-1	6.498560E-3
31/12/1903  21:00:00.000050	2.882176E-1	4.670840E-3
31/12/1903  21:00:00.000050	2.882176E-1	4.670840E-3
31/12/1903  21:00:00.000050	2.882176E-1	6.295480E-3
31/12/1903  21:00:00.000050	2.882176E-1	4.873920E-3
31/12/1903  21:00:00.000050	2.882176E-1	6.498560E-3
31/12/1903  21:00:00.000050	2.882176E-1	6.498560E-3
31/12/1903  21:00:00.000050	2.882176E-1	4.670840E-3
31/12/1903  21:00:00.000050	2.882176E-1	6.498560E-3
31/12/1903  21:00:00.000050	2.882176E-1	4.670840E-3
31/12/1903  21:00:00.000051	2.882176E-1	4.670840E-3
31/12/1903  21:00:00.000051	2.882176E-1	6.295480E-3
31/12/1903  21:00:00.000051	2.882176E-1	4.467760E-3
31/12/1903  21:00:00.000051	2.882176E-1	6.701640E-3
31/12/1903  21:00:00.000051	2.882176E-1	6.092400E-3
31/12/1903  21:00:00.000051	2.882176E-1	4.670840E-3
31/12/1903  21:00:00.000051	2.882176E-1	6.295480E-3
31/12/1903  21:00:00.000051	2.882176E-1	4.467760E-3
31/12/1903  21:00:00.000051	2.882176E-1	4.670840E-3
31/12/1903  21:00:00.000052	2.882176E-1	6.092400E-3
31/12/1903  21:00:00.000052	2.882176E-1	4.670840E-3
31/12/1903  21:00:00.000052	2.882176E-1	5.889320E-3
31/12/1903  21:00:00.000052	2.882176E-1	4.873920E-3
31/12/1903  21:00:00.000052	2.882176E-1	5.889320E-3
31/12/1903  21:00:00.000052	2.882176E-1	5.077000E-3
31/12/1903  21:00:00.000052	2.882176E-1	6.092400E-3
31/12/1903  21:00:00.000052	2.882176E-1	6.092400E-3
31/12/1903  21:00:00.000053	2.882176E-1	4.670840E-3
31/12/1903  21:00:00.000053	2.882176E-1	4.873920E-3
31/12/1903  21:00:00.000053	2.882176E-1	6.498560E-3
31/12/1903  21:00:00.000053	2.882176E-1	5.889320E-3
31/12/1903  21:00:00.000053	2.882176E-1	4.873920E-3
31/12/1903  21:00:00.000053	2.882176E-1	6.092400E-3
31/12/1903  21:00:00.000053	2.882176E-1	4.670840E-3
31/12/1903  21:00:00.000053	2.882176E-1	6.295480E-3
31/12/1903  21:00:00.000053	2.882176E-1	5.077000E-3
31/12/1903  21:00:00.000054	2.882176E-1	5.077000E-3
31/12/1903  21:00:00.000054	2.882176E-1	5.889320E-3
31/12/1903  21:00:00.000054	2.882176E-1	4.873920E-3
31/12/1903  21:00:00.000054	2.882176E-1	5.889320E-3
31/12/1903  21:00:00.000054	2.882176E-1	6.295480E-3
31/12/1903  21:00:00.000054	2.882176E-1	4.670840E-3
31/12/1903  21:00:00.000054	2.882176E-1	4.873920E-3
31/12/1903  21:00:00.000054	2.882176E-1	5.889320E-3
31/12/1903  21:00:00.000054	2.882176E-1	4.670840E-3
31/12/1903  21:00:00.000055	2.882176E-1	6.092400E-3
31/12/1903  21:00:00.000055	2.882176E-1	6.295480E-3
31/12/1903  21:00:00.000055	2.882176E-1	4.873920E-3
31/12/1903  21:00:00.000055	2.882176E-1	4.873920E-3
31/12/1903  21:00:00.000055	2.882176E-1	6.295480E-3
31/12/1903  21:00:00.000055	2.882176E-1	4.873920E-3
31/12/1903  21:00:00.000055	2.882176E-1	6.295480E-3
31/12/1903  21:00:00.000055	2.882176E-1	4.670840E-3
31/12/1903  21:00:00.000055	2.882176E-1	6.092400E-3
31/12/1903  21:00:00.000056	2.882176E-1	6.295480E-3
31/12/1903  21:00:00.000056	2.882176E-1	4.873920E-3
31/12/1903  21:00:00.000056	2.882176E-1	6.498560E-3
31/12/1903  21:00:00.000056	2.882176E-1	4.873920E-3
31/12/1903  21:00:00.000056	2.882176E-1	4.670840E-3
31/12/1903  21:00:00.000056	2.882176E-1	6.498560E-3
31/12/1903  21:00:00.000056	2.882176E-1	6.092400E-3
31/12/1903  21:00:00.000056	2.882176E-1	5.077000E-3
31/12/1903  21:00:00.000057	2.882176E-1	6.295480E-3
31/12/1903  21:00:00.000057	2.882176E-1	4.873920E-3
31/12/1903  21:00:00.000057	2.882176E-1	4.873920E-3
31/12/1903  21:00:00.000057	2.882176E-1	6.295480E-3
31/12/1903  21:00:00.000057	2.882176E-1	4.670840E-3
31/12/1903  21:00:00.000057	2.882176E-1	6.295480E-3
31/12/1903  21:00:00.000057	2.882176E-1	6.498560E-3
31/12/1903  21:00:00.000057	2.882176E-1	4.670840E-3
31/12/1903  21:00:00.000057	2.882176E-1	4.873920E-3
31/12/1903  21:00:00.000058	2.882176E-1	6.498560E-3
31/12/1903  21:00:00.000058	2.882176E-1	4.873920E-3
31/12/1903  21:00:00.000058	2.882176E-1	6.092400E-3
31/12/1903  21:00:00.000058	2.882176E-1	5.889320E-3
31/12/1903  21:00:00.000058	2.882176E-1	4.873920E-3
31/12/1903  21:00:00.000058	2.882176E-1	6.295480E-3
31/12/1903  21:00:00.000058	2.882176E-1	5.077000E-3
31/12/1903  21:00:00.000058	2.882176E-1	5.077000E-3
31/12/1903  21:00:00.000058	2.882176E-1	6.295480E-3
31/12/1903  21:00:00.000059	2.882176E-1	6.092400E-3
31/12/1903  21:00:00.000059	2.882176E-1	4.873920E-3
31/12/1903  21:00:00.000059	2.882176E-1	6.295480E-3
31/12/1903  21:00:00.000059	2.882176E-1	5.077000E-3
31/12/1903  21:00:00.000059	2.882176E-1	5.889320E-3
31/12/1903  21:00:00.000059	2.882176E-1	4.670840E-3
31/12/1903  21:00:00.000059	2.882176E-1	5.077000E-3
31/12/1903  21:00:00.000059	2.882176E-1	6.092400E-3
31/12/1903  21:00:00.000059	2.882176E-1	6.092400E-3
31/12/1903  21:00:00.000060	2.882176E-1	5.077000E-3
31/12/1903  21:00:00.000060	2.882176E-1	5.077000E-3
31/12/1903  21:00:00.000060	2.882176E-1	6.295480E-3
31/12/1903  21:00:00.000060	2.882176E-1	5.077000E-3
31/12/1903  21:00:00.000060	2.882176E-1	6.701640E-3
31/12/1903  21:00:00.000060	2.882176E-1	6.701640E-3
31/12/1903  21:00:00.000060	2.882176E-1	4.873920E-3
31/12/1903  21:00:00.000060	2.882176E-1	6.498560E-3
31/12/1903  21:00:00.000060	2.882176E-1	4.670840E-3
31/12/1903  21:00:00.000061	2.882176E-1	4.670840E-3
31/12/1903  21:00:00.000061	2.882176E-1	6.498560E-3
31/12/1903  21:00:00.000061	2.882176E-1	4.670840E-3
31/12/1903  21:00:00.000061	2.882176E-1	6.498560E-3
31/12/1903  21:00:00.000061	2.882176E-1	6.498560E-3
31/12/1903  21:00:00.000061	2.882176E-1	4.670840E-3
31/12/1903  21:00:00.000061	2.882176E-1	6.295480E-3
31/12/1903  21:00:00.000061	2.882176E-1	5.077000E-3
31/12/1903  21:00:00.000062	2.882176E-1	5.280080E-3
31/12/1903  21:00:00.000062	2.882176E-1	6.092400E-3
31/12/1903  21:00:00.000062	2.882176E-1	4.873920E-3
31/12/1903  21:00:00.000062	2.882176E-1	6.295480E-3
31/12/1903  21:00:00.000062	2.882176E-1	4.873920E-3
31/12/1903  21:00:00.000062	2.882176E-1	6.295480E-3
31/12/1903  21:00:00.000062	2.882176E-1	6.295480E-3
31/12/1903  21:00:00.000062	2.882176E-1	5.280080E-3
31/12/1903  21:00:00.000062	2.882176E-1	6.295480E-3
31/12/1903  21:00:00.000063	2.882176E-1	5.077000E-3
31/12/1903  21:00:00.000063	2.882176E-1	4.873920E-3
31/12/1903  21:00:00.000063	2.882176E-1	6.701640E-3
31/12/1903  21:00:00.000063	2.882176E-1	4.873920E-3
31/12/1903  21:00:00.000063	2.882176E-1	6.295480E-3
31/12/1903  21:00:00.000063	2.882176E-1	6.701640E-3
31/12/1903  21:00:00.000063	2.882176E-1	4.670840E-3
31/12/1903  21:00:00.000063	2.882176E-1	5.077000E-3
31/12/1903  21:00:00.000063	2.882176E-1	6.092400E-3
31/12/1903  21:00:00.000064	2.882176E-1	6.295480E-3
31/12/1903  21:00:00.000064	2.882176E-1	5.077000E-3
31/12/1903  21:00:00.000064	2.882176E-1	5.280080E-3
31/12/1903  21:00:00.000064	2.882176E-1	6.092400E-3
31/12/1903  21:00:00.000064	2.882176E-1	4.873920E-3
31/12/1903  21:00:00.000064	2.882176E-1	6.295480E-3
31/12/1903  21:00:00.000064	2.882176E-1	6.498560E-3
31/12/1903  21:00:00.000064	2.882176E-1	5.280080E-3
31/12/1903  21:00:00.000064	2.882176E-1	6.295480E-3
31/12/1903  21:00:00.000065	2.882176E-1	4.873920E-3
31/12/1903  21:00:00.000065	2.882176E-1	4.873920E-3
31/12/1903  21:00:00.000065	2.882176E-1	6.092400E-3
31/12/1903  21:00:00.000065	2.882176E-1	6.092400E-3
31/12/1903  21:00:00.000065	2.882176E-1	5.077000E-3
31/12/1903  21:00:00.000065	2.882176E-1	5.077000E-3
31/12/1903  21:00:00.000065	2.882176E-1	6.092400E-3
31/12/1903  21:00:00.000065	2.882176E-1	6.295480E-3
31/12/1903  21:00:00.000066	2.882176E-1	4.873920E-3
31/12/1903  21:00:00.000066	2.882176E-1	5.280080E-3
31/12/1903  21:00:00.000066	2.882176E-1	6.295480E-3
31/12/1903  21:00:00.000066	2.882176E-1	5.077000E-3
31/12/1903  21:00:00.000066	2.882176E-1	6.295480E-3
31/12/1903  21:00:00.000066	2.882176E-1	5.280080E-3
31/12/1903  21:00:00.000066	2.882176E-1	6.295480E-3
31/12/1903  21:00:00.000066	2.882176E-1	6.295480E-3
31/12/1903  21:00:00.000066	2.882176E-1	5.077000E-3
31/12/1903  21:00:00.000067	2.882176E-1	6.295480E-3
31/12/1903  21:00:00.000067	2.882176E-1	4.873920E-3
31/12/1903  21:00:00.000067	2.882176E-1	6.498560E-3
31/12/1903  21:00:00.000067	2.882176E-1	4.873920E-3
31/12/1903  21:00:00.000067	2.882176E-1	6.498560E-3
31/12/1903  21:00:00.000067	2.882176E-1	4.873920E-3
31/12/1903  21:00:00.000067	2.882176E-1	4.670840E-3
31/12/1903  21:00:00.000067	2.882176E-1	6.092400E-3
31/12/1903  21:00:00.000067	2.882176E-1	5.077000E-3
31/12/1903  21:00:00.000068	2.882176E-1	6.498560E-3
31/12/1903  21:00:00.000068	2.882176E-1	6.498560E-3
31/12/1903  21:00:00.000068	2.882176E-1	4.670840E-3
31/12/1903  21:00:00.000068	2.882176E-1	6.701640E-3
31/12/1903  21:00:00.000068	2.882176E-1	4.670840E-3
31/12/1903  21:00:00.000068	2.882176E-1	4.873920E-3
31/12/1903  21:00:00.000068	2.882176E-1	6.904720E-3
31/12/1903  21:00:00.000068	2.882176E-1	4.873920E-3
31/12/1903  21:00:00.000068	2.882176E-1	6.701640E-3
31/12/1903  21:00:00.000069	2.882176E-1	6.701640E-3
31/12/1903  21:00:00.000069	2.882176E-1	5.077000E-3
31/12/1903  21:00:00.000069	2.882176E-1	6.904720E-3
31/12/1903  21:00:00.000069	2.882176E-1	4.670840E-3
31/12/1903  21:00:00.000069	2.882176E-1	5.077000E-3
31/12/1903  21:00:00.000069	2.882176E-1	6.498560E-3
31/12/1903  21:00:00.000069	2.882176E-1	4.873920E-3
31/12/1903  21:00:00.000069	2.882176E-1	6.498560E-3
31/12/1903  21:00:00.000069	2.882176E-1	4.873920E-3
31/12/1903  21:00:00.000070	2.882176E-1	6.904720E-3
31/12/1903  21:00:00.000070	2.882176E-1	6.701640E-3
31/12/1903  21:00:00.000070	2.882176E-1	4.873920E-3
31/12/1903  21:00:00.000070	2.882176E-1	6.904720E-3
31/12/1903  21:00:00.000070	2.882176E-1	4.873920E-3
31/12/1903  21:00:00.000070	2.882176E-1	4.873920E-3
31/12/1903  21:00:00.000070	2.882176E-1	6.498560E-3
31/12/1903  21:00:00.000070	2.882176E-1	4.873920E-3
31/12/1903  21:00:00.000071	2.882176E-1	6.701640E-3
31/12/1903  21:00:00.000071	2.882176E-1	6.498560E-3
31/12/1903  21:00:00.000071	2.882176E-1	4.873920E-3
31/12/1903  21:00:00.000071	2.882176E-1	6.498560E-3
31/12/1903  21:00:00.000071	2.882176E-1	5.077000E-3
31/12/1903  21:00:00.000071	2.882176E-1	6.701640E-3
31/12/1903  21:00:00.000071	2.882176E-1	4.873920E-3
31/12/1903  21:00:00.000071	2.882176E-1	4.873920E-3
31/12/1903  21:00:00.000071	2.882176E-1	6.498560E-3
31/12/1903  21:00:00.000072	2.882176E-1	4.873920E-3
31/12/1903  21:00:00.000072	2.882176E-1	7.107800E-3
31/12/1903  21:00:00.000072	2.882176E-1	6.701640E-3
31/12/1903  21:00:00.000072	2.882176E-1	4.670840E-3
31/12/1903  21:00:00.000072	2.882176E-1	4.873920E-3
31/12/1903  21:00:00.000072	2.882176E-1	6.701640E-3
31/12/1903  21:00:00.000072	2.882176E-1	4.873920E-3
31/12/1903  21:00:00.000072	2.882176E-1	6.701640E-3
31/12/1903  21:00:00.000072	2.882176E-1	6.295480E-3
31/12/1903  21:00:00.000073	2.882176E-1	4.670840E-3
31/12/1903  21:00:00.000073	2.882176E-1	6.701640E-3
31/12/1903  21:00:00.000073	2.882176E-1	5.280080E-3
31/12/1903  21:00:00.000073	2.882176E-1	6.295480E-3
31/12/1903  21:00:00.000073	2.882176E-1	5.077000E-3
31/12/1903  21:00:00.000073	2.882176E-1	6.498560E-3
31/12/1903  21:00:00.000073	2.882176E-1	5.280080E-3
31/12/1903  21:00:00.000073	2.882176E-1	6.498560E-3
31/12/1903  21:00:00.000073	2.882176E-1	4.873920E-3
31/12/1903  21:00:00.000074	2.882176E-1	4.873920E-3
31/12/1903  21:00:00.000074	2.882176E-1	6.295480E-3
31/12/1903  21:00:00.000074	2.882176E-1	5.077000E-3
31/12/1903  21:00:00.000074	2.882176E-1	6.295480E-3
31/12/1903  21:00:00.000074	2.882176E-1	4.873920E-3
31/12/1903  21:00:00.000074	2.882176E-1	6.092400E-3
31/12/1903  21:00:00.000074	2.882176E-1	6.498560E-3
31/12/1903  21:00:00.000074	2.882176E-1	5.077000E-3
31/12/1903  21:00:00.000075	2.882176E-1	6.295480E-3
31/12/1903  21:00:00.000075	2.882176E-1	4.873920E-3
31/12/1903  21:00:00.000075	2.882176E-1	4.873920E-3
31/12/1903  21:00:00.000075	2.882176E-1	6.498560E-3
31/12/1903  21:00:00.000075	2.882176E-1	5.280080E-3
31/12/1903  21:00:00.000075	2.882176E-1	6.498560E-3
31/12/1903  21:00:00.000075	2.882176E-1	4.873920E-3
31/12/1903  21:00:00.000075	2.882176E-1	6.498560E-3
31/12/1903  21:00:00.000075	2.882176E-1	6.701640E-3
31/12/1903  21:00:00.000076	2.882176E-1	4.873920E-3
31/12/1903  21:00:00.000076	2.882176E-1	6.498560E-3
31/12/1903  21:00:00.000076	2.882176E-1	5.077000E-3
31/12/1903  21:00:00.000076	2.882176E-1	5.077000E-3
31/12/1903  21:00:00.000076	2.882176E-1	6.295480E-3
31/12/1903  21:00:00.000076	2.882176E-1	5.280080E-3
31/12/1903  21:00:00.000076	2.882176E-1	6.701640E-3
31/12/1903  21:00:00.000076	2.882176E-1	5.077000E-3
31/12/1903  21:00:00.000076	2.882176E-1	6.498560E-3
31/12/1903  21:00:00.000077	2.882176E-1	6.498560E-3
31/12/1903  21:00:00.000077	2.882176E-1	4.873920E-3
31/12/1903  21:00:00.000077	2.882176E-1	5.280080E-3
31/12/1903  21:00:00.000077	2.882176E-1	6.498560E-3
31/12/1903  21:00:00.000077	2.882176E-1	5.280080E-3
31/12/1903  21:00:00.000077	2.882176E-1	6.701640E-3
31/12/1903  21:00:00.000077	2.882176E-1	6.092400E-3
31/12/1903  21:00:00.000077	2.882176E-1	4.873920E-3
31/12/1903  21:00:00.000077	2.882176E-1	6.295480E-3
31/12/1903  21:00:00.000078	2.882176E-1	5.077000E-3
31/12/1903  21:00:00.000078	2.882176E-1	6.498560E-3
31/12/1903  21:00:00.000078	2.882176E-1	4.873920E-3
31/12/1903  21:00:00.000078	2.882176E-1	5.077000E-3
31/12/1903  21:00:00.000078	2.882176E-1	6.295480E-3
31/12/1903  21:00:00.000078	2.882176E-1	6.498560E-3
31/12/1903  21:00:00.000078	2.882176E-1	4.873920E-3
31/12/1903  21:00:00.000078	2.882176E-1	6.498560E-3
31/12/1903  21:00:00.000079	2.882176E-1	4.873920E-3
31/12/1903  21:00:00.000079	2.882176E-1	4.670840E-3
31/12/1903  21:00:00.000079	2.882176E-1	6.498560E-3
31/12/1903  21:00:00.000079	2.882176E-1	4.670840E-3
31/12/1903  21:00:00.000079	2.882176E-1	6.295480E-3
31/12/1903  21:00:00.000079	2.882176E-1	5.280080E-3
31/12/1903  21:00:00.000079	2.882176E-1	6.295480E-3
31/12/1903  21:00:00.000079	2.882176E-1	6.295480E-3
31/12/1903  21:00:00.000079	2.882176E-1	5.077000E-3
31/12/1903  21:00:00.000080	2.882176E-1	6.498560E-3
31/12/1903  21:00:00.000080	2.882176E-1	5.077000E-3
31/12/1903  21:00:00.000080	2.882176E-1	5.077000E-3
31/12/1903  21:00:00.000080	2.882176E-1	6.498560E-3
31/12/1903  21:00:00.000080	2.882176E-1	4.873920E-3
31/12/1903  21:00:00.000080	2.882176E-1	6.295480E-3
31/12/1903  21:00:00.000080	2.882176E-1	6.498560E-3
31/12/1903  21:00:00.000080	2.882176E-1	5.077000E-3
31/12/1903  21:00:00.000080	2.882176E-1	6.498560E-3
31/12/1903  21:00:00.000081	2.882176E-1	5.077000E-3
31/12/1903  21:00:00.000081	2.882176E-1	5.280080E-3
31/12/1903  21:00:00.000081	2.882176E-1	6.295480E-3
31/12/1903  21:00:00.000081	2.882176E-1	5.280080E-3
31/12/1903  21:00:00.000081	2.882176E-1	6.295480E-3
31/12/1903  21:00:00.000081	2.882176E-1	5.077000E-3
31/12/1903  21:00:00.000081	2.882176E-1	6.295480E-3
31/12/1903  21:00:00.000081	2.882176E-1	6.295480E-3
31/12/1903  21:00:00.000081	2.882176E-1	5.077000E-3
31/12/1903  21:00:00.000082	2.882176E-1	5.077000E-3
31/12/1903  21:00:00.000082	2.882176E-1	6.498560E-3
31/12/1903  21:00:00.000082	2.882176E-1	5.280080E-3
31/12/1903  21:00:00.000082	2.882176E-1	6.701640E-3
31/12/1903  21:00:00.000082	2.882176E-1	6.498560E-3
31/12/1903  21:00:00.000082	2.882176E-1	5.077000E-3
31/12/1903  21:00:00.000082	2.882176E-1	6.701640E-3
31/12/1903  21:00:00.000082	2.882176E-1	5.077000E-3
31/12/1903  21:00:00.000082	2.882176E-1	5.077000E-3
31/12/1903  21:00:00.000083	2.882176E-1	6.701640E-3
31/12/1903  21:00:00.000083	2.882176E-1	4.873920E-3
31/12/1903  21:00:00.000083	2.882176E-1	6.498560E-3
31/12/1903  21:00:00.000083	2.882176E-1	5.077000E-3
31/12/1903  21:00:00.000083	2.882176E-1	6.498560E-3
31/12/1903  21:00:00.000083	2.882176E-1	6.498560E-3
31/12/1903  21:00:00.000083	2.882176E-1	5.077000E-3
31/12/1903  21:00:00.000083	2.882176E-1	6.295480E-3
31/12/1903  21:00:00.000084	2.882176E-1	5.280080E-3
31/12/1903  21:00:00.000084	2.882176E-1	6.498560E-3
31/12/1903  21:00:00.000084	2.882176E-1	5.280080E-3
31/12/1903  21:00:00.000084	2.882176E-1	5.077000E-3
31/12/1903  21:00:00.000084	2.882176E-1	6.295480E-3
31/12/1903  21:00:00.000084	2.882176E-1	5.077000E-3
31/12/1903  21:00:00.000084	2.882176E-1	6.701640E-3
31/12/1903  21:00:00.000084	2.882176E-1	6.498560E-3
31/12/1903  21:00:00.000084	2.882176E-1	5.280080E-3
31/12/1903  21:00:00.000085	2.882176E-1	6.295480E-3
31/12/1903  21:00:00.000085	2.882176E-1	5.280080E-3
31/12/1903  21:00:00.000085	2.882176E-1	6.092400E-3
31/12/1903  21:00:00.000085	2.882176E-1	5.280080E-3
31/12/1903  21:00:00.000085	2.882176E-1	6.092400E-3
31/12/1903  21:00:00.000085	2.882176E-1	5.280080E-3
31/12/1903  21:00:00.000085	2.882176E-1	5.280080E-3
31/12/1903  21:00:00.000085	2.882176E-1	6.295480E-3
31/12/1903  21:00:00.000085	2.882176E-1	6.295480E-3
31/12/1903  21:00:00.000086	2.882176E-1	5.077000E-3
31/12/1903  21:00:00.000086	2.882176E-1	6.295480E-3
31/12/1903  21:00:00.000086	2.882176E-1	5.280080E-3
31/12/1903  21:00:00.000086	2.882176E-1	6.295480E-3
31/12/1903  21:00:00.000086	2.882176E-1	5.077000E-3
31/12/1903  21:00:00.000086	2.882176E-1	5.077000E-3
31/12/1903  21:00:00.000086	2.882176E-1	6.498560E-3
31/12/1903  21:00:00.000086	2.882176E-1	5.280080E-3
31/12/1903  21:00:00.000086	2.882176E-1	6.295480E-3
31/12/1903  21:00:00.000087	2.882176E-1	5.077000E-3
31/12/1903  21:00:00.000087	2.882176E-1	6.295480E-3
31/12/1903  21:00:00.000087	2.882176E-1	5.280080E-3
31/12/1903  21:00:00.000087	2.882176E-1	6.498560E-3
31/12/1903  21:00:00.000087	2.882176E-1	6.092400E-3
31/12/1903  21:00:00.000087	2.882176E-1	5.280080E-3
31/12/1903  21:00:00.000087	2.882176E-1	6.295480E-3
31/12/1903  21:00:00.000087	2.882176E-1	5.077000E-3
31/12/1903  21:00:00.000088	2.882176E-1	6.498560E-3
31/12/1903  21:00:00.000088	2.882176E-1	5.077000E-3
31/12/1903  21:00:00.000088	2.882176E-1	4.873920E-3
31/12/1903  21:00:00.000088	2.882176E-1	6.498560E-3
31/12/1903  21:00:00.000088	2.882176E-1	5.280080E-3
31/12/1903  21:00:00.000088	2.882176E-1	6.498560E-3
31/12/1903  21:00:00.000088	2.882176E-1	6.295480E-3
31/12/1903  21:00:00.000088	2.882176E-1	5.077000E-3
31/12/1903  21:00:00.000088	2.882176E-1	6.295480E-3
31/12/1903  21:00:00.000089	2.882176E-1	5.077000E-3
31/12/1903  21:00:00.000089	2.882176E-1	6.498560E-3
31/12/1903  21:00:00.000089	2.882176E-1	4.873920E-3
31/12/1903  21:00:00.000089	2.882176E-1	4.873920E-3
31/12/1903  21:00:00.000089	2.882176E-1	6.092400E-3
31/12/1903  21:00:00.000089	2.882176E-1	6.295480E-3
31/12/1903  21:00:00.000089	2.882176E-1	5.077000E-3
31/12/1903  21:00:00.000089	2.882176E-1	5.280080E-3
31/12/1903  21:00:00.000089	2.882176E-1	6.498560E-3
31/12/1903  21:00:00.000090	2.882176E-1	5.483160E-3
31/12/1903  21:00:00.000090	2.882176E-1	6.498560E-3
31/12/1903  21:00:00.000090	2.882176E-1	5.077000E-3
31/12/1903  21:00:00.000090	2.882176E-1	6.295480E-3
31/12/1903  21:00:00.000090	2.882176E-1	6.498560E-3
31/12/1903  21:00:00.000090	2.882176E-1	5.280080E-3
31/12/1903  21:00:00.000090	2.882176E-1	5.280080E-3
31/12/1903  21:00:00.000090	2.882176E-1	6.295480E-3
31/12/1903  21:00:00.000090	2.882176E-1	5.280080E-3
31/12/1903  21:00:00.000091	2.882176E-1	6.498560E-3
31/12/1903  21:00:00.000091	2.882176E-1	6.092400E-3
31/12/1903  21:00:00.000091	2.882176E-1	5.280080E-3
31/12/1903  21:00:00.000091	2.882176E-1	5.280080E-3
31/12/1903  21:00:00.000091	2.882176E-1	6.498560E-3
31/12/1903  21:00:00.000091	2.882176E-1	6.498560E-3
31/12/1903  21:00:00.000091	2.882176E-1	5.280080E-3
31/12/1903  21:00:00.000091	2.882176E-1	6.295480E-3
31/12/1903  21:00:00.000091	2.882176E-1	5.077000E-3
31/12/1903  21:00:00.000092	2.882176E-1	5.280080E-3
31/12/1903  21:00:00.000092	2.882176E-1	6.498560E-3
31/12/1903  21:00:00.000092	2.882176E-1	5.483160E-3
31/12/1903  21:00:00.000092	2.882176E-1	6.904720E-3
31/12/1903  21:00:00.000092	2.882176E-1	6.904720E-3
31/12/1903  21:00:00.000092	2.882176E-1	5.077000E-3
31/12/1903  21:00:00.000092	2.882176E-1	6.701640E-3
31/12/1903  21:00:00.000092	2.882176E-1	4.873920E-3
31/12/1903  21:00:00.000093	2.882176E-1	7.107800E-3
31/12/1903  21:00:00.000093	2.882176E-1	5.280080E-3
31/12/1903  21:00:00.000093	2.882176E-1	4.873920E-3
31/12/1903  21:00:00.000093	2.882176E-1	6.701640E-3
31/12/1903  21:00:00.000093	2.882176E-1	5.077000E-3
31/12/1903  21:00:00.000093	2.882176E-1	6.904720E-3
31/12/1903  21:00:00.000093	2.882176E-1	6.904720E-3
31/12/1903  21:00:00.000093	2.882176E-1	4.873920E-3
31/12/1903  21:00:00.000093	2.882176E-1	4.873920E-3
31/12/1903  21:00:00.000094	2.882176E-1	6.904720E-3
31/12/1903  21:00:00.000094	2.882176E-1	4.873920E-3
31/12/1903  21:00:00.000094	2.882176E-1	6.498560E-3
31/12/1903  21:00:00.000094	2.882176E-1	5.077000E-3
31/12/1903  21:00:00.000094	2.882176E-1	6.904720E-3
31/12/1903  21:00:00.000094	2.882176E-1	6.701640E-3
31/12/1903  21:00:00.000094	2.882176E-1	5.077000E-3
31/12/1903  21:00:00.000094	2.882176E-1	7.107800E-3
31/12/1903  21:00:00.000094	2.882176E-1	5.077000E-3
31/12/1903  21:00:00.000095	2.882176E-1	5.077000E-3
31/12/1903  21:00:00.000095	2.882176E-1	7.107800E-3
31/12/1903  21:00:00.000095	2.882176E-1	5.077000E-3
31/12/1903  21:00:00.000095	2.882176E-1	6.498560E-3
31/12/1903  21:00:00.000095	2.882176E-1	4.873920E-3
31/12/1903  21:00:00.000095	2.882176E-1	6.498560E-3
31/12/1903  21:00:00.000095	2.882176E-1	6.904720E-3
31/12/1903  21:00:00.000095	2.882176E-1	4.670840E-3
31/12/1903  21:00:00.000095	2.882176E-1	4.670840E-3
31/12/1903  21:00:00.000096	2.882176E-1	7.107800E-3
31/12/1903  21:00:00.000096	2.882176E-1	4.873920E-3
31/12/1903  21:00:00.000096	2.882176E-1	6.701640E-3
31/12/1903  21:00:00.000096	2.882176E-1	6.701640E-3
31/12/1903  21:00:00.000096	2.882176E-1	5.077000E-3
31/12/1903  21:00:00.000096	2.882176E-1	5.483160E-3
31/12/1903  21:00:00.000096	2.882176E-1	6.701640E-3
31/12/1903  21:00:00.000096	2.882176E-1	6.498560E-3
31/12/1903  21:00:00.000097	2.882176E-1	5.280080E-3
31/12/1903  21:00:00.000097	2.882176E-1	5.483160E-3
31/12/1903  21:00:00.000097	2.882176E-1	6.701640E-3
31/12/1903  21:00:00.000097	2.882176E-1	4.873920E-3
31/12/1903  21:00:00.000097	2.882176E-1	6.904720E-3
31/12/1903  21:00:00.000097	2.882176E-1	6.701640E-3
31/12/1903  21:00:00.000097	2.882176E-1	5.077000E-3
31/12/1903  21:00:00.000097	2.882176E-1	6.904720E-3
31/12/1903  21:00:00.000097	2.882176E-1	4.873920E-3
31/12/1903  21:00:00.000098	2.882176E-1	5.280080E-3
31/12/1903  21:00:00.000098	2.882176E-1	6.701640E-3
31/12/1903  21:00:00.000098	2.882176E-1	5.077000E-3
31/12/1903  21:00:00.000098	2.882176E-1	6.701640E-3
31/12/1903  21:00:00.000098	2.882176E-1	6.701640E-3
31/12/1903  21:00:00.000098	2.882176E-1	4.873920E-3
31/12/1903  21:00:00.000098	2.882176E-1	6.701640E-3
31/12/1903  21:00:00.000098	2.882176E-1	5.077000E-3
31/12/1903  21:00:00.000098	2.882176E-1	6.701640E-3
31/12/1903  21:00:00.000099	2.882176E-1	5.077000E-3
31/12/1903  21:00:00.000099	2.882176E-1	5.077000E-3
31/12/1903  21:00:00.000099	2.882176E-1	6.701640E-3
31/12/1903  21:00:00.000099	2.882176E-1	5.280080E-3
31/12/1903  21:00:00.000099	2.882176E-1	6.295480E-3
31/12/1903  21:00:00.000099	2.882176E-1	6.498560E-3
31/12/1903  21:00:00.000099	2.882176E-1	5.280080E-3
31/12/1903  21:00:00.000099	2.882176E-1	6.498560E-3
31/12/1903  21:00:00.000099	2.882176E-1	5.280080E-3
31/12/1903  21:00:00.000100	2.882176E-1	5.280080E-3
31/12/1903  21:00:00.000100	2.882176E-1	6.701640E-3
31/12/1903  21:00:00.000100	2.882176E-1	5.280080E-3
31/12/1903  21:00:00.000100	2.882176E-1	6.498560E-3
31/12/1903  21:00:00.000100	2.882176E-1	6.498560E-3
31/12/1903  21:00:00.000100	2.882176E-1	5.483160E-3
31/12/1903  21:00:00.000100	2.882176E-1	6.295480E-3
31/12/1903  21:00:00.000100	2.882176E-1	5.077000E-3
31/12/1903  21:00:00.000101	2.882176E-1	6.701640E-3
31/12/1903  21:00:00.000101	2.882176E-1	5.280080E-3
31/12/1903  21:00:00.000101	2.882176E-1	5.280080E-3
31/12/1903  21:00:00.000101	2.882176E-1	6.701640E-3
31/12/1903  21:00:00.000101	2.882176E-1	6.295480E-3
31/12/1903  21:00:00.000101	2.882176E-1	5.077000E-3
31/12/1903  21:00:00.000101	2.882176E-1	6.498560E-3
31/12/1903  21:00:00.000101	2.882176E-1	5.077000E-3
31/12/1903  21:00:00.000101	2.882176E-1	6.904720E-3
31/12/1903  21:00:00.000102	2.882176E-1	5.077000E-3
31/12/1903  21:00:00.000102	2.882176E-1	5.077000E-3
31/12/1903  21:00:00.000102	2.882176E-1	6.498560E-3
31/12/1903  21:00:00.000102	2.882176E-1	5.077000E-3
31/12/1903  21:00:00.000102	2.882176E-1	6.701640E-3
31/12/1903  21:00:00.000102	2.882176E-1	6.498560E-3
31/12/1903  21:00:00.000102	2.882176E-1	5.077000E-3
31/12/1903  21:00:00.000102	2.882176E-1	6.904720E-3
31/12/1903  21:00:00.000102	2.882176E-1	4.873920E-3
31/12/1903  21:00:00.000103	2.882176E-1	6.904720E-3
31/12/1903  21:00:00.000103	2.882176E-1	5.077000E-3
31/12/1903  21:00:00.000103	2.882176E-1	5.077000E-3
31/12/1903  21:00:00.000103	2.882176E-1	6.904720E-3
31/12/1903  21:00:00.000103	2.882176E-1	4.670840E-3
31/12/1903  21:00:00.000103	2.882176E-1	7.310880E-3
31/12/1903  21:00:00.000103	2.882176E-1	6.904720E-3
31/12/1903  21:00:00.000103	2.882176E-1	4.670840E-3
31/12/1903  21:00:00.000103	2.882176E-1	7.107800E-3
31/12/1903  21:00:00.000104	2.882176E-1	5.077000E-3
31/12/1903  21:00:00.000104	2.882176E-1	7.107800E-3
31/12/1903  21:00:00.000104	2.882176E-1	4.873920E-3
31/12/1903  21:00:00.000104	2.882176E-1	4.670840E-3
31/12/1903  21:00:00.000104	2.882176E-1	7.310880E-3
31/12/1903  21:00:00.000104	2.882176E-1	4.670840E-3
31/12/1903  21:00:00.000104	2.882176E-1	7.310880E-3
31/12/1903  21:00:00.000104	2.882176E-1	6.701640E-3
31/12/1903  21:00:00.000104	2.882176E-1	5.280080E-3
31/12/1903  21:00:00.000105	2.882176E-1	6.904720E-3
31/12/1903  21:00:00.000105	2.882176E-1	5.077000E-3
31/12/1903  21:00:00.000105	2.882176E-1	5.483160E-3
31/12/1903  21:00:00.000105	2.882176E-1	6.701640E-3
31/12/1903  21:00:00.000105	2.882176E-1	5.077000E-3
31/12/1903  21:00:00.000105	2.882176E-1	6.701640E-3
31/12/1903  21:00:00.000105	2.882176E-1	6.701640E-3
31/12/1903  21:00:00.000105	2.882176E-1	5.077000E-3
31/12/1903  21:00:00.000106	2.882176E-1	6.904720E-3
31/12/1903  21:00:00.000106	2.882176E-1	5.077000E-3
31/12/1903  21:00:00.000106	2.882176E-1	5.280080E-3
31/12/1903  21:00:00.000106	2.882176E-1	6.498560E-3
31/12/1903  21:00:00.000106	2.882176E-1	5.280080E-3
31/12/1903  21:00:00.000106	2.882176E-1	6.701640E-3
31/12/1903  21:00:00.000106	2.882176E-1	5.077000E-3
31/12/1903  21:00:00.000106	2.882176E-1	6.701640E-3
31/12/1903  21:00:00.000106	2.882176E-1	5.077000E-3
31/12/1903  21:00:00.000107	2.882176E-1	6.904720E-3
31/12/1903  21:00:00.000107	2.882176E-1	6.904720E-3
31/12/1903  21:00:00.000107	2.882176E-1	5.077000E-3
31/12/1903  21:00:00.000107	2.882176E-1	6.498560E-3
31/12/1903  21:00:00.000107	2.882176E-1	5.077000E-3
31/12/1903  21:00:00.000107	2.882176E-1	5.280080E-3
31/12/1903  21:00:00.000107	2.882176E-1	6.498560E-3
31/12/1903  21:00:00.000107	2.882176E-1	5.483160E-3
31/12/1903  21:00:00.000107	2.882176E-1	6.498560E-3
31/12/1903  21:00:00.000108	2.882176E-1	5.483160E-3
31/12/1903  21:00:00.000108	2.882176E-1	6.295480E-3
31/12/1903  21:00:00.000108	2.882176E-1	5.483160E-3
31/12/1903  21:00:00.000108	2.882176E-1	6.498560E-3
31/12/1903  21:00:00.000108	2.882176E-1	5.077000E-3
31/12/1903  21:00:00.000108	2.882176E-1	6.498560E-3
31/12/1903  21:00:00.000108	2.882176E-1	7.107800E-3
31/12/1903  21:00:00.000108	2.882176E-1	5.280080E-3
31/12/1903  21:00:00.000108	2.882176E-1	5.483160E-3
31/12/1903  21:00:00.000109	2.882176E-1	6.904720E-3
31/12/1903  21:00:00.000109	2.882176E-1	5.483160E-3
31/12/1903  21:00:00.000109	2.882176E-1	6.498560E-3
31/12/1903  21:00:00.000109	2.882176E-1	5.280080E-3
31/12/1903  21:00:00.000109	2.882176E-1	6.701640E-3
31/12/1903  21:00:00.000109	2.882176E-1	6.701640E-3
31/12/1903  21:00:00.000109	2.882176E-1	5.280080E-3
31/12/1903  21:00:00.000109	2.882176E-1	5.686240E-3
31/12/1903  21:00:00.000110	2.882176E-1	6.701640E-3
31/12/1903  21:00:00.000110	2.882176E-1	6.498560E-3
31/12/1903  21:00:00.000110	2.882176E-1	5.483160E-3
31/12/1903  21:00:00.000110	2.882176E-1	6.701640E-3
31/12/1903  21:00:00.000110	2.882176E-1	5.280080E-3
31/12/1903  21:00:00.000110	2.882176E-1	5.483160E-3
31/12/1903  21:00:00.000110	2.882176E-1	6.701640E-3
31/12/1903  21:00:00.000110	2.882176E-1	5.280080E-3
31/12/1903  21:00:00.000110	2.882176E-1	6.498560E-3
31/12/1903  21:00:00.000111	2.882176E-1	5.280080E-3
31/12/1903  21:00:00.000111	2.882176E-1	6.701640E-3
31/12/1903  21:00:00.000111	2.882176E-1	6.701640E-3
31/12/1903  21:00:00.000111	2.882176E-1	5.077000E-3
31/12/1903  21:00:00.000111	2.882176E-1	6.295480E-3
31/12/1903  21:00:00.000111	-2.751168E-1	-2.436960E-3
31/12/1903  21:00:00.000111	-2.751168E-1	-2.233880E-3
31/12/1903  21:00:00.000111	-2.882176E-1	-5.889320E-3
31/12/1903  21:00:00.000111	-2.882176E-1	-5.889320E-3
31/12/1903  21:00:00.000112	-2.947680E-1	-5.686240E-3
31/12/1903  21:00:00.000112	-2.914928E-1	-5.889320E-3
31/12/1903  21:00:00.000112	-2.980432E-1	-5.889320E-3
31/12/1903  21:00:00.000112	-2.980432E-1	-5.889320E-3
31/12/1903  21:00:00.000112	-2.947680E-1	-5.889320E-3
31/12/1903  21:00:00.000112	-2.980432E-1	-5.889320E-3
31/12/1903  21:00:00.000112	-3.013184E-1	-5.889320E-3
31/12/1903  21:00:00.000112	-3.013184E-1	-5.889320E-3
31/12/1903  21:00:00.000112	-3.045936E-1	-5.889320E-3
31/12/1903  21:00:00.000113	-3.045936E-1	-5.889320E-3
31/12/1903  21:00:00.000113	-3.045936E-1	-5.889320E-3
31/12/1903  21:00:00.000113	-3.045936E-1	-5.889320E-3
31/12/1903  21:00:00.000113	-3.078688E-1	-5.889320E-3
31/12/1903  21:00:00.000113	-3.078688E-1	-5.889320E-3
31/12/1903  21:00:00.000113	-3.078688E-1	-5.889320E-3
31/12/1903  21:00:00.000113	-3.078688E-1	-5.889320E-3
31/12/1903  21:00:00.000113	-3.078688E-1	-5.889320E-3
		
