00.000000000000	-4.015869E-1	8.275200E-3
00.000000124000	-3.982680E-1	8.688960E-3
00.000000248000	-4.015869E-1	8.275200E-3
00.000000372000	-3.982680E-1	8.482080E-3
00.000000496000	-4.015869E-1	8.275200E-3
00.000000620000	-3.982680E-1	8.482080E-3
00.000000744000	-3.982680E-1	8.482080E-3
00.000000868000	-4.015869E-1	8.068320E-3
00.000000992000	-4.015869E-1	8.275200E-3
00.000001116000	-3.982680E-1	8.482080E-3
00.000001240000	-4.015869E-1	8.482080E-3
00.000001364000	-3.982680E-1	8.068320E-3
00.000001488000	-3.982680E-1	8.275200E-3
00.000001612000	-4.015869E-1	8.688960E-3
00.000001736000	-4.015869E-1	8.688960E-3
00.000001860000	-3.982680E-1	8.068320E-3
00.000001984000	-4.015869E-1	8.275200E-3
00.000002108000	-4.015869E-1	8.688960E-3
00.000002232000	-4.015869E-1	8.275200E-3
00.000002356000	-3.982680E-1	8.688960E-3
00.000002480000	-4.015869E-1	8.068320E-3
00.000002604000	-3.982680E-1	9.102720E-3
00.000002728000	-4.015869E-1	7.861440E-3
00.000002852000	-3.982680E-1	8.895840E-3
00.000002976000	-4.015869E-1	8.895840E-3
00.000003100000	-3.982680E-1	8.068320E-3
00.000003224000	-4.015869E-1	8.688960E-3
00.000003348000	-3.982680E-1	8.068320E-3
00.000003472000	-4.015869E-1	8.688960E-3
00.000003596000	-3.982680E-1	8.068320E-3
00.000003720000	-4.015869E-1	8.688960E-3
00.000003844000	-3.982680E-1	8.068320E-3
00.000003968000	-4.015869E-1	8.068320E-3
00.000004092000	-4.015869E-1	8.688960E-3
00.000004216000	-4.015869E-1	8.688960E-3
00.000004340000	-4.015869E-1	8.068320E-3
00.000004464000	-4.015869E-1	8.068320E-3
00.000004588000	-3.982680E-1	8.688960E-3
00.000004712000	-4.015869E-1	7.861440E-3
00.000004836000	-3.982680E-1	8.895840E-3
00.000004960000	-3.982680E-1	8.895840E-3
00.000005084000	-4.015869E-1	7.861440E-3
00.000005208000	-4.015869E-1	8.895840E-3
00.000005332000	-3.982680E-1	7.861440E-3
00.000005456000	-4.015869E-1	8.895840E-3
00.000005580000	-3.982680E-1	7.861440E-3
00.000005704000	-4.015869E-1	8.688960E-3
00.000005828000	-3.982680E-1	7.861440E-3
00.000005952000	-4.015869E-1	8.068320E-3
00.000006076000	-3.982680E-1	8.688960E-3
00.000006200000	-4.015869E-1	8.068320E-3
00.000006324000	-3.982680E-1	8.688960E-3
00.000006448000	-4.015869E-1	8.068320E-3
00.000006572000	-3.982680E-1	8.688960E-3
00.000006696000	-4.015869E-1	8.068320E-3
00.000006820000	-3.982680E-1	8.482080E-3
00.000006944000	-4.015869E-1	8.068320E-3
00.000007068000	-3.982680E-1	8.482080E-3
00.000007192000	-4.015869E-1	8.068320E-3
00.000007316000	-3.982680E-1	8.482080E-3
00.000007440000	-4.015869E-1	8.482080E-3
00.000007564000	-4.015869E-1	8.068320E-3
00.000007688000	-4.015869E-1	8.482080E-3
00.000007812000	-3.982680E-1	8.275200E-3
00.000007936000	-4.015869E-1	8.688960E-3
00.000008060000	-4.015869E-1	8.068320E-3
00.000008184000	-4.015869E-1	8.068320E-3
00.000008308000	-3.982680E-1	8.482080E-3
00.000008432000	-4.015869E-1	8.482080E-3
00.000008556000	-3.982680E-1	8.068320E-3
00.000008680000	-4.015869E-1	8.275200E-3
00.000008804000	-3.982680E-1	8.688960E-3
00.000008928000	-3.982680E-1	8.688960E-3
00.000009052000	-4.015869E-1	8.275200E-3
00.000009176000	-4.015869E-1	8.068320E-3
00.000009300000	-3.982680E-1	8.482080E-3
00.000009424000	-4.015869E-1	8.068320E-3
00.000009548000	-3.982680E-1	8.482080E-3
00.000009672000	-4.015869E-1	8.482080E-3
00.000009796000	-3.982680E-1	8.068320E-3
00.000009920000	-4.015869E-1	8.275200E-3
00.000010044000	-3.982680E-1	8.688960E-3
00.000010168000	-4.015869E-1	8.688960E-3
00.000010292000	-3.982680E-1	8.275200E-3
00.000010416000	-4.015869E-1	8.068320E-3
00.000010540000	-3.982680E-1	8.688960E-3
00.000010664000	-4.015869E-1	8.482080E-3
00.000010788000	-3.982680E-1	8.275200E-3
00.000010912000	-4.015869E-1	8.688960E-3
00.000011036000	-4.015869E-1	8.275200E-3
00.000011160000	-4.015869E-1	8.275200E-3
00.000011284000	-3.982680E-1	8.688960E-3
00.000011408000	-4.015869E-1	8.482080E-3
00.000011532000	-3.982680E-1	8.068320E-3
00.000011656000	-4.015869E-1	8.068320E-3
00.000011780000	-3.982680E-1	8.688960E-3
00.000011904000	-4.015869E-1	8.688960E-3
00.000012028000	-3.982680E-1	8.068320E-3
00.000012152000	-4.314570E-1	8.068320E-3
00.000012276000	1.659450E-1	1.903296E-2
00.000012400000	1.659450E-1	1.903296E-2
00.000012524000	1.759017E-1	2.648064E-2
00.000012648000	1.759017E-1	2.648064E-2
00.000012772000	1.792206E-1	3.123888E-2
00.000012896000	1.792206E-1	3.144576E-2
00.000013020000	1.825395E-1	3.392832E-2
00.000013144000	1.825395E-1	3.392832E-2
00.000013268000	1.858584E-1	3.599712E-2
00.000013392000	1.858584E-1	3.579024E-2
00.000013516000	1.891773E-1	3.723840E-2
00.000013640000	1.891773E-1	3.703152E-2
00.000013764000	1.924962E-1	3.827280E-2
00.000013888000	1.924962E-1	3.806592E-2
00.000014012000	1.924962E-1	3.889344E-2
00.000014136000	1.924962E-1	3.827280E-2
00.000014260000	1.924962E-1	3.930720E-2
00.000014384000	1.924962E-1	3.847968E-2
00.000014508000	1.924962E-1	3.992784E-2
00.000014632000	1.924962E-1	3.847968E-2
00.000014756000	1.924962E-1	3.972096E-2
00.000014880000	1.924962E-1	3.889344E-2
00.000015004000	1.924962E-1	3.972096E-2
00.000015128000	1.924962E-1	3.910032E-2
00.000015252000	1.958151E-1	3.992784E-2
00.000015376000	1.924962E-1	3.910032E-2
00.000015500000	1.958151E-1	4.013472E-2
00.000015624000	1.958151E-1	3.951408E-2
00.000015748000	1.958151E-1	4.013472E-2
00.000015872000	1.958151E-1	3.972096E-2
00.000015996000	1.958151E-1	4.034160E-2
00.000016120000	1.958151E-1	4.013472E-2
00.000016244000	1.958151E-1	4.075536E-2
00.000016368000	1.958151E-1	4.034160E-2
00.000016492000	1.958151E-1	4.116912E-2
00.000016616000	1.958151E-1	4.096224E-2
00.000016740000	1.958151E-1	4.178976E-2
00.000016864000	1.958151E-1	4.137600E-2
00.000016988000	1.958151E-1	4.220352E-2
00.000017112000	1.958151E-1	4.199664E-2
00.000017236000	1.958151E-1	4.282416E-2
00.000017360000	1.958151E-1	4.220352E-2
00.000017484000	1.958151E-1	4.323792E-2
00.000017608000	1.958151E-1	4.303104E-2
00.000017732000	1.958151E-1	4.365168E-2
00.000017856000	1.958151E-1	4.344480E-2
00.000017980000	1.958151E-1	4.406544E-2
00.000018104000	1.958151E-1	4.385856E-2
00.000018228000	1.958151E-1	4.447920E-2
00.000018352000	1.958151E-1	4.427232E-2
00.000018476000	1.958151E-1	4.509984E-2
00.000018600000	1.958151E-1	4.489296E-2
00.000018724000	1.958151E-1	4.551360E-2
00.000018848000	1.958151E-1	4.509984E-2
00.000018972000	1.958151E-1	4.592736E-2
00.000019096000	1.958151E-1	4.572048E-2
00.000019220000	1.958151E-1	4.613424E-2
00.000019344000	1.958151E-1	4.592736E-2
00.000019468000	1.958151E-1	4.675488E-2
00.000019592000	1.958151E-1	4.654800E-2
00.000019716000	1.958151E-1	4.716864E-2
00.000019840000	1.958151E-1	4.675488E-2
00.000019964000	1.958151E-1	4.737552E-2
00.000020088000	1.958151E-1	4.696176E-2
00.000020212000	1.958151E-1	4.758240E-2
00.000020336000	1.958151E-1	4.737552E-2
00.000020460000	1.958151E-1	4.799616E-2
00.000020584000	1.958151E-1	4.778928E-2
00.000020708000	1.958151E-1	4.799616E-2
00.000020832000	1.958151E-1	4.778928E-2
00.000020956000	1.958151E-1	4.820304E-2
00.000021080000	1.958151E-1	4.799616E-2
00.000021204000	1.958151E-1	4.820304E-2
00.000021328000	1.958151E-1	4.799616E-2
00.000021452000	1.958151E-1	4.840992E-2
00.000021576000	1.958151E-1	4.820304E-2
00.000021700000	1.958151E-1	4.861680E-2
00.000021824000	1.958151E-1	4.799616E-2
00.000021948000	1.958151E-1	4.882368E-2
00.000022072000	1.958151E-1	4.882368E-2
00.000022196000	1.958151E-1	4.778928E-2
00.000022320000	1.958151E-1	4.799616E-2
00.000022444000	1.958151E-1	4.861680E-2
00.000022568000	1.958151E-1	4.861680E-2
00.000022692000	1.958151E-1	4.799616E-2
00.000022816000	1.958151E-1	4.799616E-2
00.000022940000	1.958151E-1	4.861680E-2
00.000023064000	1.958151E-1	4.861680E-2
00.000023188000	1.958151E-1	4.778928E-2
00.000023312000	1.958151E-1	4.840992E-2
00.000023436000	1.958151E-1	4.758240E-2
00.000023560000	1.958151E-1	4.820304E-2
00.000023684000	1.958151E-1	4.737552E-2
00.000023808000	1.958151E-1	4.799616E-2
00.000023932000	1.958151E-1	4.737552E-2
00.000024056000	1.958151E-1	4.778928E-2
00.000024180000	1.958151E-1	4.737552E-2
00.000024304000	1.958151E-1	4.758240E-2
00.000024428000	1.958151E-1	4.696176E-2
00.000024552000	1.958151E-1	4.737552E-2
00.000024676000	1.958151E-1	4.654800E-2
00.000024800000	1.958151E-1	4.634112E-2
00.000024924000	1.958151E-1	4.716864E-2
00.000025048000	1.958151E-1	4.696176E-2
00.000025172000	1.958151E-1	4.592736E-2
00.000025296000	1.958151E-1	4.654800E-2
00.000025420000	1.958151E-1	4.572048E-2
00.000025544000	1.958151E-1	4.634112E-2
00.000025668000	1.958151E-1	4.572048E-2
00.000025792000	1.958151E-1	4.551360E-2
00.000025916000	1.958151E-1	4.572048E-2
00.000026040000	1.958151E-1	4.572048E-2
00.000026164000	1.958151E-1	4.489296E-2
00.000026288000	1.958151E-1	4.530672E-2
00.000026412000	1.958151E-1	4.468608E-2
00.000026536000	1.958151E-1	4.468608E-2
00.000026660000	1.958151E-1	4.427232E-2
00.000026784000	1.958151E-1	4.406544E-2
00.000026908000	1.958151E-1	4.468608E-2
00.000027032000	1.958151E-1	4.427232E-2
00.000027156000	1.958151E-1	4.365168E-2
00.000027280000	1.958151E-1	4.406544E-2
00.000027404000	1.958151E-1	4.323792E-2
00.000027528000	1.958151E-1	4.344480E-2
00.000027652000	1.958151E-1	4.282416E-2
00.000027776000	1.958151E-1	4.323792E-2
00.000027900000	1.958151E-1	4.241040E-2
00.000028024000	1.958151E-1	4.303104E-2
00.000028148000	1.958151E-1	4.199664E-2
00.000028272000	1.958151E-1	4.282416E-2
00.000028396000	1.958151E-1	4.178976E-2
00.000028520000	1.958151E-1	4.220352E-2
00.000028644000	1.958151E-1	4.116912E-2
00.000028768000	1.958151E-1	4.116912E-2
00.000028892000	1.958151E-1	4.199664E-2
00.000029016000	1.958151E-1	4.096224E-2
00.000029140000	1.958151E-1	4.137600E-2
00.000029264000	1.958151E-1	4.116912E-2
00.000029388000	1.958151E-1	4.054848E-2
00.000029512000	1.958151E-1	4.075536E-2
00.000029636000	1.958151E-1	4.034160E-2
00.000029760000	1.958151E-1	4.054848E-2
00.000029884000	1.958151E-1	3.972096E-2
00.000030008000	1.958151E-1	4.013472E-2
00.000030132000	1.958151E-1	3.951408E-2
00.000030256000	1.958151E-1	3.992784E-2
00.000030380000	1.958151E-1	3.930720E-2
00.000030504000	1.958151E-1	3.951408E-2
00.000030628000	1.958151E-1	3.889344E-2
00.000030752000	1.958151E-1	3.930720E-2
00.000030876000	1.958151E-1	3.868656E-2
00.000031000000	1.958151E-1	3.889344E-2
00.000031124000	1.958151E-1	3.847968E-2
00.000031248000	1.958151E-1	3.868656E-2
00.000031372000	1.958151E-1	3.827280E-2
00.000031496000	1.958151E-1	3.847968E-2
00.000031620000	1.958151E-1	3.785904E-2
00.000031744000	1.958151E-1	3.827280E-2
00.000031868000	1.958151E-1	3.723840E-2
00.000031992000	1.958151E-1	3.806592E-2
00.000032116000	1.958151E-1	3.703152E-2
00.000032240000	1.958151E-1	3.682464E-2
00.000032364000	1.958151E-1	3.785904E-2
00.000032488000	1.958151E-1	3.744528E-2
00.000032612000	1.958151E-1	3.682464E-2
00.000032736000	1.958151E-1	3.723840E-2
00.000032860000	1.958151E-1	3.661776E-2
00.000032984000	1.958151E-1	3.703152E-2
00.000033108000	1.958151E-1	3.620400E-2
00.000033232000	1.958151E-1	3.682464E-2
00.000033356000	1.958151E-1	3.599712E-2
00.000033480000	1.958151E-1	3.641088E-2
00.000033604000	1.958151E-1	3.579024E-2
00.000033728000	1.958151E-1	3.641088E-2
00.000033852000	1.958151E-1	3.558336E-2
00.000033976000	1.958151E-1	3.558336E-2
00.000034100000	1.958151E-1	3.620400E-2
00.000034224000	1.958151E-1	3.599712E-2
00.000034348000	1.958151E-1	3.516960E-2
00.000034472000	1.958151E-1	3.579024E-2
00.000034596000	1.958151E-1	3.496272E-2
00.000034720000	1.958151E-1	3.558336E-2
00.000034844000	1.958151E-1	3.475584E-2
00.000034968000	1.958151E-1	3.516960E-2
00.000035092000	1.958151E-1	3.454896E-2
00.000035216000	1.958151E-1	3.454896E-2
00.000035340000	1.958151E-1	3.516960E-2
00.000035464000	1.958151E-1	3.496272E-2
00.000035588000	1.958151E-1	3.413520E-2
00.000035712000	1.958151E-1	3.496272E-2
00.000035836000	1.958151E-1	3.413520E-2
00.000035960000	1.958151E-1	3.496272E-2
00.000036084000	1.958151E-1	3.392832E-2
00.000036208000	1.958151E-1	3.454896E-2
00.000036332000	1.958151E-1	3.351456E-2
00.000036456000	1.958151E-1	3.434208E-2
00.000036580000	1.958151E-1	3.330768E-2
00.000036704000	1.958151E-1	3.434208E-2
00.000036828000	1.958151E-1	3.330768E-2
00.000036952000	1.958151E-1	3.392832E-2
00.000037076000	1.958151E-1	3.330768E-2
00.000037200000	1.958151E-1	3.330768E-2
00.000037324000	1.958151E-1	3.372144E-2
00.000037448000	1.958151E-1	3.310080E-2
00.000037572000	1.958151E-1	3.372144E-2
00.000037696000	1.958151E-1	3.351456E-2
00.000037820000	1.958151E-1	3.289392E-2
00.000037944000	1.958151E-1	3.289392E-2
00.000038068000	1.958151E-1	3.330768E-2
00.000038192000	1.958151E-1	3.310080E-2
00.000038316000	1.958151E-1	3.268704E-2
00.000038440000	1.958151E-1	3.310080E-2
00.000038564000	1.958151E-1	3.268704E-2
00.000038688000	1.958151E-1	3.289392E-2
00.000038812000	1.958151E-1	3.268704E-2
00.000038936000	1.958151E-1	3.289392E-2
00.000039060000	1.958151E-1	3.227328E-2
00.000039184000	1.958151E-1	3.268704E-2
00.000039308000	1.958151E-1	3.227328E-2
00.000039432000	1.958151E-1	3.227328E-2
00.000039556000	1.958151E-1	3.268704E-2
00.000039680000	1.958151E-1	3.248016E-2
00.000039804000	1.958151E-1	3.206640E-2
00.000039928000	1.958151E-1	3.206640E-2
00.000040052000	1.958151E-1	3.268704E-2
00.000040176000	1.958151E-1	3.227328E-2
00.000040300000	1.958151E-1	3.185952E-2
00.000040424000	1.958151E-1	3.227328E-2
00.000040548000	1.958151E-1	3.185952E-2
00.000040672000	1.958151E-1	3.185952E-2
00.000040796000	1.958151E-1	3.227328E-2
00.000040920000	1.958151E-1	3.165264E-2
00.000041044000	1.958151E-1	3.227328E-2
00.000041168000	1.958151E-1	3.165264E-2
00.000041292000	1.958151E-1	3.227328E-2
00.000041416000	1.958151E-1	3.206640E-2
00.000041540000	1.958151E-1	3.123888E-2
00.000041664000	1.958151E-1	3.123888E-2
00.000041788000	1.958151E-1	3.227328E-2
00.000041912000	1.958151E-1	3.206640E-2
00.000042036000	1.958151E-1	3.123888E-2
00.000042160000	1.958151E-1	3.206640E-2
00.000042284000	1.958151E-1	3.123888E-2
00.000042408000	1.958151E-1	3.185952E-2
00.000042532000	1.958151E-1	3.103200E-2
00.000042656000	1.958151E-1	3.165264E-2
00.000042780000	1.958151E-1	3.103200E-2
00.000042904000	1.958151E-1	3.165264E-2
00.000043028000	1.958151E-1	3.082512E-2
00.000043152000	1.958151E-1	3.103200E-2
00.000043276000	1.958151E-1	3.165264E-2
00.000043400000	1.958151E-1	3.082512E-2
00.000043524000	1.958151E-1	3.144576E-2
00.000043648000	1.958151E-1	3.082512E-2
00.000043772000	1.958151E-1	3.144576E-2
00.000043896000	1.958151E-1	3.123888E-2
00.000044020000	1.958151E-1	3.061824E-2
00.000044144000	1.958151E-1	3.061824E-2
00.000044268000	1.958151E-1	3.144576E-2
00.000044392000	1.958151E-1	3.061824E-2
00.000044516000	1.958151E-1	3.144576E-2
00.000044640000	1.958151E-1	3.123888E-2
00.000044764000	1.958151E-1	3.041136E-2
00.000044888000	1.958151E-1	3.103200E-2
00.000045012000	1.958151E-1	3.041136E-2
00.000045136000	1.958151E-1	3.041136E-2
00.000045260000	1.958151E-1	3.123888E-2
00.000045384000	1.958151E-1	3.123888E-2
00.000045508000	1.958151E-1	3.041136E-2
00.000045632000	1.958151E-1	3.123888E-2
00.000045756000	1.958151E-1	3.020448E-2
00.000045880000	1.958151E-1	3.020448E-2
00.000046004000	1.958151E-1	3.103200E-2
00.000046128000	1.958151E-1	3.020448E-2
00.000046252000	1.958151E-1	3.082512E-2
00.000046376000	1.958151E-1	3.020448E-2
00.000046500000	1.958151E-1	3.082512E-2
00.000046624000	1.958151E-1	2.999760E-2
00.000046748000	1.958151E-1	3.082512E-2
00.000046872000	1.958151E-1	2.999760E-2
00.000046996000	1.958151E-1	3.061824E-2
00.000047120000	1.958151E-1	2.979072E-2
00.000047244000	1.958151E-1	3.082512E-2
00.000047368000	1.958151E-1	3.061824E-2
00.000047492000	1.958151E-1	2.979072E-2
00.000047616000	1.958151E-1	3.061824E-2
00.000047740000	1.958151E-1	2.979072E-2
00.000047864000	1.958151E-1	3.061824E-2
00.000047988000	1.958151E-1	2.979072E-2
00.000048112000	1.958151E-1	3.041136E-2
00.000048236000	1.958151E-1	2.979072E-2
00.000048360000	1.958151E-1	2.999760E-2
00.000048484000	1.958151E-1	3.020448E-2
00.000048608000	1.958151E-1	3.020448E-2
00.000048732000	1.958151E-1	2.999760E-2
00.000048856000	1.958151E-1	3.041136E-2
00.000048980000	1.958151E-1	2.999760E-2
00.000049104000	1.958151E-1	3.020448E-2
00.000049228000	1.958151E-1	2.979072E-2
00.000049352000	1.958151E-1	2.979072E-2
00.000049476000	1.958151E-1	3.020448E-2
00.000049600000	1.958151E-1	2.979072E-2
00.000049724000	1.958151E-1	3.020448E-2
00.000049848000	1.958151E-1	3.020448E-2
00.000049972000	1.958151E-1	2.979072E-2
00.000050096000	1.958151E-1	3.020448E-2
00.000050220000	1.958151E-1	2.958384E-2
00.000050344000	1.958151E-1	3.020448E-2
00.000050468000	1.958151E-1	2.958384E-2
00.000050592000	1.958151E-1	2.999760E-2
00.000050716000	1.958151E-1	2.958384E-2
00.000050840000	1.958151E-1	3.020448E-2
00.000050964000	1.958151E-1	2.958384E-2
00.000051088000	1.958151E-1	2.958384E-2
00.000051212000	1.958151E-1	2.999760E-2
00.000051336000	1.958151E-1	2.999760E-2
00.000051460000	1.958151E-1	2.958384E-2
00.000051584000	1.958151E-1	2.999760E-2
00.000051708000	1.958151E-1	2.937696E-2
00.000051832000	1.958151E-1	2.999760E-2
00.000051956000	1.958151E-1	2.958384E-2
00.000052080000	1.958151E-1	2.937696E-2
00.000052204000	1.958151E-1	3.020448E-2
00.000052328000	1.958151E-1	2.937696E-2
00.000052452000	1.958151E-1	3.041136E-2
00.000052576000	1.958151E-1	2.917008E-2
00.000052700000	1.958151E-1	3.020448E-2
00.000052824000	1.958151E-1	2.917008E-2
00.000052948000	1.958151E-1	2.999760E-2
00.000053072000	1.958151E-1	2.917008E-2
00.000053196000	1.958151E-1	2.979072E-2
00.000053320000	1.958151E-1	2.999760E-2
00.000053444000	1.958151E-1	2.917008E-2
00.000053568000	1.958151E-1	2.937696E-2
00.000053692000	1.958151E-1	2.979072E-2
00.000053816000	1.958151E-1	2.979072E-2
00.000053940000	1.958151E-1	2.917008E-2
00.000054064000	1.958151E-1	2.896320E-2
00.000054188000	1.958151E-1	2.979072E-2
00.000054312000	1.958151E-1	2.979072E-2
00.000054436000	1.958151E-1	2.896320E-2
00.000054560000	1.958151E-1	2.979072E-2
00.000054684000	1.958151E-1	2.917008E-2
00.000054808000	1.958151E-1	2.917008E-2
00.000054932000	1.958151E-1	2.979072E-2
00.000055056000	1.958151E-1	2.917008E-2
00.000055180000	1.958151E-1	2.979072E-2
00.000055304000	1.958151E-1	2.958384E-2
00.000055428000	1.958151E-1	2.896320E-2
00.000055552000	1.958151E-1	2.917008E-2
00.000055676000	1.958151E-1	2.979072E-2
00.000055800000	1.958151E-1	2.917008E-2
00.000055924000	1.958151E-1	2.958384E-2
00.000056048000	1.958151E-1	2.958384E-2
00.000056172000	1.958151E-1	2.875632E-2
00.000056296000	1.958151E-1	2.958384E-2
00.000056420000	1.958151E-1	2.875632E-2
00.000056544000	1.958151E-1	2.958384E-2
00.000056668000	1.958151E-1	2.896320E-2
00.000056792000	1.958151E-1	2.875632E-2
00.000056916000	1.958151E-1	2.958384E-2
00.000057040000	1.958151E-1	2.896320E-2
00.000057164000	1.958151E-1	2.958384E-2
00.000057288000	1.958151E-1	2.937696E-2
00.000057412000	1.958151E-1	2.896320E-2
00.000057536000	1.958151E-1	2.896320E-2
00.000057660000	1.958151E-1	2.937696E-2
00.000057784000	1.958151E-1	2.896320E-2
00.000057908000	1.958151E-1	2.937696E-2
00.000058032000	1.958151E-1	2.937696E-2
00.000058156000	1.958151E-1	2.896320E-2
00.000058280000	1.958151E-1	2.937696E-2
00.000058404000	1.958151E-1	2.875632E-2
00.000058528000	1.958151E-1	2.917008E-2
00.000058652000	1.958151E-1	2.896320E-2
00.000058776000	1.958151E-1	2.896320E-2
00.000058900000	1.958151E-1	2.937696E-2
00.000059024000	1.958151E-1	2.896320E-2
00.000059148000	1.958151E-1	2.937696E-2
00.000059272000	1.958151E-1	2.875632E-2
00.000059396000	1.958151E-1	2.937696E-2
00.000059520000	1.958151E-1	2.875632E-2
00.000059644000	1.958151E-1	2.937696E-2
00.000059768000	1.958151E-1	2.896320E-2
00.000059892000	1.958151E-1	2.937696E-2
00.000060016000	1.958151E-1	2.875632E-2
00.000060140000	1.958151E-1	2.958384E-2
00.000060264000	1.958151E-1	2.958384E-2
00.000060388000	1.958151E-1	2.875632E-2
00.000060512000	1.958151E-1	2.937696E-2
00.000060636000	1.958151E-1	2.875632E-2
00.000060760000	1.958151E-1	2.937696E-2
00.000060884000	1.958151E-1	2.875632E-2
00.000061008000	1.958151E-1	2.917008E-2
00.000061132000	1.958151E-1	2.875632E-2
00.000061256000	1.958151E-1	2.896320E-2
00.000061380000	1.958151E-1	2.917008E-2
00.000061504000	1.958151E-1	2.875632E-2
00.000061628000	1.958151E-1	2.917008E-2
00.000061752000	1.958151E-1	2.917008E-2
00.000061876000	1.958151E-1	2.875632E-2
00.000062000000	1.958151E-1	2.875632E-2
00.000062124000	1.958151E-1	2.937696E-2
00.000062248000	1.958151E-1	2.875632E-2
00.000062372000	1.958151E-1	2.937696E-2
00.000062496000	1.958151E-1	2.854944E-2
00.000062620000	1.958151E-1	2.937696E-2
00.000062744000	1.958151E-1	2.854944E-2
00.000062868000	1.958151E-1	2.917008E-2
00.000062992000	1.958151E-1	2.854944E-2
00.000063116000	1.958151E-1	2.937696E-2
00.000063240000	1.958151E-1	2.854944E-2
00.000063364000	1.958151E-1	2.937696E-2
00.000063488000	1.958151E-1	2.937696E-2
00.000063612000	1.958151E-1	2.854944E-2
00.000063736000	1.958151E-1	2.854944E-2
00.000063860000	1.958151E-1	2.917008E-2
00.000063984000	1.958151E-1	2.854944E-2
00.000064108000	1.958151E-1	2.917008E-2
00.000064232000	1.958151E-1	2.917008E-2
00.000064356000	1.958151E-1	2.854944E-2
00.000064480000	1.958151E-1	2.937696E-2
00.000064604000	1.958151E-1	2.834256E-2
00.000064728000	1.958151E-1	2.937696E-2
00.000064852000	1.958151E-1	2.834256E-2
00.000064976000	1.958151E-1	2.854944E-2
00.000065100000	1.958151E-1	2.937696E-2
00.000065224000	1.958151E-1	2.854944E-2
00.000065348000	1.958151E-1	2.917008E-2
00.000065472000	1.958151E-1	2.917008E-2
00.000065596000	1.958151E-1	2.854944E-2
00.000065720000	1.958151E-1	2.834256E-2
00.000065844000	1.958151E-1	2.937696E-2
00.000065968000	1.958151E-1	2.917008E-2
00.000066092000	1.958151E-1	2.834256E-2
00.000066216000	1.958151E-1	2.854944E-2
00.000066340000	1.958151E-1	2.917008E-2
00.000066464000	1.958151E-1	2.834256E-2
00.000066588000	1.958151E-1	2.917008E-2
00.000066712000	1.958151E-1	2.917008E-2
00.000066836000	1.958151E-1	2.834256E-2
00.000066960000	1.958151E-1	2.896320E-2
00.000067084000	1.958151E-1	2.834256E-2
00.000067208000	1.958151E-1	2.834256E-2
00.000067332000	1.958151E-1	2.917008E-2
00.000067456000	1.958151E-1	2.854944E-2
00.000067580000	1.958151E-1	2.896320E-2
00.000067704000	1.958151E-1	2.854944E-2
00.000067828000	1.958151E-1	2.896320E-2
00.000067952000	1.958151E-1	2.854944E-2
00.000068076000	1.958151E-1	2.896320E-2
00.000068200000	1.958151E-1	2.917008E-2
00.000068324000	1.958151E-1	2.834256E-2
00.000068448000	1.958151E-1	2.834256E-2
00.000068572000	1.958151E-1	2.896320E-2
00.000068696000	1.958151E-1	2.896320E-2
00.000068820000	1.958151E-1	2.834256E-2
00.000068944000	1.958151E-1	2.854944E-2
00.000069068000	1.958151E-1	2.896320E-2
00.000069192000	1.958151E-1	2.896320E-2
00.000069316000	1.958151E-1	2.854944E-2
00.000069440000	1.958151E-1	2.854944E-2
00.000069564000	1.958151E-1	2.896320E-2
00.000069688000	1.958151E-1	2.834256E-2
00.000069812000	1.958151E-1	2.875632E-2
00.000069936000	1.958151E-1	2.854944E-2
00.000070060000	1.958151E-1	2.896320E-2
00.000070184000	1.958151E-1	2.896320E-2
00.000070308000	1.958151E-1	2.854944E-2
00.000070432000	1.958151E-1	2.875632E-2
00.000070556000	1.958151E-1	2.834256E-2
00.000070680000	1.958151E-1	2.896320E-2
00.000070804000	1.958151E-1	2.813568E-2
00.000070928000	1.958151E-1	2.834256E-2
00.000071052000	1.958151E-1	2.896320E-2
00.000071176000	1.958151E-1	2.854944E-2
00.000071300000	1.958151E-1	2.896320E-2
00.000071424000	1.958151E-1	2.834256E-2
00.000071548000	1.958151E-1	2.917008E-2
00.000071672000	1.958151E-1	2.917008E-2
00.000071796000	1.958151E-1	2.813568E-2
00.000071920000	1.958151E-1	2.896320E-2
00.000072044000	1.958151E-1	2.834256E-2
00.000072168000	1.958151E-1	2.854944E-2
00.000072292000	1.958151E-1	2.896320E-2
00.000072416000	1.958151E-1	2.834256E-2
00.000072540000	1.958151E-1	2.917008E-2
00.000072664000	1.958151E-1	2.834256E-2
00.000072788000	1.958151E-1	2.917008E-2
00.000072912000	1.958151E-1	2.834256E-2
00.000073036000	1.958151E-1	2.896320E-2
00.000073160000	1.958151E-1	2.834256E-2
00.000073284000	1.958151E-1	2.896320E-2
00.000073408000	1.958151E-1	2.854944E-2
00.000073532000	1.958151E-1	2.917008E-2
00.000073656000	1.958151E-1	2.896320E-2
00.000073780000	1.958151E-1	2.854944E-2
00.000073904000	1.958151E-1	2.834256E-2
00.000074028000	1.958151E-1	2.896320E-2
00.000074152000	1.958151E-1	2.834256E-2
00.000074276000	1.958151E-1	2.896320E-2
00.000074400000	1.958151E-1	2.896320E-2
00.000074524000	1.958151E-1	2.834256E-2
00.000074648000	1.958151E-1	2.917008E-2
00.000074772000	1.958151E-1	2.854944E-2
00.000074896000	1.958151E-1	2.896320E-2
00.000075020000	1.958151E-1	2.834256E-2
00.000075144000	1.958151E-1	2.834256E-2
00.000075268000	1.958151E-1	2.896320E-2
00.000075392000	1.958151E-1	2.834256E-2
00.000075516000	1.958151E-1	2.896320E-2
00.000075640000	1.958151E-1	2.854944E-2
00.000075764000	1.958151E-1	2.917008E-2
00.000075888000	1.958151E-1	2.854944E-2
00.000076012000	1.958151E-1	2.896320E-2
00.000076136000	1.958151E-1	2.875632E-2
00.000076260000	1.958151E-1	2.834256E-2
00.000076384000	1.958151E-1	2.875632E-2
00.000076508000	1.958151E-1	2.834256E-2
00.000076632000	1.958151E-1	2.875632E-2
00.000076756000	1.958151E-1	2.854944E-2
00.000076880000	1.958151E-1	2.896320E-2
00.000077004000	1.958151E-1	2.834256E-2
00.000077128000	1.958151E-1	2.896320E-2
00.000077252000	1.958151E-1	2.834256E-2
00.000077376000	1.958151E-1	2.875632E-2
00.000077500000	1.958151E-1	2.834256E-2
00.000077624000	1.958151E-1	2.875632E-2
00.000077748000	1.958151E-1	2.834256E-2
00.000077872000	1.958151E-1	2.896320E-2
00.000077996000	1.958151E-1	2.834256E-2
00.000078120000	1.958151E-1	2.896320E-2
00.000078244000	1.958151E-1	2.813568E-2
00.000078368000	1.958151E-1	2.896320E-2
00.000078492000	1.958151E-1	2.834256E-2
00.000078616000	1.958151E-1	2.834256E-2
00.000078740000	1.958151E-1	2.875632E-2
00.000078864000	1.958151E-1	2.834256E-2
00.000078988000	1.958151E-1	2.896320E-2
00.000079112000	1.958151E-1	2.834256E-2
00.000079236000	1.958151E-1	2.896320E-2
00.000079360000	1.958151E-1	2.896320E-2
00.000079484000	1.958151E-1	2.834256E-2
00.000079608000	1.958151E-1	2.875632E-2
00.000079732000	1.958151E-1	2.834256E-2
00.000079856000	1.958151E-1	2.834256E-2
00.000079980000	1.958151E-1	2.875632E-2
00.000080104000	1.958151E-1	2.834256E-2
00.000080228000	1.958151E-1	2.896320E-2
00.000080352000	1.958151E-1	2.834256E-2
00.000080476000	1.958151E-1	2.896320E-2
00.000080600000	1.958151E-1	2.875632E-2
00.000080724000	1.958151E-1	2.834256E-2
00.000080848000	1.958151E-1	2.896320E-2
00.000080972000	1.958151E-1	2.834256E-2
00.000081096000	1.958151E-1	2.896320E-2
00.000081220000	1.958151E-1	2.834256E-2
00.000081344000	1.958151E-1	2.834256E-2
00.000081468000	1.958151E-1	2.896320E-2
00.000081592000	1.958151E-1	2.896320E-2
00.000081716000	1.958151E-1	2.813568E-2
00.000081840000	1.958151E-1	2.834256E-2
00.000081964000	1.958151E-1	2.896320E-2
00.000082088000	1.958151E-1	2.834256E-2
00.000082212000	1.958151E-1	2.896320E-2
00.000082336000	1.958151E-1	2.896320E-2
00.000082460000	1.958151E-1	2.813568E-2
00.000082584000	1.958151E-1	2.875632E-2
00.000082708000	1.958151E-1	2.834256E-2
00.000082832000	1.958151E-1	2.834256E-2
00.000082956000	1.958151E-1	2.896320E-2
00.000083080000	1.958151E-1	2.834256E-2
00.000083204000	1.958151E-1	2.896320E-2
00.000083328000	1.958151E-1	2.896320E-2
00.000083452000	1.958151E-1	2.813568E-2
00.000083576000	1.958151E-1	2.896320E-2
00.000083700000	1.958151E-1	2.813568E-2
00.000083824000	1.958151E-1	2.917008E-2
00.000083948000	1.958151E-1	2.813568E-2
00.000084072000	1.958151E-1	2.917008E-2
00.000084196000	1.958151E-1	2.813568E-2
00.000084320000	1.958151E-1	2.834256E-2
00.000084444000	1.958151E-1	2.917008E-2
00.000084568000	1.958151E-1	2.834256E-2
00.000084692000	1.958151E-1	2.896320E-2
00.000084816000	1.958151E-1	2.834256E-2
00.000084940000	1.958151E-1	2.896320E-2
00.000085064000	1.958151E-1	2.813568E-2
00.000085188000	1.958151E-1	2.896320E-2
00.000085312000	1.958151E-1	2.813568E-2
00.000085436000	1.958151E-1	2.896320E-2
00.000085560000	1.958151E-1	2.813568E-2
00.000085684000	1.958151E-1	2.917008E-2
00.000085808000	1.958151E-1	2.792880E-2
00.000085932000	1.958151E-1	2.917008E-2
00.000086056000	1.958151E-1	2.917008E-2
00.000086180000	1.958151E-1	2.813568E-2
00.000086304000	1.958151E-1	2.896320E-2
00.000086428000	1.958151E-1	2.834256E-2
00.000086552000	1.958151E-1	2.834256E-2
00.000086676000	1.958151E-1	2.896320E-2
00.000086800000	1.958151E-1	2.896320E-2
00.000086924000	1.958151E-1	2.813568E-2
00.000087048000	1.958151E-1	2.834256E-2
00.000087172000	1.958151E-1	2.875632E-2
00.000087296000	1.958151E-1	2.875632E-2
00.000087420000	1.958151E-1	2.834256E-2
00.000087544000	1.958151E-1	2.834256E-2
00.000087668000	1.958151E-1	2.875632E-2
00.000087792000	1.958151E-1	2.834256E-2
00.000087916000	1.958151E-1	2.896320E-2
00.000088040000	1.958151E-1	2.813568E-2
00.000088164000	1.958151E-1	2.896320E-2
00.000088288000	1.958151E-1	2.875632E-2
00.000088412000	1.958151E-1	2.813568E-2
00.000088536000	1.958151E-1	2.896320E-2
00.000088660000	1.958151E-1	2.834256E-2
00.000088784000	1.958151E-1	2.834256E-2
00.000088908000	1.958151E-1	2.896320E-2
00.000089032000	1.958151E-1	2.854944E-2
00.000089156000	1.958151E-1	2.875632E-2
00.000089280000	1.958151E-1	2.875632E-2
00.000089404000	1.958151E-1	2.813568E-2
00.000089528000	1.958151E-1	2.834256E-2
00.000089652000	1.958151E-1	2.896320E-2
00.000089776000	1.958151E-1	2.875632E-2
00.000089900000	1.958151E-1	2.834256E-2
00.000090024000	1.958151E-1	2.834256E-2
00.000090148000	1.958151E-1	2.896320E-2
00.000090272000	1.958151E-1	2.834256E-2
00.000090396000	1.958151E-1	2.896320E-2
00.000090520000	1.958151E-1	2.834256E-2
00.000090644000	1.958151E-1	2.875632E-2
00.000090768000	1.958151E-1	2.854944E-2
00.000090892000	1.958151E-1	2.875632E-2
00.000091016000	1.958151E-1	2.854944E-2
00.000091140000	1.958151E-1	2.896320E-2
00.000091264000	1.958151E-1	2.854944E-2
00.000091388000	1.958151E-1	2.896320E-2
00.000091512000	1.958151E-1	2.896320E-2
00.000091636000	1.958151E-1	2.813568E-2
00.000091760000	1.958151E-1	2.834256E-2
00.000091884000	1.958151E-1	2.896320E-2
00.000092008000	1.958151E-1	2.854944E-2
00.000092132000	1.958151E-1	2.896320E-2
00.000092256000	1.958151E-1	2.834256E-2
00.000092380000	1.958151E-1	2.917008E-2
00.000092504000	1.958151E-1	2.834256E-2
00.000092628000	1.958151E-1	2.896320E-2
00.000092752000	1.958151E-1	2.813568E-2
00.000092876000	1.958151E-1	2.896320E-2
00.000093000000	1.958151E-1	2.834256E-2
00.000093124000	1.958151E-1	2.917008E-2
00.000093248000	1.958151E-1	2.917008E-2
00.000093372000	1.958151E-1	2.854944E-2
00.000093496000	1.958151E-1	2.896320E-2
00.000093620000	1.958151E-1	2.854944E-2
00.000093744000	1.958151E-1	2.896320E-2
00.000093868000	1.958151E-1	2.834256E-2
00.000093992000	1.958151E-1	2.896320E-2
00.000094116000	1.958151E-1	2.834256E-2
00.000094240000	1.958151E-1	2.896320E-2
00.000094364000	1.958151E-1	2.854944E-2
00.000094488000	1.958151E-1	2.917008E-2
00.000094612000	1.958151E-1	2.834256E-2
00.000094736000	1.958151E-1	2.896320E-2
00.000094860000	1.958151E-1	2.834256E-2
00.000094984000	1.958151E-1	2.896320E-2
00.000095108000	1.958151E-1	2.834256E-2
00.000095232000	1.958151E-1	2.896320E-2
00.000095356000	1.958151E-1	2.834256E-2
00.000095480000	1.958151E-1	2.854944E-2
00.000095604000	1.958151E-1	2.917008E-2
00.000095728000	1.958151E-1	2.896320E-2
00.000095852000	1.958151E-1	2.834256E-2
00.000095976000	1.958151E-1	2.896320E-2
00.000096100000	1.958151E-1	2.854944E-2
00.000096224000	1.958151E-1	2.854944E-2
00.000096348000	1.958151E-1	2.896320E-2
00.000096472000	1.958151E-1	2.854944E-2
00.000096596000	1.958151E-1	2.917008E-2
00.000096720000	1.958151E-1	2.896320E-2
00.000096844000	1.958151E-1	2.854944E-2
00.000096968000	1.958151E-1	2.813568E-2
00.000097092000	1.958151E-1	2.917008E-2
00.000097216000	1.958151E-1	2.813568E-2
00.000097340000	1.958151E-1	2.917008E-2
00.000097464000	1.958151E-1	2.834256E-2
00.000097588000	1.958151E-1	2.937696E-2
00.000097712000	1.958151E-1	2.917008E-2
00.000097836000	1.958151E-1	2.834256E-2
00.000097960000	1.958151E-1	2.917008E-2
00.000098084000	1.958151E-1	2.834256E-2
00.000098208000	1.958151E-1	2.896320E-2
00.000098332000	1.958151E-1	2.854944E-2
00.000098456000	1.958151E-1	2.917008E-2
00.000098580000	1.958151E-1	2.834256E-2
00.000098704000	1.958151E-1	2.854944E-2
00.000098828000	1.958151E-1	2.896320E-2
00.000098952000	1.958151E-1	2.834256E-2
00.000099076000	1.958151E-1	2.896320E-2
00.000099200000	1.958151E-1	2.834256E-2
00.000099324000	1.958151E-1	2.917008E-2
00.000099448000	1.958151E-1	2.854944E-2
00.000099572000	1.958151E-1	2.896320E-2
00.000099696000	1.958151E-1	2.917008E-2
00.000099820000	1.958151E-1	2.854944E-2
00.000099944000	1.958151E-1	2.896320E-2
00.000100068000	1.958151E-1	2.854944E-2
00.000100192000	1.958151E-1	2.834256E-2
00.000100316000	1.958151E-1	2.896320E-2
00.000100440000	1.958151E-1	2.854944E-2
00.000100564000	1.958151E-1	2.896320E-2
00.000100688000	1.958151E-1	2.854944E-2
00.000100812000	1.958151E-1	2.917008E-2
00.000100936000	1.958151E-1	2.917008E-2
00.000101060000	1.958151E-1	2.834256E-2
00.000101184000	1.958151E-1	2.896320E-2
00.000101308000	1.958151E-1	2.834256E-2
00.000101432000	1.958151E-1	2.917008E-2
00.000101556000	1.958151E-1	2.834256E-2
00.000101680000	1.958151E-1	2.937696E-2
00.000101804000	1.958151E-1	2.854944E-2
00.000101928000	1.958151E-1	2.854944E-2
00.000102052000	1.958151E-1	2.917008E-2
00.000102176000	1.958151E-1	2.896320E-2
00.000102300000	1.958151E-1	2.834256E-2
00.000102424000	1.958151E-1	2.917008E-2
00.000102548000	1.958151E-1	2.834256E-2
00.000102672000	1.958151E-1	2.937696E-2
00.000102796000	1.958151E-1	2.834256E-2
00.000102920000	1.958151E-1	2.937696E-2
00.000103044000	1.958151E-1	2.854944E-2
00.000103168000	1.958151E-1	2.854944E-2
00.000103292000	1.958151E-1	2.937696E-2
00.000103416000	1.958151E-1	2.834256E-2
00.000103540000	1.958151E-1	2.917008E-2
00.000103664000	1.958151E-1	2.917008E-2
00.000103788000	1.958151E-1	2.854944E-2
00.000103912000	1.958151E-1	2.875632E-2
00.000104036000	1.958151E-1	2.917008E-2
00.000104160000	1.958151E-1	2.917008E-2
00.000104284000	1.958151E-1	2.854944E-2
00.000104408000	1.958151E-1	2.917008E-2
00.000104532000	1.958151E-1	2.854944E-2
00.000104656000	1.958151E-1	2.854944E-2
00.000104780000	1.958151E-1	2.917008E-2
00.000104904000	1.958151E-1	2.854944E-2
00.000105028000	1.958151E-1	2.937696E-2
00.000105152000	1.958151E-1	2.917008E-2
00.000105276000	1.958151E-1	2.854944E-2
00.000105400000	1.958151E-1	2.917008E-2
00.000105524000	1.958151E-1	2.834256E-2
00.000105648000	1.958151E-1	2.917008E-2
00.000105772000	1.958151E-1	2.854944E-2
00.000105896000	1.958151E-1	2.854944E-2
00.000106020000	1.958151E-1	2.917008E-2
00.000106144000	1.958151E-1	2.875632E-2
00.000106268000	1.958151E-1	2.917008E-2
00.000106392000	1.958151E-1	2.896320E-2
00.000106516000	1.958151E-1	2.834256E-2
00.000106640000	1.958151E-1	2.896320E-2
00.000106764000	1.958151E-1	2.854944E-2
00.000106888000	1.958151E-1	2.917008E-2
00.000107012000	1.958151E-1	2.854944E-2
00.000107136000	1.958151E-1	2.917008E-2
00.000107260000	1.958151E-1	2.854944E-2
00.000107384000	1.958151E-1	2.917008E-2
00.000107508000	1.958151E-1	2.854944E-2
00.000107632000	1.958151E-1	2.896320E-2
00.000107756000	1.958151E-1	2.854944E-2
00.000107880000	1.958151E-1	2.854944E-2
00.000108004000	1.958151E-1	2.917008E-2
00.000108128000	1.958151E-1	2.854944E-2
00.000108252000	1.958151E-1	2.917008E-2
00.000108376000	1.958151E-1	2.896320E-2
00.000108500000	1.958151E-1	2.875632E-2
00.000108624000	1.958151E-1	2.896320E-2
00.000108748000	1.958151E-1	2.854944E-2
00.000108872000	1.958151E-1	2.917008E-2
00.000108996000	1.958151E-1	2.854944E-2
00.000109120000	1.958151E-1	2.896320E-2
00.000109244000	1.958151E-1	2.875632E-2
00.000109368000	1.958151E-1	2.854944E-2
00.000109492000	1.958151E-1	2.937696E-2
00.000109616000	1.958151E-1	2.917008E-2
00.000109740000	1.958151E-1	2.875632E-2
00.000109864000	1.958151E-1	2.875632E-2
00.000109988000	1.958151E-1	2.917008E-2
00.000110112000	1.958151E-1	2.917008E-2
00.000110236000	1.958151E-1	2.854944E-2
00.000110360000	1.958151E-1	2.875632E-2
00.000110484000	1.958151E-1	2.937696E-2
00.000110608000	1.958151E-1	2.917008E-2
00.000110732000	1.958151E-1	2.875632E-2
00.000110856000	1.958151E-1	2.917008E-2
00.000110980000	1.958151E-1	2.875632E-2
00.000111104000	1.958151E-1	2.854944E-2
00.000111228000	1.958151E-1	2.917008E-2
00.000111352000	1.958151E-1	2.854944E-2
00.000111476000	1.958151E-1	2.937696E-2
00.000111600000	1.958151E-1	2.937696E-2
00.000111724000	1.958151E-1	2.875632E-2
00.000111848000	1.958151E-1	2.875632E-2
00.000111972000	1.958151E-1	2.937696E-2
00.000112096000	2.256852E-1	2.917008E-2
00.000112220000	-3.617601E-1	2.213616E-2
00.000112344000	-3.650790E-1	2.192928E-2
00.000112468000	-3.783546E-1	1.386096E-2
00.000112592000	-3.783546E-1	1.386096E-2
00.000112716000	-3.849924E-1	8.275200E-3
00.000112840000	-3.849924E-1	8.275200E-3
00.000112964000	-3.883113E-1	5.172000E-3
00.000113088000	-3.883113E-1	4.965120E-3
00.000113212000	-3.916302E-1	3.310080E-3
00.000113336000	-3.916302E-1	3.516960E-3
00.000113460000	-3.949491E-1	2.482560E-3
00.000113584000	-3.949491E-1	2.482560E-3
00.000113708000	-3.949491E-1	2.068800E-3
00.000113832000	-3.949491E-1	2.275680E-3
00.000113956000	-3.949491E-1	1.861920E-3
00.000114080000	-3.949491E-1	1.861920E-3
00.000114204000	-3.949491E-1	2.068800E-3
00.000114328000	-3.949491E-1	1.861920E-3
00.000114452000	-3.982680E-1	1.861920E-3
00.000114576000	-3.982680E-1	1.861920E-3
00.000114700000	-3.982680E-1	1.655040E-3
00.000114824000	-3.982680E-1	1.861920E-3
00.000114948000	-3.982680E-1	1.655040E-3
00.000115072000	-3.982680E-1	1.861920E-3
00.000115196000	-3.982680E-1	1.655040E-3
00.000115320000	-3.982680E-1	1.861920E-3
00.000115444000	-3.982680E-1	1.655040E-3
00.000115568000	-3.982680E-1	1.655040E-3
00.000115692000	-3.982680E-1	1.861920E-3
00.000115816000	-3.982680E-1	1.861920E-3
00.000115940000	-3.982680E-1	1.655040E-3
00.000116064000	-3.982680E-1	1.861920E-3
00.000116188000	-3.982680E-1	1.655040E-3
00.000116312000	-3.982680E-1	1.655040E-3
00.000116436000	-3.982680E-1	1.861920E-3
00.000116560000	-3.982680E-1	1.655040E-3
00.000116684000	-3.982680E-1	1.655040E-3
00.000116808000	-3.982680E-1	1.655040E-3
00.000116932000	-3.982680E-1	1.655040E-3
00.000117056000	-3.982680E-1	1.655040E-3
00.000117180000	-3.982680E-1	1.655040E-3
00.000117304000	-3.982680E-1	1.655040E-3
00.000117428000	-3.982680E-1	1.655040E-3
00.000117552000	-3.982680E-1	1.655040E-3
00.000117676000	-3.982680E-1	1.655040E-3
00.000117800000	-3.982680E-1	1.655040E-3
00.000117924000	-3.982680E-1	1.655040E-3
00.000118048000	-3.982680E-1	1.655040E-3
00.000118172000	-3.982680E-1	1.655040E-3
00.000118296000	-3.982680E-1	1.655040E-3
00.000118420000	-4.015869E-1	1.655040E-3
00.000118544000	-3.982680E-1	1.655040E-3
00.000118668000	-4.015869E-1	1.655040E-3
00.000118792000	-3.982680E-1	1.655040E-3
00.000118916000	-4.015869E-1	1.655040E-3
00.000119040000	-3.982680E-1	1.655040E-3
00.000119164000	-4.015869E-1	1.655040E-3
00.000119288000	-3.982680E-1	1.655040E-3
00.000119412000	-4.015869E-1	1.655040E-3
00.000119536000	-4.015869E-1	1.655040E-3
00.000119660000	-3.982680E-1	1.655040E-3
00.000119784000	-3.982680E-1	1.655040E-3
00.000119908000	-3.982680E-1	1.655040E-3
00.000120032000	-3.982680E-1	1.655040E-3
00.000120156000	-4.015869E-1	1.655040E-3
00.000120280000	-3.982680E-1	1.655040E-3
00.000120404000	-3.982680E-1	1.655040E-3
00.000120528000	-3.982680E-1	1.655040E-3
00.000120652000	-3.982680E-1	1.655040E-3
00.000120776000	-3.982680E-1	1.655040E-3
00.000120900000	-4.015869E-1	1.655040E-3
00.000121024000	-4.015869E-1	1.655040E-3
00.000121148000	-3.982680E-1	1.655040E-3
00.000121272000	-3.982680E-1	1.655040E-3
00.000121396000	-4.015869E-1	1.655040E-3
00.000121520000	-3.982680E-1	1.655040E-3
00.000121644000	-4.015869E-1	1.655040E-3
00.000121768000	-3.982680E-1	1.655040E-3
00.000121892000	-4.015869E-1	1.655040E-3
00.000122016000	-3.982680E-1	1.655040E-3
00.000122140000	-3.982680E-1	1.655040E-3
00.000122264000	-3.982680E-1	1.655040E-3
00.000122388000	-4.015869E-1	1.655040E-3
00.000122512000	-3.982680E-1	1.655040E-3
00.000122636000	-4.015869E-1	1.655040E-3
00.000122760000	-3.982680E-1	1.655040E-3
00.000122884000	-3.982680E-1	1.655040E-3
00.000123008000	-3.982680E-1	1.655040E-3
00.000123132000	-3.982680E-1	1.655040E-3
00.000123256000	-3.982680E-1	1.655040E-3
00.000123380000	-3.982680E-1	1.655040E-3
00.000123504000	-3.982680E-1	1.655040E-3
00.000123628000	-3.982680E-1	1.655040E-3
00.000123752000	-3.982680E-1	1.655040E-3
00.000123876000	-3.982680E-1	1.655040E-3
		
