00.000000000000	-3.062784E-1	3.649200E-3
00.000000122000	-3.062784E-1	3.405920E-3
00.000000244000	-3.062784E-1	4.135760E-3
00.000000366000	-3.062784E-1	3.405920E-3
00.000000488000	-3.062784E-1	3.649200E-3
00.000000610000	-3.062784E-1	3.892480E-3
00.000000732000	-3.062784E-1	3.649200E-3
00.000000854000	-3.062784E-1	4.379040E-3
00.000000976000	-3.062784E-1	3.405920E-3
00.000001098000	-3.062784E-1	4.135760E-3
00.000001220000	-3.062784E-1	3.649200E-3
00.000001342000	-3.062784E-1	3.892480E-3
00.000001464000	-3.062784E-1	3.892480E-3
00.000001586000	-3.062784E-1	3.649200E-3
00.000001708000	-3.062784E-1	3.649200E-3
00.000001830000	-3.062784E-1	4.135760E-3
00.000001952000	-3.062784E-1	4.135760E-3
00.000002074000	-3.062784E-1	3.649200E-3
00.000002196000	-3.062784E-1	4.135760E-3
00.000002318000	-3.062784E-1	3.405920E-3
00.000002440000	-3.062784E-1	3.892480E-3
00.000002562000	-3.062784E-1	3.405920E-3
00.000002684000	-3.062784E-1	3.892480E-3
00.000002806000	-3.062784E-1	3.649200E-3
00.000002928000	-3.062784E-1	3.892480E-3
00.000003050000	-3.062784E-1	3.649200E-3
00.000003172000	-3.062784E-1	3.649200E-3
00.000003294000	-3.062784E-1	4.135760E-3
00.000003416000	-3.062784E-1	3.649200E-3
00.000003538000	-3.062784E-1	3.892480E-3
00.000003660000	-3.062784E-1	3.649200E-3
00.000003782000	-3.062784E-1	3.892480E-3
00.000003904000	-3.062784E-1	3.892480E-3
00.000004026000	-3.062784E-1	3.649200E-3
00.000004148000	-3.062784E-1	3.649200E-3
00.000004270000	-3.062784E-1	3.892480E-3
00.000004392000	-3.062784E-1	3.649200E-3
00.000004514000	-3.062784E-1	3.892480E-3
00.000004636000	-3.062784E-1	3.892480E-3
00.000004758000	-3.062784E-1	3.405920E-3
00.000004880000	-3.062784E-1	3.892480E-3
00.000005002000	-3.062784E-1	3.405920E-3
00.000005124000	-3.062784E-1	3.892480E-3
00.000005246000	-3.062784E-1	3.649200E-3
00.000005368000	-3.062784E-1	3.892480E-3
00.000005490000	-3.062784E-1	3.405920E-3
00.000005612000	-3.062784E-1	4.135760E-3
00.000005734000	-3.062784E-1	3.405920E-3
00.000005856000	-3.062784E-1	3.405920E-3
00.000005978000	-3.062784E-1	4.135760E-3
00.000006100000	-3.062784E-1	3.405920E-3
00.000006222000	-3.062784E-1	4.135760E-3
00.000006344000	-3.062784E-1	4.135760E-3
00.000006466000	-3.062784E-1	3.405920E-3
00.000006588000	-3.062784E-1	3.649200E-3
00.000006710000	-3.062784E-1	3.892480E-3
00.000006832000	-3.062784E-1	3.649200E-3
00.000006954000	-3.062784E-1	3.892480E-3
00.000007076000	-3.062784E-1	3.649200E-3
00.000007198000	-3.062784E-1	3.892480E-3
00.000007320000	-3.062784E-1	3.892480E-3
00.000007442000	-3.062784E-1	3.649200E-3
00.000007564000	-3.062784E-1	4.135760E-3
00.000007686000	-3.062784E-1	3.649200E-3
00.000007808000	-3.062784E-1	3.649200E-3
00.000007930000	-3.062784E-1	3.892480E-3
00.000008052000	-3.062784E-1	3.649200E-3
00.000008174000	-3.062784E-1	3.892480E-3
00.000008296000	-3.062784E-1	3.649200E-3
00.000008418000	-3.062784E-1	3.892480E-3
00.000008540000	-3.062784E-1	3.649200E-3
00.000008662000	-3.062784E-1	4.135760E-3
00.000008784000	-3.062784E-1	3.649200E-3
00.000008906000	-3.062784E-1	3.892480E-3
00.000009028000	-3.062784E-1	3.892480E-3
00.000009150000	-3.062784E-1	3.649200E-3
00.000009272000	-3.062784E-1	3.649200E-3
00.000009394000	-3.062784E-1	3.892480E-3
00.000009516000	-3.062784E-1	3.649200E-3
00.000009638000	-3.062784E-1	4.135760E-3
00.000009760000	-3.062784E-1	4.135760E-3
00.000009882000	-3.062784E-1	3.649200E-3
00.000010004000	-3.062784E-1	4.135760E-3
00.000010126000	-3.062784E-1	3.405920E-3
00.000010248000	-3.062784E-1	4.135760E-3
00.000010370000	-3.062784E-1	3.649200E-3
00.000010492000	-3.062784E-1	3.649200E-3
00.000010614000	-3.062784E-1	4.135760E-3
00.000010736000	-3.062784E-1	3.892480E-3
00.000010858000	-3.062784E-1	3.649200E-3
00.000010980000	-3.062784E-1	3.649200E-3
00.000011102000	-3.062784E-1	3.892480E-3
00.000011224000	-3.062784E-1	3.892480E-3
00.000011346000	-3.062784E-1	3.405920E-3
00.000011468000	-3.062784E-1	3.892480E-3
00.000011590000	-3.062784E-1	3.405920E-3
00.000011712000	-3.062784E-1	3.649200E-3
00.000011834000	-3.062784E-1	4.135760E-3
00.000011956000	-3.318016E-1	3.649200E-3
00.000012078000	2.552320E-1	1.143416E-2
00.000012200000	2.552320E-1	1.143416E-2
00.000012322000	2.711840E-1	2.238176E-2
00.000012444000	2.711840E-1	2.238176E-2
00.000012566000	2.775648E-1	3.162640E-2
00.000012688000	2.775648E-1	3.162640E-2
00.000012810000	2.807552E-1	3.819496E-2
00.000012932000	2.807552E-1	3.819496E-2
00.000013054000	2.839456E-1	4.257400E-2
00.000013176000	2.839456E-1	4.257400E-2
00.000013298000	2.871360E-1	4.573664E-2
00.000013420000	2.871360E-1	4.549336E-2
00.000013542000	2.871360E-1	4.768288E-2
00.000013664000	2.871360E-1	4.743960E-2
00.000013786000	2.871360E-1	4.914256E-2
00.000013908000	2.871360E-1	4.865600E-2
00.000014030000	2.903264E-1	4.962912E-2
00.000014152000	2.903264E-1	4.962912E-2
00.000014274000	2.903264E-1	4.889928E-2
00.000014396000	2.903264E-1	4.938584E-2
00.000014518000	2.903264E-1	4.889928E-2
00.000014640000	2.903264E-1	4.914256E-2
00.000014762000	2.903264E-1	4.841272E-2
00.000014884000	2.903264E-1	4.889928E-2
00.000015006000	2.903264E-1	4.792616E-2
00.000015128000	2.903264E-1	4.816944E-2
00.000015250000	2.903264E-1	4.768288E-2
00.000015372000	2.903264E-1	4.768288E-2
00.000015494000	2.903264E-1	4.719632E-2
00.000015616000	2.903264E-1	4.719632E-2
00.000015738000	2.935168E-1	4.670976E-2
00.000015860000	2.935168E-1	4.695304E-2
00.000015982000	2.935168E-1	4.670976E-2
00.000016104000	2.935168E-1	4.695304E-2
00.000016226000	2.935168E-1	4.670976E-2
00.000016348000	2.935168E-1	4.695304E-2
00.000016470000	2.935168E-1	4.670976E-2
00.000016592000	2.935168E-1	4.646648E-2
00.000016714000	2.935168E-1	4.695304E-2
00.000016836000	2.935168E-1	4.670976E-2
00.000016958000	2.935168E-1	4.719632E-2
00.000017080000	2.935168E-1	4.670976E-2
00.000017202000	2.935168E-1	4.719632E-2
00.000017324000	2.935168E-1	4.719632E-2
00.000017446000	2.935168E-1	4.695304E-2
00.000017568000	2.935168E-1	4.719632E-2
00.000017690000	2.935168E-1	4.695304E-2
00.000017812000	2.935168E-1	4.695304E-2
00.000017934000	2.935168E-1	4.719632E-2
00.000018056000	2.935168E-1	4.719632E-2
00.000018178000	2.935168E-1	4.695304E-2
00.000018300000	2.935168E-1	4.743960E-2
00.000018422000	2.935168E-1	4.670976E-2
00.000018544000	2.935168E-1	4.695304E-2
00.000018666000	2.935168E-1	4.719632E-2
00.000018788000	2.935168E-1	4.719632E-2
00.000018910000	2.935168E-1	4.670976E-2
00.000019032000	2.935168E-1	4.695304E-2
00.000019154000	2.935168E-1	4.670976E-2
00.000019276000	2.935168E-1	4.695304E-2
00.000019398000	2.935168E-1	4.646648E-2
00.000019520000	2.935168E-1	4.670976E-2
00.000019642000	2.935168E-1	4.622320E-2
00.000019764000	2.935168E-1	4.622320E-2
00.000019886000	2.935168E-1	4.670976E-2
00.000020008000	2.935168E-1	4.622320E-2
00.000020130000	2.935168E-1	4.573664E-2
00.000020252000	2.935168E-1	4.597992E-2
00.000020374000	2.935168E-1	4.549336E-2
00.000020496000	2.935168E-1	4.573664E-2
00.000020618000	2.935168E-1	4.525008E-2
00.000020740000	2.935168E-1	4.525008E-2
00.000020862000	2.935168E-1	4.476352E-2
00.000020984000	2.935168E-1	4.476352E-2
00.000021106000	2.935168E-1	4.403368E-2
00.000021228000	2.935168E-1	4.452024E-2
00.000021350000	2.935168E-1	4.354712E-2
00.000021472000	2.935168E-1	4.354712E-2
00.000021594000	2.935168E-1	4.281728E-2
00.000021716000	2.935168E-1	4.306056E-2
00.000021838000	2.935168E-1	4.257400E-2
00.000021960000	2.935168E-1	4.257400E-2
00.000022082000	2.935168E-1	4.184416E-2
00.000022204000	2.935168E-1	4.184416E-2
00.000022326000	2.935168E-1	4.087104E-2
00.000022448000	2.935168E-1	4.111432E-2
00.000022570000	2.935168E-1	4.014120E-2
00.000022692000	2.935168E-1	4.038448E-2
00.000022814000	2.935168E-1	3.941136E-2
00.000022936000	2.935168E-1	3.965464E-2
00.000023058000	2.935168E-1	3.892480E-2
00.000023180000	2.935168E-1	3.892480E-2
00.000023302000	2.935168E-1	3.795168E-2
00.000023424000	2.935168E-1	3.795168E-2
00.000023546000	2.935168E-1	3.673528E-2
00.000023668000	2.935168E-1	3.697856E-2
00.000023790000	2.935168E-1	3.624872E-2
00.000023912000	2.935168E-1	3.624872E-2
00.000024034000	2.935168E-1	3.527560E-2
00.000024156000	2.935168E-1	3.551888E-2
00.000024278000	2.935168E-1	3.430248E-2
00.000024400000	2.935168E-1	3.454576E-2
00.000024522000	2.935168E-1	3.308608E-2
00.000024644000	2.935168E-1	3.357264E-2
00.000024766000	2.935168E-1	3.235624E-2
00.000024888000	2.935168E-1	3.235624E-2
00.000025010000	2.935168E-1	3.186968E-2
00.000025132000	2.935168E-1	3.186968E-2
00.000025254000	2.935168E-1	3.065328E-2
00.000025376000	2.935168E-1	3.089656E-2
00.000025498000	2.935168E-1	2.992344E-2
00.000025620000	2.935168E-1	2.992344E-2
00.000025742000	2.935168E-1	2.895032E-2
00.000025864000	2.935168E-1	2.895032E-2
00.000025986000	2.935168E-1	2.846376E-2
00.000026108000	2.935168E-1	2.846376E-2
00.000026230000	2.935168E-1	2.749064E-2
00.000026352000	2.935168E-1	2.749064E-2
00.000026474000	2.935168E-1	2.676080E-2
00.000026596000	2.935168E-1	2.676080E-2
00.000026718000	2.935168E-1	2.578768E-2
00.000026840000	2.935168E-1	2.603096E-2
00.000026962000	2.935168E-1	2.505784E-2
00.000027084000	2.935168E-1	2.530112E-2
00.000027206000	2.935168E-1	2.384144E-2
00.000027328000	2.935168E-1	2.457128E-2
00.000027450000	2.935168E-1	2.311160E-2
00.000027572000	2.935168E-1	2.359816E-2
00.000027694000	2.935168E-1	2.238176E-2
00.000027816000	2.935168E-1	2.286832E-2
00.000027938000	2.935168E-1	2.189520E-2
00.000028060000	2.935168E-1	2.189520E-2
00.000028182000	2.935168E-1	2.140864E-2
00.000028304000	2.935168E-1	2.140864E-2
00.000028426000	2.935168E-1	2.067880E-2
00.000028548000	2.935168E-1	2.067880E-2
00.000028670000	2.935168E-1	1.994896E-2
00.000028792000	2.935168E-1	2.019224E-2
00.000028914000	2.935168E-1	1.946240E-2
00.000029036000	2.935168E-1	1.970568E-2
00.000029158000	2.935168E-1	1.897584E-2
00.000029280000	2.935168E-1	1.897584E-2
00.000029402000	2.935168E-1	1.824600E-2
00.000029524000	2.935168E-1	1.848928E-2
00.000029646000	2.935168E-1	1.800272E-2
00.000029768000	2.935168E-1	1.800272E-2
00.000029890000	2.935168E-1	1.751616E-2
00.000030012000	2.935168E-1	1.751616E-2
00.000030134000	2.935168E-1	1.678632E-2
00.000030256000	2.935168E-1	1.702960E-2
00.000030378000	2.935168E-1	1.629976E-2
00.000030500000	2.935168E-1	1.629976E-2
00.000030622000	2.935168E-1	1.654304E-2
00.000030744000	2.935168E-1	1.581320E-2
00.000030866000	2.935168E-1	1.629976E-2
00.000030988000	2.935168E-1	1.581320E-2
00.000031110000	2.935168E-1	1.532664E-2
00.000031232000	2.935168E-1	1.581320E-2
00.000031354000	2.935168E-1	1.508336E-2
00.000031476000	2.935168E-1	1.532664E-2
00.000031598000	2.935168E-1	1.484008E-2
00.000031720000	2.935168E-1	1.508336E-2
00.000031842000	2.935168E-1	1.459680E-2
00.000031964000	2.935168E-1	1.459680E-2
00.000032086000	2.935168E-1	1.411024E-2
00.000032208000	2.935168E-1	1.459680E-2
00.000032330000	2.935168E-1	1.386696E-2
00.000032452000	2.935168E-1	1.435352E-2
00.000032574000	2.935168E-1	1.362368E-2
00.000032696000	2.935168E-1	1.411024E-2
00.000032818000	2.935168E-1	1.338040E-2
00.000032940000	2.935168E-1	1.362368E-2
00.000033062000	2.935168E-1	1.338040E-2
00.000033184000	2.935168E-1	1.338040E-2
00.000033306000	2.903264E-1	1.362368E-2
00.000033428000	2.935168E-1	1.338040E-2
00.000033550000	2.903264E-1	1.313712E-2
00.000033672000	2.935168E-1	1.289384E-2
00.000033794000	2.903264E-1	1.338040E-2
00.000033916000	2.935168E-1	1.313712E-2
00.000034038000	2.935168E-1	1.265056E-2
00.000034160000	2.935168E-1	1.313712E-2
00.000034282000	2.935168E-1	1.240728E-2
00.000034404000	2.935168E-1	1.289384E-2
00.000034526000	2.935168E-1	1.240728E-2
00.000034648000	2.935168E-1	1.289384E-2
00.000034770000	2.935168E-1	1.240728E-2
00.000034892000	2.935168E-1	1.289384E-2
00.000035014000	2.903264E-1	1.216400E-2
00.000035136000	2.903264E-1	1.216400E-2
00.000035258000	2.935168E-1	1.265056E-2
00.000035380000	2.935168E-1	1.240728E-2
00.000035502000	2.903264E-1	1.216400E-2
00.000035624000	2.935168E-1	1.240728E-2
00.000035746000	2.903264E-1	1.192072E-2
00.000035868000	2.903264E-1	1.216400E-2
00.000035990000	2.935168E-1	1.265056E-2
00.000036112000	2.935168E-1	1.265056E-2
00.000036234000	2.903264E-1	1.192072E-2
00.000036356000	2.935168E-1	1.192072E-2
00.000036478000	2.903264E-1	1.240728E-2
00.000036600000	2.935168E-1	1.192072E-2
00.000036722000	2.903264E-1	1.240728E-2
00.000036844000	2.935168E-1	1.216400E-2
00.000036966000	2.903264E-1	1.192072E-2
00.000037088000	2.935168E-1	1.216400E-2
00.000037210000	2.903264E-1	1.167744E-2
00.000037332000	2.935168E-1	1.167744E-2
00.000037454000	2.903264E-1	1.216400E-2
00.000037576000	2.903264E-1	1.265056E-2
00.000037698000	2.935168E-1	1.167744E-2
00.000037820000	2.935168E-1	1.167744E-2
00.000037942000	2.903264E-1	1.265056E-2
00.000038064000	2.935168E-1	1.167744E-2
00.000038186000	2.903264E-1	1.240728E-2
00.000038308000	2.935168E-1	1.192072E-2
00.000038430000	2.903264E-1	1.240728E-2
00.000038552000	2.935168E-1	1.192072E-2
00.000038674000	2.903264E-1	1.240728E-2
00.000038796000	2.935168E-1	1.240728E-2
00.000038918000	2.903264E-1	1.192072E-2
00.000039040000	2.903264E-1	1.240728E-2
00.000039162000	2.935168E-1	1.192072E-2
00.000039284000	2.903264E-1	1.240728E-2
00.000039406000	2.935168E-1	1.192072E-2
00.000039528000	2.903264E-1	1.192072E-2
00.000039650000	2.935168E-1	1.240728E-2
00.000039772000	2.903264E-1	1.216400E-2
00.000039894000	2.935168E-1	1.240728E-2
00.000040016000	2.903264E-1	1.216400E-2
00.000040138000	2.935168E-1	1.240728E-2
00.000040260000	2.903264E-1	1.240728E-2
00.000040382000	2.935168E-1	1.216400E-2
00.000040504000	2.903264E-1	1.265056E-2
00.000040626000	2.935168E-1	1.192072E-2
00.000040748000	2.903264E-1	1.265056E-2
00.000040870000	2.935168E-1	1.216400E-2
00.000040992000	2.935168E-1	1.192072E-2
00.000041114000	2.903264E-1	1.265056E-2
00.000041236000	2.903264E-1	1.216400E-2
00.000041358000	2.935168E-1	1.265056E-2
00.000041480000	2.903264E-1	1.265056E-2
00.000041602000	2.935168E-1	1.216400E-2
00.000041724000	2.935168E-1	1.240728E-2
00.000041846000	2.903264E-1	1.265056E-2
00.000041968000	2.935168E-1	1.240728E-2
00.000042090000	2.903264E-1	1.289384E-2
00.000042212000	2.935168E-1	1.289384E-2
00.000042334000	2.903264E-1	1.240728E-2
00.000042456000	2.903264E-1	1.240728E-2
00.000042578000	2.935168E-1	1.289384E-2
00.000042700000	2.903264E-1	1.265056E-2
00.000042822000	2.935168E-1	1.289384E-2
00.000042944000	2.903264E-1	1.265056E-2
00.000043066000	2.935168E-1	1.289384E-2
00.000043188000	2.903264E-1	1.289384E-2
00.000043310000	2.935168E-1	1.240728E-2
00.000043432000	2.935168E-1	1.313712E-2
00.000043554000	2.903264E-1	1.240728E-2
00.000043676000	2.935168E-1	1.265056E-2
00.000043798000	2.903264E-1	1.289384E-2
00.000043920000	2.903264E-1	1.265056E-2
00.000044042000	2.935168E-1	1.313712E-2
00.000044164000	2.935168E-1	1.313712E-2
00.000044286000	2.903264E-1	1.265056E-2
00.000044408000	2.903264E-1	1.313712E-2
00.000044530000	2.935168E-1	1.289384E-2
00.000044652000	2.903264E-1	1.289384E-2
00.000044774000	2.935168E-1	1.313712E-2
00.000044896000	2.903264E-1	1.289384E-2
00.000045018000	2.935168E-1	1.338040E-2
00.000045140000	2.903264E-1	1.289384E-2
00.000045262000	2.935168E-1	1.338040E-2
00.000045384000	2.903264E-1	1.338040E-2
00.000045506000	2.935168E-1	1.289384E-2
00.000045628000	2.935168E-1	1.313712E-2
00.000045750000	2.903264E-1	1.289384E-2
00.000045872000	2.935168E-1	1.289384E-2
00.000045994000	2.903264E-1	1.362368E-2
00.000046116000	2.903264E-1	1.289384E-2
00.000046238000	2.935168E-1	1.362368E-2
00.000046360000	2.903264E-1	1.338040E-2
00.000046482000	2.935168E-1	1.313712E-2
00.000046604000	2.903264E-1	1.338040E-2
00.000046726000	2.935168E-1	1.313712E-2
00.000046848000	2.935168E-1	1.338040E-2
00.000046970000	2.903264E-1	1.313712E-2
00.000047092000	2.935168E-1	1.313712E-2
00.000047214000	2.903264E-1	1.362368E-2
00.000047336000	2.903264E-1	1.338040E-2
00.000047458000	2.935168E-1	1.362368E-2
00.000047580000	2.903264E-1	1.362368E-2
00.000047702000	2.935168E-1	1.338040E-2
00.000047824000	2.935168E-1	1.362368E-2
00.000047946000	2.903264E-1	1.313712E-2
00.000048068000	2.935168E-1	1.338040E-2
00.000048190000	2.903264E-1	1.386696E-2
00.000048312000	2.903264E-1	1.338040E-2
00.000048434000	2.935168E-1	1.386696E-2
00.000048556000	2.903264E-1	1.386696E-2
00.000048678000	2.935168E-1	1.338040E-2
00.000048800000	2.903264E-1	1.386696E-2
00.000048922000	2.935168E-1	1.338040E-2
00.000049044000	2.935168E-1	1.386696E-2
00.000049166000	2.903264E-1	1.338040E-2
00.000049288000	2.935168E-1	1.386696E-2
00.000049410000	2.903264E-1	1.338040E-2
00.000049532000	2.903264E-1	1.338040E-2
00.000049654000	2.935168E-1	1.411024E-2
00.000049776000	2.935168E-1	1.411024E-2
00.000049898000	2.903264E-1	1.362368E-2
00.000050020000	2.935168E-1	1.362368E-2
00.000050142000	2.903264E-1	1.411024E-2
00.000050264000	2.935168E-1	1.362368E-2
00.000050386000	2.903264E-1	1.411024E-2
00.000050508000	2.935168E-1	1.362368E-2
00.000050630000	2.903264E-1	1.411024E-2
00.000050752000	2.935168E-1	1.338040E-2
00.000050874000	2.903264E-1	1.411024E-2
00.000050996000	2.935168E-1	1.362368E-2
00.000051118000	2.903264E-1	1.411024E-2
00.000051240000	2.935168E-1	1.362368E-2
00.000051362000	2.935168E-1	1.411024E-2
00.000051484000	2.935168E-1	1.411024E-2
00.000051606000	2.935168E-1	1.362368E-2
00.000051728000	2.935168E-1	1.411024E-2
00.000051850000	2.935168E-1	1.386696E-2
00.000051972000	2.935168E-1	1.435352E-2
00.000052094000	2.935168E-1	1.362368E-2
00.000052216000	2.935168E-1	1.411024E-2
00.000052338000	2.935168E-1	1.386696E-2
00.000052460000	2.935168E-1	1.362368E-2
00.000052582000	2.903264E-1	1.435352E-2
00.000052704000	2.935168E-1	1.386696E-2
00.000052826000	2.935168E-1	1.435352E-2
00.000052948000	2.935168E-1	1.411024E-2
00.000053070000	2.903264E-1	1.386696E-2
00.000053192000	2.935168E-1	1.386696E-2
00.000053314000	2.903264E-1	1.411024E-2
00.000053436000	2.935168E-1	1.411024E-2
00.000053558000	2.935168E-1	1.411024E-2
00.000053680000	2.935168E-1	1.411024E-2
00.000053802000	2.935168E-1	1.386696E-2
00.000053924000	2.935168E-1	1.386696E-2
00.000054046000	2.935168E-1	1.411024E-2
00.000054168000	2.935168E-1	1.411024E-2
00.000054290000	2.935168E-1	1.386696E-2
00.000054412000	2.935168E-1	1.411024E-2
00.000054534000	2.935168E-1	1.411024E-2
00.000054656000	2.935168E-1	1.411024E-2
00.000054778000	2.935168E-1	1.435352E-2
00.000054900000	2.935168E-1	1.411024E-2
00.000055022000	2.903264E-1	1.386696E-2
00.000055144000	2.935168E-1	1.459680E-2
00.000055266000	2.935168E-1	1.386696E-2
00.000055388000	2.935168E-1	1.411024E-2
00.000055510000	2.935168E-1	1.459680E-2
00.000055632000	2.935168E-1	1.411024E-2
00.000055754000	2.935168E-1	1.435352E-2
00.000055876000	2.935168E-1	1.435352E-2
00.000055998000	2.935168E-1	1.411024E-2
00.000056120000	2.935168E-1	1.411024E-2
00.000056242000	2.935168E-1	1.435352E-2
00.000056364000	2.935168E-1	1.435352E-2
00.000056486000	2.935168E-1	1.411024E-2
00.000056608000	2.935168E-1	1.411024E-2
00.000056730000	2.935168E-1	1.459680E-2
00.000056852000	2.935168E-1	1.435352E-2
00.000056974000	2.935168E-1	1.411024E-2
00.000057096000	2.935168E-1	1.435352E-2
00.000057218000	2.935168E-1	1.411024E-2
00.000057340000	2.935168E-1	1.411024E-2
00.000057462000	2.935168E-1	1.435352E-2
00.000057584000	2.935168E-1	1.411024E-2
00.000057706000	2.935168E-1	1.459680E-2
00.000057828000	2.935168E-1	1.435352E-2
00.000057950000	2.935168E-1	1.411024E-2
00.000058072000	2.935168E-1	1.435352E-2
00.000058194000	2.935168E-1	1.411024E-2
00.000058316000	2.935168E-1	1.459680E-2
00.000058438000	2.935168E-1	1.411024E-2
00.000058560000	2.935168E-1	1.435352E-2
00.000058682000	2.935168E-1	1.411024E-2
00.000058804000	2.935168E-1	1.435352E-2
00.000058926000	2.935168E-1	1.411024E-2
00.000059048000	2.935168E-1	1.459680E-2
00.000059170000	2.935168E-1	1.411024E-2
00.000059292000	2.935168E-1	1.459680E-2
00.000059414000	2.935168E-1	1.411024E-2
00.000059536000	2.935168E-1	1.411024E-2
00.000059658000	2.935168E-1	1.459680E-2
00.000059780000	2.935168E-1	1.411024E-2
00.000059902000	2.935168E-1	1.459680E-2
00.000060024000	2.935168E-1	1.411024E-2
00.000060146000	2.935168E-1	1.459680E-2
00.000060268000	2.935168E-1	1.459680E-2
00.000060390000	2.935168E-1	1.386696E-2
00.000060512000	2.935168E-1	1.435352E-2
00.000060634000	2.935168E-1	1.459680E-2
00.000060756000	2.935168E-1	1.411024E-2
00.000060878000	2.935168E-1	1.484008E-2
00.000061000000	2.935168E-1	1.411024E-2
00.000061122000	2.935168E-1	1.484008E-2
00.000061244000	2.935168E-1	1.459680E-2
00.000061366000	2.935168E-1	1.435352E-2
00.000061488000	2.935168E-1	1.484008E-2
00.000061610000	2.935168E-1	1.411024E-2
00.000061732000	2.935168E-1	1.459680E-2
00.000061854000	2.935168E-1	1.411024E-2
00.000061976000	2.935168E-1	1.411024E-2
00.000062098000	2.935168E-1	1.484008E-2
00.000062220000	2.935168E-1	1.459680E-2
00.000062342000	2.935168E-1	1.435352E-2
00.000062464000	2.935168E-1	1.459680E-2
00.000062586000	2.935168E-1	1.435352E-2
00.000062708000	2.935168E-1	1.411024E-2
00.000062830000	2.935168E-1	1.484008E-2
00.000062952000	2.935168E-1	1.435352E-2
00.000063074000	2.935168E-1	1.484008E-2
00.000063196000	2.935168E-1	1.411024E-2
00.000063318000	2.935168E-1	1.484008E-2
00.000063440000	2.935168E-1	1.435352E-2
00.000063562000	2.935168E-1	1.484008E-2
00.000063684000	2.935168E-1	1.484008E-2
00.000063806000	2.935168E-1	1.435352E-2
00.000063928000	2.935168E-1	1.435352E-2
00.000064050000	2.935168E-1	1.484008E-2
00.000064172000	2.935168E-1	1.459680E-2
00.000064294000	2.935168E-1	1.411024E-2
00.000064416000	2.935168E-1	1.459680E-2
00.000064538000	2.935168E-1	1.435352E-2
00.000064660000	2.935168E-1	1.435352E-2
00.000064782000	2.935168E-1	1.484008E-2
00.000064904000	2.935168E-1	1.435352E-2
00.000065026000	2.935168E-1	1.484008E-2
00.000065148000	2.935168E-1	1.435352E-2
00.000065270000	2.935168E-1	1.484008E-2
00.000065392000	2.935168E-1	1.484008E-2
00.000065514000	2.935168E-1	1.435352E-2
00.000065636000	2.935168E-1	1.484008E-2
00.000065758000	2.935168E-1	1.435352E-2
00.000065880000	2.935168E-1	1.484008E-2
00.000066002000	2.935168E-1	1.435352E-2
00.000066124000	2.935168E-1	1.435352E-2
00.000066246000	2.935168E-1	1.484008E-2
00.000066368000	2.935168E-1	1.435352E-2
00.000066490000	2.935168E-1	1.484008E-2
00.000066612000	2.935168E-1	1.484008E-2
00.000066734000	2.935168E-1	1.435352E-2
00.000066856000	2.935168E-1	1.484008E-2
00.000066978000	2.935168E-1	1.435352E-2
00.000067100000	2.935168E-1	1.508336E-2
00.000067222000	2.935168E-1	1.435352E-2
00.000067344000	2.935168E-1	1.435352E-2
00.000067466000	2.935168E-1	1.484008E-2
00.000067588000	2.935168E-1	1.459680E-2
00.000067710000	2.935168E-1	1.508336E-2
00.000067832000	2.935168E-1	1.435352E-2
00.000067954000	2.935168E-1	1.508336E-2
00.000068076000	2.935168E-1	1.459680E-2
00.000068198000	2.935168E-1	1.484008E-2
00.000068320000	2.935168E-1	1.484008E-2
00.000068442000	2.935168E-1	1.459680E-2
00.000068564000	2.935168E-1	1.484008E-2
00.000068686000	2.935168E-1	1.435352E-2
00.000068808000	2.935168E-1	1.508336E-2
00.000068930000	2.935168E-1	1.435352E-2
00.000069052000	2.935168E-1	1.435352E-2
00.000069174000	2.935168E-1	1.508336E-2
00.000069296000	2.935168E-1	1.435352E-2
00.000069418000	2.935168E-1	1.508336E-2
00.000069540000	2.935168E-1	1.435352E-2
00.000069662000	2.935168E-1	1.508336E-2
00.000069784000	2.935168E-1	1.459680E-2
00.000069906000	2.935168E-1	1.532664E-2
00.000070028000	2.935168E-1	1.435352E-2
00.000070150000	2.935168E-1	1.508336E-2
00.000070272000	2.935168E-1	1.484008E-2
00.000070394000	2.935168E-1	1.459680E-2
00.000070516000	2.935168E-1	1.459680E-2
00.000070638000	2.935168E-1	1.508336E-2
00.000070760000	2.935168E-1	1.508336E-2
00.000070882000	2.935168E-1	1.459680E-2
00.000071004000	2.935168E-1	1.459680E-2
00.000071126000	2.935168E-1	1.508336E-2
00.000071248000	2.935168E-1	1.459680E-2
00.000071370000	2.935168E-1	1.508336E-2
00.000071492000	2.935168E-1	1.435352E-2
00.000071614000	2.935168E-1	1.508336E-2
00.000071736000	2.935168E-1	1.459680E-2
00.000071858000	2.935168E-1	1.508336E-2
00.000071980000	2.935168E-1	1.459680E-2
00.000072102000	2.935168E-1	1.508336E-2
00.000072224000	2.935168E-1	1.459680E-2
00.000072346000	2.935168E-1	1.508336E-2
00.000072468000	2.935168E-1	1.508336E-2
00.000072590000	2.935168E-1	1.459680E-2
00.000072712000	2.935168E-1	1.459680E-2
00.000072834000	2.935168E-1	1.508336E-2
00.000072956000	2.935168E-1	1.508336E-2
00.000073078000	2.935168E-1	1.459680E-2
00.000073200000	2.935168E-1	1.508336E-2
00.000073322000	2.935168E-1	1.459680E-2
00.000073444000	2.935168E-1	1.508336E-2
00.000073566000	2.935168E-1	1.459680E-2
00.000073688000	2.935168E-1	1.508336E-2
00.000073810000	2.935168E-1	1.459680E-2
00.000073932000	2.935168E-1	1.459680E-2
00.000074054000	2.935168E-1	1.508336E-2
00.000074176000	2.935168E-1	1.508336E-2
00.000074298000	2.935168E-1	1.459680E-2
00.000074420000	2.935168E-1	1.508336E-2
00.000074542000	2.935168E-1	1.459680E-2
00.000074664000	2.935168E-1	1.508336E-2
00.000074786000	2.935168E-1	1.459680E-2
00.000074908000	2.935168E-1	1.508336E-2
00.000075030000	2.935168E-1	1.459680E-2
00.000075152000	2.935168E-1	1.484008E-2
00.000075274000	2.935168E-1	1.508336E-2
00.000075396000	2.935168E-1	1.508336E-2
00.000075518000	2.935168E-1	1.484008E-2
00.000075640000	2.935168E-1	1.508336E-2
00.000075762000	2.935168E-1	1.459680E-2
00.000075884000	2.935168E-1	1.508336E-2
00.000076006000	2.935168E-1	1.459680E-2
00.000076128000	2.935168E-1	1.459680E-2
00.000076250000	2.935168E-1	1.532664E-2
00.000076372000	2.935168E-1	1.459680E-2
00.000076494000	2.935168E-1	1.532664E-2
00.000076616000	2.935168E-1	1.484008E-2
00.000076738000	2.935168E-1	1.532664E-2
00.000076860000	2.935168E-1	1.459680E-2
00.000076982000	2.935168E-1	1.532664E-2
00.000077104000	2.935168E-1	1.532664E-2
00.000077226000	2.935168E-1	1.484008E-2
00.000077348000	2.935168E-1	1.484008E-2
00.000077470000	2.935168E-1	1.532664E-2
00.000077592000	2.935168E-1	1.484008E-2
00.000077714000	2.935168E-1	1.532664E-2
00.000077836000	2.935168E-1	1.532664E-2
00.000077958000	2.935168E-1	1.484008E-2
00.000078080000	2.935168E-1	1.532664E-2
00.000078202000	2.935168E-1	1.484008E-2
00.000078324000	2.935168E-1	1.484008E-2
00.000078446000	2.935168E-1	1.532664E-2
00.000078568000	2.935168E-1	1.484008E-2
00.000078690000	2.935168E-1	1.532664E-2
00.000078812000	2.935168E-1	1.532664E-2
00.000078934000	2.935168E-1	1.508336E-2
00.000079056000	2.935168E-1	1.532664E-2
00.000079178000	2.935168E-1	1.484008E-2
00.000079300000	2.935168E-1	1.532664E-2
00.000079422000	2.935168E-1	1.484008E-2
00.000079544000	2.935168E-1	1.532664E-2
00.000079666000	2.935168E-1	1.484008E-2
00.000079788000	2.935168E-1	1.484008E-2
00.000079910000	2.935168E-1	1.532664E-2
00.000080032000	2.935168E-1	1.484008E-2
00.000080154000	2.935168E-1	1.532664E-2
00.000080276000	2.935168E-1	1.508336E-2
00.000080398000	2.935168E-1	1.532664E-2
00.000080520000	2.935168E-1	1.484008E-2
00.000080642000	2.935168E-1	1.532664E-2
00.000080764000	2.935168E-1	1.484008E-2
00.000080886000	2.935168E-1	1.532664E-2
00.000081008000	2.935168E-1	1.508336E-2
00.000081130000	2.935168E-1	1.532664E-2
00.000081252000	2.935168E-1	1.484008E-2
00.000081374000	2.935168E-1	1.556992E-2
00.000081496000	2.935168E-1	1.484008E-2
00.000081618000	2.935168E-1	1.556992E-2
00.000081740000	2.935168E-1	1.484008E-2
00.000081862000	2.935168E-1	1.556992E-2
00.000081984000	2.935168E-1	1.556992E-2
00.000082106000	2.935168E-1	1.484008E-2
00.000082228000	2.935168E-1	1.556992E-2
00.000082350000	2.935168E-1	1.459680E-2
00.000082472000	2.935168E-1	1.556992E-2
00.000082594000	2.935168E-1	1.484008E-2
00.000082716000	2.935168E-1	1.508336E-2
00.000082838000	2.935168E-1	1.532664E-2
00.000082960000	2.935168E-1	1.532664E-2
00.000083082000	2.935168E-1	1.508336E-2
00.000083204000	2.935168E-1	1.556992E-2
00.000083326000	2.935168E-1	1.484008E-2
00.000083448000	2.935168E-1	1.556992E-2
00.000083570000	2.935168E-1	1.484008E-2
00.000083692000	2.935168E-1	1.556992E-2
00.000083814000	2.935168E-1	1.484008E-2
00.000083936000	2.935168E-1	1.508336E-2
00.000084058000	2.935168E-1	1.556992E-2
00.000084180000	2.935168E-1	1.508336E-2
00.000084302000	2.935168E-1	1.532664E-2
00.000084424000	2.935168E-1	1.508336E-2
00.000084546000	2.935168E-1	1.556992E-2
00.000084668000	2.935168E-1	1.532664E-2
00.000084790000	2.935168E-1	1.484008E-2
00.000084912000	2.935168E-1	1.532664E-2
00.000085034000	2.935168E-1	1.508336E-2
00.000085156000	2.935168E-1	1.556992E-2
00.000085278000	2.935168E-1	1.508336E-2
00.000085400000	2.935168E-1	1.508336E-2
00.000085522000	2.935168E-1	1.556992E-2
00.000085644000	2.935168E-1	1.532664E-2
00.000085766000	2.935168E-1	1.508336E-2
00.000085888000	2.935168E-1	1.556992E-2
00.000086010000	2.935168E-1	1.508336E-2
00.000086132000	2.935168E-1	1.556992E-2
00.000086254000	2.935168E-1	1.508336E-2
00.000086376000	2.935168E-1	1.556992E-2
00.000086498000	2.935168E-1	1.508336E-2
00.000086620000	2.935168E-1	1.508336E-2
00.000086742000	2.935168E-1	1.556992E-2
00.000086864000	2.935168E-1	1.508336E-2
00.000086986000	2.935168E-1	1.556992E-2
00.000087108000	2.935168E-1	1.556992E-2
00.000087230000	2.935168E-1	1.508336E-2
00.000087352000	2.935168E-1	1.556992E-2
00.000087474000	2.935168E-1	1.508336E-2
00.000087596000	2.935168E-1	1.508336E-2
00.000087718000	2.935168E-1	1.556992E-2
00.000087840000	2.935168E-1	1.508336E-2
00.000087962000	2.935168E-1	1.556992E-2
00.000088084000	2.935168E-1	1.508336E-2
00.000088206000	2.935168E-1	1.556992E-2
00.000088328000	2.935168E-1	1.508336E-2
00.000088450000	2.935168E-1	1.581320E-2
00.000088572000	2.935168E-1	1.556992E-2
00.000088694000	2.935168E-1	1.532664E-2
00.000088816000	2.935168E-1	1.532664E-2
00.000088938000	2.935168E-1	1.556992E-2
00.000089060000	2.935168E-1	1.556992E-2
00.000089182000	2.935168E-1	1.508336E-2
00.000089304000	2.935168E-1	1.556992E-2
00.000089426000	2.935168E-1	1.532664E-2
00.000089548000	2.935168E-1	1.532664E-2
00.000089670000	2.935168E-1	1.581320E-2
00.000089792000	2.935168E-1	1.556992E-2
00.000089914000	2.935168E-1	1.532664E-2
00.000090036000	2.935168E-1	1.556992E-2
00.000090158000	2.935168E-1	1.532664E-2
00.000090280000	2.935168E-1	1.581320E-2
00.000090402000	2.935168E-1	1.508336E-2
00.000090524000	2.935168E-1	1.581320E-2
00.000090646000	2.935168E-1	1.532664E-2
00.000090768000	2.935168E-1	1.581320E-2
00.000090890000	2.935168E-1	1.532664E-2
00.000091012000	2.935168E-1	1.581320E-2
00.000091134000	2.935168E-1	1.532664E-2
00.000091256000	2.935168E-1	1.556992E-2
00.000091378000	2.935168E-1	1.532664E-2
00.000091500000	2.935168E-1	1.581320E-2
00.000091622000	2.935168E-1	1.508336E-2
00.000091744000	2.935168E-1	1.581320E-2
00.000091866000	2.935168E-1	1.532664E-2
00.000091988000	2.935168E-1	1.581320E-2
00.000092110000	2.935168E-1	1.532664E-2
00.000092232000	2.935168E-1	1.532664E-2
00.000092354000	2.935168E-1	1.581320E-2
00.000092476000	2.935168E-1	1.532664E-2
00.000092598000	2.935168E-1	1.581320E-2
00.000092720000	2.935168E-1	1.532664E-2
00.000092842000	2.935168E-1	1.581320E-2
00.000092964000	2.935168E-1	1.581320E-2
00.000093086000	2.935168E-1	1.532664E-2
00.000093208000	2.935168E-1	1.532664E-2
00.000093330000	2.935168E-1	1.581320E-2
00.000093452000	2.935168E-1	1.532664E-2
00.000093574000	2.935168E-1	1.581320E-2
00.000093696000	2.935168E-1	1.532664E-2
00.000093818000	2.935168E-1	1.581320E-2
00.000093940000	2.935168E-1	1.581320E-2
00.000094062000	2.935168E-1	1.556992E-2
00.000094184000	2.935168E-1	1.556992E-2
00.000094306000	2.935168E-1	1.581320E-2
00.000094428000	2.935168E-1	1.556992E-2
00.000094550000	2.935168E-1	1.581320E-2
00.000094672000	2.935168E-1	1.532664E-2
00.000094794000	2.935168E-1	1.581320E-2
00.000094916000	2.935168E-1	1.532664E-2
00.000095038000	2.935168E-1	1.605648E-2
00.000095160000	2.935168E-1	1.605648E-2
00.000095282000	2.935168E-1	1.532664E-2
00.000095404000	2.935168E-1	1.556992E-2
00.000095526000	2.935168E-1	1.605648E-2
00.000095648000	2.935168E-1	1.581320E-2
00.000095770000	2.935168E-1	1.556992E-2
00.000095892000	2.935168E-1	1.556992E-2
00.000096014000	2.935168E-1	1.581320E-2
00.000096136000	2.935168E-1	1.605648E-2
00.000096258000	2.935168E-1	1.556992E-2
00.000096380000	2.935168E-1	1.605648E-2
00.000096502000	2.935168E-1	1.556992E-2
00.000096624000	2.935168E-1	1.581320E-2
00.000096746000	2.935168E-1	1.532664E-2
00.000096868000	2.935168E-1	1.532664E-2
00.000096990000	2.935168E-1	1.605648E-2
00.000097112000	2.935168E-1	1.581320E-2
00.000097234000	2.935168E-1	1.556992E-2
00.000097356000	2.935168E-1	1.556992E-2
00.000097478000	2.935168E-1	1.605648E-2
00.000097600000	2.935168E-1	1.556992E-2
00.000097722000	2.935168E-1	1.605648E-2
00.000097844000	2.935168E-1	1.605648E-2
00.000097966000	2.935168E-1	1.532664E-2
00.000098088000	2.935168E-1	1.605648E-2
00.000098210000	2.935168E-1	1.556992E-2
00.000098332000	2.935168E-1	1.556992E-2
00.000098454000	2.935168E-1	1.605648E-2
00.000098576000	2.935168E-1	1.556992E-2
00.000098698000	2.935168E-1	1.605648E-2
00.000098820000	2.935168E-1	1.605648E-2
00.000098942000	2.935168E-1	1.556992E-2
00.000099064000	2.935168E-1	1.605648E-2
00.000099186000	2.935168E-1	1.581320E-2
00.000099308000	2.935168E-1	1.605648E-2
00.000099430000	2.935168E-1	1.556992E-2
00.000099552000	2.935168E-1	1.605648E-2
00.000099674000	2.935168E-1	1.556992E-2
00.000099796000	2.935168E-1	1.581320E-2
00.000099918000	2.935168E-1	1.605648E-2
00.000100040000	2.935168E-1	1.605648E-2
00.000100162000	2.935168E-1	1.556992E-2
00.000100284000	2.935168E-1	1.581320E-2
00.000100406000	2.935168E-1	1.629976E-2
00.000100528000	2.935168E-1	1.605648E-2
00.000100650000	2.935168E-1	1.581320E-2
00.000100772000	2.935168E-1	1.605648E-2
00.000100894000	2.935168E-1	1.581320E-2
00.000101016000	2.935168E-1	1.581320E-2
00.000101138000	2.935168E-1	1.629976E-2
00.000101260000	2.935168E-1	1.629976E-2
00.000101382000	2.935168E-1	1.556992E-2
00.000101504000	2.935168E-1	1.581320E-2
00.000101626000	2.935168E-1	1.629976E-2
00.000101748000	2.935168E-1	1.605648E-2
00.000101870000	2.935168E-1	1.581320E-2
00.000101992000	2.935168E-1	1.605648E-2
00.000102114000	2.935168E-1	1.581320E-2
00.000102236000	2.935168E-1	1.629976E-2
00.000102358000	2.935168E-1	1.581320E-2
00.000102480000	2.935168E-1	1.629976E-2
00.000102602000	2.935168E-1	1.556992E-2
00.000102724000	2.935168E-1	1.556992E-2
00.000102846000	2.935168E-1	1.629976E-2
00.000102968000	2.935168E-1	1.556992E-2
00.000103090000	2.935168E-1	1.629976E-2
00.000103212000	2.935168E-1	1.581320E-2
00.000103334000	2.935168E-1	1.629976E-2
00.000103456000	2.935168E-1	1.629976E-2
00.000103578000	2.935168E-1	1.581320E-2
00.000103700000	2.935168E-1	1.629976E-2
00.000103822000	2.935168E-1	1.581320E-2
00.000103944000	2.935168E-1	1.581320E-2
00.000104066000	2.935168E-1	1.629976E-2
00.000104188000	2.935168E-1	1.581320E-2
00.000104310000	2.935168E-1	1.629976E-2
00.000104432000	2.935168E-1	1.605648E-2
00.000104554000	2.935168E-1	1.629976E-2
00.000104676000	2.935168E-1	1.581320E-2
00.000104798000	2.935168E-1	1.629976E-2
00.000104920000	2.935168E-1	1.581320E-2
00.000105042000	2.935168E-1	1.629976E-2
00.000105164000	2.935168E-1	1.556992E-2
00.000105286000	2.935168E-1	1.629976E-2
00.000105408000	2.935168E-1	1.581320E-2
00.000105530000	2.935168E-1	1.629976E-2
00.000105652000	2.935168E-1	1.581320E-2
00.000105774000	2.935168E-1	1.629976E-2
00.000105896000	2.935168E-1	1.581320E-2
00.000106018000	2.935168E-1	1.629976E-2
00.000106140000	2.935168E-1	1.581320E-2
00.000106262000	2.935168E-1	1.629976E-2
00.000106384000	2.935168E-1	1.605648E-2
00.000106506000	2.935168E-1	1.629976E-2
00.000106628000	2.935168E-1	1.605648E-2
00.000106750000	2.935168E-1	1.629976E-2
00.000106872000	2.935168E-1	1.629976E-2
00.000106994000	2.935168E-1	1.581320E-2
00.000107116000	2.935168E-1	1.605648E-2
00.000107238000	2.935168E-1	1.629976E-2
00.000107360000	2.935168E-1	1.605648E-2
00.000107482000	2.935168E-1	1.629976E-2
00.000107604000	2.935168E-1	1.605648E-2
00.000107726000	2.935168E-1	1.654304E-2
00.000107848000	2.935168E-1	1.629976E-2
00.000107970000	2.935168E-1	1.581320E-2
00.000108092000	2.935168E-1	1.605648E-2
00.000108214000	2.935168E-1	1.629976E-2
00.000108336000	2.935168E-1	1.605648E-2
00.000108458000	2.935168E-1	1.629976E-2
00.000108580000	2.935168E-1	1.605648E-2
00.000108702000	2.935168E-1	1.629976E-2
00.000108824000	2.935168E-1	1.605648E-2
00.000108946000	2.935168E-1	1.629976E-2
00.000109068000	2.935168E-1	1.629976E-2
00.000109190000	2.935168E-1	1.605648E-2
00.000109312000	2.935168E-1	1.629976E-2
00.000109434000	2.935168E-1	1.605648E-2
00.000109556000	2.935168E-1	1.629976E-2
00.000109678000	2.935168E-1	1.605648E-2
00.000109800000	2.935168E-1	1.605648E-2
00.000109922000	2.935168E-1	1.654304E-2
00.000110044000	2.935168E-1	1.654304E-2
00.000110166000	2.935168E-1	1.605648E-2
00.000110288000	2.935168E-1	1.581320E-2
00.000110410000	2.935168E-1	1.654304E-2
00.000110532000	2.935168E-1	1.654304E-2
00.000110654000	2.935168E-1	1.605648E-2
00.000110776000	2.935168E-1	1.654304E-2
00.000110898000	2.935168E-1	1.629976E-2
00.000111020000	2.935168E-1	1.629976E-2
00.000111142000	2.935168E-1	1.654304E-2
00.000111264000	2.935168E-1	1.605648E-2
00.000111386000	2.935168E-1	1.654304E-2
00.000111508000	2.935168E-1	1.605648E-2
00.000111630000	2.935168E-1	1.654304E-2
00.000111752000	2.935168E-1	1.654304E-2
00.000111874000	2.935168E-1	1.605648E-2
00.000111996000	3.190400E-1	1.654304E-2
00.000112118000	-2.520416E-1	1.313712E-2
00.000112240000	-2.520416E-1	1.289384E-2
00.000112362000	-2.839456E-1	2.432800E-3
00.000112484000	-2.839456E-1	2.432800E-3
00.000112606000	-2.903264E-1	-3.405920E-3
00.000112728000	-2.903264E-1	-3.405920E-3
00.000112850000	-2.935168E-1	-3.892480E-3
00.000112972000	-2.935168E-1	-3.892480E-3
00.000113094000	-2.935168E-1	-3.892480E-3
00.000113216000	-2.935168E-1	-3.892480E-3
00.000113338000	-2.967072E-1	-3.892480E-3
00.000113460000	-2.967072E-1	-3.892480E-3
00.000113582000	-2.998976E-1	-3.892480E-3
00.000113704000	-2.998976E-1	-3.892480E-3
00.000113826000	-2.998976E-1	-3.892480E-3
00.000113948000	-2.998976E-1	-3.892480E-3
00.000114070000	-2.998976E-1	-3.892480E-3
00.000114192000	-2.998976E-1	-3.892480E-3
00.000114314000	-3.030880E-1	-3.892480E-3
00.000114436000	-3.030880E-1	-3.892480E-3
00.000114558000	-3.030880E-1	-3.892480E-3
00.000114680000	-3.030880E-1	-3.892480E-3
00.000114802000	-3.030880E-1	-3.892480E-3
00.000114924000	-3.030880E-1	-3.892480E-3
00.000115046000	-3.030880E-1	-3.892480E-3
00.000115168000	-3.030880E-1	-3.892480E-3
00.000115290000	-3.030880E-1	-3.892480E-3
00.000115412000	-3.030880E-1	-3.892480E-3
00.000115534000	-3.030880E-1	-3.892480E-3
00.000115656000	-3.030880E-1	-3.892480E-3
00.000115778000	-3.030880E-1	-3.892480E-3
00.000115900000	-3.030880E-1	-3.892480E-3
		-3.892480E-3
		-3.892480E-3
		-3.892480E-3
		-3.892480E-3
		-3.892480E-3
		-3.892480E-3
		-3.892480E-3
		-3.892480E-3
		-3.892480E-3
		-3.892480E-3
		-3.892480E-3
		-3.892480E-3
		-3.892480E-3
		-3.892480E-3
		-3.892480E-3
		-3.892480E-3
		-3.892480E-3
		-3.892480E-3
		-3.892480E-3
		-3.892480E-3
		-3.892480E-3
		-3.892480E-3
		-3.892480E-3
		-3.892480E-3
		-3.892480E-3
		-3.892480E-3
		-3.892480E-3
		-3.892480E-3
		-3.892480E-3
		-3.892480E-3
		-3.892480E-3
		-3.892480E-3
		-3.892480E-3
		-3.892480E-3
		-3.892480E-3
		-3.892480E-3
		-3.892480E-3
		-3.892480E-3
		-3.892480E-3
		-3.892480E-3
		-3.892480E-3
		-3.892480E-3
		-3.892480E-3
		-3.892480E-3
		-3.892480E-3
		-3.892480E-3
		-3.892480E-3
		-3.892480E-3
		-3.892480E-3
		
