00.000000000000	-6.452200E-3	2.689440E-3
00.000000122000	-6.452200E-3	2.482560E-3
00.000000244000	-6.452200E-3	2.689440E-3
00.000000366000	-6.452200E-3	2.482560E-3
00.000000488000	-6.452200E-3	2.689440E-3
00.000000610000	-6.452200E-3	2.275680E-3
00.000000732000	-6.452200E-3	2.896320E-3
00.000000854000	-6.452200E-3	2.482560E-3
00.000000976000	-6.452200E-3	2.896320E-3
00.000001098000	-6.452200E-3	2.275680E-3
00.000001220000	-6.452200E-3	2.689440E-3
00.000001342000	-6.452200E-3	2.482560E-3
00.000001464000	-6.452200E-3	2.482560E-3
00.000001586000	-6.452200E-3	2.896320E-3
00.000001708000	-6.452200E-3	2.482560E-3
00.000001830000	-6.452200E-3	2.689440E-3
00.000001952000	-6.452200E-3	2.689440E-3
00.000002074000	-6.452200E-3	2.275680E-3
00.000002196000	-6.452200E-3	2.896320E-3
00.000002318000	-6.452200E-3	2.275680E-3
00.000002440000	-6.452200E-3	2.896320E-3
00.000002562000	-6.452200E-3	2.275680E-3
00.000002684000	-6.452200E-3	2.482560E-3
00.000002806000	-6.452200E-3	2.689440E-3
00.000002928000	-6.452200E-3	2.482560E-3
00.000003050000	-6.452200E-3	2.896320E-3
00.000003172000	-6.452200E-3	2.275680E-3
00.000003294000	-6.452200E-3	2.896320E-3
00.000003416000	-6.452200E-3	2.896320E-3
00.000003538000	-6.452200E-3	2.275680E-3
00.000003660000	-6.452200E-3	2.689440E-3
00.000003782000	-6.452200E-3	2.482560E-3
00.000003904000	-6.452200E-3	2.896320E-3
00.000004026000	-6.452200E-3	2.482560E-3
00.000004148000	-6.452200E-3	2.896320E-3
00.000004270000	-6.452200E-3	2.275680E-3
00.000004392000	-6.452200E-3	2.482560E-3
00.000004514000	-6.452200E-3	2.689440E-3
00.000004636000	-6.452200E-3	2.275680E-3
00.000004758000	-6.452200E-3	2.689440E-3
00.000004880000	-6.452200E-3	2.275680E-3
00.000005002000	-6.452200E-3	2.896320E-3
00.000005124000	-6.452200E-3	2.689440E-3
00.000005246000	-6.452200E-3	2.482560E-3
00.000005368000	-6.452200E-3	2.689440E-3
00.000005490000	-6.452200E-3	2.275680E-3
00.000005612000	-6.452200E-3	2.689440E-3
00.000005734000	-6.452200E-3	2.275680E-3
00.000005856000	-6.452200E-3	2.896320E-3
00.000005978000	-6.452200E-3	2.068800E-3
00.000006100000	-6.452200E-3	2.275680E-3
00.000006222000	-6.452200E-3	2.689440E-3
00.000006344000	-6.452200E-3	2.689440E-3
00.000006466000	-6.452200E-3	2.275680E-3
00.000006588000	-6.452200E-3	2.275680E-3
00.000006710000	-6.452200E-3	2.689440E-3
00.000006832000	-6.452200E-3	2.275680E-3
00.000006954000	-6.452200E-3	2.689440E-3
00.000007076000	-6.452200E-3	2.482560E-3
00.000007198000	-6.452200E-3	2.689440E-3
00.000007320000	-6.452200E-3	2.482560E-3
00.000007442000	-6.452200E-3	2.896320E-3
00.000007564000	-6.452200E-3	2.275680E-3
00.000007686000	-6.452200E-3	2.896320E-3
00.000007808000	-6.452200E-3	2.275680E-3
00.000007930000	-6.452200E-3	2.896320E-3
00.000008052000	-6.452200E-3	2.275680E-3
00.000008174000	-6.452200E-3	2.896320E-3
00.000008296000	-6.452200E-3	2.068800E-3
00.000008418000	-6.452200E-3	2.896320E-3
00.000008540000	-6.452200E-3	2.896320E-3
00.000008662000	-6.452200E-3	2.068800E-3
00.000008784000	-6.452200E-3	2.896320E-3
00.000008906000	-6.452200E-3	2.482560E-3
00.000009028000	-6.452200E-3	2.689440E-3
00.000009150000	-6.452200E-3	2.275680E-3
00.000009272000	-6.452200E-3	2.896320E-3
00.000009394000	-6.452200E-3	2.275680E-3
00.000009516000	-6.452200E-3	2.896320E-3
00.000009638000	-6.452200E-3	2.275680E-3
00.000009760000	-6.452200E-3	2.896320E-3
00.000009882000	-6.452200E-3	2.275680E-3
00.000010004000	-6.452200E-3	2.896320E-3
00.000010126000	-6.452200E-3	2.275680E-3
00.000010248000	-6.452200E-3	2.689440E-3
00.000010370000	-6.452200E-3	2.275680E-3
00.000010492000	-6.452200E-3	2.482560E-3
00.000010614000	-6.452200E-3	2.896320E-3
00.000010736000	-6.452200E-3	2.482560E-3
00.000010858000	-6.452200E-3	2.689440E-3
00.000010980000	-6.452200E-3	2.482560E-3
00.000011102000	-6.452200E-3	2.689440E-3
00.000011224000	-6.452200E-3	2.689440E-3
00.000011346000	-6.452200E-3	2.482560E-3
00.000011468000	-6.452200E-3	2.689440E-3
00.000011590000	-6.452200E-3	2.482560E-3
00.000011712000	-6.452200E-3	2.275680E-3
00.000011834000	-6.452200E-3	2.896320E-3
00.000011956000	-3.226100E-2	2.275680E-3
00.000012078000	3.226100E-2	2.896320E-3
00.000012200000	6.774810E-2	2.482560E-3
00.000012322000	5.774719E-1	2.048112E-2
00.000012444000	5.677936E-1	2.048112E-2
00.000012566000	5.774719E-1	3.020448E-2
00.000012688000	5.774719E-1	3.020448E-2
00.000012810000	5.806980E-1	3.579024E-2
00.000012932000	5.806980E-1	3.579024E-2
00.000013054000	5.839241E-1	3.868656E-2
00.000013176000	5.839241E-1	3.847968E-2
00.000013298000	5.871502E-1	3.992784E-2
00.000013420000	5.871502E-1	3.992784E-2
00.000013542000	5.871502E-1	4.075536E-2
00.000013664000	5.871502E-1	4.116912E-2
00.000013786000	5.903763E-1	4.034160E-2
00.000013908000	5.903763E-1	4.054848E-2
00.000014030000	5.903763E-1	4.116912E-2
00.000014152000	5.903763E-1	4.096224E-2
00.000014274000	5.903763E-1	4.034160E-2
00.000014396000	5.903763E-1	4.075536E-2
00.000014518000	5.903763E-1	3.992784E-2
00.000014640000	5.903763E-1	4.013472E-2
00.000014762000	5.903763E-1	3.972096E-2
00.000014884000	5.903763E-1	3.972096E-2
00.000015006000	5.903763E-1	3.930720E-2
00.000015128000	5.903763E-1	3.930720E-2
00.000015250000	5.903763E-1	3.868656E-2
00.000015372000	5.903763E-1	3.889344E-2
00.000015494000	5.903763E-1	3.827280E-2
00.000015616000	5.903763E-1	3.827280E-2
00.000015738000	5.903763E-1	3.847968E-2
00.000015860000	5.903763E-1	3.847968E-2
00.000015982000	5.936024E-1	3.806592E-2
00.000016104000	5.936024E-1	3.827280E-2
00.000016226000	5.936024E-1	3.806592E-2
00.000016348000	5.936024E-1	3.847968E-2
00.000016470000	5.936024E-1	3.806592E-2
00.000016592000	5.936024E-1	3.827280E-2
00.000016714000	5.936024E-1	3.868656E-2
00.000016836000	5.936024E-1	3.827280E-2
00.000016958000	5.936024E-1	3.889344E-2
00.000017080000	5.936024E-1	3.847968E-2
00.000017202000	5.936024E-1	3.889344E-2
00.000017324000	5.936024E-1	3.910032E-2
00.000017446000	5.936024E-1	3.847968E-2
00.000017568000	5.936024E-1	3.847968E-2
00.000017690000	5.936024E-1	3.889344E-2
00.000017812000	5.936024E-1	3.868656E-2
00.000017934000	5.936024E-1	3.910032E-2
00.000018056000	5.936024E-1	3.910032E-2
00.000018178000	5.936024E-1	3.868656E-2
00.000018300000	5.936024E-1	3.910032E-2
00.000018422000	5.936024E-1	3.847968E-2
00.000018544000	5.936024E-1	3.847968E-2
00.000018666000	5.936024E-1	3.889344E-2
00.000018788000	5.936024E-1	3.847968E-2
00.000018910000	5.936024E-1	3.910032E-2
00.000019032000	5.936024E-1	3.847968E-2
00.000019154000	5.936024E-1	3.889344E-2
00.000019276000	5.936024E-1	3.889344E-2
00.000019398000	5.936024E-1	3.827280E-2
00.000019520000	5.936024E-1	3.889344E-2
00.000019642000	5.936024E-1	3.785904E-2
00.000019764000	5.936024E-1	3.868656E-2
00.000019886000	5.936024E-1	3.785904E-2
00.000020008000	5.936024E-1	3.847968E-2
00.000020130000	5.936024E-1	3.765216E-2
00.000020252000	5.936024E-1	3.806592E-2
00.000020374000	5.936024E-1	3.744528E-2
00.000020496000	5.936024E-1	3.723840E-2
00.000020618000	5.936024E-1	3.765216E-2
00.000020740000	5.936024E-1	3.744528E-2
00.000020862000	5.936024E-1	3.661776E-2
00.000020984000	5.936024E-1	3.703152E-2
00.000021106000	5.936024E-1	3.661776E-2
00.000021228000	5.936024E-1	3.682464E-2
00.000021350000	5.936024E-1	3.599712E-2
00.000021472000	5.936024E-1	3.599712E-2
00.000021594000	5.936024E-1	3.558336E-2
00.000021716000	5.936024E-1	3.558336E-2
00.000021838000	5.936024E-1	3.496272E-2
00.000021960000	5.936024E-1	3.496272E-2
00.000022082000	5.936024E-1	3.454896E-2
00.000022204000	5.936024E-1	3.475584E-2
00.000022326000	5.936024E-1	3.392832E-2
00.000022448000	5.936024E-1	3.392832E-2
00.000022570000	5.936024E-1	3.330768E-2
00.000022692000	5.936024E-1	3.330768E-2
00.000022814000	5.936024E-1	3.268704E-2
00.000022936000	5.936024E-1	3.268704E-2
00.000023058000	5.936024E-1	3.206640E-2
00.000023180000	5.936024E-1	3.206640E-2
00.000023302000	5.936024E-1	3.123888E-2
00.000023424000	5.936024E-1	3.123888E-2
00.000023546000	5.936024E-1	3.061824E-2
00.000023668000	5.936024E-1	3.061824E-2
00.000023790000	5.936024E-1	2.958384E-2
00.000023912000	5.936024E-1	2.999760E-2
00.000024034000	5.936024E-1	2.917008E-2
00.000024156000	5.936024E-1	2.917008E-2
00.000024278000	5.936024E-1	2.834256E-2
00.000024400000	5.936024E-1	2.834256E-2
00.000024522000	5.936024E-1	2.751504E-2
00.000024644000	5.936024E-1	2.751504E-2
00.000024766000	5.936024E-1	2.668752E-2
00.000024888000	5.936024E-1	2.689440E-2
00.000025010000	5.936024E-1	2.606688E-2
00.000025132000	5.936024E-1	2.606688E-2
00.000025254000	5.936024E-1	2.523936E-2
00.000025376000	5.936024E-1	2.523936E-2
00.000025498000	5.936024E-1	2.441184E-2
00.000025620000	5.936024E-1	2.441184E-2
00.000025742000	5.936024E-1	2.379120E-2
00.000025864000	5.936024E-1	2.379120E-2
00.000025986000	5.936024E-1	2.296368E-2
00.000026108000	5.936024E-1	2.317056E-2
00.000026230000	5.936024E-1	2.234304E-2
00.000026352000	5.936024E-1	2.234304E-2
00.000026474000	5.936024E-1	2.151552E-2
00.000026596000	5.936024E-1	2.172240E-2
00.000026718000	5.936024E-1	2.068800E-2
00.000026840000	5.936024E-1	2.110176E-2
00.000026962000	5.936024E-1	2.006736E-2
00.000027084000	5.936024E-1	2.048112E-2
00.000027206000	5.936024E-1	1.944672E-2
00.000027328000	5.936024E-1	1.944672E-2
00.000027450000	5.936024E-1	1.861920E-2
00.000027572000	5.936024E-1	1.882608E-2
00.000027694000	5.936024E-1	1.799856E-2
00.000027816000	5.936024E-1	1.820544E-2
00.000027938000	5.936024E-1	1.737792E-2
00.000028060000	5.936024E-1	1.758480E-2
00.000028182000	5.936024E-1	1.675728E-2
00.000028304000	5.936024E-1	1.696416E-2
00.000028426000	5.936024E-1	1.613664E-2
00.000028548000	5.936024E-1	1.634352E-2
00.000028670000	5.936024E-1	1.551600E-2
00.000028792000	5.936024E-1	1.530912E-2
00.000028914000	5.936024E-1	1.592976E-2
00.000029036000	5.936024E-1	1.530912E-2
00.000029158000	5.936024E-1	1.468848E-2
00.000029280000	5.936024E-1	1.489536E-2
00.000029402000	5.936024E-1	1.427472E-2
00.000029524000	5.936024E-1	1.427472E-2
00.000029646000	5.936024E-1	1.386096E-2
00.000029768000	5.936024E-1	1.386096E-2
00.000029890000	5.936024E-1	1.344720E-2
00.000030012000	5.936024E-1	1.365408E-2
00.000030134000	5.936024E-1	1.303344E-2
00.000030256000	5.936024E-1	1.324032E-2
00.000030378000	5.936024E-1	1.261968E-2
00.000030500000	5.936024E-1	1.282656E-2
00.000030622000	5.936024E-1	1.220592E-2
00.000030744000	5.936024E-1	1.241280E-2
00.000030866000	5.936024E-1	1.179216E-2
00.000030988000	5.936024E-1	1.199904E-2
00.000031110000	5.936024E-1	1.137840E-2
00.000031232000	5.936024E-1	1.179216E-2
00.000031354000	5.936024E-1	1.137840E-2
00.000031476000	5.936024E-1	1.137840E-2
00.000031598000	5.936024E-1	1.075776E-2
00.000031720000	5.936024E-1	1.117152E-2
00.000031842000	5.936024E-1	1.075776E-2
00.000031964000	5.936024E-1	1.096464E-2
00.000032086000	5.936024E-1	1.034400E-2
00.000032208000	5.936024E-1	1.075776E-2
00.000032330000	5.936024E-1	1.013712E-2
00.000032452000	5.936024E-1	1.034400E-2
00.000032574000	5.936024E-1	9.723360E-3
00.000032696000	5.936024E-1	9.723360E-3
00.000032818000	5.936024E-1	1.013712E-2
00.000032940000	5.936024E-1	9.930240E-3
00.000033062000	5.903763E-1	9.516480E-3
00.000033184000	5.936024E-1	9.930240E-3
00.000033306000	5.936024E-1	9.309600E-3
00.000033428000	5.936024E-1	9.516480E-3
00.000033550000	5.936024E-1	9.102720E-3
00.000033672000	5.936024E-1	9.516480E-3
00.000033794000	5.903763E-1	9.102720E-3
00.000033916000	5.936024E-1	8.895840E-3
00.000034038000	5.936024E-1	9.309600E-3
00.000034160000	5.936024E-1	9.309600E-3
00.000034282000	5.936024E-1	8.688960E-3
00.000034404000	5.936024E-1	8.688960E-3
00.000034526000	5.903763E-1	9.102720E-3
00.000034648000	5.936024E-1	8.482080E-3
00.000034770000	5.936024E-1	9.102720E-3
00.000034892000	5.936024E-1	8.482080E-3
00.000035014000	5.936024E-1	8.895840E-3
00.000035136000	5.936024E-1	8.482080E-3
00.000035258000	5.903763E-1	8.688960E-3
00.000035380000	5.936024E-1	8.688960E-3
00.000035502000	5.936024E-1	8.275200E-3
00.000035624000	5.936024E-1	8.688960E-3
00.000035746000	5.936024E-1	8.275200E-3
00.000035868000	5.936024E-1	8.482080E-3
00.000035990000	5.936024E-1	8.275200E-3
00.000036112000	5.936024E-1	8.482080E-3
00.000036234000	5.903763E-1	8.068320E-3
00.000036356000	5.936024E-1	8.482080E-3
00.000036478000	5.903763E-1	8.068320E-3
00.000036600000	5.936024E-1	8.068320E-3
00.000036722000	5.903763E-1	8.482080E-3
00.000036844000	5.936024E-1	8.068320E-3
00.000036966000	5.936024E-1	8.482080E-3
00.000037088000	5.936024E-1	8.068320E-3
00.000037210000	5.903763E-1	8.482080E-3
00.000037332000	5.936024E-1	7.861440E-3
00.000037454000	5.903763E-1	8.275200E-3
00.000037576000	5.936024E-1	7.861440E-3
00.000037698000	5.903763E-1	8.482080E-3
00.000037820000	5.936024E-1	7.861440E-3
00.000037942000	5.903763E-1	8.482080E-3
00.000038064000	5.936024E-1	8.068320E-3
00.000038186000	5.903763E-1	8.482080E-3
00.000038308000	5.936024E-1	8.482080E-3
00.000038430000	5.903763E-1	7.861440E-3
00.000038552000	5.936024E-1	8.275200E-3
00.000038674000	5.903763E-1	7.861440E-3
00.000038796000	5.936024E-1	7.861440E-3
00.000038918000	5.936024E-1	8.482080E-3
00.000039040000	5.936024E-1	8.275200E-3
00.000039162000	5.903763E-1	7.861440E-3
00.000039284000	5.936024E-1	8.068320E-3
00.000039406000	5.903763E-1	8.482080E-3
00.000039528000	5.936024E-1	8.482080E-3
00.000039650000	5.903763E-1	7.654560E-3
00.000039772000	5.936024E-1	7.861440E-3
00.000039894000	5.903763E-1	8.482080E-3
00.000040016000	5.936024E-1	8.068320E-3
00.000040138000	5.903763E-1	8.482080E-3
00.000040260000	5.903763E-1	8.688960E-3
00.000040382000	5.936024E-1	8.068320E-3
00.000040504000	5.936024E-1	8.068320E-3
00.000040626000	5.903763E-1	8.482080E-3
00.000040748000	5.936024E-1	8.068320E-3
00.000040870000	5.903763E-1	8.482080E-3
00.000040992000	5.936024E-1	8.068320E-3
00.000041114000	5.903763E-1	8.688960E-3
00.000041236000	5.936024E-1	8.688960E-3
00.000041358000	5.903763E-1	8.068320E-3
00.000041480000	5.903763E-1	8.275200E-3
00.000041602000	5.936024E-1	8.688960E-3
00.000041724000	5.903763E-1	8.688960E-3
00.000041846000	5.936024E-1	8.275200E-3
00.000041968000	5.903763E-1	8.688960E-3
00.000042090000	5.936024E-1	8.275200E-3
00.000042212000	5.903763E-1	8.688960E-3
00.000042334000	5.936024E-1	8.482080E-3
00.000042456000	5.936024E-1	8.895840E-3
00.000042578000	5.936024E-1	8.275200E-3
00.000042700000	5.936024E-1	8.895840E-3
00.000042822000	5.903763E-1	8.482080E-3
00.000042944000	5.936024E-1	8.482080E-3
00.000043066000	5.903763E-1	8.688960E-3
00.000043188000	5.903763E-1	8.482080E-3
00.000043310000	5.936024E-1	8.895840E-3
00.000043432000	5.936024E-1	8.688960E-3
00.000043554000	5.903763E-1	8.895840E-3
00.000043676000	5.936024E-1	8.895840E-3
00.000043798000	5.903763E-1	8.482080E-3
00.000043920000	5.903763E-1	9.102720E-3
00.000044042000	5.936024E-1	8.482080E-3
00.000044164000	5.936024E-1	9.102720E-3
00.000044286000	5.903763E-1	8.482080E-3
00.000044408000	5.936024E-1	9.516480E-3
00.000044530000	5.903763E-1	8.482080E-3
00.000044652000	5.936024E-1	8.482080E-3
00.000044774000	5.903763E-1	9.102720E-3
00.000044896000	5.936024E-1	8.688960E-3
00.000045018000	5.903763E-1	8.895840E-3
00.000045140000	5.936024E-1	8.688960E-3
00.000045262000	5.903763E-1	9.102720E-3
00.000045384000	5.936024E-1	8.688960E-3
00.000045506000	5.903763E-1	9.102720E-3
00.000045628000	5.936024E-1	9.102720E-3
00.000045750000	5.903763E-1	8.688960E-3
00.000045872000	5.936024E-1	9.102720E-3
00.000045994000	5.903763E-1	8.688960E-3
00.000046116000	5.936024E-1	8.895840E-3
00.000046238000	5.903763E-1	9.309600E-3
00.000046360000	5.903763E-1	8.895840E-3
00.000046482000	5.936024E-1	9.309600E-3
00.000046604000	5.936024E-1	9.516480E-3
00.000046726000	5.903763E-1	8.688960E-3
00.000046848000	5.936024E-1	9.309600E-3
00.000046970000	5.903763E-1	8.895840E-3
00.000047092000	5.936024E-1	9.309600E-3
00.000047214000	5.903763E-1	8.895840E-3
00.000047336000	5.936024E-1	9.309600E-3
00.000047458000	5.903763E-1	8.895840E-3
00.000047580000	5.936024E-1	8.895840E-3
00.000047702000	5.903763E-1	9.102720E-3
00.000047824000	5.936024E-1	9.309600E-3
00.000047946000	5.903763E-1	8.688960E-3
00.000048068000	5.936024E-1	9.516480E-3
00.000048190000	5.903763E-1	8.688960E-3
00.000048312000	5.936024E-1	9.516480E-3
00.000048434000	5.903763E-1	8.688960E-3
00.000048556000	5.903763E-1	8.688960E-3
00.000048678000	5.936024E-1	9.516480E-3
00.000048800000	5.936024E-1	8.895840E-3
00.000048922000	5.903763E-1	9.516480E-3
00.000049044000	5.936024E-1	8.688960E-3
00.000049166000	5.903763E-1	9.723360E-3
00.000049288000	5.936024E-1	8.895840E-3
00.000049410000	5.936024E-1	9.723360E-3
00.000049532000	5.936024E-1	9.102720E-3
00.000049654000	5.936024E-1	9.516480E-3
00.000049776000	5.936024E-1	9.516480E-3
00.000049898000	5.936024E-1	9.102720E-3
00.000050020000	5.936024E-1	9.309600E-3
00.000050142000	5.936024E-1	9.102720E-3
00.000050264000	5.936024E-1	9.102720E-3
00.000050386000	5.903763E-1	9.516480E-3
00.000050508000	5.936024E-1	9.102720E-3
00.000050630000	5.936024E-1	9.309600E-3
00.000050752000	5.936024E-1	9.102720E-3
00.000050874000	5.936024E-1	9.516480E-3
00.000050996000	5.936024E-1	9.516480E-3
00.000051118000	5.936024E-1	9.102720E-3
00.000051240000	5.936024E-1	9.516480E-3
00.000051362000	5.936024E-1	9.102720E-3
00.000051484000	5.936024E-1	9.102720E-3
00.000051606000	5.936024E-1	9.723360E-3
00.000051728000	5.936024E-1	9.516480E-3
00.000051850000	5.936024E-1	9.102720E-3
00.000051972000	5.936024E-1	9.102720E-3
00.000052094000	5.936024E-1	9.516480E-3
00.000052216000	5.936024E-1	9.102720E-3
00.000052338000	5.936024E-1	9.516480E-3
00.000052460000	5.936024E-1	9.516480E-3
00.000052582000	5.936024E-1	9.102720E-3
00.000052704000	5.936024E-1	9.102720E-3
00.000052826000	5.936024E-1	9.516480E-3
00.000052948000	5.936024E-1	9.102720E-3
00.000053070000	5.936024E-1	9.516480E-3
00.000053192000	5.936024E-1	9.102720E-3
00.000053314000	5.936024E-1	9.516480E-3
00.000053436000	5.936024E-1	8.895840E-3
00.000053558000	5.936024E-1	9.723360E-3
00.000053680000	5.936024E-1	8.895840E-3
00.000053802000	5.936024E-1	9.723360E-3
00.000053924000	5.936024E-1	8.895840E-3
00.000054046000	5.936024E-1	9.723360E-3
00.000054168000	5.936024E-1	9.516480E-3
00.000054290000	5.936024E-1	9.102720E-3
00.000054412000	5.936024E-1	9.723360E-3
00.000054534000	5.903763E-1	8.895840E-3
00.000054656000	5.936024E-1	9.102720E-3
00.000054778000	5.936024E-1	9.723360E-3
00.000054900000	5.936024E-1	9.102720E-3
00.000055022000	5.936024E-1	9.516480E-3
00.000055144000	5.936024E-1	9.309600E-3
00.000055266000	5.936024E-1	8.895840E-3
00.000055388000	5.936024E-1	9.516480E-3
00.000055510000	5.936024E-1	8.895840E-3
00.000055632000	5.936024E-1	9.723360E-3
00.000055754000	5.936024E-1	8.895840E-3
00.000055876000	5.936024E-1	9.516480E-3
00.000055998000	5.936024E-1	8.895840E-3
00.000056120000	5.936024E-1	8.895840E-3
00.000056242000	5.936024E-1	9.516480E-3
00.000056364000	5.936024E-1	8.895840E-3
00.000056486000	5.936024E-1	9.516480E-3
00.000056608000	5.936024E-1	8.895840E-3
00.000056730000	5.936024E-1	9.723360E-3
00.000056852000	5.936024E-1	9.516480E-3
00.000056974000	5.936024E-1	9.102720E-3
00.000057096000	5.936024E-1	9.516480E-3
00.000057218000	5.936024E-1	8.895840E-3
00.000057340000	5.936024E-1	9.309600E-3
00.000057462000	5.936024E-1	9.102720E-3
00.000057584000	5.936024E-1	9.516480E-3
00.000057706000	5.936024E-1	8.895840E-3
00.000057828000	5.936024E-1	9.516480E-3
00.000057950000	5.936024E-1	8.895840E-3
00.000058072000	5.936024E-1	9.102720E-3
00.000058194000	5.936024E-1	9.309600E-3
00.000058316000	5.936024E-1	8.895840E-3
00.000058438000	5.936024E-1	9.516480E-3
00.000058560000	5.936024E-1	8.895840E-3
00.000058682000	5.936024E-1	9.309600E-3
00.000058804000	5.936024E-1	9.309600E-3
00.000058926000	5.936024E-1	8.895840E-3
00.000059048000	5.936024E-1	9.516480E-3
00.000059170000	5.936024E-1	8.895840E-3
00.000059292000	5.936024E-1	9.516480E-3
00.000059414000	5.936024E-1	8.895840E-3
00.000059536000	5.936024E-1	9.309600E-3
00.000059658000	5.936024E-1	8.895840E-3
00.000059780000	5.936024E-1	8.895840E-3
00.000059902000	5.936024E-1	9.309600E-3
00.000060024000	5.936024E-1	9.309600E-3
00.000060146000	5.936024E-1	8.895840E-3
00.000060268000	5.936024E-1	9.309600E-3
00.000060390000	5.936024E-1	8.895840E-3
00.000060512000	5.936024E-1	9.102720E-3
00.000060634000	5.936024E-1	9.309600E-3
00.000060756000	5.936024E-1	8.895840E-3
00.000060878000	5.936024E-1	9.309600E-3
00.000061000000	5.936024E-1	8.895840E-3
00.000061122000	5.936024E-1	9.102720E-3
00.000061244000	5.936024E-1	9.102720E-3
00.000061366000	5.936024E-1	8.895840E-3
00.000061488000	5.936024E-1	9.102720E-3
00.000061610000	5.936024E-1	8.895840E-3
00.000061732000	5.936024E-1	8.895840E-3
00.000061854000	5.936024E-1	9.309600E-3
00.000061976000	5.936024E-1	8.688960E-3
00.000062098000	5.936024E-1	9.516480E-3
00.000062220000	5.936024E-1	9.309600E-3
00.000062342000	5.936024E-1	8.688960E-3
00.000062464000	5.936024E-1	9.102720E-3
00.000062586000	5.936024E-1	8.895840E-3
00.000062708000	5.936024E-1	8.895840E-3
00.000062830000	5.936024E-1	9.309600E-3
00.000062952000	5.936024E-1	9.102720E-3
00.000063074000	5.936024E-1	8.895840E-3
00.000063196000	5.936024E-1	8.688960E-3
00.000063318000	5.936024E-1	9.309600E-3
00.000063440000	5.936024E-1	9.102720E-3
00.000063562000	5.936024E-1	8.688960E-3
00.000063684000	5.936024E-1	9.102720E-3
00.000063806000	5.936024E-1	8.688960E-3
00.000063928000	5.936024E-1	9.309600E-3
00.000064050000	5.936024E-1	8.688960E-3
00.000064172000	5.936024E-1	8.895840E-3
00.000064294000	5.936024E-1	9.102720E-3
00.000064416000	5.936024E-1	9.102720E-3
00.000064538000	5.936024E-1	8.688960E-3
00.000064660000	5.936024E-1	8.895840E-3
00.000064782000	5.936024E-1	9.102720E-3
00.000064904000	5.936024E-1	9.309600E-3
00.000065026000	5.936024E-1	8.688960E-3
00.000065148000	5.936024E-1	8.688960E-3
00.000065270000	5.936024E-1	9.102720E-3
00.000065392000	5.936024E-1	9.102720E-3
00.000065514000	5.936024E-1	8.895840E-3
00.000065636000	5.936024E-1	8.688960E-3
00.000065758000	5.936024E-1	9.102720E-3
00.000065880000	5.936024E-1	8.688960E-3
00.000066002000	5.936024E-1	9.102720E-3
00.000066124000	5.936024E-1	8.688960E-3
00.000066246000	5.936024E-1	9.102720E-3
00.000066368000	5.936024E-1	8.688960E-3
00.000066490000	5.936024E-1	9.309600E-3
00.000066612000	5.936024E-1	8.688960E-3
00.000066734000	5.936024E-1	9.309600E-3
00.000066856000	5.936024E-1	9.102720E-3
00.000066978000	5.936024E-1	8.482080E-3
00.000067100000	5.936024E-1	9.102720E-3
00.000067222000	5.936024E-1	8.688960E-3
00.000067344000	5.936024E-1	9.102720E-3
00.000067466000	5.936024E-1	8.688960E-3
00.000067588000	5.936024E-1	8.688960E-3
00.000067710000	5.936024E-1	9.102720E-3
00.000067832000	5.936024E-1	8.688960E-3
00.000067954000	5.936024E-1	9.102720E-3
00.000068076000	5.936024E-1	8.688960E-3
00.000068198000	5.936024E-1	9.102720E-3
00.000068320000	5.936024E-1	9.102720E-3
00.000068442000	5.936024E-1	8.688960E-3
00.000068564000	5.936024E-1	9.102720E-3
00.000068686000	5.936024E-1	8.482080E-3
00.000068808000	5.936024E-1	8.482080E-3
00.000068930000	5.936024E-1	9.102720E-3
00.000069052000	5.936024E-1	9.102720E-3
00.000069174000	5.936024E-1	8.482080E-3
00.000069296000	5.936024E-1	9.102720E-3
00.000069418000	5.936024E-1	8.275200E-3
00.000069540000	5.936024E-1	8.482080E-3
00.000069662000	5.936024E-1	9.102720E-3
00.000069784000	5.936024E-1	8.482080E-3
00.000069906000	5.936024E-1	8.895840E-3
00.000070028000	5.936024E-1	8.688960E-3
00.000070150000	5.936024E-1	9.102720E-3
00.000070272000	5.936024E-1	8.482080E-3
00.000070394000	5.936024E-1	9.102720E-3
00.000070516000	5.936024E-1	8.482080E-3
00.000070638000	5.936024E-1	9.102720E-3
00.000070760000	5.936024E-1	8.482080E-3
00.000070882000	5.936024E-1	9.102720E-3
00.000071004000	5.936024E-1	8.482080E-3
00.000071126000	5.936024E-1	9.102720E-3
00.000071248000	5.936024E-1	9.102720E-3
00.000071370000	5.936024E-1	8.482080E-3
00.000071492000	5.936024E-1	9.102720E-3
00.000071614000	5.936024E-1	8.482080E-3
00.000071736000	5.936024E-1	8.895840E-3
00.000071858000	5.936024E-1	8.482080E-3
00.000071980000	5.936024E-1	9.102720E-3
00.000072102000	5.936024E-1	8.482080E-3
00.000072224000	5.936024E-1	9.102720E-3
00.000072346000	5.936024E-1	8.482080E-3
00.000072468000	5.936024E-1	8.482080E-3
00.000072590000	5.936024E-1	9.102720E-3
00.000072712000	5.936024E-1	8.482080E-3
00.000072834000	5.936024E-1	8.895840E-3
00.000072956000	5.936024E-1	8.482080E-3
00.000073078000	5.936024E-1	9.102720E-3
00.000073200000	5.936024E-1	9.102720E-3
00.000073322000	5.936024E-1	8.482080E-3
00.000073444000	5.936024E-1	9.309600E-3
00.000073566000	5.936024E-1	8.068320E-3
00.000073688000	5.936024E-1	9.309600E-3
00.000073810000	5.936024E-1	8.275200E-3
00.000073932000	5.936024E-1	8.482080E-3
00.000074054000	5.936024E-1	9.102720E-3
00.000074176000	5.936024E-1	9.102720E-3
00.000074298000	5.936024E-1	8.275200E-3
00.000074420000	5.936024E-1	8.068320E-3
00.000074542000	5.936024E-1	9.723360E-3
00.000074664000	5.936024E-1	8.275200E-3
00.000074786000	5.936024E-1	9.516480E-3
00.000074908000	5.936024E-1	8.068320E-3
00.000075030000	5.936024E-1	9.102720E-3
00.000075152000	5.936024E-1	9.102720E-3
00.000075274000	5.936024E-1	8.275200E-3
00.000075396000	5.936024E-1	9.102720E-3
00.000075518000	5.936024E-1	8.482080E-3
00.000075640000	5.936024E-1	9.102720E-3
00.000075762000	5.936024E-1	8.482080E-3
00.000075884000	5.936024E-1	8.895840E-3
00.000076006000	5.936024E-1	8.482080E-3
00.000076128000	5.936024E-1	8.482080E-3
00.000076250000	5.936024E-1	8.895840E-3
00.000076372000	5.936024E-1	8.482080E-3
00.000076494000	5.936024E-1	9.102720E-3
00.000076616000	5.936024E-1	8.482080E-3
00.000076738000	5.936024E-1	9.102720E-3
00.000076860000	5.936024E-1	9.102720E-3
00.000076982000	5.936024E-1	8.482080E-3
00.000077104000	5.936024E-1	8.895840E-3
00.000077226000	5.936024E-1	8.275200E-3
00.000077348000	5.936024E-1	8.895840E-3
00.000077470000	5.936024E-1	8.482080E-3
00.000077592000	5.936024E-1	8.482080E-3
00.000077714000	5.936024E-1	9.102720E-3
00.000077836000	5.936024E-1	8.482080E-3
00.000077958000	5.936024E-1	9.102720E-3
00.000078080000	5.936024E-1	8.895840E-3
00.000078202000	5.936024E-1	8.482080E-3
00.000078324000	5.936024E-1	8.895840E-3
00.000078446000	5.936024E-1	8.482080E-3
00.000078568000	5.936024E-1	8.895840E-3
00.000078690000	5.936024E-1	8.482080E-3
00.000078812000	5.936024E-1	8.895840E-3
00.000078934000	5.936024E-1	8.482080E-3
00.000079056000	5.936024E-1	8.482080E-3
00.000079178000	5.936024E-1	8.895840E-3
00.000079300000	5.936024E-1	8.482080E-3
00.000079422000	5.936024E-1	8.895840E-3
00.000079544000	5.936024E-1	8.275200E-3
00.000079666000	5.936024E-1	9.102720E-3
00.000079788000	5.936024E-1	9.102720E-3
00.000079910000	5.936024E-1	8.482080E-3
00.000080032000	5.936024E-1	8.895840E-3
00.000080154000	5.936024E-1	8.482080E-3
00.000080276000	5.936024E-1	8.895840E-3
00.000080398000	5.936024E-1	8.275200E-3
00.000080520000	5.936024E-1	8.275200E-3
00.000080642000	5.936024E-1	9.102720E-3
00.000080764000	5.936024E-1	8.275200E-3
00.000080886000	5.936024E-1	9.309600E-3
00.000081008000	5.936024E-1	8.068320E-3
00.000081130000	5.936024E-1	9.309600E-3
00.000081252000	5.936024E-1	8.275200E-3
00.000081374000	5.936024E-1	9.102720E-3
00.000081496000	5.936024E-1	8.275200E-3
00.000081618000	5.936024E-1	9.309600E-3
00.000081740000	5.936024E-1	9.309600E-3
00.000081862000	5.936024E-1	8.275200E-3
00.000081984000	5.936024E-1	9.102720E-3
00.000082106000	5.936024E-1	8.482080E-3
00.000082228000	5.936024E-1	8.482080E-3
00.000082350000	5.936024E-1	9.102720E-3
00.000082472000	5.936024E-1	8.482080E-3
00.000082594000	5.936024E-1	8.895840E-3
00.000082716000	5.936024E-1	8.895840E-3
00.000082838000	5.936024E-1	8.482080E-3
00.000082960000	5.936024E-1	8.895840E-3
00.000083082000	5.936024E-1	8.482080E-3
00.000083204000	5.936024E-1	8.895840E-3
00.000083326000	5.936024E-1	8.275200E-3
00.000083448000	5.936024E-1	8.275200E-3
00.000083570000	5.936024E-1	9.102720E-3
00.000083692000	5.936024E-1	8.482080E-3
00.000083814000	5.936024E-1	8.895840E-3
00.000083936000	5.936024E-1	8.275200E-3
00.000084058000	5.936024E-1	9.102720E-3
00.000084180000	5.936024E-1	8.895840E-3
00.000084302000	5.936024E-1	8.482080E-3
00.000084424000	5.936024E-1	8.482080E-3
00.000084546000	5.936024E-1	9.102720E-3
00.000084668000	5.936024E-1	8.275200E-3
00.000084790000	5.936024E-1	8.895840E-3
00.000084912000	5.936024E-1	8.275200E-3
00.000085034000	5.936024E-1	9.102720E-3
00.000085156000	5.936024E-1	8.275200E-3
00.000085278000	5.936024E-1	8.895840E-3
00.000085400000	5.936024E-1	8.482080E-3
00.000085522000	5.936024E-1	8.688960E-3
00.000085644000	5.936024E-1	8.895840E-3
00.000085766000	5.936024E-1	8.275200E-3
00.000085888000	5.936024E-1	8.482080E-3
00.000086010000	5.936024E-1	9.102720E-3
00.000086132000	5.936024E-1	8.482080E-3
00.000086254000	5.936024E-1	8.895840E-3
00.000086376000	5.936024E-1	8.275200E-3
00.000086498000	5.936024E-1	8.895840E-3
00.000086620000	5.936024E-1	8.275200E-3
00.000086742000	5.936024E-1	9.102720E-3
00.000086864000	5.936024E-1	9.102720E-3
00.000086986000	5.936024E-1	8.482080E-3
00.000087108000	5.936024E-1	8.895840E-3
00.000087230000	5.936024E-1	8.482080E-3
00.000087352000	5.936024E-1	8.895840E-3
00.000087474000	5.936024E-1	8.482080E-3
00.000087596000	5.936024E-1	8.275200E-3
00.000087718000	5.936024E-1	8.895840E-3
00.000087840000	5.936024E-1	8.895840E-3
00.000087962000	5.936024E-1	8.275200E-3
00.000088084000	5.936024E-1	8.895840E-3
00.000088206000	5.936024E-1	8.068320E-3
00.000088328000	5.936024E-1	8.895840E-3
00.000088450000	5.936024E-1	8.275200E-3
00.000088572000	5.936024E-1	9.102720E-3
00.000088694000	5.936024E-1	8.275200E-3
00.000088816000	5.936024E-1	8.895840E-3
00.000088938000	5.936024E-1	8.275200E-3
00.000089060000	5.936024E-1	8.482080E-3
00.000089182000	5.936024E-1	8.895840E-3
00.000089304000	5.936024E-1	8.482080E-3
00.000089426000	5.936024E-1	8.895840E-3
00.000089548000	5.936024E-1	8.275200E-3
00.000089670000	5.936024E-1	8.895840E-3
00.000089792000	5.936024E-1	8.895840E-3
00.000089914000	5.936024E-1	8.275200E-3
00.000090036000	5.936024E-1	8.688960E-3
00.000090158000	5.936024E-1	8.482080E-3
00.000090280000	5.936024E-1	8.482080E-3
00.000090402000	5.936024E-1	8.895840E-3
00.000090524000	5.936024E-1	8.482080E-3
00.000090646000	5.936024E-1	8.895840E-3
00.000090768000	5.936024E-1	8.482080E-3
00.000090890000	5.936024E-1	8.895840E-3
00.000091012000	5.936024E-1	8.275200E-3
00.000091134000	5.936024E-1	9.102720E-3
00.000091256000	5.936024E-1	8.068320E-3
00.000091378000	5.936024E-1	9.102720E-3
00.000091500000	5.936024E-1	9.102720E-3
00.000091622000	5.936024E-1	8.275200E-3
00.000091744000	5.936024E-1	9.102720E-3
00.000091866000	5.936024E-1	8.275200E-3
00.000091988000	5.936024E-1	8.482080E-3
00.000092110000	5.936024E-1	8.895840E-3
00.000092232000	5.936024E-1	8.275200E-3
00.000092354000	5.936024E-1	8.895840E-3
00.000092476000	5.936024E-1	8.482080E-3
00.000092598000	5.936024E-1	8.688960E-3
00.000092720000	5.936024E-1	8.688960E-3
00.000092842000	5.936024E-1	8.275200E-3
00.000092964000	5.936024E-1	8.482080E-3
00.000093086000	5.936024E-1	8.895840E-3
00.000093208000	5.936024E-1	8.275200E-3
00.000093330000	5.936024E-1	8.895840E-3
00.000093452000	5.936024E-1	8.688960E-3
00.000093574000	5.936024E-1	8.482080E-3
00.000093696000	5.936024E-1	8.895840E-3
00.000093818000	5.936024E-1	8.275200E-3
00.000093940000	5.936024E-1	8.895840E-3
00.000094062000	5.936024E-1	8.275200E-3
00.000094184000	5.936024E-1	8.068320E-3
00.000094306000	5.936024E-1	9.102720E-3
00.000094428000	5.936024E-1	9.102720E-3
00.000094550000	5.936024E-1	8.275200E-3
00.000094672000	5.936024E-1	8.895840E-3
00.000094794000	5.936024E-1	8.275200E-3
00.000094916000	5.936024E-1	8.895840E-3
00.000095038000	5.936024E-1	8.482080E-3
00.000095160000	5.936024E-1	8.482080E-3
00.000095282000	5.936024E-1	8.688960E-3
00.000095404000	5.936024E-1	8.275200E-3
00.000095526000	5.936024E-1	8.895840E-3
00.000095648000	5.936024E-1	8.688960E-3
00.000095770000	5.936024E-1	8.275200E-3
00.000095892000	5.936024E-1	8.482080E-3
00.000096014000	5.936024E-1	8.895840E-3
00.000096136000	5.936024E-1	8.895840E-3
00.000096258000	5.936024E-1	8.482080E-3
00.000096380000	5.936024E-1	8.482080E-3
00.000096502000	5.936024E-1	8.895840E-3
00.000096624000	5.936024E-1	8.482080E-3
00.000096746000	5.936024E-1	8.895840E-3
00.000096868000	5.936024E-1	8.688960E-3
00.000096990000	5.936024E-1	8.275200E-3
00.000097112000	5.936024E-1	8.482080E-3
00.000097234000	5.936024E-1	8.688960E-3
00.000097356000	5.936024E-1	8.275200E-3
00.000097478000	5.936024E-1	8.688960E-3
00.000097600000	5.936024E-1	8.688960E-3
00.000097722000	5.936024E-1	8.275200E-3
00.000097844000	5.936024E-1	8.275200E-3
00.000097966000	5.936024E-1	8.895840E-3
00.000098088000	5.936024E-1	8.895840E-3
00.000098210000	5.936024E-1	8.068320E-3
00.000098332000	5.936024E-1	8.688960E-3
00.000098454000	5.936024E-1	8.275200E-3
00.000098576000	5.936024E-1	8.895840E-3
00.000098698000	5.936024E-1	8.275200E-3
00.000098820000	5.936024E-1	8.895840E-3
00.000098942000	5.936024E-1	8.068320E-3
00.000099064000	5.936024E-1	8.275200E-3
00.000099186000	5.936024E-1	8.895840E-3
00.000099308000	5.936024E-1	8.275200E-3
00.000099430000	5.936024E-1	8.688960E-3
00.000099552000	5.936024E-1	8.275200E-3
00.000099674000	5.936024E-1	8.895840E-3
00.000099796000	5.936024E-1	8.895840E-3
00.000099918000	5.936024E-1	8.275200E-3
00.000100040000	5.936024E-1	8.688960E-3
00.000100162000	5.936024E-1	8.068320E-3
00.000100284000	5.936024E-1	8.895840E-3
00.000100406000	5.936024E-1	8.275200E-3
00.000100528000	5.936024E-1	8.482080E-3
00.000100650000	5.936024E-1	8.895840E-3
00.000100772000	5.936024E-1	8.482080E-3
00.000100894000	5.936024E-1	8.688960E-3
00.000101016000	5.936024E-1	8.895840E-3
00.000101138000	5.936024E-1	8.275200E-3
00.000101260000	5.936024E-1	8.688960E-3
00.000101382000	5.936024E-1	8.068320E-3
00.000101504000	5.936024E-1	8.895840E-3
00.000101626000	5.936024E-1	8.068320E-3
00.000101748000	5.936024E-1	9.102720E-3
00.000101870000	5.936024E-1	8.068320E-3
00.000101992000	5.936024E-1	8.275200E-3
00.000102114000	5.936024E-1	8.895840E-3
00.000102236000	5.936024E-1	8.068320E-3
00.000102358000	5.936024E-1	8.895840E-3
00.000102480000	5.936024E-1	8.068320E-3
00.000102602000	5.936024E-1	8.895840E-3
00.000102724000	5.936024E-1	8.068320E-3
00.000102846000	5.936024E-1	8.895840E-3
00.000102968000	5.936024E-1	8.275200E-3
00.000103090000	5.936024E-1	8.895840E-3
00.000103212000	5.936024E-1	8.895840E-3
00.000103334000	5.936024E-1	8.275200E-3
00.000103456000	5.936024E-1	8.895840E-3
00.000103578000	5.936024E-1	8.275200E-3
00.000103700000	5.936024E-1	8.275200E-3
00.000103822000	5.936024E-1	8.895840E-3
00.000103944000	5.936024E-1	8.688960E-3
00.000104066000	5.936024E-1	8.275200E-3
00.000104188000	5.936024E-1	8.688960E-3
00.000104310000	5.936024E-1	8.275200E-3
00.000104432000	5.936024E-1	8.688960E-3
00.000104554000	5.936024E-1	8.068320E-3
00.000104676000	5.936024E-1	8.068320E-3
00.000104798000	5.936024E-1	8.688960E-3
00.000104920000	5.936024E-1	8.275200E-3
00.000105042000	5.936024E-1	8.688960E-3
00.000105164000	5.936024E-1	8.275200E-3
00.000105286000	5.936024E-1	8.688960E-3
00.000105408000	5.936024E-1	8.688960E-3
00.000105530000	5.936024E-1	8.068320E-3
00.000105652000	5.936024E-1	8.688960E-3
00.000105774000	5.936024E-1	8.068320E-3
00.000105896000	5.936024E-1	8.895840E-3
00.000106018000	5.936024E-1	8.275200E-3
00.000106140000	5.936024E-1	8.275200E-3
00.000106262000	5.936024E-1	8.895840E-3
00.000106384000	5.936024E-1	8.688960E-3
00.000106506000	5.936024E-1	8.275200E-3
00.000106628000	5.936024E-1	8.275200E-3
00.000106750000	5.936024E-1	8.688960E-3
00.000106872000	5.936024E-1	8.275200E-3
00.000106994000	5.936024E-1	8.688960E-3
00.000107116000	5.936024E-1	8.068320E-3
00.000107238000	5.936024E-1	8.895840E-3
00.000107360000	5.936024E-1	8.275200E-3
00.000107482000	5.936024E-1	8.895840E-3
00.000107604000	5.936024E-1	8.068320E-3
00.000107726000	5.936024E-1	8.895840E-3
00.000107848000	5.936024E-1	8.688960E-3
00.000107970000	5.936024E-1	8.275200E-3
00.000108092000	5.936024E-1	8.688960E-3
00.000108214000	5.936024E-1	8.275200E-3
00.000108336000	5.936024E-1	8.688960E-3
00.000108458000	5.936024E-1	8.068320E-3
00.000108580000	5.936024E-1	8.688960E-3
00.000108702000	5.936024E-1	8.068320E-3
00.000108824000	5.936024E-1	8.688960E-3
00.000108946000	5.936024E-1	8.275200E-3
00.000109068000	5.936024E-1	8.688960E-3
00.000109190000	5.936024E-1	8.068320E-3
00.000109312000	5.936024E-1	8.275200E-3
00.000109434000	5.936024E-1	8.895840E-3
00.000109556000	5.936024E-1	8.068320E-3
00.000109678000	5.936024E-1	8.895840E-3
00.000109800000	5.936024E-1	8.068320E-3
00.000109922000	5.936024E-1	8.688960E-3
00.000110044000	5.936024E-1	8.068320E-3
00.000110166000	5.936024E-1	8.688960E-3
00.000110288000	5.936024E-1	8.275200E-3
00.000110410000	5.936024E-1	8.688960E-3
00.000110532000	5.936024E-1	8.275200E-3
00.000110654000	5.936024E-1	8.688960E-3
00.000110776000	5.936024E-1	8.275200E-3
00.000110898000	5.936024E-1	8.688960E-3
00.000111020000	5.936024E-1	8.482080E-3
00.000111142000	5.936024E-1	8.275200E-3
00.000111264000	5.936024E-1	8.688960E-3
00.000111386000	5.936024E-1	8.068320E-3
00.000111508000	5.936024E-1	8.688960E-3
00.000111630000	5.936024E-1	8.068320E-3
00.000111752000	5.936024E-1	8.895840E-3
00.000111874000	5.936024E-1	8.275200E-3
00.000111996000	6.194112E-1	8.895840E-3
00.000112118000	1.290440E-2	4.965120E-3
00.000112240000	5.484370E-2	4.758240E-3
00.000112362000	1.613050E-2	-4.965120E-3
00.000112484000	1.613050E-2	-4.965120E-3
00.000112606000	9.678300E-3	-5.378880E-3
00.000112728000	9.678300E-3	-5.378880E-3
00.000112850000	6.452200E-3	-5.378880E-3
00.000112972000	6.452200E-3	-5.378880E-3
00.000113094000	3.226100E-3	-5.378880E-3
00.000113216000	3.226100E-3	-5.378880E-3
00.000113338000	3.226100E-3	-5.378880E-3
00.000113460000	3.226100E-3	-5.378880E-3
00.000113582000	0.000000E+0	-5.378880E-3
00.000113704000	0.000000E+0	-5.378880E-3
00.000113826000	0.000000E+0	-5.378880E-3
00.000113948000	0.000000E+0	-5.378880E-3
00.000114070000	-3.226100E-3	-5.378880E-3
00.000114192000	0.000000E+0	-5.378880E-3
00.000114314000	-3.226100E-3	-5.378880E-3
00.000114436000	-3.226100E-3	-5.378880E-3
00.000114558000	-3.226100E-3	-5.378880E-3
00.000114680000	-3.226100E-3	-5.378880E-3
00.000114802000	-3.226100E-3	-5.378880E-3
00.000114924000	-3.226100E-3	-5.378880E-3
00.000115046000	-3.226100E-3	-5.378880E-3
00.000115168000	-3.226100E-3	-5.378880E-3
00.000115290000	-3.226100E-3	-5.378880E-3
00.000115412000	-3.226100E-3	-5.378880E-3
00.000115534000	-3.226100E-3	-5.378880E-3
00.000115656000	-3.226100E-3	-5.378880E-3
00.000115778000	-3.226100E-3	-5.378880E-3
00.000115900000	-3.226100E-3	-5.378880E-3
00.000116022000	-6.452200E-3	-5.378880E-3
00.000116144000	-6.452200E-3	-5.378880E-3
00.000116266000	-6.452200E-3	-5.378880E-3
00.000116388000	-6.452200E-3	-5.378880E-3
00.000116510000	-3.226100E-3	-5.378880E-3
00.000116632000	-6.452200E-3	-5.378880E-3
00.000116754000	-6.452200E-3	-5.378880E-3
00.000116876000	-6.452200E-3	-5.378880E-3
00.000116998000	-6.452200E-3	-5.378880E-3
00.000117120000	-6.452200E-3	-5.378880E-3
00.000117242000	-6.452200E-3	-5.378880E-3
00.000117364000	-6.452200E-3	-5.378880E-3
00.000117486000	-6.452200E-3	-5.378880E-3
00.000117608000	-6.452200E-3	-5.378880E-3
00.000117730000	-6.452200E-3	-5.378880E-3
00.000117852000	-6.452200E-3	-5.378880E-3
00.000117974000	-6.452200E-3	-5.172000E-3
00.000118096000	-6.452200E-3	-5.172000E-3
00.000118218000	-6.452200E-3	-5.378880E-3
00.000118340000	-6.452200E-3	-5.172000E-3
00.000118462000	-6.452200E-3	-5.172000E-3
00.000118584000	-6.452200E-3	-5.172000E-3
00.000118706000	-6.452200E-3	-4.965120E-3
00.000118828000	-6.452200E-3	-4.965120E-3
00.000118950000	-6.452200E-3	-5.172000E-3
00.000119072000	-6.452200E-3	-4.965120E-3
00.000119194000	-6.452200E-3	-4.758240E-3
00.000119316000	-6.452200E-3	-4.965120E-3
00.000119438000	-6.452200E-3	-4.551360E-3
00.000119560000	-6.452200E-3	-4.551360E-3
00.000119682000	-6.452200E-3	-4.758240E-3
00.000119804000	-6.452200E-3	-4.551360E-3
00.000119926000	-6.452200E-3	-4.344480E-3
00.000120048000	-6.452200E-3	-4.344480E-3
00.000120170000	-6.452200E-3	-4.551360E-3
00.000120292000	-6.452200E-3	-4.344480E-3
00.000120414000	-6.452200E-3	-3.930720E-3
00.000120536000	-6.452200E-3	-3.930720E-3
00.000120658000	-6.452200E-3	-3.723840E-3
00.000120780000	-6.452200E-3	-3.723840E-3
00.000120902000	-6.452200E-3	-3.310080E-3
00.000121024000	-6.452200E-3	-3.310080E-3
00.000121146000	-6.452200E-3	-2.896320E-3
00.000121268000	-6.452200E-3	-3.103200E-3
00.000121390000	-6.452200E-3	-2.689440E-3
00.000121512000	-6.452200E-3	-2.689440E-3
00.000121634000	-6.452200E-3	-2.275680E-3
00.000121756000	-6.452200E-3	-2.275680E-3
00.000121878000	-6.452200E-3	-2.068800E-3
		
