00.000000000000	-3.030880E-1	2.896320E-3
00.000000124000	-3.030880E-1	2.689440E-3
00.000000248000	-3.030880E-1	3.310080E-3
00.000000372000	-3.030880E-1	2.689440E-3
00.000000496000	-3.030880E-1	3.310080E-3
00.000000620000	-3.030880E-1	2.689440E-3
00.000000744000	-3.030880E-1	3.516960E-3
00.000000868000	-3.030880E-1	2.689440E-3
00.000000992000	-3.030880E-1	2.689440E-3
00.000001116000	-3.030880E-1	3.310080E-3
00.000001240000	-3.030880E-1	2.482560E-3
00.000001364000	-3.030880E-1	3.310080E-3
00.000001488000	-3.030880E-1	2.689440E-3
00.000001612000	-3.030880E-1	3.310080E-3
00.000001736000	-3.030880E-1	2.896320E-3
00.000001860000	-3.030880E-1	3.310080E-3
00.000001984000	-3.030880E-1	3.310080E-3
00.000002108000	-3.030880E-1	2.689440E-3
00.000002232000	-3.030880E-1	3.103200E-3
00.000002356000	-3.030880E-1	2.689440E-3
00.000002480000	-3.030880E-1	2.896320E-3
00.000002604000	-3.030880E-1	3.310080E-3
00.000002728000	-3.030880E-1	2.689440E-3
00.000002852000	-3.030880E-1	3.310080E-3
00.000002976000	-3.030880E-1	2.896320E-3
00.000003100000	-3.030880E-1	3.310080E-3
00.000003224000	-3.030880E-1	3.103200E-3
00.000003348000	-3.030880E-1	2.689440E-3
00.000003472000	-3.030880E-1	2.689440E-3
00.000003596000	-3.030880E-1	3.310080E-3
00.000003720000	-3.030880E-1	2.689440E-3
00.000003844000	-3.030880E-1	3.310080E-3
00.000003968000	-3.030880E-1	2.689440E-3
00.000004092000	-3.030880E-1	3.310080E-3
00.000004216000	-3.030880E-1	3.310080E-3
00.000004340000	-3.030880E-1	2.896320E-3
00.000004464000	-3.030880E-1	3.103200E-3
00.000004588000	-3.030880E-1	2.689440E-3
00.000004712000	-3.030880E-1	2.689440E-3
00.000004836000	-3.030880E-1	3.516960E-3
00.000004960000	-3.030880E-1	2.689440E-3
00.000005084000	-3.030880E-1	3.310080E-3
00.000005208000	-3.030880E-1	2.689440E-3
00.000005332000	-3.030880E-1	3.310080E-3
00.000005456000	-3.030880E-1	2.689440E-3
00.000005580000	-3.030880E-1	3.310080E-3
00.000005704000	-3.030880E-1	2.689440E-3
00.000005828000	-3.030880E-1	3.310080E-3
00.000005952000	-3.030880E-1	3.310080E-3
00.000006076000	-3.030880E-1	2.689440E-3
00.000006200000	-3.030880E-1	3.103200E-3
00.000006324000	-3.030880E-1	2.689440E-3
00.000006448000	-3.030880E-1	3.103200E-3
00.000006572000	-3.030880E-1	2.689440E-3
00.000006696000	-3.030880E-1	3.310080E-3
00.000006820000	-3.030880E-1	2.689440E-3
00.000006944000	-3.030880E-1	2.689440E-3
00.000007068000	-3.030880E-1	3.310080E-3
00.000007192000	-3.030880E-1	2.689440E-3
00.000007316000	-3.030880E-1	3.310080E-3
00.000007440000	-3.030880E-1	2.689440E-3
00.000007564000	-3.030880E-1	3.310080E-3
00.000007688000	-3.030880E-1	3.310080E-3
00.000007812000	-3.030880E-1	2.482560E-3
00.000007936000	-3.030880E-1	3.310080E-3
00.000008060000	-3.030880E-1	2.689440E-3
00.000008184000	-3.030880E-1	3.516960E-3
00.000008308000	-3.030880E-1	2.482560E-3
00.000008432000	-3.030880E-1	3.723840E-3
00.000008556000	-3.030880E-1	2.689440E-3
00.000008680000	-3.030880E-1	2.689440E-3
00.000008804000	-3.030880E-1	3.310080E-3
00.000008928000	-3.030880E-1	2.689440E-3
00.000009052000	-3.030880E-1	3.310080E-3
00.000009176000	-3.030880E-1	3.103200E-3
00.000009300000	-3.030880E-1	2.896320E-3
00.000009424000	-3.030880E-1	3.310080E-3
00.000009548000	-3.030880E-1	2.896320E-3
00.000009672000	-3.030880E-1	2.896320E-3
00.000009796000	-3.030880E-1	3.516960E-3
00.000009920000	-3.030880E-1	3.310080E-3
00.000010044000	-3.030880E-1	2.689440E-3
00.000010168000	-3.030880E-1	2.689440E-3
00.000010292000	-3.030880E-1	3.310080E-3
00.000010416000	-3.030880E-1	2.896320E-3
00.000010540000	-3.030880E-1	3.310080E-3
00.000010664000	-3.030880E-1	2.689440E-3
00.000010788000	-3.030880E-1	3.103200E-3
00.000010912000	-3.030880E-1	2.896320E-3
00.000011036000	-3.030880E-1	3.310080E-3
00.000011160000	-3.030880E-1	3.103200E-3
00.000011284000	-3.030880E-1	2.689440E-3
00.000011408000	-3.030880E-1	2.896320E-3
00.000011532000	-3.030880E-1	3.310080E-3
00.000011656000	-3.030880E-1	2.689440E-3
00.000011780000	-3.030880E-1	3.310080E-3
00.000011904000	-3.030880E-1	3.310080E-3
00.000012028000	-3.030880E-1	2.896320E-3
00.000012152000	-3.094688E-1	2.689440E-3
00.000012276000	2.775648E-1	5.378880E-3
00.000012400000	2.584224E-1	5.585760E-3
00.000012524000	2.711840E-1	1.468848E-2
00.000012648000	2.711840E-1	1.489536E-2
00.000012772000	2.775648E-1	2.275680E-2
00.000012896000	2.775648E-1	2.275680E-2
00.000013020000	2.807552E-1	2.854944E-2
00.000013144000	2.807552E-1	2.875632E-2
00.000013268000	2.839456E-1	3.330768E-2
00.000013392000	2.839456E-1	3.330768E-2
00.000013516000	2.871360E-1	3.641088E-2
00.000013640000	2.871360E-1	3.620400E-2
00.000013764000	2.903264E-1	3.889344E-2
00.000013888000	2.903264E-1	3.847968E-2
00.000014012000	2.903264E-1	4.034160E-2
00.000014136000	2.903264E-1	3.992784E-2
00.000014260000	2.903264E-1	4.137600E-2
00.000014384000	2.903264E-1	4.096224E-2
00.000014508000	2.935168E-1	4.178976E-2
00.000014632000	2.935168E-1	4.137600E-2
00.000014756000	2.903264E-1	4.220352E-2
00.000014880000	2.935168E-1	4.220352E-2
00.000015004000	2.935168E-1	4.158288E-2
00.000015128000	2.935168E-1	4.220352E-2
00.000015252000	2.935168E-1	4.137600E-2
00.000015376000	2.935168E-1	4.178976E-2
00.000015500000	2.935168E-1	4.096224E-2
00.000015624000	2.935168E-1	4.137600E-2
00.000015748000	2.935168E-1	4.075536E-2
00.000015872000	2.935168E-1	4.137600E-2
00.000015996000	2.935168E-1	4.054848E-2
00.000016120000	2.935168E-1	4.054848E-2
00.000016244000	2.935168E-1	4.137600E-2
00.000016368000	2.935168E-1	4.054848E-2
00.000016492000	2.935168E-1	4.116912E-2
00.000016616000	2.935168E-1	4.054848E-2
00.000016740000	2.935168E-1	4.137600E-2
00.000016864000	2.935168E-1	4.054848E-2
00.000016988000	2.935168E-1	4.137600E-2
00.000017112000	2.935168E-1	4.075536E-2
00.000017236000	2.935168E-1	4.158288E-2
00.000017360000	2.935168E-1	4.116912E-2
00.000017484000	2.935168E-1	4.178976E-2
00.000017608000	2.935168E-1	4.178976E-2
00.000017732000	2.935168E-1	4.116912E-2
00.000017856000	2.935168E-1	4.096224E-2
00.000017980000	2.935168E-1	4.178976E-2
00.000018104000	2.935168E-1	4.158288E-2
00.000018228000	2.967072E-1	4.199664E-2
00.000018352000	2.935168E-1	4.158288E-2
00.000018476000	2.967072E-1	4.220352E-2
00.000018600000	2.935168E-1	4.158288E-2
00.000018724000	2.967072E-1	4.220352E-2
00.000018848000	2.967072E-1	4.199664E-2
00.000018972000	2.935168E-1	4.158288E-2
00.000019096000	2.967072E-1	4.199664E-2
00.000019220000	2.935168E-1	4.137600E-2
00.000019344000	2.935168E-1	4.199664E-2
00.000019468000	2.967072E-1	4.137600E-2
00.000019592000	2.967072E-1	4.220352E-2
00.000019716000	2.935168E-1	4.137600E-2
00.000019840000	2.967072E-1	4.199664E-2
00.000019964000	2.935168E-1	4.137600E-2
00.000020088000	2.967072E-1	4.199664E-2
00.000020212000	2.935168E-1	4.137600E-2
00.000020336000	2.967072E-1	4.116912E-2
00.000020460000	2.967072E-1	4.178976E-2
00.000020584000	2.967072E-1	4.096224E-2
00.000020708000	2.967072E-1	4.178976E-2
00.000020832000	2.967072E-1	4.137600E-2
00.000020956000	2.935168E-1	4.054848E-2
00.000021080000	2.967072E-1	4.116912E-2
00.000021204000	2.967072E-1	4.013472E-2
00.000021328000	2.967072E-1	4.075536E-2
00.000021452000	2.967072E-1	3.972096E-2
00.000021576000	2.967072E-1	4.034160E-2
00.000021700000	2.935168E-1	3.951408E-2
00.000021824000	2.935168E-1	3.992784E-2
00.000021948000	2.967072E-1	3.910032E-2
00.000022072000	2.967072E-1	3.930720E-2
00.000022196000	2.935168E-1	3.827280E-2
00.000022320000	2.967072E-1	3.827280E-2
00.000022444000	2.935168E-1	3.889344E-2
00.000022568000	2.935168E-1	3.827280E-2
00.000022692000	2.967072E-1	3.765216E-2
00.000022816000	2.967072E-1	3.785904E-2
00.000022940000	2.935168E-1	3.703152E-2
00.000023064000	2.967072E-1	3.723840E-2
00.000023188000	2.935168E-1	3.661776E-2
00.000023312000	2.935168E-1	3.682464E-2
00.000023436000	2.967072E-1	3.599712E-2
00.000023560000	2.967072E-1	3.620400E-2
00.000023684000	2.935168E-1	3.516960E-2
00.000023808000	2.935168E-1	3.537648E-2
00.000023932000	2.967072E-1	3.454896E-2
00.000024056000	2.967072E-1	3.475584E-2
00.000024180000	2.935168E-1	3.392832E-2
00.000024304000	2.967072E-1	3.413520E-2
00.000024428000	2.935168E-1	3.310080E-2
00.000024552000	2.967072E-1	3.310080E-2
00.000024676000	2.935168E-1	3.206640E-2
00.000024800000	2.935168E-1	3.248016E-2
00.000024924000	2.967072E-1	3.144576E-2
00.000025048000	2.935168E-1	3.206640E-2
00.000025172000	2.935168E-1	3.061824E-2
00.000025296000	2.935168E-1	3.103200E-2
00.000025420000	2.935168E-1	2.999760E-2
00.000025544000	2.935168E-1	3.020448E-2
00.000025668000	2.935168E-1	2.917008E-2
00.000025792000	2.935168E-1	2.917008E-2
00.000025916000	2.935168E-1	2.854944E-2
00.000026040000	2.935168E-1	2.875632E-2
00.000026164000	2.935168E-1	2.792880E-2
00.000026288000	2.935168E-1	2.792880E-2
00.000026412000	2.935168E-1	2.689440E-2
00.000026536000	2.935168E-1	2.730816E-2
00.000026660000	2.935168E-1	2.627376E-2
00.000026784000	2.935168E-1	2.668752E-2
00.000026908000	2.935168E-1	2.544624E-2
00.000027032000	2.935168E-1	2.565312E-2
00.000027156000	2.935168E-1	2.461872E-2
00.000027280000	2.935168E-1	2.503248E-2
00.000027404000	2.935168E-1	2.420496E-2
00.000027528000	2.935168E-1	2.420496E-2
00.000027652000	2.935168E-1	2.337744E-2
00.000027776000	2.935168E-1	2.379120E-2
00.000027900000	2.935168E-1	2.254992E-2
00.000028024000	2.935168E-1	2.296368E-2
00.000028148000	2.935168E-1	2.192928E-2
00.000028272000	2.935168E-1	2.254992E-2
00.000028396000	2.935168E-1	2.130864E-2
00.000028520000	2.935168E-1	2.172240E-2
00.000028644000	2.935168E-1	2.089488E-2
00.000028768000	2.935168E-1	2.110176E-2
00.000028892000	2.935168E-1	2.048112E-2
00.000029016000	2.935168E-1	2.048112E-2
00.000029140000	2.935168E-1	1.986048E-2
00.000029264000	2.935168E-1	1.986048E-2
00.000029388000	2.935168E-1	1.944672E-2
00.000029512000	2.935168E-1	1.965360E-2
00.000029636000	2.935168E-1	1.882608E-2
00.000029760000	2.935168E-1	1.944672E-2
00.000029884000	2.935168E-1	1.820544E-2
00.000030008000	2.935168E-1	1.861920E-2
00.000030132000	2.935168E-1	1.779168E-2
00.000030256000	2.935168E-1	1.820544E-2
00.000030380000	2.935168E-1	1.717104E-2
00.000030504000	2.935168E-1	1.758480E-2
00.000030628000	2.935168E-1	1.696416E-2
00.000030752000	2.935168E-1	1.737792E-2
00.000030876000	2.935168E-1	1.634352E-2
00.000031000000	2.935168E-1	1.634352E-2
00.000031124000	2.935168E-1	1.675728E-2
00.000031248000	2.935168E-1	1.655040E-2
00.000031372000	2.935168E-1	1.572288E-2
00.000031496000	2.935168E-1	1.634352E-2
00.000031620000	2.935168E-1	1.530912E-2
00.000031744000	2.935168E-1	1.592976E-2
00.000031868000	2.935168E-1	1.510224E-2
00.000031992000	2.935168E-1	1.551600E-2
00.000032116000	2.935168E-1	1.448160E-2
00.000032240000	2.935168E-1	1.530912E-2
00.000032364000	2.935168E-1	1.448160E-2
00.000032488000	2.935168E-1	1.468848E-2
00.000032612000	2.935168E-1	1.406784E-2
00.000032736000	2.935168E-1	1.406784E-2
00.000032860000	2.935168E-1	1.468848E-2
00.000032984000	2.935168E-1	1.427472E-2
00.000033108000	2.935168E-1	1.365408E-2
00.000033232000	2.935168E-1	1.406784E-2
00.000033356000	2.935168E-1	1.365408E-2
00.000033480000	2.935168E-1	1.406784E-2
00.000033604000	2.935168E-1	1.344720E-2
00.000033728000	2.935168E-1	1.386096E-2
00.000033852000	2.935168E-1	1.303344E-2
00.000033976000	2.935168E-1	1.303344E-2
00.000034100000	2.935168E-1	1.344720E-2
00.000034224000	2.935168E-1	1.324032E-2
00.000034348000	2.935168E-1	1.282656E-2
00.000034472000	2.935168E-1	1.324032E-2
00.000034596000	2.935168E-1	1.261968E-2
00.000034720000	2.935168E-1	1.324032E-2
00.000034844000	2.935168E-1	1.241280E-2
00.000034968000	2.935168E-1	1.303344E-2
00.000035092000	2.935168E-1	1.220592E-2
00.000035216000	2.935168E-1	1.303344E-2
00.000035340000	2.935168E-1	1.179216E-2
00.000035464000	2.935168E-1	1.261968E-2
00.000035588000	2.935168E-1	1.199904E-2
00.000035712000	2.935168E-1	1.241280E-2
00.000035836000	2.935168E-1	1.179216E-2
00.000035960000	2.935168E-1	1.241280E-2
00.000036084000	2.935168E-1	1.179216E-2
00.000036208000	2.935168E-1	1.220592E-2
00.000036332000	2.935168E-1	1.179216E-2
00.000036456000	2.935168E-1	1.179216E-2
00.000036580000	2.935168E-1	1.220592E-2
00.000036704000	2.935168E-1	1.158528E-2
00.000036828000	2.935168E-1	1.220592E-2
00.000036952000	2.935168E-1	1.220592E-2
00.000037076000	2.935168E-1	1.158528E-2
00.000037200000	2.935168E-1	1.199904E-2
00.000037324000	2.935168E-1	1.137840E-2
00.000037448000	2.935168E-1	1.117152E-2
00.000037572000	2.935168E-1	1.220592E-2
00.000037696000	2.935168E-1	1.179216E-2
00.000037820000	2.935168E-1	1.137840E-2
00.000037944000	2.935168E-1	1.199904E-2
00.000038068000	2.935168E-1	1.137840E-2
00.000038192000	2.935168E-1	1.199904E-2
00.000038316000	2.935168E-1	1.137840E-2
00.000038440000	2.935168E-1	1.199904E-2
00.000038564000	2.935168E-1	1.137840E-2
00.000038688000	2.935168E-1	1.137840E-2
00.000038812000	2.935168E-1	1.179216E-2
00.000038936000	2.935168E-1	1.179216E-2
00.000039060000	2.935168E-1	1.158528E-2
00.000039184000	2.935168E-1	1.199904E-2
00.000039308000	2.935168E-1	1.137840E-2
00.000039432000	2.935168E-1	1.199904E-2
00.000039556000	2.935168E-1	1.137840E-2
00.000039680000	2.935168E-1	1.179216E-2
00.000039804000	2.935168E-1	1.117152E-2
00.000039928000	2.935168E-1	1.199904E-2
00.000040052000	2.935168E-1	1.117152E-2
00.000040176000	2.935168E-1	1.179216E-2
00.000040300000	2.935168E-1	1.137840E-2
00.000040424000	2.935168E-1	1.137840E-2
00.000040548000	2.935168E-1	1.220592E-2
00.000040672000	2.935168E-1	1.117152E-2
00.000040796000	2.935168E-1	1.199904E-2
00.000040920000	2.935168E-1	1.117152E-2
00.000041044000	2.935168E-1	1.199904E-2
00.000041168000	2.935168E-1	1.199904E-2
00.000041292000	2.935168E-1	1.137840E-2
00.000041416000	2.935168E-1	1.199904E-2
00.000041540000	2.935168E-1	1.137840E-2
00.000041664000	2.935168E-1	1.179216E-2
00.000041788000	2.935168E-1	1.137840E-2
00.000041912000	2.935168E-1	1.199904E-2
00.000042036000	2.935168E-1	1.137840E-2
00.000042160000	2.935168E-1	1.158528E-2
00.000042284000	2.935168E-1	1.199904E-2
00.000042408000	2.935168E-1	1.220592E-2
00.000042532000	2.935168E-1	1.137840E-2
00.000042656000	2.935168E-1	1.220592E-2
00.000042780000	2.935168E-1	1.137840E-2
00.000042904000	2.935168E-1	1.137840E-2
00.000043028000	2.935168E-1	1.199904E-2
00.000043152000	2.935168E-1	1.137840E-2
00.000043276000	2.935168E-1	1.220592E-2
00.000043400000	2.935168E-1	1.158528E-2
00.000043524000	2.935168E-1	1.220592E-2
00.000043648000	2.935168E-1	1.158528E-2
00.000043772000	2.935168E-1	1.220592E-2
00.000043896000	2.935168E-1	1.199904E-2
00.000044020000	2.935168E-1	1.158528E-2
00.000044144000	2.935168E-1	1.137840E-2
00.000044268000	2.935168E-1	1.220592E-2
00.000044392000	2.935168E-1	1.158528E-2
00.000044516000	2.935168E-1	1.241280E-2
00.000044640000	2.935168E-1	1.220592E-2
00.000044764000	2.935168E-1	1.158528E-2
00.000044888000	2.935168E-1	1.179216E-2
00.000045012000	2.935168E-1	1.241280E-2
00.000045136000	2.935168E-1	1.220592E-2
00.000045260000	2.935168E-1	1.158528E-2
00.000045384000	2.935168E-1	1.179216E-2
00.000045508000	2.935168E-1	1.241280E-2
00.000045632000	2.935168E-1	1.179216E-2
00.000045756000	2.935168E-1	1.241280E-2
00.000045880000	2.935168E-1	1.199904E-2
00.000046004000	2.935168E-1	1.241280E-2
00.000046128000	2.935168E-1	1.241280E-2
00.000046252000	2.935168E-1	1.179216E-2
00.000046376000	2.935168E-1	1.158528E-2
00.000046500000	2.935168E-1	1.241280E-2
00.000046624000	2.935168E-1	1.179216E-2
00.000046748000	2.935168E-1	1.241280E-2
00.000046872000	2.935168E-1	1.241280E-2
00.000046996000	2.935168E-1	1.179216E-2
00.000047120000	2.935168E-1	1.179216E-2
00.000047244000	2.935168E-1	1.241280E-2
00.000047368000	2.935168E-1	1.179216E-2
00.000047492000	2.935168E-1	1.241280E-2
00.000047616000	2.935168E-1	1.261968E-2
00.000047740000	2.935168E-1	1.199904E-2
00.000047864000	2.935168E-1	1.261968E-2
00.000047988000	2.935168E-1	1.199904E-2
00.000048112000	2.935168E-1	1.241280E-2
00.000048236000	2.935168E-1	1.199904E-2
00.000048360000	2.935168E-1	1.261968E-2
00.000048484000	2.935168E-1	1.199904E-2
00.000048608000	2.935168E-1	1.199904E-2
00.000048732000	2.935168E-1	1.261968E-2
00.000048856000	2.935168E-1	1.241280E-2
00.000048980000	2.935168E-1	1.199904E-2
00.000049104000	2.935168E-1	1.199904E-2
00.000049228000	2.935168E-1	1.261968E-2
00.000049352000	2.935168E-1	1.179216E-2
00.000049476000	2.935168E-1	1.282656E-2
00.000049600000	2.935168E-1	1.179216E-2
00.000049724000	2.935168E-1	1.282656E-2
00.000049848000	2.935168E-1	1.261968E-2
00.000049972000	2.935168E-1	1.199904E-2
00.000050096000	2.935168E-1	1.199904E-2
00.000050220000	2.935168E-1	1.282656E-2
00.000050344000	2.935168E-1	1.199904E-2
00.000050468000	2.935168E-1	1.282656E-2
00.000050592000	2.935168E-1	1.220592E-2
00.000050716000	2.935168E-1	1.282656E-2
00.000050840000	2.935168E-1	1.282656E-2
00.000050964000	2.935168E-1	1.220592E-2
00.000051088000	2.935168E-1	1.282656E-2
00.000051212000	2.935168E-1	1.199904E-2
00.000051336000	2.935168E-1	1.282656E-2
00.000051460000	2.935168E-1	1.220592E-2
00.000051584000	2.935168E-1	1.220592E-2
00.000051708000	2.935168E-1	1.303344E-2
00.000051832000	2.935168E-1	1.241280E-2
00.000051956000	2.935168E-1	1.303344E-2
00.000052080000	2.935168E-1	1.282656E-2
00.000052204000	2.935168E-1	1.220592E-2
00.000052328000	2.935168E-1	1.199904E-2
00.000052452000	2.935168E-1	1.303344E-2
00.000052576000	2.935168E-1	1.282656E-2
00.000052700000	2.935168E-1	1.241280E-2
00.000052824000	2.935168E-1	1.282656E-2
00.000052948000	2.935168E-1	1.241280E-2
00.000053072000	2.935168E-1	1.241280E-2
00.000053196000	2.935168E-1	1.282656E-2
00.000053320000	2.935168E-1	1.241280E-2
00.000053444000	2.935168E-1	1.282656E-2
00.000053568000	2.935168E-1	1.282656E-2
00.000053692000	2.935168E-1	1.241280E-2
00.000053816000	2.935168E-1	1.261968E-2
00.000053940000	2.935168E-1	1.303344E-2
00.000054064000	2.935168E-1	1.303344E-2
00.000054188000	2.935168E-1	1.241280E-2
00.000054312000	2.935168E-1	1.303344E-2
00.000054436000	2.935168E-1	1.241280E-2
00.000054560000	2.935168E-1	1.241280E-2
00.000054684000	2.935168E-1	1.324032E-2
00.000054808000	2.935168E-1	1.220592E-2
00.000054932000	2.935168E-1	1.324032E-2
00.000055056000	2.935168E-1	1.303344E-2
00.000055180000	2.935168E-1	1.241280E-2
00.000055304000	2.935168E-1	1.303344E-2
00.000055428000	2.935168E-1	1.241280E-2
00.000055552000	2.935168E-1	1.303344E-2
00.000055676000	2.935168E-1	1.241280E-2
00.000055800000	2.935168E-1	1.303344E-2
00.000055924000	2.935168E-1	1.241280E-2
00.000056048000	2.935168E-1	1.303344E-2
00.000056172000	2.935168E-1	1.261968E-2
00.000056296000	2.935168E-1	1.303344E-2
00.000056420000	2.935168E-1	1.261968E-2
00.000056544000	2.935168E-1	1.282656E-2
00.000056668000	2.935168E-1	1.241280E-2
00.000056792000	2.935168E-1	1.241280E-2
00.000056916000	2.935168E-1	1.303344E-2
00.000057040000	2.935168E-1	1.241280E-2
00.000057164000	2.935168E-1	1.303344E-2
00.000057288000	2.935168E-1	1.261968E-2
00.000057412000	2.935168E-1	1.324032E-2
00.000057536000	2.935168E-1	1.241280E-2
00.000057660000	2.935168E-1	1.303344E-2
00.000057784000	2.935168E-1	1.241280E-2
00.000057908000	2.935168E-1	1.303344E-2
00.000058032000	2.935168E-1	1.303344E-2
00.000058156000	2.935168E-1	1.241280E-2
00.000058280000	2.935168E-1	1.324032E-2
00.000058404000	2.935168E-1	1.241280E-2
00.000058528000	2.935168E-1	1.261968E-2
00.000058652000	2.935168E-1	1.324032E-2
00.000058776000	2.935168E-1	1.303344E-2
00.000058900000	2.935168E-1	1.241280E-2
00.000059024000	2.935168E-1	1.324032E-2
00.000059148000	2.935168E-1	1.241280E-2
00.000059272000	2.935168E-1	1.303344E-2
00.000059396000	2.935168E-1	1.241280E-2
00.000059520000	2.935168E-1	1.303344E-2
00.000059644000	2.935168E-1	1.241280E-2
00.000059768000	2.935168E-1	1.261968E-2
00.000059892000	2.935168E-1	1.303344E-2
00.000060016000	2.935168E-1	1.261968E-2
00.000060140000	2.935168E-1	1.324032E-2
00.000060264000	2.935168E-1	1.303344E-2
00.000060388000	2.935168E-1	1.220592E-2
00.000060512000	2.935168E-1	1.220592E-2
00.000060636000	2.935168E-1	1.324032E-2
00.000060760000	2.935168E-1	1.220592E-2
00.000060884000	2.935168E-1	1.324032E-2
00.000061008000	2.935168E-1	1.220592E-2
00.000061132000	2.935168E-1	1.324032E-2
00.000061256000	2.935168E-1	1.241280E-2
00.000061380000	2.935168E-1	1.344720E-2
00.000061504000	2.935168E-1	1.324032E-2
00.000061628000	2.935168E-1	1.241280E-2
00.000061752000	2.935168E-1	1.324032E-2
00.000061876000	2.935168E-1	1.261968E-2
00.000062000000	2.935168E-1	1.324032E-2
00.000062124000	2.935168E-1	1.261968E-2
00.000062248000	2.935168E-1	1.303344E-2
00.000062372000	2.935168E-1	1.261968E-2
00.000062496000	2.935168E-1	1.324032E-2
00.000062620000	2.935168E-1	1.241280E-2
00.000062744000	2.935168E-1	1.324032E-2
00.000062868000	2.935168E-1	1.241280E-2
00.000062992000	2.935168E-1	1.324032E-2
00.000063116000	2.935168E-1	1.241280E-2
00.000063240000	2.935168E-1	1.241280E-2
00.000063364000	2.935168E-1	1.324032E-2
00.000063488000	2.935168E-1	1.282656E-2
00.000063612000	2.935168E-1	1.324032E-2
00.000063736000	2.935168E-1	1.324032E-2
00.000063860000	2.935168E-1	1.261968E-2
00.000063984000	2.935168E-1	1.261968E-2
00.000064108000	2.935168E-1	1.324032E-2
00.000064232000	2.935168E-1	1.261968E-2
00.000064356000	2.935168E-1	1.324032E-2
00.000064480000	2.935168E-1	1.261968E-2
00.000064604000	2.935168E-1	1.324032E-2
00.000064728000	2.935168E-1	1.220592E-2
00.000064852000	2.935168E-1	1.324032E-2
00.000064976000	2.935168E-1	1.241280E-2
00.000065100000	2.935168E-1	1.324032E-2
00.000065224000	2.935168E-1	1.303344E-2
00.000065348000	2.935168E-1	1.261968E-2
00.000065472000	2.935168E-1	1.282656E-2
00.000065596000	2.935168E-1	1.324032E-2
00.000065720000	2.935168E-1	1.261968E-2
00.000065844000	2.935168E-1	1.324032E-2
00.000065968000	2.935168E-1	1.324032E-2
00.000066092000	2.935168E-1	1.241280E-2
00.000066216000	2.935168E-1	1.261968E-2
00.000066340000	2.935168E-1	1.303344E-2
00.000066464000	2.935168E-1	1.303344E-2
00.000066588000	2.935168E-1	1.241280E-2
00.000066712000	2.935168E-1	1.324032E-2
00.000066836000	2.935168E-1	1.261968E-2
00.000066960000	2.935168E-1	1.324032E-2
00.000067084000	2.935168E-1	1.241280E-2
00.000067208000	2.935168E-1	1.241280E-2
00.000067332000	2.935168E-1	1.303344E-2
00.000067456000	2.935168E-1	1.241280E-2
00.000067580000	2.935168E-1	1.324032E-2
00.000067704000	2.935168E-1	1.324032E-2
00.000067828000	2.935168E-1	1.261968E-2
00.000067952000	2.935168E-1	1.324032E-2
00.000068076000	2.935168E-1	1.241280E-2
00.000068200000	2.935168E-1	1.303344E-2
00.000068324000	2.935168E-1	1.220592E-2
00.000068448000	2.935168E-1	1.261968E-2
00.000068572000	2.935168E-1	1.324032E-2
00.000068696000	2.935168E-1	1.241280E-2
00.000068820000	2.935168E-1	1.303344E-2
00.000068944000	2.935168E-1	1.261968E-2
00.000069068000	2.935168E-1	1.324032E-2
00.000069192000	2.935168E-1	1.261968E-2
00.000069316000	2.935168E-1	1.303344E-2
00.000069440000	2.935168E-1	1.261968E-2
00.000069564000	2.935168E-1	1.303344E-2
00.000069688000	2.935168E-1	1.261968E-2
00.000069812000	2.935168E-1	1.324032E-2
00.000069936000	2.935168E-1	1.344720E-2
00.000070060000	2.935168E-1	1.241280E-2
00.000070184000	2.935168E-1	1.324032E-2
00.000070308000	2.935168E-1	1.241280E-2
00.000070432000	2.935168E-1	1.303344E-2
00.000070556000	2.935168E-1	1.241280E-2
00.000070680000	2.935168E-1	1.261968E-2
00.000070804000	2.935168E-1	1.324032E-2
00.000070928000	2.935168E-1	1.282656E-2
00.000071052000	2.935168E-1	1.324032E-2
00.000071176000	2.935168E-1	1.261968E-2
00.000071300000	2.935168E-1	1.324032E-2
00.000071424000	2.935168E-1	1.324032E-2
00.000071548000	2.935168E-1	1.241280E-2
00.000071672000	2.935168E-1	1.241280E-2
00.000071796000	2.935168E-1	1.303344E-2
00.000071920000	2.935168E-1	1.261968E-2
00.000072044000	2.935168E-1	1.344720E-2
00.000072168000	2.935168E-1	1.261968E-2
00.000072292000	2.935168E-1	1.324032E-2
00.000072416000	2.935168E-1	1.261968E-2
00.000072540000	2.935168E-1	1.324032E-2
00.000072664000	2.935168E-1	1.261968E-2
00.000072788000	2.935168E-1	1.303344E-2
00.000072912000	2.935168E-1	1.261968E-2
00.000073036000	2.935168E-1	1.303344E-2
00.000073160000	2.935168E-1	1.282656E-2
00.000073284000	2.935168E-1	1.324032E-2
00.000073408000	2.935168E-1	1.261968E-2
00.000073532000	2.935168E-1	1.324032E-2
00.000073656000	2.935168E-1	1.324032E-2
00.000073780000	2.935168E-1	1.261968E-2
00.000073904000	2.935168E-1	1.324032E-2
00.000074028000	2.935168E-1	1.241280E-2
00.000074152000	2.935168E-1	1.324032E-2
00.000074276000	2.935168E-1	1.261968E-2
00.000074400000	2.935168E-1	1.344720E-2
00.000074524000	2.935168E-1	1.261968E-2
00.000074648000	2.935168E-1	1.324032E-2
00.000074772000	2.935168E-1	1.261968E-2
00.000074896000	2.935168E-1	1.324032E-2
00.000075020000	2.935168E-1	1.241280E-2
00.000075144000	2.935168E-1	1.261968E-2
00.000075268000	2.935168E-1	1.324032E-2
00.000075392000	2.935168E-1	1.344720E-2
00.000075516000	2.935168E-1	1.261968E-2
00.000075640000	2.935168E-1	1.261968E-2
00.000075764000	2.935168E-1	1.344720E-2
00.000075888000	2.935168E-1	1.261968E-2
00.000076012000	2.935168E-1	1.324032E-2
00.000076136000	2.935168E-1	1.324032E-2
00.000076260000	2.935168E-1	1.241280E-2
00.000076384000	2.935168E-1	1.303344E-2
00.000076508000	2.935168E-1	1.282656E-2
00.000076632000	2.935168E-1	1.324032E-2
00.000076756000	2.935168E-1	1.261968E-2
00.000076880000	2.935168E-1	1.324032E-2
00.000077004000	2.935168E-1	1.241280E-2
00.000077128000	2.935168E-1	1.241280E-2
00.000077252000	2.935168E-1	1.324032E-2
00.000077376000	2.935168E-1	1.261968E-2
00.000077500000	2.935168E-1	1.324032E-2
00.000077624000	2.935168E-1	1.261968E-2
00.000077748000	2.935168E-1	1.344720E-2
00.000077872000	2.935168E-1	1.324032E-2
00.000077996000	2.935168E-1	1.261968E-2
00.000078120000	2.935168E-1	1.303344E-2
00.000078244000	2.935168E-1	1.261968E-2
00.000078368000	2.935168E-1	1.261968E-2
00.000078492000	2.967072E-1	1.324032E-2
00.000078616000	2.967072E-1	1.261968E-2
00.000078740000	2.935168E-1	1.344720E-2
00.000078864000	2.935168E-1	1.282656E-2
00.000078988000	2.935168E-1	1.324032E-2
00.000079112000	2.935168E-1	1.324032E-2
00.000079236000	2.967072E-1	1.261968E-2
00.000079360000	2.935168E-1	1.324032E-2
00.000079484000	2.935168E-1	1.261968E-2
00.000079608000	2.935168E-1	1.303344E-2
00.000079732000	2.935168E-1	1.261968E-2
00.000079856000	2.935168E-1	1.324032E-2
00.000079980000	2.935168E-1	1.261968E-2
00.000080104000	2.935168E-1	1.261968E-2
00.000080228000	2.935168E-1	1.365408E-2
00.000080352000	2.935168E-1	1.344720E-2
00.000080476000	2.935168E-1	1.241280E-2
00.000080600000	2.935168E-1	1.261968E-2
00.000080724000	2.967072E-1	1.344720E-2
00.000080848000	2.935168E-1	1.261968E-2
00.000080972000	2.967072E-1	1.303344E-2
00.000081096000	2.935168E-1	1.261968E-2
00.000081220000	2.935168E-1	1.324032E-2
00.000081344000	2.935168E-1	1.261968E-2
00.000081468000	2.935168E-1	1.324032E-2
00.000081592000	2.935168E-1	1.324032E-2
00.000081716000	2.935168E-1	1.261968E-2
00.000081840000	2.935168E-1	1.303344E-2
00.000081964000	2.935168E-1	1.261968E-2
00.000082088000	2.935168E-1	1.241280E-2
00.000082212000	2.935168E-1	1.324032E-2
00.000082336000	2.935168E-1	1.324032E-2
00.000082460000	2.967072E-1	1.261968E-2
00.000082584000	2.935168E-1	1.344720E-2
00.000082708000	2.967072E-1	1.261968E-2
00.000082832000	2.935168E-1	1.324032E-2
00.000082956000	2.967072E-1	1.261968E-2
00.000083080000	2.935168E-1	1.261968E-2
00.000083204000	2.935168E-1	1.324032E-2
00.000083328000	2.935168E-1	1.324032E-2
00.000083452000	2.967072E-1	1.261968E-2
00.000083576000	2.935168E-1	1.324032E-2
00.000083700000	2.967072E-1	1.282656E-2
00.000083824000	2.935168E-1	1.324032E-2
00.000083948000	2.967072E-1	1.282656E-2
00.000084072000	2.935168E-1	1.324032E-2
00.000084196000	2.935168E-1	1.261968E-2
00.000084320000	2.935168E-1	1.261968E-2
00.000084444000	2.935168E-1	1.324032E-2
00.000084568000	2.935168E-1	1.261968E-2
00.000084692000	2.935168E-1	1.324032E-2
00.000084816000	2.935168E-1	1.261968E-2
00.000084940000	2.967072E-1	1.324032E-2
00.000085064000	2.935168E-1	1.324032E-2
00.000085188000	2.935168E-1	1.241280E-2
00.000085312000	2.935168E-1	1.324032E-2
00.000085436000	2.967072E-1	1.241280E-2
00.000085560000	2.935168E-1	1.261968E-2
00.000085684000	2.967072E-1	1.344720E-2
00.000085808000	2.935168E-1	1.261968E-2
00.000085932000	2.935168E-1	1.344720E-2
00.000086056000	2.935168E-1	1.324032E-2
00.000086180000	2.935168E-1	1.261968E-2
00.000086304000	2.935168E-1	1.324032E-2
00.000086428000	2.967072E-1	1.261968E-2
00.000086552000	2.935168E-1	1.324032E-2
00.000086676000	2.935168E-1	1.261968E-2
00.000086800000	2.935168E-1	1.282656E-2
00.000086924000	2.967072E-1	1.324032E-2
00.000087048000	2.935168E-1	1.344720E-2
00.000087172000	2.935168E-1	1.261968E-2
00.000087296000	2.935168E-1	1.324032E-2
00.000087420000	2.967072E-1	1.261968E-2
00.000087544000	2.935168E-1	1.324032E-2
00.000087668000	2.967072E-1	1.261968E-2
00.000087792000	2.935168E-1	1.303344E-2
00.000087916000	2.967072E-1	1.261968E-2
00.000088040000	2.935168E-1	1.261968E-2
00.000088164000	2.967072E-1	1.344720E-2
00.000088288000	2.935168E-1	1.282656E-2
00.000088412000	2.935168E-1	1.344720E-2
00.000088536000	2.935168E-1	1.344720E-2
00.000088660000	2.967072E-1	1.261968E-2
00.000088784000	2.935168E-1	1.344720E-2
00.000088908000	2.967072E-1	1.241280E-2
00.000089032000	2.935168E-1	1.282656E-2
00.000089156000	2.967072E-1	1.324032E-2
00.000089280000	2.935168E-1	1.282656E-2
00.000089404000	2.967072E-1	1.324032E-2
00.000089528000	2.935168E-1	1.261968E-2
00.000089652000	2.967072E-1	1.324032E-2
00.000089776000	2.935168E-1	1.261968E-2
00.000089900000	2.967072E-1	1.324032E-2
00.000090024000	2.967072E-1	1.324032E-2
00.000090148000	2.935168E-1	1.241280E-2
00.000090272000	2.935168E-1	1.261968E-2
00.000090396000	2.967072E-1	1.324032E-2
00.000090520000	2.935168E-1	1.261968E-2
00.000090644000	2.967072E-1	1.324032E-2
00.000090768000	2.967072E-1	1.324032E-2
00.000090892000	2.935168E-1	1.261968E-2
00.000091016000	2.935168E-1	1.324032E-2
00.000091140000	2.967072E-1	1.261968E-2
00.000091264000	2.967072E-1	1.261968E-2
00.000091388000	2.935168E-1	1.324032E-2
00.000091512000	2.967072E-1	1.324032E-2
00.000091636000	2.935168E-1	1.282656E-2
00.000091760000	2.935168E-1	1.282656E-2
00.000091884000	2.967072E-1	1.324032E-2
00.000092008000	2.935168E-1	1.261968E-2
00.000092132000	2.967072E-1	1.324032E-2
00.000092256000	2.967072E-1	1.261968E-2
00.000092380000	2.935168E-1	1.324032E-2
00.000092504000	2.935168E-1	1.241280E-2
00.000092628000	2.967072E-1	1.324032E-2
00.000092752000	2.935168E-1	1.282656E-2
00.000092876000	2.967072E-1	1.344720E-2
00.000093000000	2.967072E-1	1.324032E-2
00.000093124000	2.935168E-1	1.282656E-2
00.000093248000	2.935168E-1	1.261968E-2
00.000093372000	2.967072E-1	1.324032E-2
00.000093496000	2.935168E-1	1.282656E-2
00.000093620000	2.967072E-1	1.324032E-2
00.000093744000	2.935168E-1	1.324032E-2
00.000093868000	2.967072E-1	1.261968E-2
00.000093992000	2.935168E-1	1.324032E-2
00.000094116000	2.967072E-1	1.261968E-2
00.000094240000	2.935168E-1	1.324032E-2
00.000094364000	2.967072E-1	1.261968E-2
00.000094488000	2.967072E-1	1.324032E-2
00.000094612000	2.935168E-1	1.261968E-2
00.000094736000	2.935168E-1	1.324032E-2
00.000094860000	2.967072E-1	1.282656E-2
00.000094984000	2.967072E-1	1.344720E-2
00.000095108000	2.935168E-1	1.282656E-2
00.000095232000	2.935168E-1	1.344720E-2
00.000095356000	2.967072E-1	1.261968E-2
00.000095480000	2.967072E-1	1.261968E-2
00.000095604000	2.935168E-1	1.324032E-2
00.000095728000	2.935168E-1	1.261968E-2
00.000095852000	2.967072E-1	1.344720E-2
00.000095976000	2.935168E-1	1.261968E-2
00.000096100000	2.967072E-1	1.344720E-2
00.000096224000	2.967072E-1	1.344720E-2
00.000096348000	2.935168E-1	1.261968E-2
00.000096472000	2.935168E-1	1.344720E-2
00.000096596000	2.967072E-1	1.261968E-2
00.000096720000	2.935168E-1	1.303344E-2
00.000096844000	2.967072E-1	1.261968E-2
00.000096968000	2.967072E-1	1.344720E-2
00.000097092000	2.935168E-1	1.261968E-2
00.000097216000	2.967072E-1	1.344720E-2
00.000097340000	2.935168E-1	1.261968E-2
00.000097464000	2.935168E-1	1.261968E-2
00.000097588000	2.967072E-1	1.324032E-2
00.000097712000	2.935168E-1	1.324032E-2
00.000097836000	2.967072E-1	1.261968E-2
00.000097960000	2.935168E-1	1.324032E-2
00.000098084000	2.967072E-1	1.261968E-2
00.000098208000	2.935168E-1	1.282656E-2
00.000098332000	2.967072E-1	1.344720E-2
00.000098456000	2.967072E-1	1.344720E-2
00.000098580000	2.935168E-1	1.282656E-2
00.000098704000	2.967072E-1	1.282656E-2
00.000098828000	2.935168E-1	1.344720E-2
00.000098952000	2.967072E-1	1.282656E-2
00.000099076000	2.935168E-1	1.324032E-2
00.000099200000	2.935168E-1	1.324032E-2
00.000099324000	2.967072E-1	1.282656E-2
00.000099448000	2.935168E-1	1.282656E-2
00.000099572000	2.967072E-1	1.344720E-2
00.000099696000	2.967072E-1	1.344720E-2
00.000099820000	2.935168E-1	1.261968E-2
00.000099944000	2.967072E-1	1.241280E-2
00.000100068000	2.935168E-1	1.344720E-2
00.000100192000	2.967072E-1	1.324032E-2
00.000100316000	2.935168E-1	1.261968E-2
00.000100440000	2.967072E-1	1.344720E-2
00.000100564000	2.935168E-1	1.282656E-2
00.000100688000	2.967072E-1	1.324032E-2
00.000100812000	2.935168E-1	1.282656E-2
00.000100936000	2.967072E-1	1.241280E-2
00.000101060000	2.935168E-1	1.344720E-2
00.000101184000	2.967072E-1	1.324032E-2
00.000101308000	2.935168E-1	1.261968E-2
00.000101432000	2.935168E-1	1.344720E-2
00.000101556000	2.967072E-1	1.282656E-2
00.000101680000	2.967072E-1	1.282656E-2
00.000101804000	2.935168E-1	1.344720E-2
00.000101928000	2.967072E-1	1.282656E-2
00.000102052000	2.935168E-1	1.344720E-2
00.000102176000	2.967072E-1	1.324032E-2
00.000102300000	2.935168E-1	1.282656E-2
00.000102424000	2.967072E-1	1.282656E-2
00.000102548000	2.967072E-1	1.365408E-2
00.000102672000	2.967072E-1	1.365408E-2
00.000102796000	2.935168E-1	1.261968E-2
00.000102920000	2.935168E-1	1.365408E-2
00.000103044000	2.967072E-1	1.261968E-2
00.000103168000	2.967072E-1	1.344720E-2
00.000103292000	2.935168E-1	1.282656E-2
00.000103416000	2.967072E-1	1.282656E-2
00.000103540000	2.935168E-1	1.344720E-2
00.000103664000	2.935168E-1	1.344720E-2
00.000103788000	2.967072E-1	1.282656E-2
00.000103912000	2.967072E-1	1.344720E-2
00.000104036000	2.935168E-1	1.303344E-2
00.000104160000	2.967072E-1	1.303344E-2
00.000104284000	2.935168E-1	1.344720E-2
00.000104408000	2.967072E-1	1.344720E-2
00.000104532000	2.935168E-1	1.282656E-2
00.000104656000	2.935168E-1	1.282656E-2
00.000104780000	2.967072E-1	1.344720E-2
00.000104904000	2.935168E-1	1.282656E-2
00.000105028000	2.967072E-1	1.344720E-2
00.000105152000	2.967072E-1	1.344720E-2
00.000105276000	2.935168E-1	1.282656E-2
00.000105400000	2.967072E-1	1.344720E-2
00.000105524000	2.935168E-1	1.282656E-2
00.000105648000	2.935168E-1	1.344720E-2
00.000105772000	2.967072E-1	1.282656E-2
00.000105896000	2.967072E-1	1.365408E-2
00.000106020000	2.935168E-1	1.282656E-2
00.000106144000	2.967072E-1	1.282656E-2
00.000106268000	2.935168E-1	1.344720E-2
00.000106392000	2.935168E-1	1.282656E-2
00.000106516000	2.967072E-1	1.344720E-2
00.000106640000	2.967072E-1	1.282656E-2
00.000106764000	2.935168E-1	1.365408E-2
00.000106888000	2.935168E-1	1.261968E-2
00.000107012000	2.967072E-1	1.365408E-2
00.000107136000	2.935168E-1	1.365408E-2
00.000107260000	2.967072E-1	1.282656E-2
00.000107384000	2.967072E-1	1.344720E-2
00.000107508000	2.967072E-1	1.282656E-2
00.000107632000	2.967072E-1	1.303344E-2
00.000107756000	2.935168E-1	1.344720E-2
00.000107880000	2.967072E-1	1.344720E-2
00.000108004000	2.935168E-1	1.282656E-2
00.000108128000	2.935168E-1	1.303344E-2
00.000108252000	2.967072E-1	1.344720E-2
00.000108376000	2.967072E-1	1.344720E-2
00.000108500000	2.935168E-1	1.282656E-2
00.000108624000	2.967072E-1	1.344720E-2
00.000108748000	2.967072E-1	1.303344E-2
00.000108872000	2.967072E-1	1.344720E-2
00.000108996000	2.935168E-1	1.282656E-2
00.000109120000	2.967072E-1	1.365408E-2
00.000109244000	2.935168E-1	1.282656E-2
00.000109368000	2.967072E-1	1.365408E-2
00.000109492000	2.967072E-1	1.303344E-2
00.000109616000	2.967072E-1	1.344720E-2
00.000109740000	2.935168E-1	1.282656E-2
00.000109864000	2.967072E-1	1.365408E-2
00.000109988000	2.935168E-1	1.282656E-2
00.000110112000	2.967072E-1	1.365408E-2
00.000110236000	2.967072E-1	1.282656E-2
00.000110360000	2.967072E-1	1.344720E-2
00.000110484000	2.935168E-1	1.282656E-2
00.000110608000	2.935168E-1	1.365408E-2
00.000110732000	2.967072E-1	1.282656E-2
00.000110856000	2.967072E-1	1.303344E-2
00.000110980000	2.967072E-1	1.365408E-2
00.000111104000	2.967072E-1	1.303344E-2
00.000111228000	2.935168E-1	1.365408E-2
00.000111352000	2.967072E-1	1.365408E-2
00.000111476000	2.967072E-1	1.303344E-2
00.000111600000	2.967072E-1	1.344720E-2
00.000111724000	2.935168E-1	1.282656E-2
00.000111848000	2.967072E-1	1.344720E-2
00.000111972000	2.935168E-1	1.303344E-2
00.000112096000	2.967072E-1	1.303344E-2
00.000112220000	2.935168E-1	1.344720E-2
00.000112344000	3.062784E-1	1.324032E-2
00.000112468000	-2.775648E-1	5.585760E-3
00.000112592000	-2.743744E-1	5.585760E-3
00.000112716000	-2.839456E-1	-1.448160E-3
00.000112840000	-2.839456E-1	-1.448160E-3
00.000112964000	-2.871360E-1	-3.516960E-3
00.000113088000	-2.871360E-1	-3.516960E-3
00.000113212000	-2.903264E-1	-3.516960E-3
00.000113336000	-2.903264E-1	-3.516960E-3
00.000113460000	-2.935168E-1	-3.516960E-3
00.000113584000	-2.935168E-1	-3.516960E-3
00.000113708000	-2.967072E-1	-3.516960E-3
00.000113832000	-2.967072E-1	-3.516960E-3
00.000113956000	-2.967072E-1	-3.516960E-3
00.000114080000	-2.967072E-1	-3.516960E-3
00.000114204000	-2.967072E-1	-3.516960E-3
00.000114328000	-2.967072E-1	-3.516960E-3
00.000114452000	-2.967072E-1	-3.516960E-3
00.000114576000	-2.967072E-1	-3.516960E-3
00.000114700000	-2.998976E-1	-3.516960E-3
00.000114824000	-2.998976E-1	-3.516960E-3
00.000114948000	-2.998976E-1	-3.516960E-3
00.000115072000	-2.998976E-1	-3.516960E-3
00.000115196000	-2.998976E-1	-3.516960E-3
00.000115320000	-2.998976E-1	-3.516960E-3
00.000115444000	-2.998976E-1	-3.516960E-3
00.000115568000	-2.998976E-1	-3.516960E-3
00.000115692000	-2.998976E-1	-3.516960E-3
00.000115816000	-2.998976E-1	-3.516960E-3
00.000115940000	-2.998976E-1	-3.516960E-3
00.000116064000	-2.998976E-1	-3.516960E-3
00.000116188000	-3.030880E-1	-3.516960E-3
00.000116312000	-3.030880E-1	-3.516960E-3
00.000116436000	-2.998976E-1	-3.516960E-3
00.000116560000	-2.998976E-1	-3.516960E-3
00.000116684000	-3.030880E-1	-3.516960E-3
00.000116808000	-3.030880E-1	-3.516960E-3
00.000116932000	-3.030880E-1	-3.516960E-3
00.000117056000	-3.030880E-1	-3.516960E-3
00.000117180000	-3.030880E-1	-3.516960E-3
00.000117304000	-3.030880E-1	-3.516960E-3
00.000117428000	-3.030880E-1	-3.516960E-3
00.000117552000	-3.030880E-1	-3.516960E-3
00.000117676000	-3.030880E-1	-3.516960E-3
00.000117800000	-3.030880E-1	-3.516960E-3
00.000117924000	-3.030880E-1	-3.516960E-3
00.000118048000	-3.030880E-1	-3.516960E-3
00.000118172000	-3.030880E-1	-3.516960E-3
00.000118296000	-3.030880E-1	-3.516960E-3
00.000118420000	-3.030880E-1	-3.516960E-3
00.000118544000	-3.030880E-1	-3.516960E-3
00.000118668000	-3.030880E-1	-3.516960E-3
00.000118792000	-3.030880E-1	-3.516960E-3
00.000118916000	-3.030880E-1	-3.516960E-3
00.000119040000	-3.030880E-1	-3.516960E-3
00.000119164000	-3.030880E-1	-3.516960E-3
00.000119288000	-3.030880E-1	-3.516960E-3
00.000119412000	-3.030880E-1	-3.516960E-3
00.000119536000	-3.030880E-1	-3.516960E-3
00.000119660000	-3.030880E-1	-3.516960E-3
00.000119784000	-3.030880E-1	-3.516960E-3
00.000119908000	-3.030880E-1	-3.516960E-3
00.000120032000	-3.030880E-1	-3.516960E-3
00.000120156000	-3.030880E-1	-3.516960E-3
00.000120280000	-3.030880E-1	-3.516960E-3
00.000120404000	-3.030880E-1	-3.310080E-3
00.000120528000	-3.030880E-1	-3.516960E-3
00.000120652000	-3.030880E-1	-3.310080E-3
00.000120776000	-3.030880E-1	-3.516960E-3
00.000120900000	-3.030880E-1	-3.310080E-3
00.000121024000	-3.030880E-1	-3.516960E-3
00.000121148000	-3.030880E-1	-3.310080E-3
00.000121272000	-3.030880E-1	-3.310080E-3
00.000121396000	-3.030880E-1	-3.516960E-3
00.000121520000	-3.030880E-1	-3.310080E-3
00.000121644000	-3.030880E-1	-3.516960E-3
00.000121768000	-3.030880E-1	-3.310080E-3
00.000121892000	-3.030880E-1	-3.103200E-3
00.000122016000	-3.030880E-1	-3.310080E-3
00.000122140000	-3.030880E-1	-3.103200E-3
00.000122264000	-3.030880E-1	-3.103200E-3
00.000122388000	-3.030880E-1	-2.896320E-3
00.000122512000	-3.030880E-1	-3.103200E-3
00.000122636000	-3.030880E-1	-2.689440E-3
00.000122760000	-3.030880E-1	-2.896320E-3
00.000122884000	-3.030880E-1	-2.482560E-3
00.000123008000	-3.030880E-1	-2.689440E-3
00.000123132000	-3.030880E-1	-2.275680E-3
00.000123256000	-3.030880E-1	-2.482560E-3
00.000123380000	-3.030880E-1	-2.068800E-3
00.000123504000	-3.030880E-1	-2.068800E-3
00.000123628000	-3.030880E-1	-1.655040E-3
00.000123752000	-3.030880E-1	-1.861920E-3
00.000123876000	-3.030880E-1	
		
