0.01	0.19936530000000002
0.03	0.19964020000000002
0.05	0.19860650000000002
0.06999999999999999	0.1992823
0.09	0.19897600000000001
0.11	0.0999223
0.13	0.0425715
0.15000000000000002	0.032855300000000004
0.17	0.030157200000000006
0.19	0.032481300000000005
0.21000000000000002	0.035154200000000004
0.23	0.0374834
0.25	0.0406404
0.27	0.0424177
0.29000000000000004	0.0441911
0.31	0.0466577
0.33	0.047603
0.35000000000000003	0.0482317
0.37	0.049851900000000005
0.39	0.0504529
0.41000000000000003	0.0512865
0.43	0.05213639999999999
0.45	0.0526432
0.47000000000000003	0.052954
0.49	0.0545111
0.51	0.0537739
0.53	0.0546919
0.55	0.055863499999999996
0.5700000000000001	0.05541769999999999
0.59	0.05579439999999999
0.61	0.05711190000000001
0.63	0.0569726
0.65	0.057201800000000004
0.67	0.05843090000000001
0.6900000000000001	0.0577911
0.7100000000000001	0.0596665
0.73	0.058780900000000004
0.75	0.0593406
0.77	0.0606481
0.79	0.0599711
0.81	0.0610224
0.8300000000000001	0.0603484
0.85	0.0604904
0.87	0.061298399999999996
0.89	0.061126
0.91	0.060955499999999996
0.93	0.062054
0.9500000000000001	0.061192
0.97	0.0619105
0.99	0.06179
1.01	0.061314499999999994
1.03	0.0621707
1.05	0.06193759999999998
1.07	0.06208499999999999
1.09	0.06202919999999999
1.11	0.0625444
1.1300000000000001	0.062361599999999996
1.1500000000000001	0.062461
1.17	0.0630897
1.19	0.06284759999999999
1.21	0.06373150000000001
1.23	0.0632351
1.25	0.0637184
1.27	0.0637706
1.29	0.0636063
1.31	0.0635923
1.33	0.0643268
1.35	0.0651248
1.37	0.06431909999999999
1.3900000000000001	0.06511539999999999
1.4100000000000001	0.0656851
1.43	0.06598570000000001
1.45	0.0664183
1.47	0.0667156
1.49	0.06728980000000001
1.51	0.0671336
1.53	0.067891
1.55	0.0672423
1.57	0.0681871
1.59	0.06893230000000002