00.000000000000	-2.041856E-1	2.275680E-3
00.000000122000	-2.041856E-1	1.861920E-3
00.000000244000	-2.041856E-1	2.068800E-3
00.000000366000	-2.041856E-1	1.861920E-3
00.000000488000	-2.041856E-1	2.275680E-3
00.000000610000	-2.041856E-1	1.861920E-3
00.000000732000	-2.041856E-1	2.275680E-3
00.000000854000	-2.041856E-1	1.861920E-3
00.000000976000	-2.041856E-1	2.275680E-3
00.000001098000	-2.041856E-1	1.861920E-3
00.000001220000	-2.041856E-1	2.482560E-3
00.000001342000	-2.041856E-1	1.655040E-3
00.000001464000	-2.041856E-1	1.655040E-3
00.000001586000	-2.041856E-1	2.275680E-3
00.000001708000	-2.041856E-1	1.861920E-3
00.000001830000	-2.041856E-1	2.275680E-3
00.000001952000	-2.041856E-1	2.275680E-3
00.000002074000	-2.041856E-1	1.861920E-3
00.000002196000	-2.041856E-1	2.275680E-3
00.000002318000	-2.041856E-1	1.655040E-3
00.000002440000	-2.041856E-1	1.655040E-3
00.000002562000	-2.041856E-1	2.275680E-3
00.000002684000	-2.041856E-1	1.861920E-3
00.000002806000	-2.041856E-1	2.275680E-3
00.000002928000	-2.041856E-1	1.655040E-3
00.000003050000	-2.041856E-1	2.482560E-3
00.000003172000	-2.041856E-1	2.275680E-3
00.000003294000	-2.041856E-1	1.861920E-3
00.000003416000	-2.041856E-1	1.861920E-3
00.000003538000	-2.041856E-1	2.275680E-3
00.000003660000	-2.041856E-1	2.275680E-3
00.000003782000	-2.041856E-1	1.655040E-3
00.000003904000	-2.041856E-1	2.275680E-3
00.000004026000	-2.041856E-1	1.861920E-3
00.000004148000	-2.041856E-1	2.275680E-3
00.000004270000	-2.041856E-1	1.861920E-3
00.000004392000	-2.041856E-1	2.275680E-3
00.000004514000	-2.041856E-1	1.861920E-3
00.000004636000	-2.041856E-1	1.655040E-3
00.000004758000	-2.041856E-1	2.275680E-3
00.000004880000	-2.041856E-1	1.655040E-3
00.000005002000	-2.041856E-1	2.275680E-3
00.000005124000	-2.041856E-1	1.655040E-3
00.000005246000	-2.041856E-1	2.482560E-3
00.000005368000	-2.041856E-1	2.482560E-3
00.000005490000	-2.041856E-1	1.861920E-3
00.000005612000	-2.041856E-1	2.275680E-3
00.000005734000	-2.041856E-1	1.861920E-3
00.000005856000	-2.041856E-1	2.275680E-3
00.000005978000	-2.041856E-1	1.655040E-3
00.000006100000	-2.041856E-1	1.655040E-3
00.000006222000	-2.041856E-1	2.482560E-3
00.000006344000	-2.041856E-1	2.482560E-3
00.000006466000	-2.041856E-1	1.861920E-3
00.000006588000	-2.041856E-1	2.482560E-3
00.000006710000	-2.041856E-1	1.861920E-3
00.000006832000	-2.041856E-1	2.275680E-3
00.000006954000	-2.041856E-1	1.861920E-3
00.000007076000	-2.041856E-1	1.861920E-3
00.000007198000	-2.041856E-1	2.275680E-3
00.000007320000	-2.041856E-1	1.861920E-3
00.000007442000	-2.041856E-1	2.275680E-3
00.000007564000	-2.041856E-1	2.275680E-3
00.000007686000	-2.041856E-1	2.068800E-3
00.000007808000	-2.041856E-1	2.275680E-3
00.000007930000	-2.041856E-1	1.861920E-3
00.000008052000	-2.041856E-1	1.861920E-3
00.000008174000	-2.041856E-1	2.275680E-3
00.000008296000	-2.041856E-1	1.861920E-3
00.000008418000	-2.041856E-1	2.275680E-3
00.000008540000	-2.041856E-1	2.275680E-3
00.000008662000	-2.041856E-1	1.861920E-3
00.000008784000	-2.041856E-1	2.068800E-3
00.000008906000	-2.041856E-1	1.861920E-3
00.000009028000	-2.041856E-1	2.275680E-3
00.000009150000	-2.041856E-1	1.861920E-3
00.000009272000	-2.041856E-1	2.068800E-3
00.000009394000	-2.041856E-1	1.861920E-3
00.000009516000	-2.041856E-1	2.068800E-3
00.000009638000	-2.041856E-1	2.275680E-3
00.000009760000	-2.041856E-1	2.275680E-3
00.000009882000	-2.041856E-1	2.068800E-3
00.000010004000	-2.041856E-1	1.861920E-3
00.000010126000	-2.041856E-1	2.482560E-3
00.000010248000	-2.041856E-1	2.275680E-3
00.000010370000	-2.041856E-1	1.861920E-3
00.000010492000	-2.041856E-1	2.275680E-3
00.000010614000	-2.041856E-1	1.861920E-3
00.000010736000	-2.041856E-1	2.275680E-3
00.000010858000	-2.041856E-1	1.861920E-3
00.000010980000	-2.041856E-1	2.275680E-3
00.000011102000	-2.041856E-1	1.861920E-3
00.000011224000	-2.041856E-1	2.275680E-3
00.000011346000	-2.041856E-1	1.861920E-3
00.000011468000	-2.041856E-1	1.861920E-3
00.000011590000	-2.041856E-1	2.275680E-3
00.000011712000	-2.041856E-1	1.861920E-3
00.000011834000	-2.041856E-1	2.275680E-3
00.000011956000	-2.041856E-1	2.275680E-3
00.000012078000	-2.009952E-1	1.861920E-3
00.000012200000	-2.041856E-1	2.068800E-3
00.000012322000	3.637056E-1	1.675728E-2
00.000012444000	3.637056E-1	1.675728E-2
00.000012566000	3.732768E-1	2.710128E-2
00.000012688000	3.732768E-1	2.710128E-2
00.000012810000	3.796576E-1	3.454896E-2
00.000012932000	3.796576E-1	3.475584E-2
00.000013054000	3.828480E-1	3.889344E-2
00.000013176000	3.828480E-1	3.889344E-2
00.000013298000	3.860384E-1	4.116912E-2
00.000013420000	3.860384E-1	4.116912E-2
00.000013542000	3.860384E-1	4.241040E-2
00.000013664000	3.860384E-1	4.241040E-2
00.000013786000	3.892288E-1	4.303104E-2
00.000013908000	3.892288E-1	4.303104E-2
00.000014030000	3.892288E-1	4.220352E-2
00.000014152000	3.892288E-1	4.241040E-2
00.000014274000	3.892288E-1	4.158288E-2
00.000014396000	3.892288E-1	4.158288E-2
00.000014518000	3.924192E-1	4.054848E-2
00.000014640000	3.924192E-1	4.054848E-2
00.000014762000	3.924192E-1	3.951408E-2
00.000014884000	3.924192E-1	3.930720E-2
00.000015006000	3.924192E-1	3.847968E-2
00.000015128000	3.924192E-1	3.847968E-2
00.000015250000	3.924192E-1	3.703152E-2
00.000015372000	3.924192E-1	3.723840E-2
00.000015494000	3.924192E-1	3.558336E-2
00.000015616000	3.924192E-1	3.579024E-2
00.000015738000	3.924192E-1	3.434208E-2
00.000015860000	3.924192E-1	3.475584E-2
00.000015982000	3.924192E-1	3.351456E-2
00.000016104000	3.924192E-1	3.372144E-2
00.000016226000	3.924192E-1	3.268704E-2
00.000016348000	3.924192E-1	3.310080E-2
00.000016470000	3.924192E-1	3.206640E-2
00.000016592000	3.924192E-1	3.227328E-2
00.000016714000	3.924192E-1	3.144576E-2
00.000016836000	3.924192E-1	3.144576E-2
00.000016958000	3.924192E-1	3.206640E-2
00.000017080000	3.924192E-1	3.144576E-2
00.000017202000	3.924192E-1	3.103200E-2
00.000017324000	3.924192E-1	3.103200E-2
00.000017446000	3.956096E-1	3.061824E-2
00.000017568000	3.924192E-1	3.082512E-2
00.000017690000	3.956096E-1	2.999760E-2
00.000017812000	3.924192E-1	3.020448E-2
00.000017934000	3.956096E-1	2.958384E-2
00.000018056000	3.956096E-1	2.979072E-2
00.000018178000	3.924192E-1	2.917008E-2
00.000018300000	3.956096E-1	2.937696E-2
00.000018422000	3.956096E-1	2.854944E-2
00.000018544000	3.956096E-1	2.896320E-2
00.000018666000	3.956096E-1	2.813568E-2
00.000018788000	3.956096E-1	2.854944E-2
00.000018910000	3.956096E-1	2.772192E-2
00.000019032000	3.956096E-1	2.792880E-2
00.000019154000	3.924192E-1	2.730816E-2
00.000019276000	3.956096E-1	2.730816E-2
00.000019398000	3.924192E-1	2.689440E-2
00.000019520000	3.956096E-1	2.689440E-2
00.000019642000	3.956096E-1	2.627376E-2
00.000019764000	3.956096E-1	2.668752E-2
00.000019886000	3.924192E-1	2.586000E-2
00.000020008000	3.956096E-1	2.606688E-2
00.000020130000	3.956096E-1	2.523936E-2
00.000020252000	3.956096E-1	2.544624E-2
00.000020374000	3.956096E-1	2.482560E-2
00.000020496000	3.956096E-1	2.503248E-2
00.000020618000	3.924192E-1	2.420496E-2
00.000020740000	3.956096E-1	2.441184E-2
00.000020862000	3.956096E-1	2.337744E-2
00.000020984000	3.956096E-1	2.379120E-2
00.000021106000	3.924192E-1	2.275680E-2
00.000021228000	3.956096E-1	2.296368E-2
00.000021350000	3.924192E-1	2.192928E-2
00.000021472000	3.924192E-1	2.213616E-2
00.000021594000	3.956096E-1	2.151552E-2
00.000021716000	3.956096E-1	2.172240E-2
00.000021838000	3.924192E-1	2.048112E-2
00.000021960000	3.924192E-1	2.089488E-2
00.000022082000	3.956096E-1	1.965360E-2
00.000022204000	3.956096E-1	2.006736E-2
00.000022326000	3.924192E-1	1.903296E-2
00.000022448000	3.924192E-1	1.923984E-2
00.000022570000	3.956096E-1	1.841232E-2
00.000022692000	3.924192E-1	1.861920E-2
00.000022814000	3.956096E-1	1.758480E-2
00.000022936000	3.924192E-1	1.779168E-2
00.000023058000	3.956096E-1	1.675728E-2
00.000023180000	3.924192E-1	1.696416E-2
00.000023302000	3.924192E-1	1.613664E-2
00.000023424000	3.924192E-1	1.613664E-2
00.000023546000	3.924192E-1	1.551600E-2
00.000023668000	3.924192E-1	1.551600E-2
00.000023790000	3.924192E-1	1.468848E-2
00.000023912000	3.924192E-1	1.489536E-2
00.000024034000	3.924192E-1	1.386096E-2
00.000024156000	3.924192E-1	1.406784E-2
00.000024278000	3.924192E-1	1.303344E-2
00.000024400000	3.924192E-1	1.324032E-2
00.000024522000	3.924192E-1	1.241280E-2
00.000024644000	3.924192E-1	1.261968E-2
00.000024766000	3.924192E-1	1.199904E-2
00.000024888000	3.924192E-1	1.199904E-2
00.000025010000	3.924192E-1	1.117152E-2
00.000025132000	3.924192E-1	1.137840E-2
00.000025254000	3.924192E-1	1.034400E-2
00.000025376000	3.924192E-1	1.075776E-2
00.000025498000	3.924192E-1	9.516480E-3
00.000025620000	3.924192E-1	9.930240E-3
00.000025742000	3.924192E-1	9.102720E-3
00.000025864000	3.924192E-1	9.516480E-3
00.000025986000	3.924192E-1	8.688960E-3
00.000026108000	3.924192E-1	8.895840E-3
00.000026230000	3.924192E-1	8.068320E-3
00.000026352000	3.924192E-1	8.688960E-3
00.000026474000	3.924192E-1	7.447680E-3
00.000026596000	3.924192E-1	8.068320E-3
00.000026718000	3.924192E-1	7.033920E-3
00.000026840000	3.924192E-1	7.240800E-3
00.000026962000	3.924192E-1	6.620160E-3
00.000027084000	3.924192E-1	6.620160E-3
00.000027206000	3.924192E-1	6.206400E-3
00.000027328000	3.924192E-1	6.413280E-3
00.000027450000	3.924192E-1	5.792640E-3
00.000027572000	3.924192E-1	6.206400E-3
00.000027694000	3.924192E-1	5.378880E-3
00.000027816000	3.924192E-1	5.585760E-3
00.000027938000	3.924192E-1	5.172000E-3
00.000028060000	3.924192E-1	4.965120E-3
00.000028182000	3.924192E-1	5.378880E-3
00.000028304000	3.924192E-1	5.172000E-3
00.000028426000	3.924192E-1	4.551360E-3
00.000028548000	3.924192E-1	4.965120E-3
00.000028670000	3.924192E-1	4.344480E-3
00.000028792000	3.924192E-1	4.551360E-3
00.000028914000	3.924192E-1	4.137600E-3
00.000029036000	3.924192E-1	4.344480E-3
00.000029158000	3.924192E-1	3.930720E-3
00.000029280000	3.924192E-1	4.137600E-3
00.000029402000	3.924192E-1	3.723840E-3
00.000029524000	3.924192E-1	3.930720E-3
00.000029646000	3.924192E-1	3.723840E-3
00.000029768000	3.924192E-1	3.516960E-3
00.000029890000	3.924192E-1	3.930720E-3
00.000030012000	3.924192E-1	3.516960E-3
00.000030134000	3.924192E-1	3.723840E-3
00.000030256000	3.924192E-1	3.723840E-3
00.000030378000	3.924192E-1	3.310080E-3
00.000030500000	3.924192E-1	3.723840E-3
00.000030622000	3.924192E-1	3.310080E-3
00.000030744000	3.924192E-1	3.310080E-3
00.000030866000	3.924192E-1	3.723840E-3
00.000030988000	3.924192E-1	3.103200E-3
00.000031110000	3.924192E-1	3.723840E-3
00.000031232000	3.924192E-1	3.103200E-3
00.000031354000	3.924192E-1	3.723840E-3
00.000031476000	3.924192E-1	3.516960E-3
00.000031598000	3.924192E-1	3.103200E-3
00.000031720000	3.924192E-1	3.723840E-3
00.000031842000	3.924192E-1	3.103200E-3
00.000031964000	3.924192E-1	3.723840E-3
00.000032086000	3.924192E-1	3.103200E-3
00.000032208000	3.924192E-1	3.103200E-3
00.000032330000	3.924192E-1	3.723840E-3
00.000032452000	3.924192E-1	3.103200E-3
00.000032574000	3.924192E-1	3.930720E-3
00.000032696000	3.924192E-1	3.310080E-3
00.000032818000	3.924192E-1	3.930720E-3
00.000032940000	3.924192E-1	3.930720E-3
00.000033062000	3.924192E-1	3.310080E-3
00.000033184000	3.924192E-1	4.137600E-3
00.000033306000	3.924192E-1	3.516960E-3
00.000033428000	3.924192E-1	3.516960E-3
00.000033550000	3.924192E-1	4.137600E-3
00.000033672000	3.924192E-1	3.516960E-3
00.000033794000	3.924192E-1	4.137600E-3
00.000033916000	3.924192E-1	3.723840E-3
00.000034038000	3.924192E-1	4.344480E-3
00.000034160000	3.924192E-1	4.344480E-3
00.000034282000	3.924192E-1	3.723840E-3
00.000034404000	3.924192E-1	4.344480E-3
00.000034526000	3.924192E-1	3.723840E-3
00.000034648000	3.924192E-1	4.137600E-3
00.000034770000	3.924192E-1	4.551360E-3
00.000034892000	3.924192E-1	4.551360E-3
00.000035014000	3.924192E-1	4.137600E-3
00.000035136000	3.924192E-1	4.758240E-3
00.000035258000	3.924192E-1	4.137600E-3
00.000035380000	3.924192E-1	4.137600E-3
00.000035502000	3.924192E-1	4.965120E-3
00.000035624000	3.924192E-1	4.344480E-3
00.000035746000	3.924192E-1	4.965120E-3
00.000035868000	3.924192E-1	4.965120E-3
00.000035990000	3.924192E-1	4.551360E-3
00.000036112000	3.924192E-1	5.172000E-3
00.000036234000	3.924192E-1	4.551360E-3
00.000036356000	3.924192E-1	5.172000E-3
00.000036478000	3.924192E-1	4.758240E-3
00.000036600000	3.924192E-1	4.758240E-3
00.000036722000	3.924192E-1	5.378880E-3
00.000036844000	3.924192E-1	4.965120E-3
00.000036966000	3.924192E-1	5.378880E-3
00.000037088000	3.924192E-1	5.172000E-3
00.000037210000	3.924192E-1	5.585760E-3
00.000037332000	3.924192E-1	5.378880E-3
00.000037454000	3.924192E-1	5.792640E-3
00.000037576000	3.924192E-1	5.792640E-3
00.000037698000	3.924192E-1	5.172000E-3
00.000037820000	3.924192E-1	5.792640E-3
00.000037942000	3.924192E-1	5.378880E-3
00.000038064000	3.924192E-1	5.585760E-3
00.000038186000	3.924192E-1	5.999520E-3
00.000038308000	3.924192E-1	5.378880E-3
00.000038430000	3.924192E-1	6.206400E-3
00.000038552000	3.924192E-1	5.585760E-3
00.000038674000	3.924192E-1	6.206400E-3
00.000038796000	3.924192E-1	5.792640E-3
00.000038918000	3.924192E-1	6.206400E-3
00.000039040000	3.924192E-1	5.999520E-3
00.000039162000	3.924192E-1	6.413280E-3
00.000039284000	3.924192E-1	6.413280E-3
00.000039406000	3.924192E-1	6.206400E-3
00.000039528000	3.924192E-1	6.206400E-3
00.000039650000	3.924192E-1	6.413280E-3
00.000039772000	3.924192E-1	6.206400E-3
00.000039894000	3.924192E-1	6.620160E-3
00.000040016000	3.924192E-1	6.206400E-3
00.000040138000	3.924192E-1	6.620160E-3
00.000040260000	3.924192E-1	6.206400E-3
00.000040382000	3.924192E-1	6.827040E-3
00.000040504000	3.924192E-1	6.827040E-3
00.000040626000	3.924192E-1	6.413280E-3
00.000040748000	3.924192E-1	6.620160E-3
00.000040870000	3.924192E-1	7.033920E-3
00.000040992000	3.924192E-1	6.413280E-3
00.000041114000	3.924192E-1	7.033920E-3
00.000041236000	3.924192E-1	6.413280E-3
00.000041358000	3.924192E-1	7.033920E-3
00.000041480000	3.924192E-1	7.033920E-3
00.000041602000	3.924192E-1	6.413280E-3
00.000041724000	3.924192E-1	7.240800E-3
00.000041846000	3.924192E-1	6.620160E-3
00.000041968000	3.924192E-1	7.447680E-3
00.000042090000	3.924192E-1	6.620160E-3
00.000042212000	3.924192E-1	6.620160E-3
00.000042334000	3.924192E-1	7.240800E-3
00.000042456000	3.924192E-1	6.827040E-3
00.000042578000	3.924192E-1	7.240800E-3
00.000042700000	3.924192E-1	6.827040E-3
00.000042822000	3.924192E-1	7.447680E-3
00.000042944000	3.924192E-1	7.447680E-3
00.000043066000	3.924192E-1	6.827040E-3
00.000043188000	3.924192E-1	7.447680E-3
00.000043310000	3.924192E-1	6.827040E-3
00.000043432000	3.924192E-1	6.827040E-3
00.000043554000	3.924192E-1	7.447680E-3
00.000043676000	3.924192E-1	7.033920E-3
00.000043798000	3.924192E-1	7.447680E-3
00.000043920000	3.924192E-1	7.033920E-3
00.000044042000	3.924192E-1	7.654560E-3
00.000044164000	3.924192E-1	7.654560E-3
00.000044286000	3.924192E-1	7.033920E-3
00.000044408000	3.924192E-1	7.654560E-3
00.000044530000	3.924192E-1	7.033920E-3
00.000044652000	3.924192E-1	7.654560E-3
00.000044774000	3.924192E-1	6.827040E-3
00.000044896000	3.924192E-1	7.033920E-3
00.000045018000	3.924192E-1	7.654560E-3
00.000045140000	3.924192E-1	7.033920E-3
00.000045262000	3.924192E-1	7.861440E-3
00.000045384000	3.924192E-1	7.033920E-3
00.000045506000	3.924192E-1	7.654560E-3
00.000045628000	3.924192E-1	7.033920E-3
00.000045750000	3.924192E-1	7.447680E-3
00.000045872000	3.924192E-1	7.447680E-3
00.000045994000	3.924192E-1	7.033920E-3
00.000046116000	3.924192E-1	7.654560E-3
00.000046238000	3.924192E-1	7.033920E-3
00.000046360000	3.924192E-1	7.654560E-3
00.000046482000	3.924192E-1	7.033920E-3
00.000046604000	3.924192E-1	7.447680E-3
00.000046726000	3.924192E-1	7.033920E-3
00.000046848000	3.924192E-1	7.240800E-3
00.000046970000	3.924192E-1	6.827040E-3
00.000047092000	3.924192E-1	7.447680E-3
00.000047214000	3.924192E-1	7.033920E-3
00.000047336000	3.924192E-1	7.240800E-3
00.000047458000	3.924192E-1	7.447680E-3
00.000047580000	3.924192E-1	7.240800E-3
00.000047702000	3.924192E-1	7.654560E-3
00.000047824000	3.924192E-1	7.447680E-3
00.000047946000	3.924192E-1	7.033920E-3
00.000048068000	3.924192E-1	6.827040E-3
00.000048190000	3.924192E-1	7.654560E-3
00.000048312000	3.924192E-1	7.654560E-3
00.000048434000	3.924192E-1	6.620160E-3
00.000048556000	3.924192E-1	7.447680E-3
00.000048678000	3.924192E-1	6.827040E-3
00.000048800000	3.924192E-1	7.033920E-3
00.000048922000	3.924192E-1	7.447680E-3
00.000049044000	3.924192E-1	7.033920E-3
00.000049166000	3.924192E-1	7.447680E-3
00.000049288000	3.924192E-1	7.033920E-3
00.000049410000	3.924192E-1	7.447680E-3
00.000049532000	3.924192E-1	7.033920E-3
00.000049654000	3.924192E-1	7.447680E-3
00.000049776000	3.924192E-1	7.033920E-3
00.000049898000	3.924192E-1	7.447680E-3
00.000050020000	3.924192E-1	7.033920E-3
00.000050142000	3.924192E-1	7.447680E-3
00.000050264000	3.924192E-1	6.827040E-3
00.000050386000	3.924192E-1	7.447680E-3
00.000050508000	3.924192E-1	6.827040E-3
00.000050630000	3.924192E-1	7.240800E-3
00.000050752000	3.924192E-1	6.827040E-3
00.000050874000	3.924192E-1	7.240800E-3
00.000050996000	3.924192E-1	7.447680E-3
00.000051118000	3.924192E-1	6.827040E-3
00.000051240000	3.924192E-1	6.827040E-3
00.000051362000	3.924192E-1	7.447680E-3
00.000051484000	3.924192E-1	7.240800E-3
00.000051606000	3.924192E-1	6.827040E-3
00.000051728000	3.924192E-1	6.827040E-3
00.000051850000	3.924192E-1	7.240800E-3
00.000051972000	3.924192E-1	7.447680E-3
00.000052094000	3.924192E-1	6.620160E-3
00.000052216000	3.924192E-1	7.447680E-3
00.000052338000	3.924192E-1	6.827040E-3
00.000052460000	3.924192E-1	7.240800E-3
00.000052582000	3.924192E-1	6.827040E-3
00.000052704000	3.924192E-1	7.240800E-3
00.000052826000	3.924192E-1	6.620160E-3
00.000052948000	3.924192E-1	6.620160E-3
00.000053070000	3.924192E-1	7.240800E-3
00.000053192000	3.924192E-1	7.240800E-3
00.000053314000	3.924192E-1	6.620160E-3
00.000053436000	3.924192E-1	7.240800E-3
00.000053558000	3.924192E-1	6.413280E-3
00.000053680000	3.924192E-1	6.620160E-3
00.000053802000	3.924192E-1	7.447680E-3
00.000053924000	3.924192E-1	6.827040E-3
00.000054046000	3.924192E-1	7.240800E-3
00.000054168000	3.924192E-1	6.620160E-3
00.000054290000	3.924192E-1	7.447680E-3
00.000054412000	3.924192E-1	6.620160E-3
00.000054534000	3.924192E-1	7.240800E-3
00.000054656000	3.924192E-1	7.240800E-3
00.000054778000	3.924192E-1	6.413280E-3
00.000054900000	3.924192E-1	7.240800E-3
00.000055022000	3.924192E-1	6.620160E-3
00.000055144000	3.924192E-1	7.240800E-3
00.000055266000	3.924192E-1	6.620160E-3
00.000055388000	3.924192E-1	6.413280E-3
00.000055510000	3.924192E-1	7.033920E-3
00.000055632000	3.924192E-1	6.620160E-3
00.000055754000	3.924192E-1	7.240800E-3
00.000055876000	3.924192E-1	6.413280E-3
00.000055998000	3.924192E-1	7.240800E-3
00.000056120000	3.924192E-1	7.033920E-3
00.000056242000	3.924192E-1	6.620160E-3
00.000056364000	3.924192E-1	7.240800E-3
00.000056486000	3.924192E-1	6.413280E-3
00.000056608000	3.924192E-1	7.240800E-3
00.000056730000	3.924192E-1	6.620160E-3
00.000056852000	3.924192E-1	7.240800E-3
00.000056974000	3.924192E-1	6.620160E-3
00.000057096000	3.924192E-1	7.033920E-3
00.000057218000	3.924192E-1	6.413280E-3
00.000057340000	3.924192E-1	7.033920E-3
00.000057462000	3.924192E-1	6.620160E-3
00.000057584000	3.924192E-1	6.620160E-3
00.000057706000	3.924192E-1	7.033920E-3
00.000057828000	3.924192E-1	6.620160E-3
00.000057950000	3.924192E-1	7.033920E-3
00.000058072000	3.924192E-1	7.033920E-3
00.000058194000	3.924192E-1	6.620160E-3
00.000058316000	3.924192E-1	7.033920E-3
00.000058438000	3.924192E-1	6.413280E-3
00.000058560000	3.924192E-1	6.620160E-3
00.000058682000	3.924192E-1	7.033920E-3
00.000058804000	3.924192E-1	6.620160E-3
00.000058926000	3.924192E-1	7.240800E-3
00.000059048000	3.924192E-1	7.240800E-3
00.000059170000	3.924192E-1	6.620160E-3
00.000059292000	3.924192E-1	6.413280E-3
00.000059414000	3.924192E-1	7.033920E-3
00.000059536000	3.924192E-1	6.413280E-3
00.000059658000	3.924192E-1	7.033920E-3
00.000059780000	3.924192E-1	7.033920E-3
00.000059902000	3.924192E-1	6.620160E-3
00.000060024000	3.924192E-1	6.620160E-3
00.000060146000	3.924192E-1	7.033920E-3
00.000060268000	3.924192E-1	7.033920E-3
00.000060390000	3.924192E-1	6.620160E-3
00.000060512000	3.924192E-1	7.033920E-3
00.000060634000	3.924192E-1	6.413280E-3
00.000060756000	3.924192E-1	6.413280E-3
00.000060878000	3.924192E-1	7.033920E-3
00.000061000000	3.924192E-1	6.413280E-3
00.000061122000	3.924192E-1	7.033920E-3
00.000061244000	3.924192E-1	6.620160E-3
00.000061366000	3.924192E-1	7.240800E-3
00.000061488000	3.924192E-1	7.033920E-3
00.000061610000	3.924192E-1	6.620160E-3
00.000061732000	3.924192E-1	7.033920E-3
00.000061854000	3.924192E-1	6.620160E-3
00.000061976000	3.924192E-1	6.620160E-3
00.000062098000	3.924192E-1	7.240800E-3
00.000062220000	3.924192E-1	6.620160E-3
00.000062342000	3.924192E-1	7.240800E-3
00.000062464000	3.924192E-1	6.413280E-3
00.000062586000	3.924192E-1	7.240800E-3
00.000062708000	3.924192E-1	6.620160E-3
00.000062830000	3.924192E-1	7.033920E-3
00.000062952000	3.924192E-1	7.240800E-3
00.000063074000	3.924192E-1	6.413280E-3
00.000063196000	3.924192E-1	7.240800E-3
00.000063318000	3.924192E-1	6.620160E-3
00.000063440000	3.924192E-1	7.033920E-3
00.000063562000	3.924192E-1	6.413280E-3
00.000063684000	3.924192E-1	6.620160E-3
00.000063806000	3.924192E-1	7.033920E-3
00.000063928000	3.924192E-1	7.033920E-3
00.000064050000	3.924192E-1	6.620160E-3
00.000064172000	3.924192E-1	7.033920E-3
00.000064294000	3.924192E-1	6.413280E-3
00.000064416000	3.924192E-1	6.620160E-3
00.000064538000	3.924192E-1	7.240800E-3
00.000064660000	3.924192E-1	7.033920E-3
00.000064782000	3.924192E-1	6.620160E-3
00.000064904000	3.924192E-1	6.620160E-3
00.000065026000	3.924192E-1	7.033920E-3
00.000065148000	3.924192E-1	6.620160E-3
00.000065270000	3.924192E-1	7.033920E-3
00.000065392000	3.924192E-1	6.620160E-3
00.000065514000	3.924192E-1	7.240800E-3
00.000065636000	3.924192E-1	6.620160E-3
00.000065758000	3.924192E-1	7.240800E-3
00.000065880000	3.924192E-1	7.240800E-3
00.000066002000	3.924192E-1	6.620160E-3
00.000066124000	3.924192E-1	6.620160E-3
00.000066246000	3.924192E-1	7.240800E-3
00.000066368000	3.924192E-1	6.620160E-3
00.000066490000	3.924192E-1	7.240800E-3
00.000066612000	3.924192E-1	6.620160E-3
00.000066734000	3.924192E-1	7.240800E-3
00.000066856000	3.924192E-1	6.620160E-3
00.000066978000	3.924192E-1	7.240800E-3
00.000067100000	3.924192E-1	6.620160E-3
00.000067222000	3.924192E-1	7.240800E-3
00.000067344000	3.924192E-1	6.620160E-3
00.000067466000	3.924192E-1	7.240800E-3
00.000067588000	3.924192E-1	6.827040E-3
00.000067710000	3.924192E-1	7.240800E-3
00.000067832000	3.924192E-1	6.827040E-3
00.000067954000	3.924192E-1	7.240800E-3
00.000068076000	3.924192E-1	7.240800E-3
00.000068198000	3.924192E-1	6.620160E-3
00.000068320000	3.924192E-1	6.620160E-3
00.000068442000	3.924192E-1	7.240800E-3
00.000068564000	3.924192E-1	6.827040E-3
00.000068686000	3.924192E-1	7.240800E-3
00.000068808000	3.924192E-1	6.620160E-3
00.000068930000	3.924192E-1	7.240800E-3
00.000069052000	3.924192E-1	7.240800E-3
00.000069174000	3.924192E-1	6.620160E-3
00.000069296000	3.924192E-1	6.827040E-3
00.000069418000	3.924192E-1	7.240800E-3
00.000069540000	3.924192E-1	6.620160E-3
00.000069662000	3.924192E-1	7.240800E-3
00.000069784000	3.924192E-1	6.827040E-3
00.000069906000	3.924192E-1	7.447680E-3
00.000070028000	3.924192E-1	7.447680E-3
00.000070150000	3.924192E-1	6.620160E-3
00.000070272000	3.924192E-1	7.240800E-3
00.000070394000	3.924192E-1	6.620160E-3
00.000070516000	3.924192E-1	7.240800E-3
00.000070638000	3.924192E-1	6.620160E-3
00.000070760000	3.924192E-1	6.827040E-3
00.000070882000	3.924192E-1	7.447680E-3
00.000071004000	3.924192E-1	6.827040E-3
00.000071126000	3.924192E-1	7.447680E-3
00.000071248000	3.924192E-1	6.620160E-3
00.000071370000	3.924192E-1	7.447680E-3
00.000071492000	3.924192E-1	7.240800E-3
00.000071614000	3.924192E-1	6.620160E-3
00.000071736000	3.924192E-1	7.240800E-3
00.000071858000	3.924192E-1	6.620160E-3
00.000071980000	3.924192E-1	7.447680E-3
00.000072102000	3.924192E-1	6.827040E-3
00.000072224000	3.924192E-1	7.654560E-3
00.000072346000	3.924192E-1	6.620160E-3
00.000072468000	3.924192E-1	6.827040E-3
00.000072590000	3.924192E-1	7.447680E-3
00.000072712000	3.924192E-1	6.827040E-3
00.000072834000	3.924192E-1	7.447680E-3
00.000072956000	3.924192E-1	6.827040E-3
00.000073078000	3.924192E-1	7.447680E-3
00.000073200000	3.924192E-1	6.620160E-3
00.000073322000	3.924192E-1	7.240800E-3
00.000073444000	3.924192E-1	6.827040E-3
00.000073566000	3.924192E-1	7.447680E-3
00.000073688000	3.924192E-1	7.240800E-3
00.000073810000	3.924192E-1	6.620160E-3
00.000073932000	3.924192E-1	7.240800E-3
00.000074054000	3.924192E-1	6.827040E-3
00.000074176000	3.924192E-1	7.240800E-3
00.000074298000	3.924192E-1	6.620160E-3
00.000074420000	3.924192E-1	7.447680E-3
00.000074542000	3.924192E-1	6.827040E-3
00.000074664000	3.924192E-1	6.827040E-3
00.000074786000	3.924192E-1	7.240800E-3
00.000074908000	3.924192E-1	6.827040E-3
00.000075030000	3.924192E-1	7.447680E-3
00.000075152000	3.924192E-1	6.827040E-3
00.000075274000	3.924192E-1	7.447680E-3
00.000075396000	3.924192E-1	7.447680E-3
00.000075518000	3.924192E-1	6.827040E-3
00.000075640000	3.924192E-1	6.827040E-3
00.000075762000	3.924192E-1	7.447680E-3
00.000075884000	3.924192E-1	7.447680E-3
00.000076006000	3.924192E-1	6.827040E-3
00.000076128000	3.924192E-1	6.827040E-3
00.000076250000	3.924192E-1	7.447680E-3
00.000076372000	3.924192E-1	7.033920E-3
00.000076494000	3.924192E-1	7.447680E-3
00.000076616000	3.924192E-1	7.240800E-3
00.000076738000	3.924192E-1	6.827040E-3
00.000076860000	3.924192E-1	7.240800E-3
00.000076982000	3.924192E-1	6.827040E-3
00.000077104000	3.924192E-1	7.240800E-3
00.000077226000	3.924192E-1	6.827040E-3
00.000077348000	3.924192E-1	6.827040E-3
00.000077470000	3.924192E-1	7.240800E-3
00.000077592000	3.924192E-1	7.033920E-3
00.000077714000	3.924192E-1	7.240800E-3
00.000077836000	3.924192E-1	7.240800E-3
00.000077958000	3.924192E-1	6.827040E-3
00.000078080000	3.924192E-1	6.827040E-3
00.000078202000	3.924192E-1	7.447680E-3
00.000078324000	3.924192E-1	6.827040E-3
00.000078446000	3.924192E-1	7.240800E-3
00.000078568000	3.924192E-1	6.827040E-3
00.000078690000	3.924192E-1	7.447680E-3
00.000078812000	3.924192E-1	6.827040E-3
00.000078934000	3.924192E-1	7.447680E-3
00.000079056000	3.924192E-1	7.447680E-3
00.000079178000	3.924192E-1	6.827040E-3
00.000079300000	3.924192E-1	7.033920E-3
00.000079422000	3.924192E-1	7.447680E-3
00.000079544000	3.924192E-1	7.033920E-3
00.000079666000	3.924192E-1	7.447680E-3
00.000079788000	3.924192E-1	7.240800E-3
00.000079910000	3.924192E-1	6.827040E-3
00.000080032000	3.924192E-1	7.447680E-3
00.000080154000	3.924192E-1	6.827040E-3
00.000080276000	3.924192E-1	7.240800E-3
00.000080398000	3.924192E-1	7.033920E-3
00.000080520000	3.924192E-1	7.033920E-3
00.000080642000	3.924192E-1	7.447680E-3
00.000080764000	3.924192E-1	7.033920E-3
00.000080886000	3.924192E-1	7.447680E-3
00.000081008000	3.924192E-1	6.827040E-3
00.000081130000	3.924192E-1	7.447680E-3
00.000081252000	3.924192E-1	7.447680E-3
00.000081374000	3.924192E-1	6.827040E-3
00.000081496000	3.924192E-1	7.033920E-3
00.000081618000	3.924192E-1	7.447680E-3
00.000081740000	3.924192E-1	6.827040E-3
00.000081862000	3.924192E-1	7.654560E-3
00.000081984000	3.924192E-1	6.827040E-3
00.000082106000	3.924192E-1	7.447680E-3
00.000082228000	3.924192E-1	7.447680E-3
00.000082350000	3.924192E-1	6.827040E-3
00.000082472000	3.924192E-1	7.447680E-3
00.000082594000	3.924192E-1	6.827040E-3
00.000082716000	3.924192E-1	7.447680E-3
00.000082838000	3.924192E-1	7.033920E-3
00.000082960000	3.924192E-1	7.033920E-3
00.000083082000	3.924192E-1	7.447680E-3
00.000083204000	3.924192E-1	6.827040E-3
00.000083326000	3.924192E-1	7.447680E-3
00.000083448000	3.924192E-1	6.827040E-3
00.000083570000	3.924192E-1	7.447680E-3
00.000083692000	3.924192E-1	7.447680E-3
00.000083814000	3.924192E-1	6.827040E-3
00.000083936000	3.924192E-1	6.827040E-3
00.000084058000	3.924192E-1	7.447680E-3
00.000084180000	3.924192E-1	6.620160E-3
00.000084302000	3.924192E-1	7.654560E-3
00.000084424000	3.924192E-1	6.827040E-3
00.000084546000	3.924192E-1	7.654560E-3
00.000084668000	3.924192E-1	7.447680E-3
00.000084790000	3.924192E-1	6.827040E-3
00.000084912000	3.924192E-1	7.447680E-3
00.000085034000	3.924192E-1	7.033920E-3
00.000085156000	3.924192E-1	7.033920E-3
00.000085278000	3.924192E-1	7.447680E-3
00.000085400000	3.924192E-1	7.033920E-3
00.000085522000	3.924192E-1	7.654560E-3
00.000085644000	3.924192E-1	7.033920E-3
00.000085766000	3.924192E-1	7.654560E-3
00.000085888000	3.924192E-1	7.654560E-3
00.000086010000	3.924192E-1	7.033920E-3
00.000086132000	3.924192E-1	7.654560E-3
00.000086254000	3.924192E-1	6.827040E-3
00.000086376000	3.924192E-1	7.033920E-3
00.000086498000	3.924192E-1	7.654560E-3
00.000086620000	3.924192E-1	7.654560E-3
00.000086742000	3.924192E-1	6.827040E-3
00.000086864000	3.924192E-1	7.447680E-3
00.000086986000	3.924192E-1	7.033920E-3
00.000087108000	3.924192E-1	7.447680E-3
00.000087230000	3.924192E-1	7.033920E-3
00.000087352000	3.924192E-1	7.033920E-3
00.000087474000	3.924192E-1	7.447680E-3
00.000087596000	3.924192E-1	7.033920E-3
00.000087718000	3.924192E-1	7.447680E-3
00.000087840000	3.924192E-1	7.240800E-3
00.000087962000	3.924192E-1	7.033920E-3
00.000088084000	3.924192E-1	7.447680E-3
00.000088206000	3.924192E-1	7.033920E-3
00.000088328000	3.924192E-1	7.654560E-3
00.000088450000	3.924192E-1	7.033920E-3
00.000088572000	3.924192E-1	7.033920E-3
00.000088694000	3.924192E-1	7.447680E-3
00.000088816000	3.924192E-1	7.033920E-3
00.000088938000	3.924192E-1	7.447680E-3
00.000089060000	3.924192E-1	6.827040E-3
00.000089182000	3.924192E-1	7.447680E-3
00.000089304000	3.924192E-1	7.033920E-3
00.000089426000	3.924192E-1	7.654560E-3
00.000089548000	3.924192E-1	7.447680E-3
00.000089670000	3.924192E-1	7.033920E-3
00.000089792000	3.924192E-1	7.447680E-3
00.000089914000	3.924192E-1	7.033920E-3
00.000090036000	3.924192E-1	7.447680E-3
00.000090158000	3.924192E-1	7.033920E-3
00.000090280000	3.924192E-1	7.447680E-3
00.000090402000	3.924192E-1	7.033920E-3
00.000090524000	3.924192E-1	7.033920E-3
00.000090646000	3.924192E-1	7.654560E-3
00.000090768000	3.924192E-1	7.033920E-3
00.000090890000	3.924192E-1	7.654560E-3
00.000091012000	3.924192E-1	6.827040E-3
00.000091134000	3.924192E-1	7.654560E-3
00.000091256000	3.924192E-1	7.654560E-3
00.000091378000	3.924192E-1	7.033920E-3
00.000091500000	3.924192E-1	7.654560E-3
00.000091622000	3.924192E-1	7.033920E-3
00.000091744000	3.924192E-1	7.033920E-3
00.000091866000	3.924192E-1	7.654560E-3
00.000091988000	3.924192E-1	7.033920E-3
00.000092110000	3.924192E-1	7.654560E-3
00.000092232000	3.924192E-1	7.654560E-3
00.000092354000	3.924192E-1	6.827040E-3
00.000092476000	3.924192E-1	7.654560E-3
00.000092598000	3.924192E-1	7.033920E-3
00.000092720000	3.924192E-1	7.654560E-3
00.000092842000	3.924192E-1	7.033920E-3
00.000092964000	3.924192E-1	7.654560E-3
00.000093086000	3.924192E-1	7.033920E-3
00.000093208000	3.924192E-1	7.447680E-3
00.000093330000	3.924192E-1	7.033920E-3
00.000093452000	3.924192E-1	7.654560E-3
00.000093574000	3.924192E-1	6.827040E-3
00.000093696000	3.924192E-1	7.654560E-3
00.000093818000	3.924192E-1	6.827040E-3
00.000093940000	3.924192E-1	6.827040E-3
00.000094062000	3.924192E-1	7.447680E-3
00.000094184000	3.924192E-1	7.033920E-3
00.000094306000	3.924192E-1	7.447680E-3
00.000094428000	3.924192E-1	7.654560E-3
00.000094550000	3.924192E-1	7.033920E-3
00.000094672000	3.924192E-1	7.861440E-3
00.000094794000	3.924192E-1	7.033920E-3
00.000094916000	3.924192E-1	7.033920E-3
00.000095038000	3.924192E-1	7.654560E-3
00.000095160000	3.924192E-1	7.033920E-3
00.000095282000	3.924192E-1	7.654560E-3
00.000095404000	3.924192E-1	7.654560E-3
00.000095526000	3.924192E-1	7.240800E-3
00.000095648000	3.924192E-1	7.654560E-3
00.000095770000	3.924192E-1	7.033920E-3
00.000095892000	3.924192E-1	7.861440E-3
00.000096014000	3.924192E-1	7.033920E-3
00.000096136000	3.924192E-1	7.654560E-3
00.000096258000	3.924192E-1	7.033920E-3
00.000096380000	3.924192E-1	7.033920E-3
00.000096502000	3.924192E-1	7.654560E-3
00.000096624000	3.924192E-1	7.654560E-3
00.000096746000	3.924192E-1	7.240800E-3
00.000096868000	3.924192E-1	7.240800E-3
00.000096990000	3.924192E-1	7.654560E-3
00.000097112000	3.924192E-1	7.240800E-3
00.000097234000	3.924192E-1	7.654560E-3
00.000097356000	3.924192E-1	7.033920E-3
00.000097478000	3.924192E-1	7.654560E-3
00.000097600000	3.924192E-1	6.827040E-3
00.000097722000	3.924192E-1	7.861440E-3
00.000097844000	3.924192E-1	7.654560E-3
00.000097966000	3.924192E-1	7.240800E-3
00.000098088000	3.924192E-1	7.240800E-3
00.000098210000	3.924192E-1	7.654560E-3
00.000098332000	3.924192E-1	7.861440E-3
00.000098454000	3.924192E-1	7.033920E-3
00.000098576000	3.924192E-1	7.033920E-3
00.000098698000	3.924192E-1	7.654560E-3
00.000098820000	3.924192E-1	7.447680E-3
00.000098942000	3.924192E-1	7.240800E-3
00.000099064000	3.924192E-1	7.654560E-3
00.000099186000	3.924192E-1	7.240800E-3
00.000099308000	3.924192E-1	7.654560E-3
00.000099430000	3.924192E-1	7.240800E-3
00.000099552000	3.924192E-1	7.240800E-3
00.000099674000	3.924192E-1	7.654560E-3
00.000099796000	3.924192E-1	7.240800E-3
00.000099918000	3.924192E-1	7.447680E-3
00.000100040000	3.924192E-1	7.240800E-3
00.000100162000	3.924192E-1	7.654560E-3
00.000100284000	3.924192E-1	7.654560E-3
00.000100406000	3.924192E-1	7.447680E-3
00.000100528000	3.924192E-1	7.654560E-3
00.000100650000	3.924192E-1	7.240800E-3
00.000100772000	3.924192E-1	7.240800E-3
00.000100894000	3.924192E-1	7.654560E-3
00.000101016000	3.924192E-1	7.654560E-3
00.000101138000	3.924192E-1	7.033920E-3
00.000101260000	3.924192E-1	7.861440E-3
00.000101382000	3.924192E-1	7.240800E-3
00.000101504000	3.924192E-1	7.861440E-3
00.000101626000	3.924192E-1	7.240800E-3
00.000101748000	3.924192E-1	7.240800E-3
00.000101870000	3.924192E-1	7.654560E-3
00.000101992000	3.924192E-1	7.033920E-3
00.000102114000	3.924192E-1	7.861440E-3
00.000102236000	3.924192E-1	7.861440E-3
00.000102358000	3.924192E-1	7.240800E-3
00.000102480000	3.924192E-1	7.861440E-3
00.000102602000	3.924192E-1	7.240800E-3
00.000102724000	3.924192E-1	7.240800E-3
00.000102846000	3.924192E-1	7.861440E-3
00.000102968000	3.924192E-1	7.240800E-3
00.000103090000	3.924192E-1	7.861440E-3
00.000103212000	3.924192E-1	7.654560E-3
00.000103334000	3.924192E-1	7.240800E-3
00.000103456000	3.924192E-1	7.861440E-3
00.000103578000	3.924192E-1	7.240800E-3
00.000103700000	3.924192E-1	7.861440E-3
00.000103822000	3.924192E-1	7.240800E-3
00.000103944000	3.924192E-1	7.240800E-3
00.000104066000	3.924192E-1	7.861440E-3
00.000104188000	3.924192E-1	7.654560E-3
00.000104310000	3.924192E-1	6.827040E-3
00.000104432000	3.924192E-1	7.654560E-3
00.000104554000	3.924192E-1	7.240800E-3
00.000104676000	3.924192E-1	7.240800E-3
00.000104798000	3.956096E-1	7.861440E-3
00.000104920000	3.924192E-1	7.654560E-3
00.000105042000	3.924192E-1	7.240800E-3
00.000105164000	3.924192E-1	7.240800E-3
00.000105286000	3.924192E-1	7.654560E-3
00.000105408000	3.924192E-1	7.240800E-3
00.000105530000	3.924192E-1	7.861440E-3
00.000105652000	3.924192E-1	7.240800E-3
00.000105774000	3.924192E-1	7.861440E-3
00.000105896000	3.924192E-1	7.033920E-3
00.000106018000	3.924192E-1	7.861440E-3
00.000106140000	3.924192E-1	7.240800E-3
00.000106262000	3.924192E-1	7.861440E-3
00.000106384000	3.924192E-1	7.240800E-3
00.000106506000	3.924192E-1	7.861440E-3
00.000106628000	3.924192E-1	7.240800E-3
00.000106750000	3.924192E-1	7.861440E-3
00.000106872000	3.924192E-1	7.861440E-3
00.000106994000	3.924192E-1	7.240800E-3
00.000107116000	3.924192E-1	7.447680E-3
00.000107238000	3.956096E-1	7.861440E-3
00.000107360000	3.924192E-1	7.240800E-3
00.000107482000	3.924192E-1	7.861440E-3
00.000107604000	3.924192E-1	7.240800E-3
00.000107726000	3.924192E-1	7.861440E-3
00.000107848000	3.924192E-1	7.240800E-3
00.000107970000	3.924192E-1	7.861440E-3
00.000108092000	3.924192E-1	7.861440E-3
00.000108214000	3.924192E-1	7.240800E-3
00.000108336000	3.924192E-1	7.447680E-3
00.000108458000	3.924192E-1	7.861440E-3
00.000108580000	3.924192E-1	7.447680E-3
00.000108702000	3.924192E-1	7.861440E-3
00.000108824000	3.924192E-1	7.654560E-3
00.000108946000	3.924192E-1	7.447680E-3
00.000109068000	3.924192E-1	7.240800E-3
00.000109190000	3.924192E-1	7.861440E-3
00.000109312000	3.924192E-1	7.447680E-3
00.000109434000	3.924192E-1	7.654560E-3
00.000109556000	3.924192E-1	7.861440E-3
00.000109678000	3.924192E-1	7.447680E-3
00.000109800000	3.924192E-1	7.654560E-3
00.000109922000	3.924192E-1	7.447680E-3
00.000110044000	3.924192E-1	7.447680E-3
00.000110166000	3.924192E-1	7.861440E-3
00.000110288000	3.924192E-1	7.861440E-3
00.000110410000	3.924192E-1	7.447680E-3
00.000110532000	3.924192E-1	7.447680E-3
00.000110654000	3.924192E-1	7.861440E-3
00.000110776000	3.924192E-1	7.861440E-3
00.000110898000	3.924192E-1	7.447680E-3
00.000111020000	3.924192E-1	7.447680E-3
00.000111142000	3.924192E-1	7.861440E-3
00.000111264000	3.924192E-1	7.240800E-3
00.000111386000	3.924192E-1	7.861440E-3
00.000111508000	3.924192E-1	7.861440E-3
00.000111630000	3.924192E-1	7.240800E-3
00.000111752000	3.924192E-1	7.447680E-3
00.000111874000	3.924192E-1	7.861440E-3
00.000111996000	3.924192E-1	7.447680E-3
00.000112118000	3.924192E-1	8.068320E-3
00.000112240000	3.956096E-1	7.654560E-3
00.000112362000	-1.722816E-1	-1.861920E-3
00.000112484000	-1.722816E-1	-2.068800E-3
00.000112606000	-1.818528E-1	-2.896320E-3
00.000112728000	-1.818528E-1	-2.896320E-3
00.000112850000	-1.882336E-1	-2.896320E-3
00.000112972000	-1.882336E-1	-2.896320E-3
00.000113094000	-1.914240E-1	-2.896320E-3
00.000113216000	-1.914240E-1	-2.896320E-3
00.000113338000	-1.946144E-1	-2.896320E-3
00.000113460000	-1.946144E-1	-2.896320E-3
00.000113582000	-1.978048E-1	-2.896320E-3
00.000113704000	-1.978048E-1	-2.896320E-3
00.000113826000	-1.978048E-1	-2.896320E-3
00.000113948000	-1.978048E-1	-2.896320E-3
00.000114070000	-1.978048E-1	-2.896320E-3
00.000114192000	-1.978048E-1	-2.896320E-3
00.000114314000	-2.009952E-1	-2.896320E-3
00.000114436000	-2.009952E-1	-2.896320E-3
00.000114558000	-2.009952E-1	-2.896320E-3
00.000114680000	-2.009952E-1	-2.896320E-3
00.000114802000	-2.009952E-1	-2.896320E-3
00.000114924000	-2.009952E-1	-2.896320E-3
00.000115046000	-2.009952E-1	-2.896320E-3
00.000115168000	-2.009952E-1	-2.896320E-3
00.000115290000	-2.009952E-1	-2.896320E-3
00.000115412000	-2.009952E-1	-2.896320E-3
00.000115534000	-2.009952E-1	-2.896320E-3
00.000115656000	-2.009952E-1	-2.896320E-3
00.000115778000	-2.041856E-1	-2.896320E-3
00.000115900000	-2.041856E-1	-2.896320E-3
00.000116022000	-2.041856E-1	-2.896320E-3
00.000116144000	-2.041856E-1	-2.896320E-3
00.000116266000	-2.041856E-1	-2.896320E-3
00.000116388000	-2.041856E-1	-2.896320E-3
00.000116510000	-2.041856E-1	-2.896320E-3
00.000116632000	-2.041856E-1	-2.896320E-3
00.000116754000	-2.041856E-1	-2.896320E-3
00.000116876000	-2.041856E-1	-2.896320E-3
00.000116998000	-2.041856E-1	-2.896320E-3
00.000117120000	-2.041856E-1	-2.896320E-3
00.000117242000	-2.041856E-1	-2.896320E-3
00.000117364000	-2.041856E-1	-2.896320E-3
00.000117486000	-2.041856E-1	-2.896320E-3
00.000117608000	-2.041856E-1	-2.896320E-3
00.000117730000	-2.041856E-1	-2.896320E-3
00.000117852000	-2.041856E-1	-2.896320E-3
00.000117974000	-2.041856E-1	-2.896320E-3
00.000118096000	-2.041856E-1	-2.896320E-3
00.000118218000	-2.041856E-1	-2.896320E-3
00.000118340000	-2.041856E-1	-2.896320E-3
00.000118462000	-2.041856E-1	-2.896320E-3
00.000118584000	-2.041856E-1	-2.896320E-3
00.000118706000	-2.041856E-1	-2.689440E-3
00.000118828000	-2.041856E-1	-2.896320E-3
00.000118950000	-2.041856E-1	-2.689440E-3
00.000119072000	-2.041856E-1	-2.896320E-3
00.000119194000	-2.041856E-1	-2.689440E-3
00.000119316000	-2.041856E-1	-2.689440E-3
00.000119438000	-2.041856E-1	-2.689440E-3
00.000119560000	-2.041856E-1	-2.689440E-3
00.000119682000	-2.041856E-1	-2.482560E-3
00.000119804000	-2.041856E-1	-2.482560E-3
00.000119926000	-2.041856E-1	-2.482560E-3
00.000120048000	-2.041856E-1	-2.482560E-3
00.000120170000	-2.041856E-1	-2.275680E-3
00.000120292000	-2.041856E-1	-2.275680E-3
00.000120414000	-2.041856E-1	-2.068800E-3
00.000120536000	-2.041856E-1	-2.068800E-3
00.000120658000	-2.041856E-1	-1.861920E-3
00.000120780000	-2.041856E-1	-1.861920E-3
00.000120902000	-2.041856E-1	-1.655040E-3
00.000121024000	-2.041856E-1	-1.655040E-3
00.000121146000	-2.041856E-1	-1.241280E-3
00.000121268000	-2.041856E-1	-1.448160E-3
00.000121390000	-2.041856E-1	-1.034400E-3
00.000121512000	-2.041856E-1	-1.241280E-3
00.000121634000	-2.041856E-1	-6.206400E-4
00.000121756000	-2.041856E-1	
00.000121878000	-2.041856E-1	
		
