31/12/1903  21:00:00.000000	-3.111440E-1	1.148640E-3
31/12/1903  21:00:00.000000	-3.111440E-1	2.297280E-3
31/12/1903  21:00:00.000000	-3.111440E-1	5.743200E-4
31/12/1903  21:00:00.000000	-3.111440E-1	2.297280E-3
31/12/1903  21:00:00.000000	-3.111440E-1	2.488720E-3
31/12/1903  21:00:00.000000	-3.111440E-1	5.743200E-4
31/12/1903  21:00:00.000000	-3.111440E-1	2.105840E-3
31/12/1903  21:00:00.000000	-3.111440E-1	9.572000E-4
31/12/1903  21:00:00.000000	-3.111440E-1	2.105840E-3
31/12/1903  21:00:00.000001	-3.111440E-1	9.572000E-4
31/12/1903  21:00:00.000001	-3.111440E-1	2.297280E-3
31/12/1903  21:00:00.000001	-3.111440E-1	3.828800E-4
31/12/1903  21:00:00.000001	-3.111440E-1	9.572000E-4
31/12/1903  21:00:00.000001	-3.111440E-1	2.297280E-3
31/12/1903  21:00:00.000001	-3.111440E-1	2.488720E-3
31/12/1903  21:00:00.000001	-3.111440E-1	9.572000E-4
31/12/1903  21:00:00.000001	-3.111440E-1	9.572000E-4
31/12/1903  21:00:00.000001	-3.111440E-1	2.297280E-3
31/12/1903  21:00:00.000002	-3.111440E-1	2.105840E-3
31/12/1903  21:00:00.000002	-3.111440E-1	7.657600E-4
31/12/1903  21:00:00.000002	-3.111440E-1	7.657600E-4
31/12/1903  21:00:00.000002	-3.111440E-1	2.297280E-3
31/12/1903  21:00:00.000002	-3.111440E-1	2.105840E-3
31/12/1903  21:00:00.000002	-3.111440E-1	7.657600E-4
31/12/1903  21:00:00.000002	-3.111440E-1	2.297280E-3
31/12/1903  21:00:00.000002	-3.111440E-1	5.743200E-4
31/12/1903  21:00:00.000002	-3.111440E-1	7.657600E-4
31/12/1903  21:00:00.000003	-3.111440E-1	2.680160E-3
31/12/1903  21:00:00.000003	-3.111440E-1	7.657600E-4
31/12/1903  21:00:00.000003	-3.111440E-1	2.297280E-3
31/12/1903  21:00:00.000003	-3.111440E-1	3.828800E-4
31/12/1903  21:00:00.000003	-3.111440E-1	2.297280E-3
31/12/1903  21:00:00.000003	-3.111440E-1	2.297280E-3
31/12/1903  21:00:00.000003	-3.111440E-1	5.743200E-4
31/12/1903  21:00:00.000003	-3.111440E-1	2.297280E-3
31/12/1903  21:00:00.000003	-3.111440E-1	3.828800E-4
31/12/1903  21:00:00.000004	-3.111440E-1	5.743200E-4
31/12/1903  21:00:00.000004	-3.111440E-1	2.488720E-3
31/12/1903  21:00:00.000004	-3.111440E-1	7.657600E-4
31/12/1903  21:00:00.000004	-3.111440E-1	2.488720E-3
31/12/1903  21:00:00.000004	-3.111440E-1	3.828800E-4
31/12/1903  21:00:00.000004	-3.111440E-1	2.488720E-3
31/12/1903  21:00:00.000004	-3.111440E-1	1.914400E-3
31/12/1903  21:00:00.000004	-3.111440E-1	1.914400E-4
31/12/1903  21:00:00.000005	-3.111440E-1	2.297280E-3
31/12/1903  21:00:00.000005	-3.111440E-1	5.743200E-4
31/12/1903  21:00:00.000005	-3.111440E-1	3.828800E-4
31/12/1903  21:00:00.000005	-3.111440E-1	2.297280E-3
31/12/1903  21:00:00.000005	-3.111440E-1	9.572000E-4
31/12/1903  21:00:00.000005	-3.111440E-1	2.488720E-3
31/12/1903  21:00:00.000005	-3.111440E-1	2.297280E-3
31/12/1903  21:00:00.000005	-3.111440E-1	5.743200E-4
31/12/1903  21:00:00.000005	-3.111440E-1	7.657600E-4
31/12/1903  21:00:00.000006	-3.111440E-1	2.297280E-3
31/12/1903  21:00:00.000006	-3.111440E-1	3.828800E-4
31/12/1903  21:00:00.000006	-3.111440E-1	2.105840E-3
31/12/1903  21:00:00.000006	-3.111440E-1	2.105840E-3
31/12/1903  21:00:00.000006	-3.111440E-1	7.657600E-4
31/12/1903  21:00:00.000006	-3.111440E-1	2.680160E-3
31/12/1903  21:00:00.000006	-3.111440E-1	3.828800E-4
31/12/1903  21:00:00.000006	-3.111440E-1	9.572000E-4
31/12/1903  21:00:00.000006	-3.111440E-1	2.488720E-3
31/12/1903  21:00:00.000007	-3.111440E-1	3.828800E-4
31/12/1903  21:00:00.000007	-3.111440E-1	2.297280E-3
31/12/1903  21:00:00.000007	-3.111440E-1	3.828800E-4
31/12/1903  21:00:00.000007	-3.111440E-1	2.488720E-3
31/12/1903  21:00:00.000007	-3.111440E-1	2.488720E-3
31/12/1903  21:00:00.000007	-3.111440E-1	1.914400E-4
31/12/1903  21:00:00.000007	-3.111440E-1	2.680160E-3
31/12/1903  21:00:00.000007	-3.111440E-1	5.743200E-4
31/12/1903  21:00:00.000007	-3.111440E-1	5.743200E-4
31/12/1903  21:00:00.000008	-3.111440E-1	2.297280E-3
31/12/1903  21:00:00.000008	-3.111440E-1	3.828800E-4
31/12/1903  21:00:00.000008	-3.111440E-1	2.105840E-3
31/12/1903  21:00:00.000008	-3.111440E-1	2.297280E-3
31/12/1903  21:00:00.000008	-3.111440E-1	7.657600E-4
31/12/1903  21:00:00.000008	-3.111440E-1	7.657600E-4
31/12/1903  21:00:00.000008	-3.111440E-1	2.297280E-3
31/12/1903  21:00:00.000008	-3.111440E-1	5.743200E-4
31/12/1903  21:00:00.000009	-3.111440E-1	2.871600E-3
31/12/1903  21:00:00.000009	-3.111440E-1	1.914400E-4
31/12/1903  21:00:00.000009	-3.111440E-1	2.488720E-3
31/12/1903  21:00:00.000009	-3.111440E-1	2.488720E-3
31/12/1903  21:00:00.000009	-3.111440E-1	5.743200E-4
31/12/1903  21:00:00.000009	-3.111440E-1	2.871600E-3
31/12/1903  21:00:00.000009	-3.111440E-1	7.657600E-4
31/12/1903  21:00:00.000009	-3.111440E-1	7.657600E-4
31/12/1903  21:00:00.000009	-3.111440E-1	2.297280E-3
31/12/1903  21:00:00.000010	-3.111440E-1	3.063040E-3
31/12/1903  21:00:00.000010	-3.111440E-1	1.914400E-4
31/12/1903  21:00:00.000010	-3.111440E-1	0.000000E+0
31/12/1903  21:00:00.000010	-3.111440E-1	3.063040E-3
31/12/1903  21:00:00.000010	-3.111440E-1	7.657600E-4
31/12/1903  21:00:00.000010	-3.111440E-1	2.680160E-3
31/12/1903  21:00:00.000010	-3.111440E-1	2.297280E-3
31/12/1903  21:00:00.000010	-3.111440E-1	7.657600E-4
31/12/1903  21:00:00.000010	-3.111440E-1	2.297280E-3
31/12/1903  21:00:00.000011	-3.111440E-1	5.743200E-4
31/12/1903  21:00:00.000011	-3.111440E-1	2.488720E-3
31/12/1903  21:00:00.000011	-3.111440E-1	5.743200E-4
31/12/1903  21:00:00.000011	-3.111440E-1	2.488720E-3
31/12/1903  21:00:00.000011	-2.489152E-1	9.572000E-4
31/12/1903  21:00:00.000011	-2.489152E-1	9.572000E-4
31/12/1903  21:00:00.000011	2.587408E-1	1.091208E-2
31/12/1903  21:00:00.000011	2.587408E-1	1.014632E-2
31/12/1903  21:00:00.000011	2.685664E-1	1.990976E-2
31/12/1903  21:00:00.000012	2.685664E-1	1.971832E-2
31/12/1903  21:00:00.000012	2.718416E-1	2.584440E-2
31/12/1903  21:00:00.000012	2.718416E-1	2.584440E-2
31/12/1903  21:00:00.000012	2.751168E-1	2.967320E-2
31/12/1903  21:00:00.000012	2.751168E-1	2.948176E-2
31/12/1903  21:00:00.000012	2.783920E-1	3.254480E-2
31/12/1903  21:00:00.000012	2.783920E-1	3.139616E-2
31/12/1903  21:00:00.000012	2.816672E-1	3.369344E-2
31/12/1903  21:00:00.000012	2.783920E-1	3.426776E-2
31/12/1903  21:00:00.000013	2.816672E-1	3.292768E-2
31/12/1903  21:00:00.000013	2.816672E-1	3.235336E-2
31/12/1903  21:00:00.000013	2.849424E-1	3.426776E-2
31/12/1903  21:00:00.000013	2.816672E-1	3.350200E-2
31/12/1903  21:00:00.000013	2.849424E-1	3.158760E-2
31/12/1903  21:00:00.000013	2.849424E-1	3.311912E-2
31/12/1903  21:00:00.000013	2.816672E-1	3.043896E-2
31/12/1903  21:00:00.000013	2.849424E-1	3.139616E-2
31/12/1903  21:00:00.000014	2.849424E-1	2.929032E-2
31/12/1903  21:00:00.000014	2.849424E-1	2.967320E-2
31/12/1903  21:00:00.000014	2.849424E-1	2.814168E-2
31/12/1903  21:00:00.000014	2.849424E-1	2.852456E-2
31/12/1903  21:00:00.000014	2.849424E-1	2.641872E-2
31/12/1903  21:00:00.000014	2.849424E-1	2.756736E-2
31/12/1903  21:00:00.000014	2.849424E-1	2.507864E-2
31/12/1903  21:00:00.000014	2.849424E-1	2.584440E-2
31/12/1903  21:00:00.000014	2.882176E-1	2.412144E-2
31/12/1903  21:00:00.000015	2.849424E-1	2.507864E-2
31/12/1903  21:00:00.000015	2.882176E-1	2.258992E-2
31/12/1903  21:00:00.000015	2.849424E-1	2.373856E-2
31/12/1903  21:00:00.000015	2.882176E-1	2.220704E-2
31/12/1903  21:00:00.000015	2.882176E-1	2.316424E-2
31/12/1903  21:00:00.000015	2.849424E-1	2.086696E-2
31/12/1903  21:00:00.000015	2.882176E-1	2.220704E-2
31/12/1903  21:00:00.000015	2.882176E-1	2.067552E-2
31/12/1903  21:00:00.000015	2.882176E-1	2.220704E-2
31/12/1903  21:00:00.000016	2.882176E-1	2.048408E-2
31/12/1903  21:00:00.000016	2.882176E-1	2.239848E-2
31/12/1903  21:00:00.000016	2.882176E-1	1.971832E-2
31/12/1903  21:00:00.000016	2.882176E-1	1.933544E-2
31/12/1903  21:00:00.000016	2.882176E-1	2.124984E-2
31/12/1903  21:00:00.000016	2.882176E-1	2.144128E-2
31/12/1903  21:00:00.000016	2.882176E-1	1.876112E-2
31/12/1903  21:00:00.000016	2.882176E-1	2.067552E-2
31/12/1903  21:00:00.000016	2.882176E-1	1.818680E-2
31/12/1903  21:00:00.000017	2.882176E-1	2.010120E-2
31/12/1903  21:00:00.000017	2.882176E-1	1.818680E-2
31/12/1903  21:00:00.000017	2.882176E-1	1.780392E-2
31/12/1903  21:00:00.000017	2.882176E-1	1.952688E-2
31/12/1903  21:00:00.000017	2.882176E-1	1.914400E-2
31/12/1903  21:00:00.000017	2.882176E-1	1.703816E-2
31/12/1903  21:00:00.000017	2.882176E-1	1.876112E-2
31/12/1903  21:00:00.000017	2.882176E-1	1.627240E-2
31/12/1903  21:00:00.000018	2.882176E-1	1.799536E-2
31/12/1903  21:00:00.000018	2.882176E-1	1.627240E-2
31/12/1903  21:00:00.000018	2.882176E-1	1.550664E-2
31/12/1903  21:00:00.000018	2.882176E-1	1.742104E-2
31/12/1903  21:00:00.000018	2.882176E-1	1.474088E-2
31/12/1903  21:00:00.000018	2.882176E-1	1.684672E-2
31/12/1903  21:00:00.000018	2.882176E-1	1.703816E-2
31/12/1903  21:00:00.000018	2.882176E-1	1.435800E-2
31/12/1903  21:00:00.000018	2.882176E-1	1.627240E-2
31/12/1903  21:00:00.000019	2.882176E-1	1.378368E-2
31/12/1903  21:00:00.000019	2.882176E-1	1.588952E-2
31/12/1903  21:00:00.000019	2.882176E-1	1.320936E-2
31/12/1903  21:00:00.000019	2.882176E-1	1.454944E-2
31/12/1903  21:00:00.000019	2.882176E-1	1.282648E-2
31/12/1903  21:00:00.000019	2.882176E-1	1.416656E-2
31/12/1903  21:00:00.000019	2.882176E-1	1.263504E-2
31/12/1903  21:00:00.000019	2.882176E-1	1.378368E-2
31/12/1903  21:00:00.000019	2.882176E-1	1.167784E-2
31/12/1903  21:00:00.000020	2.882176E-1	1.320936E-2
31/12/1903  21:00:00.000020	2.882176E-1	1.091208E-2
31/12/1903  21:00:00.000020	2.882176E-1	1.244360E-2
31/12/1903  21:00:00.000020	2.882176E-1	1.033776E-2
31/12/1903  21:00:00.000020	2.882176E-1	1.186928E-2
31/12/1903  21:00:00.000020	2.882176E-1	9.763440E-3
31/12/1903  21:00:00.000020	2.882176E-1	9.380560E-3
31/12/1903  21:00:00.000020	2.882176E-1	1.129496E-2
31/12/1903  21:00:00.000020	2.882176E-1	1.052920E-2
31/12/1903  21:00:00.000021	2.882176E-1	9.189120E-3
31/12/1903  21:00:00.000021	2.882176E-1	1.033776E-2
31/12/1903  21:00:00.000021	2.882176E-1	8.040480E-3
31/12/1903  21:00:00.000021	2.882176E-1	8.040480E-3
31/12/1903  21:00:00.000021	2.882176E-1	9.572000E-3
31/12/1903  21:00:00.000021	2.882176E-1	8.806240E-3
31/12/1903  21:00:00.000021	2.882176E-1	7.083280E-3
31/12/1903  21:00:00.000021	2.882176E-1	8.423360E-3
31/12/1903  21:00:00.000022	2.882176E-1	7.083280E-3
31/12/1903  21:00:00.000022	2.882176E-1	7.657600E-3
31/12/1903  21:00:00.000022	2.882176E-1	5.934640E-3
31/12/1903  21:00:00.000022	2.882176E-1	6.126080E-3
31/12/1903  21:00:00.000022	2.882176E-1	7.657600E-3
31/12/1903  21:00:00.000022	2.882176E-1	5.551760E-3
31/12/1903  21:00:00.000022	2.882176E-1	7.274720E-3
31/12/1903  21:00:00.000022	2.882176E-1	6.508960E-3
31/12/1903  21:00:00.000022	2.882176E-1	4.977440E-3
31/12/1903  21:00:00.000023	2.882176E-1	4.211680E-3
31/12/1903  21:00:00.000023	2.882176E-1	6.317520E-3
31/12/1903  21:00:00.000023	2.882176E-1	6.126080E-3
31/12/1903  21:00:00.000023	2.882176E-1	3.445920E-3
31/12/1903  21:00:00.000023	2.882176E-1	5.168880E-3
31/12/1903  21:00:00.000023	2.882176E-1	3.637360E-3
31/12/1903  21:00:00.000023	2.882176E-1	5.168880E-3
31/12/1903  21:00:00.000023	2.882176E-1	3.445920E-3
31/12/1903  21:00:00.000023	2.882176E-1	2.680160E-3
31/12/1903  21:00:00.000024	2.882176E-1	4.786000E-3
31/12/1903  21:00:00.000024	2.882176E-1	2.297280E-3
31/12/1903  21:00:00.000024	2.882176E-1	4.786000E-3
31/12/1903  21:00:00.000024	2.882176E-1	4.786000E-3
31/12/1903  21:00:00.000024	2.882176E-1	1.914400E-3
31/12/1903  21:00:00.000024	2.882176E-1	3.828800E-3
31/12/1903  21:00:00.000024	2.882176E-1	1.914400E-3
31/12/1903  21:00:00.000024	2.882176E-1	1.914400E-3
31/12/1903  21:00:00.000024	2.882176E-1	3.828800E-3
31/12/1903  21:00:00.000025	2.882176E-1	1.722960E-3
31/12/1903  21:00:00.000025	2.882176E-1	3.637360E-3
31/12/1903  21:00:00.000025	2.882176E-1	3.063040E-3
31/12/1903  21:00:00.000025	2.882176E-1	1.340080E-3
31/12/1903  21:00:00.000025	2.882176E-1	3.063040E-3
31/12/1903  21:00:00.000025	2.882176E-1	7.657600E-4
31/12/1903  21:00:00.000025	2.882176E-1	2.680160E-3
31/12/1903  21:00:00.000025	2.882176E-1	9.572000E-4
31/12/1903  21:00:00.000025	2.882176E-1	2.871600E-3
31/12/1903  21:00:00.000026	2.882176E-1	1.148640E-3
31/12/1903  21:00:00.000026	2.882176E-1	7.657600E-4
31/12/1903  21:00:00.000026	2.882176E-1	2.871600E-3
31/12/1903  21:00:00.000026	2.882176E-1	3.828800E-4
31/12/1903  21:00:00.000026	2.882176E-1	2.488720E-3
31/12/1903  21:00:00.000026	2.882176E-1	3.063040E-3
31/12/1903  21:00:00.000026	2.882176E-1	7.657600E-4
31/12/1903  21:00:00.000026	2.882176E-1	2.488720E-3
31/12/1903  21:00:00.000027	2.882176E-1	5.743200E-4
31/12/1903  21:00:00.000027	2.882176E-1	9.572000E-4
31/12/1903  21:00:00.000027	2.882176E-1	2.488720E-3
31/12/1903  21:00:00.000027	2.882176E-1	3.828800E-4
31/12/1903  21:00:00.000027	2.882176E-1	2.297280E-3
31/12/1903  21:00:00.000027	2.882176E-1	2.680160E-3
31/12/1903  21:00:00.000027	2.882176E-1	9.572000E-4
31/12/1903  21:00:00.000027	2.882176E-1	2.488720E-3
31/12/1903  21:00:00.000027	2.882176E-1	5.743200E-4
31/12/1903  21:00:00.000028	2.882176E-1	5.743200E-4
31/12/1903  21:00:00.000028	2.882176E-1	2.871600E-3
31/12/1903  21:00:00.000028	2.882176E-1	2.871600E-3
31/12/1903  21:00:00.000028	2.882176E-1	5.743200E-4
31/12/1903  21:00:00.000028	2.882176E-1	9.572000E-4
31/12/1903  21:00:00.000028	2.882176E-1	2.297280E-3
31/12/1903  21:00:00.000028	2.882176E-1	7.657600E-4
31/12/1903  21:00:00.000028	2.882176E-1	2.680160E-3
31/12/1903  21:00:00.000028	2.882176E-1	2.680160E-3
31/12/1903  21:00:00.000029	2.882176E-1	9.572000E-4
31/12/1903  21:00:00.000029	2.882176E-1	1.148640E-3
31/12/1903  21:00:00.000029	2.882176E-1	2.871600E-3
31/12/1903  21:00:00.000029	2.882176E-1	1.148640E-3
31/12/1903  21:00:00.000029	2.882176E-1	3.254480E-3
31/12/1903  21:00:00.000029	2.882176E-1	1.340080E-3
31/12/1903  21:00:00.000029	2.882176E-1	3.828800E-3
31/12/1903  21:00:00.000029	2.882176E-1	3.254480E-3
31/12/1903  21:00:00.000029	2.882176E-1	9.572000E-4
31/12/1903  21:00:00.000030	2.882176E-1	3.445920E-3
31/12/1903  21:00:00.000030	2.882176E-1	1.340080E-3
31/12/1903  21:00:00.000030	2.882176E-1	1.722960E-3
31/12/1903  21:00:00.000030	2.882176E-1	3.254480E-3
31/12/1903  21:00:00.000030	2.882176E-1	1.722960E-3
31/12/1903  21:00:00.000030	2.882176E-1	4.020240E-3
31/12/1903  21:00:00.000030	2.882176E-1	1.531520E-3
31/12/1903  21:00:00.000030	2.882176E-1	3.828800E-3
31/12/1903  21:00:00.000031	2.882176E-1	3.637360E-3
31/12/1903  21:00:00.000031	2.882176E-1	1.722960E-3
31/12/1903  21:00:00.000031	2.882176E-1	3.828800E-3
31/12/1903  21:00:00.000031	2.882176E-1	2.297280E-3
31/12/1903  21:00:00.000031	2.882176E-1	4.211680E-3
31/12/1903  21:00:00.000031	2.882176E-1	2.297280E-3
31/12/1903  21:00:00.000031	2.882176E-1	2.488720E-3
31/12/1903  21:00:00.000031	2.882176E-1	4.211680E-3
31/12/1903  21:00:00.000031	2.882176E-1	2.297280E-3
31/12/1903  21:00:00.000032	2.882176E-1	4.211680E-3
31/12/1903  21:00:00.000032	2.882176E-1	4.403120E-3
31/12/1903  21:00:00.000032	2.882176E-1	2.680160E-3
31/12/1903  21:00:00.000032	2.882176E-1	4.211680E-3
31/12/1903  21:00:00.000032	2.882176E-1	2.871600E-3
31/12/1903  21:00:00.000032	2.882176E-1	4.786000E-3
31/12/1903  21:00:00.000032	2.882176E-1	3.063040E-3
31/12/1903  21:00:00.000032	2.882176E-1	3.254480E-3
31/12/1903  21:00:00.000032	2.882176E-1	4.977440E-3
31/12/1903  21:00:00.000033	2.882176E-1	3.254480E-3
31/12/1903  21:00:00.000033	2.882176E-1	5.168880E-3
31/12/1903  21:00:00.000033	2.882176E-1	3.063040E-3
31/12/1903  21:00:00.000033	2.882176E-1	4.594560E-3
31/12/1903  21:00:00.000033	2.882176E-1	3.637360E-3
31/12/1903  21:00:00.000033	2.882176E-1	4.977440E-3
31/12/1903  21:00:00.000033	2.882176E-1	3.445920E-3
31/12/1903  21:00:00.000033	2.882176E-1	5.168880E-3
31/12/1903  21:00:00.000033	2.882176E-1	3.254480E-3
31/12/1903  21:00:00.000034	2.882176E-1	5.168880E-3
31/12/1903  21:00:00.000034	2.882176E-1	5.743200E-3
31/12/1903  21:00:00.000034	2.882176E-1	3.828800E-3
31/12/1903  21:00:00.000034	2.882176E-1	3.254480E-3
31/12/1903  21:00:00.000034	2.882176E-1	5.743200E-3
31/12/1903  21:00:00.000034	2.882176E-1	3.637360E-3
31/12/1903  21:00:00.000034	2.882176E-1	5.743200E-3
31/12/1903  21:00:00.000034	2.882176E-1	5.360320E-3
31/12/1903  21:00:00.000034	2.882176E-1	3.828800E-3
31/12/1903  21:00:00.000035	2.882176E-1	5.551760E-3
31/12/1903  21:00:00.000035	2.882176E-1	4.211680E-3
31/12/1903  21:00:00.000035	2.882176E-1	3.828800E-3
31/12/1903  21:00:00.000035	2.882176E-1	5.934640E-3
31/12/1903  21:00:00.000035	2.882176E-1	5.743200E-3
31/12/1903  21:00:00.000035	2.882176E-1	3.828800E-3
31/12/1903  21:00:00.000035	2.882176E-1	5.743200E-3
31/12/1903  21:00:00.000035	2.882176E-1	4.403120E-3
31/12/1903  21:00:00.000036	2.882176E-1	4.020240E-3
31/12/1903  21:00:00.000036	2.882176E-1	5.743200E-3
31/12/1903  21:00:00.000036	2.882176E-1	5.743200E-3
31/12/1903  21:00:00.000036	2.882176E-1	4.020240E-3
31/12/1903  21:00:00.000036	2.882176E-1	5.934640E-3
31/12/1903  21:00:00.000036	2.882176E-1	4.403120E-3
31/12/1903  21:00:00.000036	2.882176E-1	6.700400E-3
31/12/1903  21:00:00.000036	2.882176E-1	4.403120E-3
31/12/1903  21:00:00.000036	2.882176E-1	4.594560E-3
31/12/1903  21:00:00.000037	2.882176E-1	6.126080E-3
31/12/1903  21:00:00.000037	2.882176E-1	5.934640E-3
31/12/1903  21:00:00.000037	2.882176E-1	4.403120E-3
31/12/1903  21:00:00.000037	2.882176E-1	4.020240E-3
31/12/1903  21:00:00.000037	2.882176E-1	6.126080E-3
31/12/1903  21:00:00.000037	2.882176E-1	6.317520E-3
31/12/1903  21:00:00.000037	2.882176E-1	4.211680E-3
31/12/1903  21:00:00.000037	2.882176E-1	4.594560E-3
31/12/1903  21:00:00.000037	2.882176E-1	6.317520E-3
31/12/1903  21:00:00.000038	2.882176E-1	4.403120E-3
31/12/1903  21:00:00.000038	2.882176E-1	6.317520E-3
31/12/1903  21:00:00.000038	2.882176E-1	4.403120E-3
31/12/1903  21:00:00.000038	2.882176E-1	5.934640E-3
31/12/1903  21:00:00.000038	2.882176E-1	6.317520E-3
31/12/1903  21:00:00.000038	2.882176E-1	3.828800E-3
31/12/1903  21:00:00.000038	2.882176E-1	6.317520E-3
31/12/1903  21:00:00.000038	2.882176E-1	3.828800E-3
31/12/1903  21:00:00.000038	2.882176E-1	4.211680E-3
31/12/1903  21:00:00.000039	2.882176E-1	6.126080E-3
31/12/1903  21:00:00.000039	2.882176E-1	4.403120E-3
31/12/1903  21:00:00.000039	2.882176E-1	6.317520E-3
31/12/1903  21:00:00.000039	2.882176E-1	4.211680E-3
31/12/1903  21:00:00.000039	2.882176E-1	6.317520E-3
31/12/1903  21:00:00.000039	2.882176E-1	5.743200E-3
31/12/1903  21:00:00.000039	2.882176E-1	4.211680E-3
31/12/1903  21:00:00.000039	2.882176E-1	4.211680E-3
31/12/1903  21:00:00.000040	2.882176E-1	6.126080E-3
31/12/1903  21:00:00.000040	2.882176E-1	5.743200E-3
31/12/1903  21:00:00.000040	2.882176E-1	4.211680E-3
31/12/1903  21:00:00.000040	2.882176E-1	5.743200E-3
31/12/1903  21:00:00.000040	2.882176E-1	4.403120E-3
31/12/1903  21:00:00.000040	2.882176E-1	4.403120E-3
31/12/1903  21:00:00.000040	2.882176E-1	6.126080E-3
31/12/1903  21:00:00.000040	2.882176E-1	4.594560E-3
31/12/1903  21:00:00.000040	2.882176E-1	5.934640E-3
31/12/1903  21:00:00.000041	2.882176E-1	5.743200E-3
31/12/1903  21:00:00.000041	2.882176E-1	4.594560E-3
31/12/1903  21:00:00.000041	2.882176E-1	6.317520E-3
31/12/1903  21:00:00.000041	2.882176E-1	4.211680E-3
31/12/1903  21:00:00.000041	2.882176E-1	4.403120E-3
31/12/1903  21:00:00.000041	2.882176E-1	5.743200E-3
31/12/1903  21:00:00.000041	2.882176E-1	3.828800E-3
31/12/1903  21:00:00.000041	2.882176E-1	5.934640E-3
31/12/1903  21:00:00.000041	2.882176E-1	5.743200E-3
31/12/1903  21:00:00.000042	2.882176E-1	4.211680E-3
31/12/1903  21:00:00.000042	2.882176E-1	6.126080E-3
31/12/1903  21:00:00.000042	2.882176E-1	4.020240E-3
31/12/1903  21:00:00.000042	2.882176E-1	3.637360E-3
31/12/1903  21:00:00.000042	2.882176E-1	5.743200E-3
31/12/1903  21:00:00.000042	2.882176E-1	4.211680E-3
31/12/1903  21:00:00.000042	2.882176E-1	5.934640E-3
31/12/1903  21:00:00.000042	2.882176E-1	5.551760E-3
31/12/1903  21:00:00.000042	2.882176E-1	3.828800E-3
31/12/1903  21:00:00.000043	2.882176E-1	5.743200E-3
31/12/1903  21:00:00.000043	2.882176E-1	3.445920E-3
31/12/1903  21:00:00.000043	2.882176E-1	3.637360E-3
31/12/1903  21:00:00.000043	2.882176E-1	5.934640E-3
31/12/1903  21:00:00.000043	2.882176E-1	4.020240E-3
31/12/1903  21:00:00.000043	2.882176E-1	5.743200E-3
31/12/1903  21:00:00.000043	2.882176E-1	4.020240E-3
31/12/1903  21:00:00.000043	2.882176E-1	5.551760E-3
31/12/1903  21:00:00.000044	2.882176E-1	5.551760E-3
31/12/1903  21:00:00.000044	2.882176E-1	3.637360E-3
31/12/1903  21:00:00.000044	2.882176E-1	6.126080E-3
31/12/1903  21:00:00.000044	2.882176E-1	3.828800E-3
31/12/1903  21:00:00.000044	2.882176E-1	5.743200E-3
31/12/1903  21:00:00.000044	2.882176E-1	3.445920E-3
31/12/1903  21:00:00.000044	2.882176E-1	5.743200E-3
31/12/1903  21:00:00.000044	2.882176E-1	4.020240E-3
31/12/1903  21:00:00.000044	2.882176E-1	3.637360E-3
31/12/1903  21:00:00.000045	2.882176E-1	5.551760E-3
31/12/1903  21:00:00.000045	2.882176E-1	5.360320E-3
31/12/1903  21:00:00.000045	2.882176E-1	3.637360E-3
31/12/1903  21:00:00.000045	2.882176E-1	5.360320E-3
31/12/1903  21:00:00.000045	2.882176E-1	3.637360E-3
31/12/1903  21:00:00.000045	2.882176E-1	6.126080E-3
31/12/1903  21:00:00.000045	2.882176E-1	3.254480E-3
31/12/1903  21:00:00.000045	2.882176E-1	3.828800E-3
31/12/1903  21:00:00.000045	2.882176E-1	5.743200E-3
31/12/1903  21:00:00.000046	2.882176E-1	3.637360E-3
31/12/1903  21:00:00.000046	2.882176E-1	5.360320E-3
31/12/1903  21:00:00.000046	2.882176E-1	4.211680E-3
31/12/1903  21:00:00.000046	2.882176E-1	5.551760E-3
31/12/1903  21:00:00.000046	2.882176E-1	5.360320E-3
31/12/1903  21:00:00.000046	2.882176E-1	3.445920E-3
31/12/1903  21:00:00.000046	2.882176E-1	4.977440E-3
31/12/1903  21:00:00.000046	2.882176E-1	3.445920E-3
31/12/1903  21:00:00.000046	2.882176E-1	3.828800E-3
31/12/1903  21:00:00.000047	2.882176E-1	5.360320E-3
31/12/1903  21:00:00.000047	2.882176E-1	4.977440E-3
31/12/1903  21:00:00.000047	2.882176E-1	3.637360E-3
31/12/1903  21:00:00.000047	2.882176E-1	5.168880E-3
31/12/1903  21:00:00.000047	2.882176E-1	3.637360E-3
31/12/1903  21:00:00.000047	2.882176E-1	5.168880E-3
31/12/1903  21:00:00.000047	2.882176E-1	3.828800E-3
31/12/1903  21:00:00.000047	2.882176E-1	3.828800E-3
31/12/1903  21:00:00.000047	2.882176E-1	5.360320E-3
31/12/1903  21:00:00.000048	2.882176E-1	3.445920E-3
31/12/1903  21:00:00.000048	2.882176E-1	5.168880E-3
31/12/1903  21:00:00.000048	2.882176E-1	5.360320E-3
31/12/1903  21:00:00.000048	2.882176E-1	3.637360E-3
31/12/1903  21:00:00.000048	2.882176E-1	4.977440E-3
31/12/1903  21:00:00.000048	2.882176E-1	3.445920E-3
31/12/1903  21:00:00.000048	2.882176E-1	3.637360E-3
31/12/1903  21:00:00.000048	2.882176E-1	5.168880E-3
31/12/1903  21:00:00.000049	2.882176E-1	3.637360E-3
31/12/1903  21:00:00.000049	2.882176E-1	5.551760E-3
31/12/1903  21:00:00.000049	2.882176E-1	2.871600E-3
31/12/1903  21:00:00.000049	2.882176E-1	5.551760E-3
31/12/1903  21:00:00.000049	2.882176E-1	5.360320E-3
31/12/1903  21:00:00.000049	2.882176E-1	3.063040E-3
31/12/1903  21:00:00.000049	2.882176E-1	5.934640E-3
31/12/1903  21:00:00.000049	2.882176E-1	3.445920E-3
31/12/1903  21:00:00.000049	2.882176E-1	3.445920E-3
31/12/1903  21:00:00.000050	2.882176E-1	4.977440E-3
31/12/1903  21:00:00.000050	2.882176E-1	3.445920E-3
31/12/1903  21:00:00.000050	2.882176E-1	5.360320E-3
31/12/1903  21:00:00.000050	2.882176E-1	5.360320E-3
31/12/1903  21:00:00.000050	2.882176E-1	3.637360E-3
31/12/1903  21:00:00.000050	2.882176E-1	3.063040E-3
31/12/1903  21:00:00.000050	2.882176E-1	4.977440E-3
31/12/1903  21:00:00.000050	2.882176E-1	5.168880E-3
31/12/1903  21:00:00.000050	2.882176E-1	3.828800E-3
31/12/1903  21:00:00.000051	2.882176E-1	5.168880E-3
31/12/1903  21:00:00.000051	2.882176E-1	3.828800E-3
31/12/1903  21:00:00.000051	2.882176E-1	4.977440E-3
31/12/1903  21:00:00.000051	2.882176E-1	3.445920E-3
31/12/1903  21:00:00.000051	2.882176E-1	4.020240E-3
31/12/1903  21:00:00.000051	2.882176E-1	4.977440E-3
31/12/1903  21:00:00.000051	2.882176E-1	5.168880E-3
31/12/1903  21:00:00.000051	2.882176E-1	3.828800E-3
31/12/1903  21:00:00.000051	2.882176E-1	5.168880E-3
31/12/1903  21:00:00.000052	2.914928E-1	3.828800E-3
31/12/1903  21:00:00.000052	2.882176E-1	3.828800E-3
31/12/1903  21:00:00.000052	2.882176E-1	5.360320E-3
31/12/1903  21:00:00.000052	2.882176E-1	5.360320E-3
31/12/1903  21:00:00.000052	2.882176E-1	3.828800E-3
31/12/1903  21:00:00.000052	2.882176E-1	4.977440E-3
31/12/1903  21:00:00.000052	2.882176E-1	3.637360E-3
31/12/1903  21:00:00.000052	2.882176E-1	5.168880E-3
31/12/1903  21:00:00.000053	2.882176E-1	3.828800E-3
31/12/1903  21:00:00.000053	2.882176E-1	4.020240E-3
31/12/1903  21:00:00.000053	2.882176E-1	5.551760E-3
31/12/1903  21:00:00.000053	2.882176E-1	4.977440E-3
31/12/1903  21:00:00.000053	2.882176E-1	3.445920E-3
31/12/1903  21:00:00.000053	2.882176E-1	5.551760E-3
31/12/1903  21:00:00.000053	2.882176E-1	3.828800E-3
31/12/1903  21:00:00.000053	2.882176E-1	3.445920E-3
31/12/1903  21:00:00.000053	2.882176E-1	5.551760E-3
31/12/1903  21:00:00.000054	2.882176E-1	3.828800E-3
31/12/1903  21:00:00.000054	2.882176E-1	5.168880E-3
31/12/1903  21:00:00.000054	2.882176E-1	5.168880E-3
31/12/1903  21:00:00.000054	2.882176E-1	3.445920E-3
31/12/1903  21:00:00.000054	2.882176E-1	5.551760E-3
31/12/1903  21:00:00.000054	2.882176E-1	3.637360E-3
31/12/1903  21:00:00.000054	2.882176E-1	4.020240E-3
31/12/1903  21:00:00.000054	2.882176E-1	4.977440E-3
31/12/1903  21:00:00.000054	2.882176E-1	5.551760E-3
31/12/1903  21:00:00.000055	2.882176E-1	3.445920E-3
31/12/1903  21:00:00.000055	2.882176E-1	3.254480E-3
31/12/1903  21:00:00.000055	2.882176E-1	5.360320E-3
31/12/1903  21:00:00.000055	2.882176E-1	3.637360E-3
31/12/1903  21:00:00.000055	2.914928E-1	5.551760E-3
31/12/1903  21:00:00.000055	2.882176E-1	5.934640E-3
31/12/1903  21:00:00.000055	2.882176E-1	3.445920E-3
31/12/1903  21:00:00.000055	2.882176E-1	3.637360E-3
31/12/1903  21:00:00.000055	2.882176E-1	5.934640E-3
31/12/1903  21:00:00.000056	2.882176E-1	3.828800E-3
31/12/1903  21:00:00.000056	2.882176E-1	5.360320E-3
31/12/1903  21:00:00.000056	2.882176E-1	3.445920E-3
31/12/1903  21:00:00.000056	2.914928E-1	5.360320E-3
31/12/1903  21:00:00.000056	2.882176E-1	3.637360E-3
31/12/1903  21:00:00.000056	2.882176E-1	5.360320E-3
31/12/1903  21:00:00.000056	2.882176E-1	5.551760E-3
31/12/1903  21:00:00.000056	2.882176E-1	3.445920E-3
31/12/1903  21:00:00.000057	2.882176E-1	3.637360E-3
31/12/1903  21:00:00.000057	2.882176E-1	5.168880E-3
31/12/1903  21:00:00.000057	2.882176E-1	3.828800E-3
31/12/1903  21:00:00.000057	2.882176E-1	5.360320E-3
31/12/1903  21:00:00.000057	2.882176E-1	3.445920E-3
31/12/1903  21:00:00.000057	2.882176E-1	5.360320E-3
31/12/1903  21:00:00.000057	2.882176E-1	5.551760E-3
31/12/1903  21:00:00.000057	2.882176E-1	3.828800E-3
31/12/1903  21:00:00.000057	2.882176E-1	5.551760E-3
31/12/1903  21:00:00.000058	2.882176E-1	4.020240E-3
31/12/1903  21:00:00.000058	2.882176E-1	5.360320E-3
31/12/1903  21:00:00.000058	2.882176E-1	3.637360E-3
31/12/1903  21:00:00.000058	2.882176E-1	3.828800E-3
31/12/1903  21:00:00.000058	2.882176E-1	5.551760E-3
31/12/1903  21:00:00.000058	2.882176E-1	4.020240E-3
31/12/1903  21:00:00.000058	2.882176E-1	5.551760E-3
31/12/1903  21:00:00.000058	2.882176E-1	3.637360E-3
31/12/1903  21:00:00.000058	2.882176E-1	5.551760E-3
31/12/1903  21:00:00.000059	2.882176E-1	4.020240E-3
31/12/1903  21:00:00.000059	2.882176E-1	5.743200E-3
31/12/1903  21:00:00.000059	2.882176E-1	5.360320E-3
31/12/1903  21:00:00.000059	2.882176E-1	3.637360E-3
31/12/1903  21:00:00.000059	2.882176E-1	5.551760E-3
31/12/1903  21:00:00.000059	2.882176E-1	3.828800E-3
31/12/1903  21:00:00.000059	2.882176E-1	5.934640E-3
31/12/1903  21:00:00.000059	2.882176E-1	3.637360E-3
31/12/1903  21:00:00.000059	2.882176E-1	5.551760E-3
31/12/1903  21:00:00.000060	2.882176E-1	3.445920E-3
31/12/1903  21:00:00.000060	2.882176E-1	3.445920E-3
31/12/1903  21:00:00.000060	2.882176E-1	5.551760E-3
31/12/1903  21:00:00.000060	2.882176E-1	3.637360E-3
31/12/1903  21:00:00.000060	2.882176E-1	5.743200E-3
31/12/1903  21:00:00.000060	2.882176E-1	5.743200E-3
31/12/1903  21:00:00.000060	2.882176E-1	3.828800E-3
31/12/1903  21:00:00.000060	2.882176E-1	4.020240E-3
31/12/1903  21:00:00.000060	2.882176E-1	5.551760E-3
31/12/1903  21:00:00.000061	2.882176E-1	3.828800E-3
31/12/1903  21:00:00.000061	2.914928E-1	5.551760E-3
31/12/1903  21:00:00.000061	2.882176E-1	5.168880E-3
31/12/1903  21:00:00.000061	2.882176E-1	3.828800E-3
31/12/1903  21:00:00.000061	2.882176E-1	5.360320E-3
31/12/1903  21:00:00.000061	2.882176E-1	4.020240E-3
31/12/1903  21:00:00.000061	2.882176E-1	5.360320E-3
31/12/1903  21:00:00.000061	2.882176E-1	4.020240E-3
31/12/1903  21:00:00.000062	2.882176E-1	4.786000E-3
31/12/1903  21:00:00.000062	2.882176E-1	3.828800E-3
31/12/1903  21:00:00.000062	2.882176E-1	5.360320E-3
31/12/1903  21:00:00.000062	2.882176E-1	4.020240E-3
31/12/1903  21:00:00.000062	2.882176E-1	3.637360E-3
31/12/1903  21:00:00.000062	2.882176E-1	5.360320E-3
31/12/1903  21:00:00.000062	2.882176E-1	3.254480E-3
31/12/1903  21:00:00.000062	2.882176E-1	5.360320E-3
31/12/1903  21:00:00.000062	2.882176E-1	5.743200E-3
31/12/1903  21:00:00.000063	2.882176E-1	3.828800E-3
31/12/1903  21:00:00.000063	2.882176E-1	5.551760E-3
31/12/1903  21:00:00.000063	2.882176E-1	3.637360E-3
31/12/1903  21:00:00.000063	2.882176E-1	3.445920E-3
31/12/1903  21:00:00.000063	2.882176E-1	5.551760E-3
31/12/1903  21:00:00.000063	2.882176E-1	5.360320E-3
31/12/1903  21:00:00.000063	2.914928E-1	4.020240E-3
31/12/1903  21:00:00.000063	2.882176E-1	4.020240E-3
31/12/1903  21:00:00.000063	2.882176E-1	6.126080E-3
31/12/1903  21:00:00.000064	2.882176E-1	5.551760E-3
31/12/1903  21:00:00.000064	2.882176E-1	3.828800E-3
31/12/1903  21:00:00.000064	2.882176E-1	5.360320E-3
31/12/1903  21:00:00.000064	2.882176E-1	3.637360E-3
31/12/1903  21:00:00.000064	2.882176E-1	5.743200E-3
31/12/1903  21:00:00.000064	2.882176E-1	3.828800E-3
31/12/1903  21:00:00.000064	2.882176E-1	3.828800E-3
31/12/1903  21:00:00.000064	2.882176E-1	5.551760E-3
31/12/1903  21:00:00.000064	2.882176E-1	3.637360E-3
31/12/1903  21:00:00.000065	2.882176E-1	5.743200E-3
31/12/1903  21:00:00.000065	2.882176E-1	5.743200E-3
31/12/1903  21:00:00.000065	2.882176E-1	4.020240E-3
31/12/1903  21:00:00.000065	2.882176E-1	4.211680E-3
31/12/1903  21:00:00.000065	2.882176E-1	5.551760E-3
31/12/1903  21:00:00.000065	2.882176E-1	5.551760E-3
31/12/1903  21:00:00.000065	2.882176E-1	3.828800E-3
31/12/1903  21:00:00.000065	2.882176E-1	5.360320E-3
31/12/1903  21:00:00.000066	2.882176E-1	3.637360E-3
31/12/1903  21:00:00.000066	2.882176E-1	3.828800E-3
31/12/1903  21:00:00.000066	2.882176E-1	5.551760E-3
31/12/1903  21:00:00.000066	2.882176E-1	3.445920E-3
31/12/1903  21:00:00.000066	2.882176E-1	6.126080E-3
31/12/1903  21:00:00.000066	2.882176E-1	5.934640E-3
31/12/1903  21:00:00.000066	2.914928E-1	3.063040E-3
31/12/1903  21:00:00.000066	2.882176E-1	5.934640E-3
31/12/1903  21:00:00.000066	2.882176E-1	3.637360E-3
31/12/1903  21:00:00.000067	2.882176E-1	3.445920E-3
31/12/1903  21:00:00.000067	2.914928E-1	6.126080E-3
31/12/1903  21:00:00.000067	2.882176E-1	5.360320E-3
31/12/1903  21:00:00.000067	2.882176E-1	4.020240E-3
31/12/1903  21:00:00.000067	2.882176E-1	5.743200E-3
31/12/1903  21:00:00.000067	2.914928E-1	4.020240E-3
31/12/1903  21:00:00.000067	2.882176E-1	3.828800E-3
31/12/1903  21:00:00.000067	2.882176E-1	5.743200E-3
31/12/1903  21:00:00.000067	2.882176E-1	5.168880E-3
31/12/1903  21:00:00.000068	2.882176E-1	4.020240E-3
31/12/1903  21:00:00.000068	2.882176E-1	3.445920E-3
31/12/1903  21:00:00.000068	2.914928E-1	5.743200E-3
31/12/1903  21:00:00.000068	2.882176E-1	4.403120E-3
31/12/1903  21:00:00.000068	2.882176E-1	5.551760E-3
31/12/1903  21:00:00.000068	2.882176E-1	5.360320E-3
31/12/1903  21:00:00.000068	2.882176E-1	3.637360E-3
31/12/1903  21:00:00.000068	2.882176E-1	5.934640E-3
31/12/1903  21:00:00.000068	2.914928E-1	3.445920E-3
31/12/1903  21:00:00.000069	2.882176E-1	6.317520E-3
31/12/1903  21:00:00.000069	2.914928E-1	3.445920E-3
31/12/1903  21:00:00.000069	2.882176E-1	3.445920E-3
31/12/1903  21:00:00.000069	2.882176E-1	5.743200E-3
31/12/1903  21:00:00.000069	2.882176E-1	5.743200E-3
31/12/1903  21:00:00.000069	2.882176E-1	3.828800E-3
31/12/1903  21:00:00.000069	2.882176E-1	5.551760E-3
31/12/1903  21:00:00.000069	2.882176E-1	3.828800E-3
31/12/1903  21:00:00.000069	2.882176E-1	5.934640E-3
31/12/1903  21:00:00.000070	2.882176E-1	3.828800E-3
31/12/1903  21:00:00.000070	2.882176E-1	3.637360E-3
31/12/1903  21:00:00.000070	2.914928E-1	5.743200E-3
31/12/1903  21:00:00.000070	2.882176E-1	3.637360E-3
31/12/1903  21:00:00.000070	2.914928E-1	5.743200E-3
31/12/1903  21:00:00.000070	2.882176E-1	3.637360E-3
31/12/1903  21:00:00.000070	2.914928E-1	5.743200E-3
31/12/1903  21:00:00.000070	2.882176E-1	3.828800E-3
31/12/1903  21:00:00.000071	2.914928E-1	5.743200E-3
31/12/1903  21:00:00.000071	2.882176E-1	5.743200E-3
31/12/1903  21:00:00.000071	2.882176E-1	4.020240E-3
31/12/1903  21:00:00.000071	2.882176E-1	5.551760E-3
31/12/1903  21:00:00.000071	2.914928E-1	4.020240E-3
31/12/1903  21:00:00.000071	2.882176E-1	3.828800E-3
31/12/1903  21:00:00.000071	2.882176E-1	5.551760E-3
31/12/1903  21:00:00.000071	2.882176E-1	3.637360E-3
31/12/1903  21:00:00.000071	2.914928E-1	5.551760E-3
31/12/1903  21:00:00.000072	2.882176E-1	3.637360E-3
31/12/1903  21:00:00.000072	2.914928E-1	5.360320E-3
31/12/1903  21:00:00.000072	2.882176E-1	5.743200E-3
31/12/1903  21:00:00.000072	2.914928E-1	4.020240E-3
31/12/1903  21:00:00.000072	2.882176E-1	3.637360E-3
31/12/1903  21:00:00.000072	2.914928E-1	5.551760E-3
31/12/1903  21:00:00.000072	2.882176E-1	5.551760E-3
31/12/1903  21:00:00.000072	2.882176E-1	3.828800E-3
31/12/1903  21:00:00.000072	2.882176E-1	5.168880E-3
31/12/1903  21:00:00.000073	2.914928E-1	4.020240E-3
31/12/1903  21:00:00.000073	2.882176E-1	3.637360E-3
31/12/1903  21:00:00.000073	2.914928E-1	5.743200E-3
31/12/1903  21:00:00.000073	2.882176E-1	5.551760E-3
31/12/1903  21:00:00.000073	2.882176E-1	3.637360E-3
31/12/1903  21:00:00.000073	2.882176E-1	5.551760E-3
31/12/1903  21:00:00.000073	2.914928E-1	3.637360E-3
31/12/1903  21:00:00.000073	2.882176E-1	3.637360E-3
31/12/1903  21:00:00.000073	2.914928E-1	5.743200E-3
31/12/1903  21:00:00.000074	2.882176E-1	3.828800E-3
31/12/1903  21:00:00.000074	2.914928E-1	5.551760E-3
31/12/1903  21:00:00.000074	2.882176E-1	5.360320E-3
31/12/1903  21:00:00.000074	2.914928E-1	4.020240E-3
31/12/1903  21:00:00.000074	2.882176E-1	5.360320E-3
31/12/1903  21:00:00.000074	2.882176E-1	4.020240E-3
31/12/1903  21:00:00.000074	2.882176E-1	3.637360E-3
31/12/1903  21:00:00.000074	2.914928E-1	5.168880E-3
31/12/1903  21:00:00.000075	2.882176E-1	4.020240E-3
31/12/1903  21:00:00.000075	2.914928E-1	5.934640E-3
31/12/1903  21:00:00.000075	2.882176E-1	6.126080E-3
31/12/1903  21:00:00.000075	2.914928E-1	3.828800E-3
31/12/1903  21:00:00.000075	2.882176E-1	3.637360E-3
31/12/1903  21:00:00.000075	2.914928E-1	5.551760E-3
31/12/1903  21:00:00.000075	2.882176E-1	4.020240E-3
31/12/1903  21:00:00.000075	2.914928E-1	5.551760E-3
31/12/1903  21:00:00.000075	2.882176E-1	5.360320E-3
31/12/1903  21:00:00.000076	2.914928E-1	3.637360E-3
31/12/1903  21:00:00.000076	2.882176E-1	5.360320E-3
31/12/1903  21:00:00.000076	2.914928E-1	3.828800E-3
31/12/1903  21:00:00.000076	2.882176E-1	3.828800E-3
31/12/1903  21:00:00.000076	2.914928E-1	5.743200E-3
31/12/1903  21:00:00.000076	2.882176E-1	3.637360E-3
31/12/1903  21:00:00.000076	2.914928E-1	5.934640E-3
31/12/1903  21:00:00.000076	2.882176E-1	5.934640E-3
31/12/1903  21:00:00.000076	2.914928E-1	3.637360E-3
31/12/1903  21:00:00.000077	2.882176E-1	5.743200E-3
31/12/1903  21:00:00.000077	2.914928E-1	3.445920E-3
31/12/1903  21:00:00.000077	2.882176E-1	5.551760E-3
31/12/1903  21:00:00.000077	2.914928E-1	3.828800E-3
31/12/1903  21:00:00.000077	2.882176E-1	3.828800E-3
31/12/1903  21:00:00.000077	2.914928E-1	5.360320E-3
31/12/1903  21:00:00.000077	2.882176E-1	4.020240E-3
31/12/1903  21:00:00.000077	2.882176E-1	5.360320E-3
31/12/1903  21:00:00.000077	2.882176E-1	3.637360E-3
31/12/1903  21:00:00.000078	2.882176E-1	5.360320E-3
31/12/1903  21:00:00.000078	2.882176E-1	5.551760E-3
31/12/1903  21:00:00.000078	2.914928E-1	3.828800E-3
31/12/1903  21:00:00.000078	2.882176E-1	4.211680E-3
31/12/1903  21:00:00.000078	2.914928E-1	5.551760E-3
31/12/1903  21:00:00.000078	2.882176E-1	5.551760E-3
31/12/1903  21:00:00.000078	2.914928E-1	3.828800E-3
31/12/1903  21:00:00.000078	2.882176E-1	3.828800E-3
31/12/1903  21:00:00.000079	2.914928E-1	5.743200E-3
31/12/1903  21:00:00.000079	2.882176E-1	5.934640E-3
31/12/1903  21:00:00.000079	2.914928E-1	3.637360E-3
31/12/1903  21:00:00.000079	2.882176E-1	3.828800E-3
31/12/1903  21:00:00.000079	2.914928E-1	5.743200E-3
31/12/1903  21:00:00.000079	2.882176E-1	4.020240E-3
31/12/1903  21:00:00.000079	2.914928E-1	5.551760E-3
31/12/1903  21:00:00.000079	2.882176E-1	5.743200E-3
31/12/1903  21:00:00.000079	2.914928E-1	3.828800E-3
31/12/1903  21:00:00.000080	2.882176E-1	5.743200E-3
31/12/1903  21:00:00.000080	2.914928E-1	3.637360E-3
31/12/1903  21:00:00.000080	2.882176E-1	3.637360E-3
31/12/1903  21:00:00.000080	2.914928E-1	5.360320E-3
31/12/1903  21:00:00.000080	2.882176E-1	4.020240E-3
31/12/1903  21:00:00.000080	2.914928E-1	5.551760E-3
31/12/1903  21:00:00.000080	2.882176E-1	5.360320E-3
31/12/1903  21:00:00.000080	2.914928E-1	3.254480E-3
31/12/1903  21:00:00.000080	2.882176E-1	5.360320E-3
31/12/1903  21:00:00.000081	2.914928E-1	4.020240E-3
31/12/1903  21:00:00.000081	2.882176E-1	4.020240E-3
31/12/1903  21:00:00.000081	2.914928E-1	5.551760E-3
31/12/1903  21:00:00.000081	2.882176E-1	4.403120E-3
31/12/1903  21:00:00.000081	2.914928E-1	5.551760E-3
31/12/1903  21:00:00.000081	2.882176E-1	5.551760E-3
31/12/1903  21:00:00.000081	2.914928E-1	4.020240E-3
31/12/1903  21:00:00.000081	2.882176E-1	3.637360E-3
31/12/1903  21:00:00.000081	2.914928E-1	5.743200E-3
31/12/1903  21:00:00.000082	2.882176E-1	3.828800E-3
31/12/1903  21:00:00.000082	2.914928E-1	5.934640E-3
31/12/1903  21:00:00.000082	2.882176E-1	5.551760E-3
31/12/1903  21:00:00.000082	2.914928E-1	3.828800E-3
31/12/1903  21:00:00.000082	2.882176E-1	6.126080E-3
31/12/1903  21:00:00.000082	2.914928E-1	4.211680E-3
31/12/1903  21:00:00.000082	2.882176E-1	4.211680E-3
31/12/1903  21:00:00.000082	2.914928E-1	5.551760E-3
31/12/1903  21:00:00.000082	2.882176E-1	5.551760E-3
31/12/1903  21:00:00.000083	2.914928E-1	4.211680E-3
31/12/1903  21:00:00.000083	2.882176E-1	4.020240E-3
31/12/1903  21:00:00.000083	2.914928E-1	6.317520E-3
31/12/1903  21:00:00.000083	2.882176E-1	5.360320E-3
31/12/1903  21:00:00.000083	2.914928E-1	3.637360E-3
31/12/1903  21:00:00.000083	2.882176E-1	5.551760E-3
31/12/1903  21:00:00.000083	2.914928E-1	4.211680E-3
31/12/1903  21:00:00.000083	2.882176E-1	4.211680E-3
31/12/1903  21:00:00.000084	2.914928E-1	5.743200E-3
31/12/1903  21:00:00.000084	2.882176E-1	4.211680E-3
31/12/1903  21:00:00.000084	2.914928E-1	5.360320E-3
31/12/1903  21:00:00.000084	2.882176E-1	4.211680E-3
31/12/1903  21:00:00.000084	2.914928E-1	5.743200E-3
31/12/1903  21:00:00.000084	2.882176E-1	5.551760E-3
31/12/1903  21:00:00.000084	2.914928E-1	3.828800E-3
31/12/1903  21:00:00.000084	2.882176E-1	4.211680E-3
31/12/1903  21:00:00.000084	2.914928E-1	5.551760E-3
31/12/1903  21:00:00.000085	2.882176E-1	5.551760E-3
31/12/1903  21:00:00.000085	2.914928E-1	4.020240E-3
31/12/1903  21:00:00.000085	2.882176E-1	4.020240E-3
31/12/1903  21:00:00.000085	2.914928E-1	5.743200E-3
31/12/1903  21:00:00.000085	2.882176E-1	3.828800E-3
31/12/1903  21:00:00.000085	2.914928E-1	6.317520E-3
31/12/1903  21:00:00.000085	2.882176E-1	6.317520E-3
31/12/1903  21:00:00.000085	2.914928E-1	3.828800E-3
31/12/1903  21:00:00.000085	2.882176E-1	4.211680E-3
31/12/1903  21:00:00.000086	2.914928E-1	5.934640E-3
31/12/1903  21:00:00.000086	2.882176E-1	3.637360E-3
31/12/1903  21:00:00.000086	2.914928E-1	5.551760E-3
31/12/1903  21:00:00.000086	2.882176E-1	5.360320E-3
31/12/1903  21:00:00.000086	2.914928E-1	3.828800E-3
31/12/1903  21:00:00.000086	2.882176E-1	6.317520E-3
31/12/1903  21:00:00.000086	2.914928E-1	3.254480E-3
31/12/1903  21:00:00.000086	2.882176E-1	5.934640E-3
31/12/1903  21:00:00.000086	2.914928E-1	3.637360E-3
31/12/1903  21:00:00.000087	2.882176E-1	3.254480E-3
31/12/1903  21:00:00.000087	2.914928E-1	5.551760E-3
31/12/1903  21:00:00.000087	2.882176E-1	4.211680E-3
31/12/1903  21:00:00.000087	2.914928E-1	5.360320E-3
31/12/1903  21:00:00.000087	2.882176E-1	3.828800E-3
31/12/1903  21:00:00.000087	2.914928E-1	5.743200E-3
31/12/1903  21:00:00.000087	2.882176E-1	5.743200E-3
31/12/1903  21:00:00.000087	2.914928E-1	3.445920E-3
31/12/1903  21:00:00.000088	2.882176E-1	5.934640E-3
31/12/1903  21:00:00.000088	2.914928E-1	3.637360E-3
31/12/1903  21:00:00.000088	2.882176E-1	3.445920E-3
31/12/1903  21:00:00.000088	2.914928E-1	6.317520E-3
31/12/1903  21:00:00.000088	2.882176E-1	4.211680E-3
31/12/1903  21:00:00.000088	2.914928E-1	5.743200E-3
31/12/1903  21:00:00.000088	2.882176E-1	5.360320E-3
31/12/1903  21:00:00.000088	2.914928E-1	3.445920E-3
31/12/1903  21:00:00.000088	2.882176E-1	5.934640E-3
31/12/1903  21:00:00.000089	2.914928E-1	3.828800E-3
31/12/1903  21:00:00.000089	2.882176E-1	5.743200E-3
31/12/1903  21:00:00.000089	2.914928E-1	3.637360E-3
31/12/1903  21:00:00.000089	2.882176E-1	3.254480E-3
31/12/1903  21:00:00.000089	2.914928E-1	5.551760E-3
31/12/1903  21:00:00.000089	2.882176E-1	4.211680E-3
31/12/1903  21:00:00.000089	2.914928E-1	5.743200E-3
31/12/1903  21:00:00.000089	2.914928E-1	3.828800E-3
31/12/1903  21:00:00.000089	2.882176E-1	5.551760E-3
31/12/1903  21:00:00.000090	2.914928E-1	3.637360E-3
31/12/1903  21:00:00.000090	2.882176E-1	5.743200E-3
31/12/1903  21:00:00.000090	2.882176E-1	5.743200E-3
31/12/1903  21:00:00.000090	2.914928E-1	3.637360E-3
31/12/1903  21:00:00.000090	2.882176E-1	3.828800E-3
31/12/1903  21:00:00.000090	2.914928E-1	5.551760E-3
31/12/1903  21:00:00.000090	2.882176E-1	5.934640E-3
31/12/1903  21:00:00.000090	2.914928E-1	4.020240E-3
31/12/1903  21:00:00.000090	2.882176E-1	4.020240E-3
31/12/1903  21:00:00.000091	2.914928E-1	5.743200E-3
31/12/1903  21:00:00.000091	2.882176E-1	3.828800E-3
31/12/1903  21:00:00.000091	2.914928E-1	5.743200E-3
31/12/1903  21:00:00.000091	2.882176E-1	3.828800E-3
31/12/1903  21:00:00.000091	2.914928E-1	5.743200E-3
31/12/1903  21:00:00.000091	2.882176E-1	5.551760E-3
31/12/1903  21:00:00.000091	2.914928E-1	4.211680E-3
31/12/1903  21:00:00.000091	2.882176E-1	5.934640E-3
31/12/1903  21:00:00.000091	2.914928E-1	3.637360E-3
31/12/1903  21:00:00.000092	2.882176E-1	5.934640E-3
31/12/1903  21:00:00.000092	2.914928E-1	3.445920E-3
31/12/1903  21:00:00.000092	2.882176E-1	3.445920E-3
31/12/1903  21:00:00.000092	2.914928E-1	5.934640E-3
31/12/1903  21:00:00.000092	2.882176E-1	3.254480E-3
31/12/1903  21:00:00.000092	2.914928E-1	5.934640E-3
31/12/1903  21:00:00.000092	2.882176E-1	5.934640E-3
31/12/1903  21:00:00.000092	2.914928E-1	3.828800E-3
31/12/1903  21:00:00.000093	2.882176E-1	5.360320E-3
31/12/1903  21:00:00.000093	2.914928E-1	3.828800E-3
31/12/1903  21:00:00.000093	2.882176E-1	5.934640E-3
31/12/1903  21:00:00.000093	2.914928E-1	3.828800E-3
31/12/1903  21:00:00.000093	2.882176E-1	3.828800E-3
31/12/1903  21:00:00.000093	2.914928E-1	5.934640E-3
31/12/1903  21:00:00.000093	2.882176E-1	3.637360E-3
31/12/1903  21:00:00.000093	2.914928E-1	6.126080E-3
31/12/1903  21:00:00.000093	2.882176E-1	5.743200E-3
31/12/1903  21:00:00.000094	2.914928E-1	3.445920E-3
31/12/1903  21:00:00.000094	2.882176E-1	3.828800E-3
31/12/1903  21:00:00.000094	2.914928E-1	5.743200E-3
31/12/1903  21:00:00.000094	2.882176E-1	5.551760E-3
31/12/1903  21:00:00.000094	2.914928E-1	4.020240E-3
31/12/1903  21:00:00.000094	2.882176E-1	3.637360E-3
31/12/1903  21:00:00.000094	2.914928E-1	5.743200E-3
31/12/1903  21:00:00.000094	2.882176E-1	5.934640E-3
31/12/1903  21:00:00.000094	2.914928E-1	3.637360E-3
31/12/1903  21:00:00.000095	2.882176E-1	3.828800E-3
31/12/1903  21:00:00.000095	2.914928E-1	5.934640E-3
31/12/1903  21:00:00.000095	2.882176E-1	3.445920E-3
31/12/1903  21:00:00.000095	2.914928E-1	5.743200E-3
31/12/1903  21:00:00.000095	2.882176E-1	5.743200E-3
31/12/1903  21:00:00.000095	2.914928E-1	3.828800E-3
31/12/1903  21:00:00.000095	2.882176E-1	5.743200E-3
31/12/1903  21:00:00.000095	2.914928E-1	4.020240E-3
31/12/1903  21:00:00.000095	2.882176E-1	3.828800E-3
31/12/1903  21:00:00.000096	2.914928E-1	5.743200E-3
31/12/1903  21:00:00.000096	2.882176E-1	5.743200E-3
31/12/1903  21:00:00.000096	2.914928E-1	3.828800E-3
31/12/1903  21:00:00.000096	2.882176E-1	5.743200E-3
31/12/1903  21:00:00.000096	2.914928E-1	4.020240E-3
31/12/1903  21:00:00.000096	2.914928E-1	6.126080E-3
31/12/1903  21:00:00.000096	2.882176E-1	4.211680E-3
31/12/1903  21:00:00.000096	2.882176E-1	5.934640E-3
31/12/1903  21:00:00.000097	2.914928E-1	3.828800E-3
31/12/1903  21:00:00.000097	2.882176E-1	5.551760E-3
31/12/1903  21:00:00.000097	2.914928E-1	4.403120E-3
31/12/1903  21:00:00.000097	2.882176E-1	3.828800E-3
31/12/1903  21:00:00.000097	2.914928E-1	5.934640E-3
31/12/1903  21:00:00.000097	2.882176E-1	4.020240E-3
31/12/1903  21:00:00.000097	2.914928E-1	5.934640E-3
31/12/1903  21:00:00.000097	2.882176E-1	6.317520E-3
31/12/1903  21:00:00.000097	2.914928E-1	4.211680E-3
31/12/1903  21:00:00.000098	2.882176E-1	4.211680E-3
31/12/1903  21:00:00.000098	2.914928E-1	5.551760E-3
31/12/1903  21:00:00.000098	2.882176E-1	4.020240E-3
31/12/1903  21:00:00.000098	2.914928E-1	5.743200E-3
31/12/1903  21:00:00.000098	2.882176E-1	5.743200E-3
31/12/1903  21:00:00.000098	2.914928E-1	4.020240E-3
31/12/1903  21:00:00.000098	2.914928E-1	4.020240E-3
31/12/1903  21:00:00.000098	2.882176E-1	5.360320E-3
31/12/1903  21:00:00.000098	2.882176E-1	4.211680E-3
31/12/1903  21:00:00.000099	2.914928E-1	6.126080E-3
31/12/1903  21:00:00.000099	2.882176E-1	5.360320E-3
31/12/1903  21:00:00.000099	2.914928E-1	4.020240E-3
31/12/1903  21:00:00.000099	2.882176E-1	4.403120E-3
31/12/1903  21:00:00.000099	2.914928E-1	6.317520E-3
31/12/1903  21:00:00.000099	2.882176E-1	5.551760E-3
31/12/1903  21:00:00.000099	2.914928E-1	3.828800E-3
31/12/1903  21:00:00.000099	2.882176E-1	5.360320E-3
31/12/1903  21:00:00.000099	2.914928E-1	4.211680E-3
31/12/1903  21:00:00.000100	2.882176E-1	3.828800E-3
31/12/1903  21:00:00.000100	2.914928E-1	6.317520E-3
31/12/1903  21:00:00.000100	2.914928E-1	5.934640E-3
31/12/1903  21:00:00.000100	2.882176E-1	3.637360E-3
31/12/1903  21:00:00.000100	2.882176E-1	5.743200E-3
31/12/1903  21:00:00.000100	2.914928E-1	3.828800E-3
31/12/1903  21:00:00.000100	2.882176E-1	5.743200E-3
31/12/1903  21:00:00.000100	2.914928E-1	4.211680E-3
31/12/1903  21:00:00.000101	2.882176E-1	4.020240E-3
31/12/1903  21:00:00.000101	2.914928E-1	5.743200E-3
31/12/1903  21:00:00.000101	2.882176E-1	4.211680E-3
31/12/1903  21:00:00.000101	2.914928E-1	5.934640E-3
31/12/1903  21:00:00.000101	2.882176E-1	5.551760E-3
31/12/1903  21:00:00.000101	2.914928E-1	3.828800E-3
31/12/1903  21:00:00.000101	2.882176E-1	4.020240E-3
31/12/1903  21:00:00.000101	2.914928E-1	5.934640E-3
31/12/1903  21:00:00.000101	2.882176E-1	3.828800E-3
31/12/1903  21:00:00.000102	2.914928E-1	5.551760E-3
31/12/1903  21:00:00.000102	2.882176E-1	4.020240E-3
31/12/1903  21:00:00.000102	2.914928E-1	5.743200E-3
31/12/1903  21:00:00.000102	2.882176E-1	5.551760E-3
31/12/1903  21:00:00.000102	2.914928E-1	4.020240E-3
31/12/1903  21:00:00.000102	2.882176E-1	5.743200E-3
31/12/1903  21:00:00.000102	2.914928E-1	4.211680E-3
31/12/1903  21:00:00.000102	2.882176E-1	6.317520E-3
31/12/1903  21:00:00.000102	2.914928E-1	4.020240E-3
31/12/1903  21:00:00.000103	2.882176E-1	5.934640E-3
31/12/1903  21:00:00.000103	2.914928E-1	4.020240E-3
31/12/1903  21:00:00.000103	2.882176E-1	4.211680E-3
31/12/1903  21:00:00.000103	2.914928E-1	5.934640E-3
31/12/1903  21:00:00.000103	2.882176E-1	5.551760E-3
31/12/1903  21:00:00.000103	2.914928E-1	4.020240E-3
31/12/1903  21:00:00.000103	2.882176E-1	4.020240E-3
31/12/1903  21:00:00.000103	2.914928E-1	5.934640E-3
31/12/1903  21:00:00.000103	2.882176E-1	6.126080E-3
31/12/1903  21:00:00.000104	2.914928E-1	3.637360E-3
31/12/1903  21:00:00.000104	2.882176E-1	6.126080E-3
31/12/1903  21:00:00.000104	2.914928E-1	3.828800E-3
31/12/1903  21:00:00.000104	2.882176E-1	6.126080E-3
31/12/1903  21:00:00.000104	2.914928E-1	4.020240E-3
31/12/1903  21:00:00.000104	2.882176E-1	3.637360E-3
31/12/1903  21:00:00.000104	2.914928E-1	5.743200E-3
31/12/1903  21:00:00.000104	2.882176E-1	4.020240E-3
31/12/1903  21:00:00.000104	2.914928E-1	5.743200E-3
31/12/1903  21:00:00.000105	2.882176E-1	6.126080E-3
31/12/1903  21:00:00.000105	2.914928E-1	3.445920E-3
31/12/1903  21:00:00.000105	2.882176E-1	3.828800E-3
31/12/1903  21:00:00.000105	2.914928E-1	5.743200E-3
31/12/1903  21:00:00.000105	2.882176E-1	5.743200E-3
31/12/1903  21:00:00.000105	2.914928E-1	4.020240E-3
31/12/1903  21:00:00.000105	2.882176E-1	4.403120E-3
31/12/1903  21:00:00.000105	2.914928E-1	5.743200E-3
31/12/1903  21:00:00.000106	2.882176E-1	5.743200E-3
31/12/1903  21:00:00.000106	2.914928E-1	4.211680E-3
31/12/1903  21:00:00.000106	2.882176E-1	4.020240E-3
31/12/1903  21:00:00.000106	2.914928E-1	5.934640E-3
31/12/1903  21:00:00.000106	2.882176E-1	5.551760E-3
31/12/1903  21:00:00.000106	2.914928E-1	3.637360E-3
31/12/1903  21:00:00.000106	2.882176E-1	5.743200E-3
31/12/1903  21:00:00.000106	2.914928E-1	3.637360E-3
31/12/1903  21:00:00.000106	2.882176E-1	4.211680E-3
31/12/1903  21:00:00.000107	2.914928E-1	5.551760E-3
31/12/1903  21:00:00.000107	2.882176E-1	5.551760E-3
31/12/1903  21:00:00.000107	2.914928E-1	3.828800E-3
31/12/1903  21:00:00.000107	2.882176E-1	3.254480E-3
31/12/1903  21:00:00.000107	2.914928E-1	6.317520E-3
31/12/1903  21:00:00.000107	2.882176E-1	3.828800E-3
31/12/1903  21:00:00.000107	2.914928E-1	6.126080E-3
31/12/1903  21:00:00.000107	2.882176E-1	6.126080E-3
31/12/1903  21:00:00.000107	2.914928E-1	3.637360E-3
31/12/1903  21:00:00.000108	2.882176E-1	5.743200E-3
31/12/1903  21:00:00.000108	2.914928E-1	4.020240E-3
31/12/1903  21:00:00.000108	2.882176E-1	5.743200E-3
31/12/1903  21:00:00.000108	2.914928E-1	4.020240E-3
31/12/1903  21:00:00.000108	2.882176E-1	5.551760E-3
31/12/1903  21:00:00.000108	2.914928E-1	3.828800E-3
31/12/1903  21:00:00.000108	2.882176E-1	6.317520E-3
31/12/1903  21:00:00.000108	2.914928E-1	3.637360E-3
31/12/1903  21:00:00.000108	2.882176E-1	3.637360E-3
31/12/1903  21:00:00.000109	2.914928E-1	6.317520E-3
31/12/1903  21:00:00.000109	2.882176E-1	3.445920E-3
31/12/1903  21:00:00.000109	2.914928E-1	6.126080E-3
31/12/1903  21:00:00.000109	2.882176E-1	6.126080E-3
31/12/1903  21:00:00.000109	2.914928E-1	3.828800E-3
31/12/1903  21:00:00.000109	2.882176E-1	5.934640E-3
31/12/1903  21:00:00.000109	2.914928E-1	4.020240E-3
31/12/1903  21:00:00.000109	2.882176E-1	5.743200E-3
31/12/1903  21:00:00.000110	2.914928E-1	4.403120E-3
31/12/1903  21:00:00.000110	2.882176E-1	4.403120E-3
31/12/1903  21:00:00.000110	2.914928E-1	6.126080E-3
31/12/1903  21:00:00.000110	2.882176E-1	5.743200E-3
31/12/1903  21:00:00.000110	2.914928E-1	4.211680E-3
31/12/1903  21:00:00.000110	2.882176E-1	3.637360E-3
31/12/1903  21:00:00.000110	2.914928E-1	5.934640E-3
31/12/1903  21:00:00.000110	2.914928E-1	5.743200E-3
31/12/1903  21:00:00.000110	2.882176E-1	4.403120E-3
31/12/1903  21:00:00.000111	2.882176E-1	4.403120E-3
31/12/1903  21:00:00.000111	2.914928E-1	5.743200E-3
31/12/1903  21:00:00.000111	2.882176E-1	4.403120E-3
31/12/1903  21:00:00.000111	2.914928E-1	5.743200E-3
31/12/1903  21:00:00.000111	2.914928E-1	5.743200E-3
31/12/1903  21:00:00.000111	-2.292640E-1	1.722960E-3
31/12/1903  21:00:00.000111	-2.292640E-1	1.531520E-3
31/12/1903  21:00:00.000111	-2.882176E-1	-6.317520E-3
31/12/1903  21:00:00.000111	-2.849424E-1	-5.934640E-3
31/12/1903  21:00:00.000112	-2.914928E-1	-6.508960E-3
31/12/1903  21:00:00.000112	-2.914928E-1	-6.508960E-3
31/12/1903  21:00:00.000112	-2.947680E-1	-6.508960E-3
31/12/1903  21:00:00.000112	-2.947680E-1	-6.508960E-3
31/12/1903  21:00:00.000112	-2.980432E-1	-6.508960E-3
31/12/1903  21:00:00.000112	-2.980432E-1	-6.508960E-3
31/12/1903  21:00:00.000112	-3.013184E-1	-6.508960E-3
31/12/1903  21:00:00.000112	-3.013184E-1	-6.508960E-3
31/12/1903  21:00:00.000112	-3.045936E-1	-6.508960E-3
31/12/1903  21:00:00.000113	-3.045936E-1	-6.508960E-3
31/12/1903  21:00:00.000113	-3.045936E-1	-6.508960E-3
31/12/1903  21:00:00.000113	-3.045936E-1	-6.508960E-3
31/12/1903  21:00:00.000113	-3.045936E-1	-6.508960E-3
31/12/1903  21:00:00.000113	-3.045936E-1	-6.508960E-3
31/12/1903  21:00:00.000113	-3.078688E-1	-6.508960E-3
31/12/1903  21:00:00.000113	-3.045936E-1	-6.508960E-3
31/12/1903  21:00:00.000113	-3.078688E-1	-6.508960E-3
		
