31/12/1903  21:00:00.000000	-3.111440E-1	9.563200E-4
31/12/1903  21:00:00.000000	-3.111440E-1	2.390800E-4
31/12/1903  21:00:00.000000	-3.111440E-1	2.151720E-3
31/12/1903  21:00:00.000000	-3.111440E-1	2.390800E-4
31/12/1903  21:00:00.000000	-3.111440E-1	4.781600E-4
31/12/1903  21:00:00.000000	-3.111440E-1	2.151720E-3
31/12/1903  21:00:00.000000	-3.111440E-1	4.781600E-4
31/12/1903  21:00:00.000000	-3.111440E-1	2.390800E-3
31/12/1903  21:00:00.000000	-3.111440E-1	1.912640E-3
31/12/1903  21:00:00.000001	-3.111440E-1	2.390800E-4
31/12/1903  21:00:00.000001	-3.111440E-1	2.390800E-4
31/12/1903  21:00:00.000001	-3.111440E-1	2.390800E-3
31/12/1903  21:00:00.000001	-3.111440E-1	4.781600E-4
31/12/1903  21:00:00.000001	-3.111440E-1	2.151720E-3
31/12/1903  21:00:00.000001	-3.111440E-1	2.390800E-4
31/12/1903  21:00:00.000001	-3.111440E-1	2.151720E-3
31/12/1903  21:00:00.000001	-3.111440E-1	2.151720E-3
31/12/1903  21:00:00.000001	-3.111440E-1	4.781600E-4
31/12/1903  21:00:00.000002	-3.111440E-1	1.912640E-3
31/12/1903  21:00:00.000002	-3.111440E-1	4.781600E-4
31/12/1903  21:00:00.000002	-3.111440E-1	1.912640E-3
31/12/1903  21:00:00.000002	-3.111440E-1	2.390800E-4
31/12/1903  21:00:00.000002	-3.111440E-1	4.781600E-4
31/12/1903  21:00:00.000002	-3.111440E-1	2.151720E-3
31/12/1903  21:00:00.000002	-3.111440E-1	2.151720E-3
31/12/1903  21:00:00.000002	-3.111440E-1	2.390800E-4
31/12/1903  21:00:00.000002	-3.111440E-1	2.390800E-4
31/12/1903  21:00:00.000003	-3.111440E-1	2.151720E-3
31/12/1903  21:00:00.000003	-3.111440E-1	-2.390800E-4
31/12/1903  21:00:00.000003	-3.111440E-1	2.390800E-3
31/12/1903  21:00:00.000003	-3.111440E-1	2.390800E-3
31/12/1903  21:00:00.000003	-3.111440E-1	4.781600E-4
31/12/1903  21:00:00.000003	-3.111440E-1	1.673560E-3
31/12/1903  21:00:00.000003	-3.111440E-1	4.781600E-4
31/12/1903  21:00:00.000003	-3.111440E-1	4.781600E-4
31/12/1903  21:00:00.000003	-3.111440E-1	2.151720E-3
31/12/1903  21:00:00.000004	-3.111440E-1	4.781600E-4
31/12/1903  21:00:00.000004	-3.111440E-1	2.629880E-3
31/12/1903  21:00:00.000004	-3.111440E-1	2.151720E-3
31/12/1903  21:00:00.000004	-3.111440E-1	2.390800E-4
31/12/1903  21:00:00.000004	-3.111440E-1	2.151720E-3
31/12/1903  21:00:00.000004	-3.111440E-1	4.781600E-4
31/12/1903  21:00:00.000004	-3.111440E-1	2.390800E-4
31/12/1903  21:00:00.000004	-3.111440E-1	2.151720E-3
31/12/1903  21:00:00.000005	-3.111440E-1	4.781600E-4
31/12/1903  21:00:00.000005	-3.111440E-1	2.151720E-3
31/12/1903  21:00:00.000005	-3.111440E-1	1.912640E-3
31/12/1903  21:00:00.000005	-3.111440E-1	4.781600E-4
31/12/1903  21:00:00.000005	-3.111440E-1	2.151720E-3
31/12/1903  21:00:00.000005	-3.111440E-1	4.781600E-4
31/12/1903  21:00:00.000005	-3.111440E-1	4.781600E-4
31/12/1903  21:00:00.000005	-3.111440E-1	1.912640E-3
31/12/1903  21:00:00.000005	-3.111440E-1	4.781600E-4
31/12/1903  21:00:00.000006	-3.111440E-1	2.151720E-3
31/12/1903  21:00:00.000006	-3.111440E-1	7.172400E-4
31/12/1903  21:00:00.000006	-3.111440E-1	2.151720E-3
31/12/1903  21:00:00.000006	-3.111440E-1	7.172400E-4
31/12/1903  21:00:00.000006	-3.111440E-1	1.912640E-3
31/12/1903  21:00:00.000006	-3.111440E-1	7.172400E-4
31/12/1903  21:00:00.000006	-3.111440E-1	2.629880E-3
31/12/1903  21:00:00.000006	-3.111440E-1	2.390800E-4
31/12/1903  21:00:00.000006	-3.111440E-1	2.151720E-3
31/12/1903  21:00:00.000007	-3.111440E-1	2.151720E-3
31/12/1903  21:00:00.000007	-3.111440E-1	4.781600E-4
31/12/1903  21:00:00.000007	-3.111440E-1	1.912640E-3
31/12/1903  21:00:00.000007	-3.111440E-1	2.390800E-4
31/12/1903  21:00:00.000007	-3.111440E-1	2.390800E-4
31/12/1903  21:00:00.000007	-3.111440E-1	1.912640E-3
31/12/1903  21:00:00.000007	-3.111440E-1	2.390800E-4
31/12/1903  21:00:00.000007	-3.111440E-1	1.912640E-3
31/12/1903  21:00:00.000007	-3.111440E-1	2.151720E-3
31/12/1903  21:00:00.000008	-3.111440E-1	2.390800E-4
31/12/1903  21:00:00.000008	-3.111440E-1	4.781600E-4
31/12/1903  21:00:00.000008	-3.111440E-1	2.390800E-3
31/12/1903  21:00:00.000008	-3.111440E-1	2.629880E-3
31/12/1903  21:00:00.000008	-3.111440E-1	7.172400E-4
31/12/1903  21:00:00.000008	-3.111440E-1	1.912640E-3
31/12/1903  21:00:00.000008	-3.111440E-1	4.781600E-4
31/12/1903  21:00:00.000008	-3.111440E-1	1.912640E-3
31/12/1903  21:00:00.000009	-3.111440E-1	4.781600E-4
31/12/1903  21:00:00.000009	-3.111440E-1	2.151720E-3
31/12/1903  21:00:00.000009	-3.111440E-1	0.000000E+0
31/12/1903  21:00:00.000009	-3.111440E-1	1.912640E-3
31/12/1903  21:00:00.000009	-3.111440E-1	4.781600E-4
31/12/1903  21:00:00.000009	-3.111440E-1	4.781600E-4
31/12/1903  21:00:00.000009	-3.111440E-1	1.912640E-3
31/12/1903  21:00:00.000009	-3.111440E-1	1.912640E-3
31/12/1903  21:00:00.000009	-3.111440E-1	4.781600E-4
31/12/1903  21:00:00.000010	-3.111440E-1	2.151720E-3
31/12/1903  21:00:00.000010	-3.111440E-1	4.781600E-4
31/12/1903  21:00:00.000010	-3.111440E-1	4.781600E-4
31/12/1903  21:00:00.000010	-3.111440E-1	1.673560E-3
31/12/1903  21:00:00.000010	-3.111440E-1	1.673560E-3
31/12/1903  21:00:00.000010	-3.111440E-1	4.781600E-4
31/12/1903  21:00:00.000010	-3.111440E-1	2.151720E-3
31/12/1903  21:00:00.000010	-3.111440E-1	2.390800E-4
31/12/1903  21:00:00.000010	-3.111440E-1	4.781600E-4
31/12/1903  21:00:00.000011	-3.111440E-1	2.151720E-3
31/12/1903  21:00:00.000011	-3.111440E-1	7.172400E-4
31/12/1903  21:00:00.000011	-3.111440E-1	2.151720E-3
31/12/1903  21:00:00.000011	-3.111440E-1	0.000000E+0
31/12/1903  21:00:00.000011	-2.947680E-2	3.347120E-3
31/12/1903  21:00:00.000011	-2.620160E-2	2.868960E-3
31/12/1903  21:00:00.000011	2.620160E-1	1.673560E-2
31/12/1903  21:00:00.000011	2.587408E-1	1.673560E-2
31/12/1903  21:00:00.000011	2.685664E-1	2.749420E-2
31/12/1903  21:00:00.000012	2.652912E-1	2.653788E-2
31/12/1903  21:00:00.000012	2.718416E-1	3.442752E-2
31/12/1903  21:00:00.000012	2.718416E-1	3.371028E-2
31/12/1903  21:00:00.000012	2.751168E-1	3.777464E-2
31/12/1903  21:00:00.000012	2.751168E-1	3.681832E-2
31/12/1903  21:00:00.000012	2.783920E-1	3.968728E-2
31/12/1903  21:00:00.000012	2.783920E-1	3.920912E-2
31/12/1903  21:00:00.000012	2.816672E-1	4.136084E-2
31/12/1903  21:00:00.000012	2.816672E-1	3.944820E-2
31/12/1903  21:00:00.000013	2.783920E-1	4.136084E-2
31/12/1903  21:00:00.000013	2.816672E-1	4.112176E-2
31/12/1903  21:00:00.000013	2.816672E-1	3.920912E-2
31/12/1903  21:00:00.000013	2.816672E-1	4.040452E-2
31/12/1903  21:00:00.000013	2.849424E-1	3.801372E-2
31/12/1903  21:00:00.000013	2.816672E-1	3.920912E-2
31/12/1903  21:00:00.000013	2.849424E-1	3.705740E-2
31/12/1903  21:00:00.000013	2.849424E-1	3.801372E-2
31/12/1903  21:00:00.000014	2.849424E-1	3.562292E-2
31/12/1903  21:00:00.000014	2.849424E-1	3.705740E-2
31/12/1903  21:00:00.000014	2.849424E-1	3.418844E-2
31/12/1903  21:00:00.000014	2.849424E-1	3.586200E-2
31/12/1903  21:00:00.000014	2.849424E-1	3.299304E-2
31/12/1903  21:00:00.000014	2.849424E-1	3.394936E-2
31/12/1903  21:00:00.000014	2.849424E-1	3.179764E-2
31/12/1903  21:00:00.000014	2.849424E-1	3.251488E-2
31/12/1903  21:00:00.000014	2.849424E-1	3.108040E-2
31/12/1903  21:00:00.000015	2.849424E-1	3.179764E-2
31/12/1903  21:00:00.000015	2.882176E-1	2.964592E-2
31/12/1903  21:00:00.000015	2.849424E-1	3.108040E-2
31/12/1903  21:00:00.000015	2.882176E-1	2.868960E-2
31/12/1903  21:00:00.000015	2.882176E-1	3.036316E-2
31/12/1903  21:00:00.000015	2.849424E-1	2.868960E-2
31/12/1903  21:00:00.000015	2.882176E-1	2.773328E-2
31/12/1903  21:00:00.000015	2.849424E-1	3.012408E-2
31/12/1903  21:00:00.000015	2.882176E-1	2.988500E-2
31/12/1903  21:00:00.000016	2.849424E-1	2.749420E-2
31/12/1903  21:00:00.000016	2.882176E-1	2.773328E-2
31/12/1903  21:00:00.000016	2.849424E-1	2.964592E-2
31/12/1903  21:00:00.000016	2.882176E-1	2.868960E-2
31/12/1903  21:00:00.000016	2.882176E-1	2.701604E-2
31/12/1903  21:00:00.000016	2.882176E-1	2.868960E-2
31/12/1903  21:00:00.000016	2.882176E-1	2.677696E-2
31/12/1903  21:00:00.000016	2.882176E-1	2.821144E-2
31/12/1903  21:00:00.000016	2.882176E-1	2.653788E-2
31/12/1903  21:00:00.000017	2.882176E-1	2.749420E-2
31/12/1903  21:00:00.000017	2.882176E-1	2.605972E-2
31/12/1903  21:00:00.000017	2.882176E-1	2.725512E-2
31/12/1903  21:00:00.000017	2.882176E-1	2.510340E-2
31/12/1903  21:00:00.000017	2.882176E-1	2.653788E-2
31/12/1903  21:00:00.000017	2.882176E-1	2.486432E-2
31/12/1903  21:00:00.000017	2.882176E-1	2.605972E-2
31/12/1903  21:00:00.000017	2.882176E-1	2.414708E-2
31/12/1903  21:00:00.000018	2.882176E-1	2.558156E-2
31/12/1903  21:00:00.000018	2.882176E-1	2.342984E-2
31/12/1903  21:00:00.000018	2.882176E-1	2.486432E-2
31/12/1903  21:00:00.000018	2.882176E-1	2.319076E-2
31/12/1903  21:00:00.000018	2.882176E-1	2.462524E-2
31/12/1903  21:00:00.000018	2.882176E-1	2.223444E-2
31/12/1903  21:00:00.000018	2.882176E-1	2.223444E-2
31/12/1903  21:00:00.000018	2.882176E-1	2.414708E-2
31/12/1903  21:00:00.000018	2.882176E-1	2.414708E-2
31/12/1903  21:00:00.000019	2.882176E-1	2.151720E-2
31/12/1903  21:00:00.000019	2.882176E-1	2.319076E-2
31/12/1903  21:00:00.000019	2.882176E-1	2.032180E-2
31/12/1903  21:00:00.000019	2.882176E-1	2.223444E-2
31/12/1903  21:00:00.000019	2.882176E-1	2.032180E-2
31/12/1903  21:00:00.000019	2.882176E-1	2.079996E-2
31/12/1903  21:00:00.000019	2.882176E-1	1.912640E-2
31/12/1903  21:00:00.000019	2.882176E-1	2.079996E-2
31/12/1903  21:00:00.000019	2.882176E-1	1.840916E-2
31/12/1903  21:00:00.000020	2.882176E-1	1.840916E-2
31/12/1903  21:00:00.000020	2.882176E-1	2.008272E-2
31/12/1903  21:00:00.000020	2.882176E-1	1.888732E-2
31/12/1903  21:00:00.000020	2.882176E-1	1.721376E-2
31/12/1903  21:00:00.000020	2.882176E-1	1.888732E-2
31/12/1903  21:00:00.000020	2.882176E-1	1.625744E-2
31/12/1903  21:00:00.000020	2.882176E-1	1.817008E-2
31/12/1903  21:00:00.000020	2.882176E-1	1.554020E-2
31/12/1903  21:00:00.000020	2.882176E-1	1.673560E-2
31/12/1903  21:00:00.000021	2.882176E-1	1.554020E-2
31/12/1903  21:00:00.000021	2.882176E-1	1.625744E-2
31/12/1903  21:00:00.000021	2.882176E-1	1.410572E-2
31/12/1903  21:00:00.000021	2.882176E-1	1.577928E-2
31/12/1903  21:00:00.000021	2.882176E-1	1.362756E-2
31/12/1903  21:00:00.000021	2.882176E-1	1.482296E-2
31/12/1903  21:00:00.000021	2.882176E-1	1.291032E-2
31/12/1903  21:00:00.000021	2.882176E-1	1.410572E-2
31/12/1903  21:00:00.000022	2.882176E-1	1.219308E-2
31/12/1903  21:00:00.000022	2.882176E-1	1.362756E-2
31/12/1903  21:00:00.000022	2.882176E-1	1.123676E-2
31/12/1903  21:00:00.000022	2.882176E-1	1.243216E-2
31/12/1903  21:00:00.000022	2.882176E-1	1.051952E-2
31/12/1903  21:00:00.000022	2.882176E-1	1.195400E-2
31/12/1903  21:00:00.000022	2.882176E-1	1.028044E-2
31/12/1903  21:00:00.000022	2.882176E-1	1.147584E-2
31/12/1903  21:00:00.000022	2.882176E-1	9.563200E-3
31/12/1903  21:00:00.000023	2.882176E-1	1.075860E-2
31/12/1903  21:00:00.000023	2.882176E-1	8.606880E-3
31/12/1903  21:00:00.000023	2.882176E-1	9.802280E-3
31/12/1903  21:00:00.000023	2.882176E-1	7.889640E-3
31/12/1903  21:00:00.000023	2.882176E-1	9.563200E-3
31/12/1903  21:00:00.000023	2.882176E-1	7.172400E-3
31/12/1903  21:00:00.000023	2.882176E-1	9.324120E-3
31/12/1903  21:00:00.000023	2.882176E-1	6.694240E-3
31/12/1903  21:00:00.000023	2.882176E-1	6.455160E-3
31/12/1903  21:00:00.000024	2.882176E-1	9.324120E-3
31/12/1903  21:00:00.000024	2.882176E-1	7.411480E-3
31/12/1903  21:00:00.000024	2.882176E-1	5.737920E-3
31/12/1903  21:00:00.000024	2.882176E-1	6.933320E-3
31/12/1903  21:00:00.000024	2.882176E-1	5.498840E-3
31/12/1903  21:00:00.000024	2.882176E-1	6.455160E-3
31/12/1903  21:00:00.000024	2.882176E-1	5.020680E-3
31/12/1903  21:00:00.000024	2.882176E-1	6.455160E-3
31/12/1903  21:00:00.000024	2.882176E-1	4.303440E-3
31/12/1903  21:00:00.000025	2.882176E-1	5.737920E-3
31/12/1903  21:00:00.000025	2.882176E-1	4.303440E-3
31/12/1903  21:00:00.000025	2.882176E-1	5.498840E-3
31/12/1903  21:00:00.000025	2.882176E-1	3.586200E-3
31/12/1903  21:00:00.000025	2.882176E-1	3.586200E-3
31/12/1903  21:00:00.000025	2.882176E-1	5.020680E-3
31/12/1903  21:00:00.000025	2.882176E-1	4.781600E-3
31/12/1903  21:00:00.000025	2.882176E-1	2.868960E-3
31/12/1903  21:00:00.000025	2.882176E-1	2.868960E-3
31/12/1903  21:00:00.000026	2.882176E-1	4.542520E-3
31/12/1903  21:00:00.000026	2.882176E-1	4.303440E-3
31/12/1903  21:00:00.000026	2.882176E-1	2.390800E-3
31/12/1903  21:00:00.000026	2.882176E-1	2.151720E-3
31/12/1903  21:00:00.000026	2.882176E-1	4.303440E-3
31/12/1903  21:00:00.000026	2.882176E-1	3.825280E-3
31/12/1903  21:00:00.000026	2.882176E-1	1.912640E-3
31/12/1903  21:00:00.000026	2.882176E-1	3.347120E-3
31/12/1903  21:00:00.000027	2.882176E-1	1.195400E-3
31/12/1903  21:00:00.000027	2.882176E-1	3.347120E-3
31/12/1903  21:00:00.000027	2.882176E-1	1.912640E-3
31/12/1903  21:00:00.000027	2.882176E-1	3.347120E-3
31/12/1903  21:00:00.000027	2.882176E-1	1.434480E-3
31/12/1903  21:00:00.000027	2.882176E-1	1.673560E-3
31/12/1903  21:00:00.000027	2.882176E-1	3.108040E-3
31/12/1903  21:00:00.000027	2.882176E-1	2.868960E-3
31/12/1903  21:00:00.000027	2.882176E-1	1.195400E-3
31/12/1903  21:00:00.000028	2.882176E-1	2.629880E-3
31/12/1903  21:00:00.000028	2.882176E-1	1.434480E-3
31/12/1903  21:00:00.000028	2.882176E-1	2.868960E-3
31/12/1903  21:00:00.000028	2.882176E-1	1.195400E-3
31/12/1903  21:00:00.000028	2.882176E-1	2.868960E-3
31/12/1903  21:00:00.000028	2.882176E-1	1.195400E-3
31/12/1903  21:00:00.000028	2.882176E-1	1.195400E-3
31/12/1903  21:00:00.000028	2.882176E-1	2.629880E-3
31/12/1903  21:00:00.000028	2.882176E-1	1.434480E-3
31/12/1903  21:00:00.000029	2.882176E-1	3.108040E-3
31/12/1903  21:00:00.000029	2.882176E-1	2.629880E-3
31/12/1903  21:00:00.000029	2.882176E-1	9.563200E-4
31/12/1903  21:00:00.000029	2.882176E-1	3.347120E-3
31/12/1903  21:00:00.000029	2.882176E-1	1.434480E-3
31/12/1903  21:00:00.000029	2.882176E-1	1.434480E-3
31/12/1903  21:00:00.000029	2.882176E-1	2.868960E-3
31/12/1903  21:00:00.000029	2.882176E-1	2.868960E-3
31/12/1903  21:00:00.000029	2.882176E-1	9.563200E-4
31/12/1903  21:00:00.000030	2.882176E-1	9.563200E-4
31/12/1903  21:00:00.000030	2.882176E-1	3.108040E-3
31/12/1903  21:00:00.000030	2.882176E-1	2.629880E-3
31/12/1903  21:00:00.000030	2.882176E-1	1.434480E-3
31/12/1903  21:00:00.000030	2.882176E-1	2.868960E-3
31/12/1903  21:00:00.000030	2.882176E-1	1.673560E-3
31/12/1903  21:00:00.000030	2.882176E-1	1.434480E-3
31/12/1903  21:00:00.000030	2.882176E-1	3.108040E-3
31/12/1903  21:00:00.000031	2.882176E-1	3.347120E-3
31/12/1903  21:00:00.000031	2.882176E-1	1.673560E-3
31/12/1903  21:00:00.000031	2.882176E-1	3.825280E-3
31/12/1903  21:00:00.000031	2.882176E-1	1.434480E-3
31/12/1903  21:00:00.000031	2.882176E-1	3.825280E-3
31/12/1903  21:00:00.000031	2.882176E-1	2.390800E-3
31/12/1903  21:00:00.000031	2.882176E-1	1.912640E-3
31/12/1903  21:00:00.000031	2.882176E-1	3.347120E-3
31/12/1903  21:00:00.000031	2.882176E-1	1.912640E-3
31/12/1903  21:00:00.000032	2.882176E-1	4.064360E-3
31/12/1903  21:00:00.000032	2.882176E-1	3.825280E-3
31/12/1903  21:00:00.000032	2.882176E-1	2.151720E-3
31/12/1903  21:00:00.000032	2.882176E-1	2.390800E-3
31/12/1903  21:00:00.000032	2.882176E-1	4.064360E-3
31/12/1903  21:00:00.000032	2.882176E-1	2.390800E-3
31/12/1903  21:00:00.000032	2.882176E-1	4.781600E-3
31/12/1903  21:00:00.000032	2.882176E-1	2.390800E-3
31/12/1903  21:00:00.000032	2.882176E-1	4.303440E-3
31/12/1903  21:00:00.000033	2.882176E-1	2.868960E-3
31/12/1903  21:00:00.000033	2.882176E-1	4.542520E-3
31/12/1903  21:00:00.000033	2.882176E-1	3.108040E-3
31/12/1903  21:00:00.000033	2.882176E-1	4.542520E-3
31/12/1903  21:00:00.000033	2.882176E-1	3.108040E-3
31/12/1903  21:00:00.000033	2.882176E-1	5.020680E-3
31/12/1903  21:00:00.000033	2.882176E-1	5.259760E-3
31/12/1903  21:00:00.000033	2.882176E-1	2.629880E-3
31/12/1903  21:00:00.000033	2.882176E-1	2.629880E-3
31/12/1903  21:00:00.000034	2.882176E-1	5.737920E-3
31/12/1903  21:00:00.000034	2.882176E-1	3.108040E-3
31/12/1903  21:00:00.000034	2.882176E-1	5.259760E-3
31/12/1903  21:00:00.000034	2.882176E-1	5.259760E-3
31/12/1903  21:00:00.000034	2.882176E-1	3.586200E-3
31/12/1903  21:00:00.000034	2.882176E-1	5.259760E-3
31/12/1903  21:00:00.000034	2.882176E-1	3.586200E-3
31/12/1903  21:00:00.000034	2.882176E-1	3.825280E-3
31/12/1903  21:00:00.000034	2.882176E-1	5.498840E-3
31/12/1903  21:00:00.000035	2.882176E-1	5.498840E-3
31/12/1903  21:00:00.000035	2.882176E-1	4.064360E-3
31/12/1903  21:00:00.000035	2.882176E-1	5.977000E-3
31/12/1903  21:00:00.000035	2.882176E-1	4.064360E-3
31/12/1903  21:00:00.000035	2.882176E-1	4.064360E-3
31/12/1903  21:00:00.000035	2.882176E-1	5.977000E-3
31/12/1903  21:00:00.000035	2.882176E-1	4.303440E-3
31/12/1903  21:00:00.000035	2.882176E-1	5.977000E-3
31/12/1903  21:00:00.000036	2.882176E-1	4.781600E-3
31/12/1903  21:00:00.000036	2.882176E-1	6.216080E-3
31/12/1903  21:00:00.000036	2.882176E-1	4.303440E-3
31/12/1903  21:00:00.000036	2.882176E-1	6.694240E-3
31/12/1903  21:00:00.000036	2.882176E-1	6.216080E-3
31/12/1903  21:00:00.000036	2.882176E-1	4.781600E-3
31/12/1903  21:00:00.000036	2.882176E-1	6.694240E-3
31/12/1903  21:00:00.000036	2.882176E-1	4.542520E-3
31/12/1903  21:00:00.000036	2.882176E-1	4.781600E-3
31/12/1903  21:00:00.000037	2.882176E-1	6.455160E-3
31/12/1903  21:00:00.000037	2.882176E-1	5.020680E-3
31/12/1903  21:00:00.000037	2.882176E-1	6.455160E-3
31/12/1903  21:00:00.000037	2.882176E-1	5.020680E-3
31/12/1903  21:00:00.000037	2.882176E-1	6.694240E-3
31/12/1903  21:00:00.000037	2.882176E-1	4.781600E-3
31/12/1903  21:00:00.000037	2.882176E-1	7.172400E-3
31/12/1903  21:00:00.000037	2.882176E-1	6.694240E-3
31/12/1903  21:00:00.000037	2.882176E-1	5.020680E-3
31/12/1903  21:00:00.000038	2.882176E-1	5.020680E-3
31/12/1903  21:00:00.000038	2.882176E-1	6.933320E-3
31/12/1903  21:00:00.000038	2.882176E-1	7.172400E-3
31/12/1903  21:00:00.000038	2.882176E-1	4.781600E-3
31/12/1903  21:00:00.000038	2.882176E-1	5.020680E-3
31/12/1903  21:00:00.000038	2.882176E-1	7.172400E-3
31/12/1903  21:00:00.000038	2.882176E-1	5.498840E-3
31/12/1903  21:00:00.000038	2.882176E-1	7.172400E-3
31/12/1903  21:00:00.000038	2.882176E-1	6.933320E-3
31/12/1903  21:00:00.000039	2.882176E-1	5.259760E-3
31/12/1903  21:00:00.000039	2.882176E-1	5.259760E-3
31/12/1903  21:00:00.000039	2.882176E-1	7.650560E-3
31/12/1903  21:00:00.000039	2.882176E-1	5.259760E-3
31/12/1903  21:00:00.000039	2.882176E-1	7.172400E-3
31/12/1903  21:00:00.000039	2.882176E-1	5.259760E-3
31/12/1903  21:00:00.000039	2.882176E-1	7.172400E-3
31/12/1903  21:00:00.000039	2.882176E-1	7.411480E-3
31/12/1903  21:00:00.000040	2.882176E-1	5.020680E-3
31/12/1903  21:00:00.000040	2.882176E-1	5.498840E-3
31/12/1903  21:00:00.000040	2.882176E-1	7.172400E-3
31/12/1903  21:00:00.000040	2.882176E-1	5.259760E-3
31/12/1903  21:00:00.000040	2.882176E-1	7.650560E-3
31/12/1903  21:00:00.000040	2.882176E-1	5.498840E-3
31/12/1903  21:00:00.000040	2.882176E-1	6.933320E-3
31/12/1903  21:00:00.000040	2.882176E-1	6.933320E-3
31/12/1903  21:00:00.000040	2.882176E-1	5.498840E-3
31/12/1903  21:00:00.000041	2.882176E-1	5.498840E-3
31/12/1903  21:00:00.000041	2.882176E-1	7.411480E-3
31/12/1903  21:00:00.000041	2.882176E-1	7.172400E-3
31/12/1903  21:00:00.000041	2.882176E-1	5.977000E-3
31/12/1903  21:00:00.000041	2.882176E-1	5.737920E-3
31/12/1903  21:00:00.000041	2.882176E-1	7.172400E-3
31/12/1903  21:00:00.000041	2.882176E-1	5.259760E-3
31/12/1903  21:00:00.000041	2.882176E-1	7.411480E-3
31/12/1903  21:00:00.000041	2.882176E-1	7.411480E-3
31/12/1903  21:00:00.000042	2.882176E-1	5.020680E-3
31/12/1903  21:00:00.000042	2.882176E-1	7.172400E-3
31/12/1903  21:00:00.000042	2.882176E-1	5.259760E-3
31/12/1903  21:00:00.000042	2.882176E-1	5.498840E-3
31/12/1903  21:00:00.000042	2.882176E-1	7.411480E-3
31/12/1903  21:00:00.000042	2.882176E-1	5.498840E-3
31/12/1903  21:00:00.000042	2.882176E-1	6.933320E-3
31/12/1903  21:00:00.000042	2.882176E-1	5.259760E-3
31/12/1903  21:00:00.000042	2.882176E-1	7.650560E-3
31/12/1903  21:00:00.000043	2.882176E-1	7.172400E-3
31/12/1903  21:00:00.000043	2.882176E-1	5.259760E-3
31/12/1903  21:00:00.000043	2.882176E-1	6.933320E-3
31/12/1903  21:00:00.000043	2.882176E-1	5.498840E-3
31/12/1903  21:00:00.000043	2.882176E-1	5.498840E-3
31/12/1903  21:00:00.000043	2.882176E-1	6.933320E-3
31/12/1903  21:00:00.000043	2.882176E-1	7.172400E-3
31/12/1903  21:00:00.000043	2.882176E-1	5.259760E-3
31/12/1903  21:00:00.000044	2.882176E-1	7.411480E-3
31/12/1903  21:00:00.000044	2.882176E-1	5.259760E-3
31/12/1903  21:00:00.000044	2.882176E-1	7.172400E-3
31/12/1903  21:00:00.000044	2.882176E-1	4.781600E-3
31/12/1903  21:00:00.000044	2.882176E-1	6.933320E-3
31/12/1903  21:00:00.000044	2.882176E-1	5.498840E-3
31/12/1903  21:00:00.000044	2.882176E-1	5.259760E-3
31/12/1903  21:00:00.000044	2.882176E-1	6.933320E-3
31/12/1903  21:00:00.000044	2.882176E-1	6.694240E-3
31/12/1903  21:00:00.000045	2.882176E-1	5.498840E-3
31/12/1903  21:00:00.000045	2.882176E-1	5.259760E-3
31/12/1903  21:00:00.000045	2.882176E-1	6.694240E-3
31/12/1903  21:00:00.000045	2.882176E-1	6.933320E-3
31/12/1903  21:00:00.000045	2.882176E-1	5.259760E-3
31/12/1903  21:00:00.000045	2.882176E-1	5.259760E-3
31/12/1903  21:00:00.000045	2.882176E-1	7.172400E-3
31/12/1903  21:00:00.000045	2.882176E-1	6.933320E-3
31/12/1903  21:00:00.000045	2.882176E-1	5.020680E-3
31/12/1903  21:00:00.000046	2.882176E-1	5.259760E-3
31/12/1903  21:00:00.000046	2.882176E-1	6.933320E-3
31/12/1903  21:00:00.000046	2.882176E-1	5.020680E-3
31/12/1903  21:00:00.000046	2.882176E-1	6.933320E-3
31/12/1903  21:00:00.000046	2.882176E-1	5.259760E-3
31/12/1903  21:00:00.000046	2.882176E-1	7.172400E-3
31/12/1903  21:00:00.000046	2.882176E-1	4.781600E-3
31/12/1903  21:00:00.000046	2.882176E-1	6.933320E-3
31/12/1903  21:00:00.000046	2.882176E-1	5.259760E-3
31/12/1903  21:00:00.000047	2.882176E-1	6.933320E-3
31/12/1903  21:00:00.000047	2.882176E-1	6.455160E-3
31/12/1903  21:00:00.000047	2.882176E-1	5.259760E-3
31/12/1903  21:00:00.000047	2.882176E-1	6.933320E-3
31/12/1903  21:00:00.000047	2.882176E-1	4.303440E-3
31/12/1903  21:00:00.000047	2.882176E-1	6.694240E-3
31/12/1903  21:00:00.000047	2.882176E-1	4.781600E-3
31/12/1903  21:00:00.000047	2.882176E-1	5.020680E-3
31/12/1903  21:00:00.000047	2.882176E-1	6.933320E-3
31/12/1903  21:00:00.000048	2.882176E-1	4.542520E-3
31/12/1903  21:00:00.000048	2.882176E-1	7.411480E-3
31/12/1903  21:00:00.000048	2.882176E-1	6.933320E-3
31/12/1903  21:00:00.000048	2.882176E-1	4.303440E-3
31/12/1903  21:00:00.000048	2.882176E-1	6.694240E-3
31/12/1903  21:00:00.000048	2.882176E-1	4.781600E-3
31/12/1903  21:00:00.000048	2.882176E-1	4.781600E-3
31/12/1903  21:00:00.000048	2.882176E-1	6.455160E-3
31/12/1903  21:00:00.000049	2.882176E-1	6.216080E-3
31/12/1903  21:00:00.000049	2.882176E-1	5.020680E-3
31/12/1903  21:00:00.000049	2.882176E-1	6.455160E-3
31/12/1903  21:00:00.000049	2.882176E-1	4.542520E-3
31/12/1903  21:00:00.000049	2.882176E-1	4.542520E-3
31/12/1903  21:00:00.000049	2.882176E-1	6.455160E-3
31/12/1903  21:00:00.000049	2.882176E-1	6.694240E-3
31/12/1903  21:00:00.000049	2.882176E-1	4.303440E-3
31/12/1903  21:00:00.000049	2.882176E-1	6.694240E-3
31/12/1903  21:00:00.000050	2.882176E-1	4.542520E-3
31/12/1903  21:00:00.000050	2.882176E-1	5.020680E-3
31/12/1903  21:00:00.000050	2.882176E-1	6.455160E-3
31/12/1903  21:00:00.000050	2.882176E-1	4.064360E-3
31/12/1903  21:00:00.000050	2.882176E-1	6.694240E-3
31/12/1903  21:00:00.000050	2.882176E-1	6.455160E-3
31/12/1903  21:00:00.000050	2.882176E-1	3.825280E-3
31/12/1903  21:00:00.000050	2.882176E-1	6.933320E-3
31/12/1903  21:00:00.000050	2.882176E-1	4.781600E-3
31/12/1903  21:00:00.000051	2.882176E-1	4.542520E-3
31/12/1903  21:00:00.000051	2.882176E-1	6.694240E-3
31/12/1903  21:00:00.000051	2.882176E-1	6.216080E-3
31/12/1903  21:00:00.000051	2.882176E-1	4.781600E-3
31/12/1903  21:00:00.000051	2.882176E-1	5.977000E-3
31/12/1903  21:00:00.000051	2.882176E-1	4.542520E-3
31/12/1903  21:00:00.000051	2.882176E-1	6.455160E-3
31/12/1903  21:00:00.000051	2.882176E-1	4.303440E-3
31/12/1903  21:00:00.000051	2.882176E-1	4.542520E-3
31/12/1903  21:00:00.000052	2.882176E-1	6.455160E-3
31/12/1903  21:00:00.000052	2.882176E-1	4.542520E-3
31/12/1903  21:00:00.000052	2.882176E-1	6.455160E-3
31/12/1903  21:00:00.000052	2.882176E-1	6.694240E-3
31/12/1903  21:00:00.000052	2.882176E-1	4.064360E-3
31/12/1903  21:00:00.000052	2.882176E-1	6.216080E-3
31/12/1903  21:00:00.000052	2.882176E-1	4.542520E-3
31/12/1903  21:00:00.000052	2.882176E-1	6.216080E-3
31/12/1903  21:00:00.000053	2.882176E-1	4.064360E-3
31/12/1903  21:00:00.000053	2.882176E-1	6.933320E-3
31/12/1903  21:00:00.000053	2.882176E-1	4.303440E-3
31/12/1903  21:00:00.000053	2.882176E-1	5.977000E-3
31/12/1903  21:00:00.000053	2.882176E-1	4.542520E-3
31/12/1903  21:00:00.000053	2.882176E-1	4.542520E-3
31/12/1903  21:00:00.000053	2.882176E-1	6.694240E-3
31/12/1903  21:00:00.000053	2.882176E-1	6.694240E-3
31/12/1903  21:00:00.000053	2.882176E-1	4.542520E-3
31/12/1903  21:00:00.000054	2.882176E-1	4.542520E-3
31/12/1903  21:00:00.000054	2.882176E-1	6.694240E-3
31/12/1903  21:00:00.000054	2.882176E-1	4.542520E-3
31/12/1903  21:00:00.000054	2.882176E-1	6.216080E-3
31/12/1903  21:00:00.000054	2.882176E-1	4.303440E-3
31/12/1903  21:00:00.000054	2.882176E-1	6.455160E-3
31/12/1903  21:00:00.000054	2.882176E-1	6.694240E-3
31/12/1903  21:00:00.000054	2.882176E-1	3.825280E-3
31/12/1903  21:00:00.000054	2.882176E-1	4.303440E-3
31/12/1903  21:00:00.000055	2.882176E-1	6.216080E-3
31/12/1903  21:00:00.000055	2.882176E-1	6.216080E-3
31/12/1903  21:00:00.000055	2.882176E-1	4.542520E-3
31/12/1903  21:00:00.000055	2.882176E-1	5.977000E-3
31/12/1903  21:00:00.000055	2.882176E-1	4.781600E-3
31/12/1903  21:00:00.000055	2.882176E-1	4.781600E-3
31/12/1903  21:00:00.000055	2.882176E-1	6.455160E-3
31/12/1903  21:00:00.000055	2.882176E-1	4.542520E-3
31/12/1903  21:00:00.000055	2.882176E-1	6.216080E-3
31/12/1903  21:00:00.000056	2.882176E-1	6.455160E-3
31/12/1903  21:00:00.000056	2.882176E-1	4.064360E-3
31/12/1903  21:00:00.000056	2.882176E-1	4.542520E-3
31/12/1903  21:00:00.000056	2.882176E-1	6.694240E-3
31/12/1903  21:00:00.000056	2.882176E-1	4.303440E-3
31/12/1903  21:00:00.000056	2.882176E-1	6.216080E-3
31/12/1903  21:00:00.000056	2.882176E-1	4.781600E-3
31/12/1903  21:00:00.000056	2.882176E-1	6.216080E-3
31/12/1903  21:00:00.000057	2.882176E-1	6.216080E-3
31/12/1903  21:00:00.000057	2.882176E-1	4.542520E-3
31/12/1903  21:00:00.000057	2.882176E-1	5.020680E-3
31/12/1903  21:00:00.000057	2.882176E-1	6.455160E-3
31/12/1903  21:00:00.000057	2.882176E-1	6.933320E-3
31/12/1903  21:00:00.000057	2.882176E-1	4.542520E-3
31/12/1903  21:00:00.000057	2.882176E-1	4.303440E-3
31/12/1903  21:00:00.000057	2.882176E-1	6.455160E-3
31/12/1903  21:00:00.000057	2.882176E-1	6.933320E-3
31/12/1903  21:00:00.000058	2.882176E-1	4.542520E-3
31/12/1903  21:00:00.000058	2.882176E-1	6.694240E-3
31/12/1903  21:00:00.000058	2.882176E-1	4.781600E-3
31/12/1903  21:00:00.000058	2.882176E-1	5.020680E-3
31/12/1903  21:00:00.000058	2.882176E-1	6.455160E-3
31/12/1903  21:00:00.000058	2.882176E-1	4.542520E-3
31/12/1903  21:00:00.000058	2.882176E-1	6.694240E-3
31/12/1903  21:00:00.000058	2.882176E-1	4.781600E-3
31/12/1903  21:00:00.000058	2.882176E-1	6.455160E-3
31/12/1903  21:00:00.000059	2.882176E-1	6.455160E-3
31/12/1903  21:00:00.000059	2.882176E-1	4.542520E-3
31/12/1903  21:00:00.000059	2.882176E-1	6.455160E-3
31/12/1903  21:00:00.000059	2.882176E-1	4.781600E-3
31/12/1903  21:00:00.000059	2.882176E-1	4.781600E-3
31/12/1903  21:00:00.000059	2.882176E-1	6.455160E-3
31/12/1903  21:00:00.000059	2.882176E-1	4.781600E-3
31/12/1903  21:00:00.000059	2.882176E-1	6.455160E-3
31/12/1903  21:00:00.000059	2.882176E-1	4.781600E-3
31/12/1903  21:00:00.000060	2.882176E-1	6.455160E-3
31/12/1903  21:00:00.000060	2.882176E-1	4.303440E-3
31/12/1903  21:00:00.000060	2.882176E-1	6.455160E-3
31/12/1903  21:00:00.000060	2.882176E-1	6.933320E-3
31/12/1903  21:00:00.000060	2.882176E-1	4.781600E-3
31/12/1903  21:00:00.000060	2.882176E-1	5.020680E-3
31/12/1903  21:00:00.000060	2.882176E-1	6.455160E-3
31/12/1903  21:00:00.000060	2.882176E-1	4.781600E-3
31/12/1903  21:00:00.000060	2.882176E-1	6.455160E-3
31/12/1903  21:00:00.000061	2.882176E-1	4.781600E-3
31/12/1903  21:00:00.000061	2.882176E-1	6.694240E-3
31/12/1903  21:00:00.000061	2.882176E-1	5.977000E-3
31/12/1903  21:00:00.000061	2.882176E-1	5.020680E-3
31/12/1903  21:00:00.000061	2.882176E-1	6.455160E-3
31/12/1903  21:00:00.000061	2.882176E-1	5.020680E-3
31/12/1903  21:00:00.000061	2.882176E-1	6.694240E-3
31/12/1903  21:00:00.000061	2.882176E-1	4.781600E-3
31/12/1903  21:00:00.000062	2.882176E-1	6.216080E-3
31/12/1903  21:00:00.000062	2.882176E-1	4.542520E-3
31/12/1903  21:00:00.000062	2.882176E-1	6.694240E-3
31/12/1903  21:00:00.000062	2.882176E-1	4.781600E-3
31/12/1903  21:00:00.000062	2.882176E-1	4.781600E-3
31/12/1903  21:00:00.000062	2.882176E-1	6.694240E-3
31/12/1903  21:00:00.000062	2.882176E-1	6.694240E-3
31/12/1903  21:00:00.000062	2.882176E-1	4.781600E-3
31/12/1903  21:00:00.000062	2.882176E-1	4.781600E-3
31/12/1903  21:00:00.000063	2.882176E-1	6.455160E-3
31/12/1903  21:00:00.000063	2.882176E-1	6.694240E-3
31/12/1903  21:00:00.000063	2.882176E-1	4.542520E-3
31/12/1903  21:00:00.000063	2.882176E-1	5.020680E-3
31/12/1903  21:00:00.000063	2.882176E-1	6.694240E-3
31/12/1903  21:00:00.000063	2.882176E-1	6.455160E-3
31/12/1903  21:00:00.000063	2.882176E-1	5.259760E-3
31/12/1903  21:00:00.000063	2.882176E-1	6.933320E-3
31/12/1903  21:00:00.000063	2.882176E-1	4.781600E-3
31/12/1903  21:00:00.000064	2.882176E-1	4.781600E-3
31/12/1903  21:00:00.000064	2.882176E-1	6.933320E-3
31/12/1903  21:00:00.000064	2.882176E-1	6.694240E-3
31/12/1903  21:00:00.000064	2.882176E-1	4.542520E-3
31/12/1903  21:00:00.000064	2.882176E-1	6.694240E-3
31/12/1903  21:00:00.000064	2.882176E-1	4.781600E-3
31/12/1903  21:00:00.000064	2.882176E-1	4.781600E-3
31/12/1903  21:00:00.000064	2.882176E-1	6.933320E-3
31/12/1903  21:00:00.000064	2.882176E-1	5.020680E-3
31/12/1903  21:00:00.000065	2.882176E-1	6.694240E-3
31/12/1903  21:00:00.000065	2.882176E-1	4.781600E-3
31/12/1903  21:00:00.000065	2.882176E-1	6.933320E-3
31/12/1903  21:00:00.000065	2.882176E-1	6.694240E-3
31/12/1903  21:00:00.000065	2.882176E-1	4.064360E-3
31/12/1903  21:00:00.000065	2.882176E-1	6.455160E-3
31/12/1903  21:00:00.000065	2.882176E-1	5.020680E-3
31/12/1903  21:00:00.000065	2.882176E-1	6.455160E-3
31/12/1903  21:00:00.000066	2.882176E-1	4.781600E-3
31/12/1903  21:00:00.000066	2.882176E-1	7.172400E-3
31/12/1903  21:00:00.000066	2.882176E-1	4.781600E-3
31/12/1903  21:00:00.000066	2.882176E-1	5.020680E-3
31/12/1903  21:00:00.000066	2.882176E-1	6.216080E-3
31/12/1903  21:00:00.000066	2.882176E-1	4.781600E-3
31/12/1903  21:00:00.000066	2.882176E-1	6.455160E-3
31/12/1903  21:00:00.000066	2.882176E-1	6.694240E-3
31/12/1903  21:00:00.000066	2.882176E-1	5.020680E-3
31/12/1903  21:00:00.000067	2.882176E-1	4.781600E-3
31/12/1903  21:00:00.000067	2.882176E-1	6.694240E-3
31/12/1903  21:00:00.000067	2.882176E-1	6.933320E-3
31/12/1903  21:00:00.000067	2.882176E-1	4.303440E-3
31/12/1903  21:00:00.000067	2.882176E-1	6.694240E-3
31/12/1903  21:00:00.000067	2.882176E-1	5.020680E-3
31/12/1903  21:00:00.000067	2.882176E-1	6.694240E-3
31/12/1903  21:00:00.000067	2.882176E-1	5.020680E-3
31/12/1903  21:00:00.000067	2.882176E-1	4.303440E-3
31/12/1903  21:00:00.000068	2.882176E-1	6.933320E-3
31/12/1903  21:00:00.000068	2.882176E-1	4.542520E-3
31/12/1903  21:00:00.000068	2.882176E-1	6.694240E-3
31/12/1903  21:00:00.000068	2.882176E-1	6.455160E-3
31/12/1903  21:00:00.000068	2.882176E-1	4.781600E-3
31/12/1903  21:00:00.000068	2.882176E-1	4.781600E-3
31/12/1903  21:00:00.000068	2.882176E-1	6.933320E-3
31/12/1903  21:00:00.000068	2.882176E-1	6.455160E-3
31/12/1903  21:00:00.000068	2.882176E-1	5.020680E-3
31/12/1903  21:00:00.000069	2.882176E-1	6.933320E-3
31/12/1903  21:00:00.000069	2.882176E-1	4.542520E-3
31/12/1903  21:00:00.000069	2.882176E-1	4.542520E-3
31/12/1903  21:00:00.000069	2.882176E-1	6.694240E-3
31/12/1903  21:00:00.000069	2.882176E-1	4.542520E-3
31/12/1903  21:00:00.000069	2.882176E-1	6.455160E-3
31/12/1903  21:00:00.000069	2.882176E-1	6.455160E-3
31/12/1903  21:00:00.000069	2.882176E-1	4.542520E-3
31/12/1903  21:00:00.000069	2.882176E-1	3.825280E-3
31/12/1903  21:00:00.000070	2.882176E-1	7.172400E-3
31/12/1903  21:00:00.000070	2.882176E-1	5.020680E-3
31/12/1903  21:00:00.000070	2.882176E-1	6.694240E-3
31/12/1903  21:00:00.000070	2.882176E-1	4.542520E-3
31/12/1903  21:00:00.000070	2.882176E-1	6.455160E-3
31/12/1903  21:00:00.000070	2.882176E-1	6.694240E-3
31/12/1903  21:00:00.000070	2.882176E-1	4.781600E-3
31/12/1903  21:00:00.000070	2.882176E-1	4.542520E-3
31/12/1903  21:00:00.000071	2.882176E-1	6.216080E-3
31/12/1903  21:00:00.000071	2.882176E-1	5.020680E-3
31/12/1903  21:00:00.000071	2.882176E-1	6.455160E-3
31/12/1903  21:00:00.000071	2.882176E-1	5.020680E-3
31/12/1903  21:00:00.000071	2.882176E-1	6.694240E-3
31/12/1903  21:00:00.000071	2.882176E-1	5.259760E-3
31/12/1903  21:00:00.000071	2.882176E-1	6.694240E-3
31/12/1903  21:00:00.000071	2.882176E-1	4.542520E-3
31/12/1903  21:00:00.000071	2.882176E-1	6.694240E-3
31/12/1903  21:00:00.000072	2.882176E-1	6.455160E-3
31/12/1903  21:00:00.000072	2.882176E-1	4.781600E-3
31/12/1903  21:00:00.000072	2.882176E-1	6.216080E-3
31/12/1903  21:00:00.000072	2.882176E-1	4.781600E-3
31/12/1903  21:00:00.000072	2.882176E-1	6.455160E-3
31/12/1903  21:00:00.000072	2.882176E-1	5.020680E-3
31/12/1903  21:00:00.000072	2.882176E-1	5.020680E-3
31/12/1903  21:00:00.000072	2.882176E-1	6.694240E-3
31/12/1903  21:00:00.000072	2.882176E-1	6.455160E-3
31/12/1903  21:00:00.000073	2.882176E-1	4.781600E-3
31/12/1903  21:00:00.000073	2.882176E-1	4.781600E-3
31/12/1903  21:00:00.000073	2.882176E-1	6.933320E-3
31/12/1903  21:00:00.000073	2.882176E-1	4.542520E-3
31/12/1903  21:00:00.000073	2.882176E-1	6.933320E-3
31/12/1903  21:00:00.000073	2.882176E-1	4.781600E-3
31/12/1903  21:00:00.000073	2.882176E-1	6.694240E-3
31/12/1903  21:00:00.000073	2.882176E-1	6.455160E-3
31/12/1903  21:00:00.000073	2.882176E-1	4.542520E-3
31/12/1903  21:00:00.000074	2.882176E-1	5.020680E-3
31/12/1903  21:00:00.000074	2.882176E-1	6.455160E-3
31/12/1903  21:00:00.000074	2.882176E-1	7.172400E-3
31/12/1903  21:00:00.000074	2.882176E-1	4.542520E-3
31/12/1903  21:00:00.000074	2.882176E-1	6.933320E-3
31/12/1903  21:00:00.000074	2.882176E-1	5.020680E-3
31/12/1903  21:00:00.000074	2.882176E-1	4.781600E-3
31/12/1903  21:00:00.000074	2.882176E-1	6.933320E-3
31/12/1903  21:00:00.000075	2.882176E-1	6.694240E-3
31/12/1903  21:00:00.000075	2.882176E-1	4.781600E-3
31/12/1903  21:00:00.000075	2.882176E-1	6.933320E-3
31/12/1903  21:00:00.000075	2.882176E-1	4.781600E-3
31/12/1903  21:00:00.000075	2.882176E-1	6.455160E-3
31/12/1903  21:00:00.000075	2.882176E-1	5.020680E-3
31/12/1903  21:00:00.000075	2.882176E-1	4.781600E-3
31/12/1903  21:00:00.000075	2.882176E-1	6.694240E-3
31/12/1903  21:00:00.000075	2.882176E-1	4.781600E-3
31/12/1903  21:00:00.000076	2.882176E-1	6.455160E-3
31/12/1903  21:00:00.000076	2.882176E-1	6.455160E-3
31/12/1903  21:00:00.000076	2.882176E-1	4.781600E-3
31/12/1903  21:00:00.000076	2.882176E-1	5.020680E-3
31/12/1903  21:00:00.000076	2.882176E-1	6.216080E-3
31/12/1903  21:00:00.000076	2.882176E-1	5.020680E-3
31/12/1903  21:00:00.000076	2.882176E-1	6.455160E-3
31/12/1903  21:00:00.000076	2.882176E-1	6.694240E-3
31/12/1903  21:00:00.000076	2.882176E-1	4.781600E-3
31/12/1903  21:00:00.000077	2.882176E-1	4.781600E-3
31/12/1903  21:00:00.000077	2.882176E-1	6.694240E-3
31/12/1903  21:00:00.000077	2.882176E-1	5.020680E-3
31/12/1903  21:00:00.000077	2.882176E-1	6.694240E-3
31/12/1903  21:00:00.000077	2.882176E-1	5.020680E-3
31/12/1903  21:00:00.000077	2.882176E-1	6.694240E-3
31/12/1903  21:00:00.000077	2.882176E-1	6.694240E-3
31/12/1903  21:00:00.000077	2.882176E-1	4.781600E-3
31/12/1903  21:00:00.000077	2.882176E-1	5.259760E-3
31/12/1903  21:00:00.000078	2.882176E-1	6.455160E-3
31/12/1903  21:00:00.000078	2.882176E-1	6.455160E-3
31/12/1903  21:00:00.000078	2.882176E-1	4.781600E-3
31/12/1903  21:00:00.000078	2.882176E-1	5.020680E-3
31/12/1903  21:00:00.000078	2.882176E-1	6.455160E-3
31/12/1903  21:00:00.000078	2.882176E-1	4.781600E-3
31/12/1903  21:00:00.000078	2.882176E-1	6.694240E-3
31/12/1903  21:00:00.000078	2.882176E-1	6.455160E-3
31/12/1903  21:00:00.000079	2.882176E-1	4.781600E-3
31/12/1903  21:00:00.000079	2.882176E-1	6.455160E-3
31/12/1903  21:00:00.000079	2.882176E-1	5.020680E-3
31/12/1903  21:00:00.000079	2.882176E-1	6.455160E-3
31/12/1903  21:00:00.000079	2.882176E-1	4.781600E-3
31/12/1903  21:00:00.000079	2.882176E-1	5.020680E-3
31/12/1903  21:00:00.000079	2.882176E-1	6.694240E-3
31/12/1903  21:00:00.000079	2.882176E-1	4.781600E-3
31/12/1903  21:00:00.000079	2.882176E-1	6.933320E-3
31/12/1903  21:00:00.000080	2.882176E-1	7.172400E-3
31/12/1903  21:00:00.000080	2.882176E-1	4.781600E-3
31/12/1903  21:00:00.000080	2.882176E-1	5.020680E-3
31/12/1903  21:00:00.000080	2.882176E-1	6.694240E-3
31/12/1903  21:00:00.000080	2.882176E-1	5.020680E-3
31/12/1903  21:00:00.000080	2.882176E-1	6.216080E-3
31/12/1903  21:00:00.000080	2.882176E-1	4.781600E-3
31/12/1903  21:00:00.000080	2.882176E-1	6.455160E-3
31/12/1903  21:00:00.000080	2.882176E-1	5.020680E-3
31/12/1903  21:00:00.000081	2.882176E-1	6.216080E-3
31/12/1903  21:00:00.000081	2.882176E-1	5.020680E-3
31/12/1903  21:00:00.000081	2.882176E-1	6.694240E-3
31/12/1903  21:00:00.000081	2.882176E-1	6.216080E-3
31/12/1903  21:00:00.000081	2.882176E-1	5.020680E-3
31/12/1903  21:00:00.000081	2.882176E-1	5.020680E-3
31/12/1903  21:00:00.000081	2.882176E-1	6.694240E-3
31/12/1903  21:00:00.000081	2.882176E-1	4.781600E-3
31/12/1903  21:00:00.000081	2.882176E-1	6.933320E-3
31/12/1903  21:00:00.000082	2.882176E-1	6.694240E-3
31/12/1903  21:00:00.000082	2.882176E-1	5.020680E-3
31/12/1903  21:00:00.000082	2.882176E-1	5.020680E-3
31/12/1903  21:00:00.000082	2.882176E-1	6.694240E-3
31/12/1903  21:00:00.000082	2.882176E-1	4.781600E-3
31/12/1903  21:00:00.000082	2.882176E-1	6.455160E-3
31/12/1903  21:00:00.000082	2.882176E-1	5.259760E-3
31/12/1903  21:00:00.000082	2.882176E-1	6.694240E-3
31/12/1903  21:00:00.000082	2.882176E-1	5.259760E-3
31/12/1903  21:00:00.000083	2.882176E-1	6.933320E-3
31/12/1903  21:00:00.000083	2.882176E-1	5.020680E-3
31/12/1903  21:00:00.000083	2.882176E-1	6.455160E-3
31/12/1903  21:00:00.000083	2.882176E-1	6.933320E-3
31/12/1903  21:00:00.000083	2.882176E-1	4.542520E-3
31/12/1903  21:00:00.000083	2.882176E-1	6.455160E-3
31/12/1903  21:00:00.000083	2.882176E-1	5.020680E-3
31/12/1903  21:00:00.000083	2.882176E-1	4.303440E-3
31/12/1903  21:00:00.000084	2.882176E-1	6.694240E-3
31/12/1903  21:00:00.000084	2.882176E-1	6.455160E-3
31/12/1903  21:00:00.000084	2.882176E-1	4.781600E-3
31/12/1903  21:00:00.000084	2.882176E-1	5.259760E-3
31/12/1903  21:00:00.000084	2.882176E-1	6.455160E-3
31/12/1903  21:00:00.000084	2.882176E-1	6.694240E-3
31/12/1903  21:00:00.000084	2.882176E-1	5.020680E-3
31/12/1903  21:00:00.000084	2.882176E-1	4.781600E-3
31/12/1903  21:00:00.000084	2.882176E-1	6.694240E-3
31/12/1903  21:00:00.000085	2.882176E-1	4.781600E-3
31/12/1903  21:00:00.000085	2.882176E-1	6.694240E-3
31/12/1903  21:00:00.000085	2.882176E-1	4.542520E-3
31/12/1903  21:00:00.000085	2.882176E-1	6.694240E-3
31/12/1903  21:00:00.000085	2.882176E-1	4.781600E-3
31/12/1903  21:00:00.000085	2.882176E-1	6.933320E-3
31/12/1903  21:00:00.000085	2.882176E-1	6.455160E-3
31/12/1903  21:00:00.000085	2.882176E-1	4.781600E-3
31/12/1903  21:00:00.000085	2.882176E-1	6.694240E-3
31/12/1903  21:00:00.000086	2.882176E-1	4.781600E-3
31/12/1903  21:00:00.000086	2.882176E-1	4.781600E-3
31/12/1903  21:00:00.000086	2.882176E-1	6.694240E-3
31/12/1903  21:00:00.000086	2.882176E-1	6.455160E-3
31/12/1903  21:00:00.000086	2.882176E-1	4.781600E-3
31/12/1903  21:00:00.000086	2.882176E-1	4.781600E-3
31/12/1903  21:00:00.000086	2.882176E-1	6.694240E-3
31/12/1903  21:00:00.000086	2.882176E-1	6.455160E-3
31/12/1903  21:00:00.000086	2.882176E-1	4.303440E-3
31/12/1903  21:00:00.000087	2.882176E-1	4.781600E-3
31/12/1903  21:00:00.000087	2.882176E-1	6.933320E-3
31/12/1903  21:00:00.000087	2.882176E-1	4.781600E-3
31/12/1903  21:00:00.000087	2.882176E-1	6.694240E-3
31/12/1903  21:00:00.000087	2.882176E-1	6.933320E-3
31/12/1903  21:00:00.000087	2.914928E-1	4.781600E-3
31/12/1903  21:00:00.000087	2.882176E-1	6.933320E-3
31/12/1903  21:00:00.000087	2.882176E-1	5.020680E-3
31/12/1903  21:00:00.000088	2.882176E-1	6.933320E-3
31/12/1903  21:00:00.000088	2.882176E-1	4.781600E-3
31/12/1903  21:00:00.000088	2.882176E-1	4.542520E-3
31/12/1903  21:00:00.000088	2.882176E-1	6.455160E-3
31/12/1903  21:00:00.000088	2.882176E-1	4.781600E-3
31/12/1903  21:00:00.000088	2.882176E-1	6.933320E-3
31/12/1903  21:00:00.000088	2.882176E-1	5.020680E-3
31/12/1903  21:00:00.000088	2.882176E-1	6.694240E-3
31/12/1903  21:00:00.000088	2.882176E-1	6.216080E-3
31/12/1903  21:00:00.000089	2.882176E-1	4.781600E-3
31/12/1903  21:00:00.000089	2.882176E-1	5.020680E-3
31/12/1903  21:00:00.000089	2.914928E-1	6.694240E-3
31/12/1903  21:00:00.000089	2.882176E-1	6.455160E-3
31/12/1903  21:00:00.000089	2.882176E-1	4.781600E-3
31/12/1903  21:00:00.000089	2.882176E-1	7.172400E-3
31/12/1903  21:00:00.000089	2.882176E-1	5.020680E-3
31/12/1903  21:00:00.000089	2.882176E-1	4.542520E-3
31/12/1903  21:00:00.000089	2.882176E-1	6.694240E-3
31/12/1903  21:00:00.000090	2.882176E-1	6.455160E-3
31/12/1903  21:00:00.000090	2.882176E-1	4.781600E-3
31/12/1903  21:00:00.000090	2.882176E-1	5.259760E-3
31/12/1903  21:00:00.000090	2.882176E-1	6.694240E-3
31/12/1903  21:00:00.000090	2.882176E-1	6.694240E-3
31/12/1903  21:00:00.000090	2.882176E-1	5.020680E-3
31/12/1903  21:00:00.000090	2.882176E-1	6.694240E-3
31/12/1903  21:00:00.000090	2.882176E-1	5.020680E-3
31/12/1903  21:00:00.000090	2.882176E-1	4.781600E-3
31/12/1903  21:00:00.000091	2.882176E-1	6.933320E-3
31/12/1903  21:00:00.000091	2.882176E-1	5.020680E-3
31/12/1903  21:00:00.000091	2.882176E-1	6.694240E-3
31/12/1903  21:00:00.000091	2.882176E-1	5.020680E-3
31/12/1903  21:00:00.000091	2.882176E-1	6.694240E-3
31/12/1903  21:00:00.000091	2.882176E-1	6.455160E-3
31/12/1903  21:00:00.000091	2.882176E-1	5.020680E-3
31/12/1903  21:00:00.000091	2.882176E-1	6.933320E-3
31/12/1903  21:00:00.000091	2.882176E-1	5.020680E-3
31/12/1903  21:00:00.000092	2.882176E-1	4.781600E-3
31/12/1903  21:00:00.000092	2.882176E-1	6.933320E-3
31/12/1903  21:00:00.000092	2.882176E-1	4.781600E-3
31/12/1903  21:00:00.000092	2.882176E-1	6.694240E-3
31/12/1903  21:00:00.000092	2.882176E-1	5.259760E-3
31/12/1903  21:00:00.000092	2.882176E-1	6.933320E-3
31/12/1903  21:00:00.000092	2.882176E-1	5.020680E-3
31/12/1903  21:00:00.000092	2.882176E-1	6.694240E-3
31/12/1903  21:00:00.000093	2.882176E-1	6.694240E-3
31/12/1903  21:00:00.000093	2.882176E-1	4.781600E-3
31/12/1903  21:00:00.000093	2.882176E-1	7.172400E-3
31/12/1903  21:00:00.000093	2.882176E-1	5.020680E-3
31/12/1903  21:00:00.000093	2.882176E-1	5.020680E-3
31/12/1903  21:00:00.000093	2.882176E-1	6.933320E-3
31/12/1903  21:00:00.000093	2.882176E-1	5.020680E-3
31/12/1903  21:00:00.000093	2.882176E-1	6.694240E-3
31/12/1903  21:00:00.000093	2.882176E-1	6.933320E-3
31/12/1903  21:00:00.000094	2.882176E-1	5.020680E-3
31/12/1903  21:00:00.000094	2.882176E-1	6.455160E-3
31/12/1903  21:00:00.000094	2.882176E-1	4.542520E-3
31/12/1903  21:00:00.000094	2.882176E-1	5.020680E-3
31/12/1903  21:00:00.000094	2.882176E-1	6.455160E-3
31/12/1903  21:00:00.000094	2.882176E-1	5.020680E-3
31/12/1903  21:00:00.000094	2.882176E-1	7.172400E-3
31/12/1903  21:00:00.000094	2.882176E-1	6.933320E-3
31/12/1903  21:00:00.000094	2.882176E-1	4.781600E-3
31/12/1903  21:00:00.000095	2.882176E-1	5.020680E-3
31/12/1903  21:00:00.000095	2.882176E-1	6.933320E-3
31/12/1903  21:00:00.000095	2.882176E-1	5.259760E-3
31/12/1903  21:00:00.000095	2.882176E-1	6.933320E-3
31/12/1903  21:00:00.000095	2.882176E-1	5.498840E-3
31/12/1903  21:00:00.000095	2.914928E-1	6.694240E-3
31/12/1903  21:00:00.000095	2.882176E-1	4.781600E-3
31/12/1903  21:00:00.000095	2.914928E-1	6.933320E-3
31/12/1903  21:00:00.000095	2.882176E-1	5.020680E-3
31/12/1903  21:00:00.000096	2.882176E-1	6.933320E-3
31/12/1903  21:00:00.000096	2.882176E-1	4.781600E-3
31/12/1903  21:00:00.000096	2.882176E-1	7.172400E-3
31/12/1903  21:00:00.000096	2.882176E-1	6.933320E-3
31/12/1903  21:00:00.000096	2.882176E-1	5.020680E-3
31/12/1903  21:00:00.000096	2.882176E-1	5.498840E-3
31/12/1903  21:00:00.000096	2.882176E-1	7.172400E-3
31/12/1903  21:00:00.000096	2.882176E-1	6.694240E-3
31/12/1903  21:00:00.000097	2.882176E-1	4.542520E-3
31/12/1903  21:00:00.000097	2.882176E-1	6.933320E-3
31/12/1903  21:00:00.000097	2.882176E-1	4.781600E-3
31/12/1903  21:00:00.000097	2.882176E-1	5.020680E-3
31/12/1903  21:00:00.000097	2.882176E-1	6.933320E-3
31/12/1903  21:00:00.000097	2.882176E-1	6.694240E-3
31/12/1903  21:00:00.000097	2.882176E-1	5.259760E-3
31/12/1903  21:00:00.000097	2.882176E-1	5.020680E-3
31/12/1903  21:00:00.000097	2.882176E-1	6.933320E-3
31/12/1903  21:00:00.000098	2.882176E-1	6.694240E-3
31/12/1903  21:00:00.000098	2.882176E-1	5.259760E-3
31/12/1903  21:00:00.000098	2.882176E-1	7.411480E-3
31/12/1903  21:00:00.000098	2.914928E-1	4.542520E-3
31/12/1903  21:00:00.000098	2.882176E-1	6.455160E-3
31/12/1903  21:00:00.000098	2.882176E-1	5.020680E-3
31/12/1903  21:00:00.000098	2.882176E-1	7.172400E-3
31/12/1903  21:00:00.000098	2.882176E-1	5.020680E-3
31/12/1903  21:00:00.000098	2.882176E-1	5.498840E-3
31/12/1903  21:00:00.000099	2.882176E-1	6.933320E-3
31/12/1903  21:00:00.000099	2.882176E-1	4.781600E-3
31/12/1903  21:00:00.000099	2.882176E-1	6.694240E-3
31/12/1903  21:00:00.000099	2.882176E-1	5.020680E-3
31/12/1903  21:00:00.000099	2.914928E-1	6.933320E-3
31/12/1903  21:00:00.000099	2.882176E-1	7.172400E-3
31/12/1903  21:00:00.000099	2.882176E-1	4.781600E-3
31/12/1903  21:00:00.000099	2.882176E-1	6.933320E-3
31/12/1903  21:00:00.000099	2.882176E-1	5.259760E-3
31/12/1903  21:00:00.000100	2.882176E-1	5.259760E-3
31/12/1903  21:00:00.000100	2.882176E-1	6.694240E-3
31/12/1903  21:00:00.000100	2.882176E-1	4.542520E-3
31/12/1903  21:00:00.000100	2.882176E-1	6.455160E-3
31/12/1903  21:00:00.000100	2.882176E-1	6.933320E-3
31/12/1903  21:00:00.000100	2.882176E-1	5.259760E-3
31/12/1903  21:00:00.000100	2.882176E-1	6.933320E-3
31/12/1903  21:00:00.000100	2.882176E-1	4.781600E-3
31/12/1903  21:00:00.000101	2.882176E-1	4.781600E-3
31/12/1903  21:00:00.000101	2.914928E-1	7.411480E-3
31/12/1903  21:00:00.000101	2.882176E-1	6.933320E-3
31/12/1903  21:00:00.000101	2.882176E-1	4.781600E-3
31/12/1903  21:00:00.000101	2.882176E-1	6.694240E-3
31/12/1903  21:00:00.000101	2.882176E-1	4.781600E-3
31/12/1903  21:00:00.000101	2.882176E-1	5.020680E-3
31/12/1903  21:00:00.000101	2.882176E-1	6.694240E-3
31/12/1903  21:00:00.000101	2.882176E-1	6.694240E-3
31/12/1903  21:00:00.000102	2.882176E-1	5.020680E-3
31/12/1903  21:00:00.000102	2.882176E-1	5.020680E-3
31/12/1903  21:00:00.000102	2.882176E-1	6.933320E-3
31/12/1903  21:00:00.000102	2.882176E-1	5.020680E-3
31/12/1903  21:00:00.000102	2.882176E-1	6.933320E-3
31/12/1903  21:00:00.000102	2.882176E-1	5.259760E-3
31/12/1903  21:00:00.000102	2.882176E-1	6.694240E-3
31/12/1903  21:00:00.000102	2.882176E-1	4.781600E-3
31/12/1903  21:00:00.000102	2.882176E-1	6.933320E-3
31/12/1903  21:00:00.000103	2.882176E-1	4.781600E-3
31/12/1903  21:00:00.000103	2.882176E-1	6.694240E-3
31/12/1903  21:00:00.000103	2.882176E-1	6.694240E-3
31/12/1903  21:00:00.000103	2.882176E-1	5.259760E-3
31/12/1903  21:00:00.000103	2.882176E-1	5.020680E-3
31/12/1903  21:00:00.000103	2.882176E-1	6.933320E-3
31/12/1903  21:00:00.000103	2.882176E-1	5.020680E-3
31/12/1903  21:00:00.000103	2.882176E-1	7.411480E-3
31/12/1903  21:00:00.000103	2.882176E-1	5.259760E-3
31/12/1903  21:00:00.000104	2.882176E-1	6.933320E-3
31/12/1903  21:00:00.000104	2.882176E-1	6.455160E-3
31/12/1903  21:00:00.000104	2.882176E-1	5.020680E-3
31/12/1903  21:00:00.000104	2.882176E-1	5.020680E-3
31/12/1903  21:00:00.000104	2.882176E-1	6.933320E-3
31/12/1903  21:00:00.000104	2.882176E-1	5.020680E-3
31/12/1903  21:00:00.000104	2.914928E-1	6.933320E-3
31/12/1903  21:00:00.000104	2.882176E-1	5.259760E-3
31/12/1903  21:00:00.000104	2.882176E-1	6.933320E-3
31/12/1903  21:00:00.000105	2.882176E-1	6.933320E-3
31/12/1903  21:00:00.000105	2.882176E-1	5.020680E-3
31/12/1903  21:00:00.000105	2.882176E-1	6.694240E-3
31/12/1903  21:00:00.000105	2.882176E-1	5.020680E-3
31/12/1903  21:00:00.000105	2.882176E-1	5.259760E-3
31/12/1903  21:00:00.000105	2.882176E-1	6.694240E-3
31/12/1903  21:00:00.000105	2.882176E-1	4.781600E-3
31/12/1903  21:00:00.000105	2.882176E-1	7.172400E-3
31/12/1903  21:00:00.000106	2.882176E-1	6.933320E-3
31/12/1903  21:00:00.000106	2.882176E-1	5.259760E-3
31/12/1903  21:00:00.000106	2.882176E-1	4.781600E-3
31/12/1903  21:00:00.000106	2.882176E-1	7.172400E-3
31/12/1903  21:00:00.000106	2.882176E-1	6.694240E-3
31/12/1903  21:00:00.000106	2.882176E-1	5.259760E-3
31/12/1903  21:00:00.000106	2.882176E-1	5.259760E-3
31/12/1903  21:00:00.000106	2.882176E-1	6.694240E-3
31/12/1903  21:00:00.000106	2.882176E-1	5.020680E-3
31/12/1903  21:00:00.000107	2.882176E-1	6.694240E-3
31/12/1903  21:00:00.000107	2.882176E-1	6.455160E-3
31/12/1903  21:00:00.000107	2.882176E-1	5.020680E-3
31/12/1903  21:00:00.000107	2.882176E-1	6.933320E-3
31/12/1903  21:00:00.000107	2.882176E-1	5.259760E-3
31/12/1903  21:00:00.000107	2.882176E-1	6.694240E-3
31/12/1903  21:00:00.000107	2.882176E-1	5.020680E-3
31/12/1903  21:00:00.000107	2.882176E-1	6.933320E-3
31/12/1903  21:00:00.000107	2.882176E-1	5.020680E-3
31/12/1903  21:00:00.000108	2.882176E-1	6.933320E-3
31/12/1903  21:00:00.000108	2.882176E-1	5.020680E-3
31/12/1903  21:00:00.000108	2.882176E-1	5.259760E-3
31/12/1903  21:00:00.000108	2.882176E-1	6.694240E-3
31/12/1903  21:00:00.000108	2.882176E-1	6.933320E-3
31/12/1903  21:00:00.000108	2.882176E-1	5.259760E-3
31/12/1903  21:00:00.000108	2.882176E-1	5.259760E-3
31/12/1903  21:00:00.000108	2.882176E-1	6.694240E-3
31/12/1903  21:00:00.000108	2.882176E-1	4.542520E-3
31/12/1903  21:00:00.000109	2.914928E-1	6.933320E-3
31/12/1903  21:00:00.000109	2.882176E-1	5.259760E-3
31/12/1903  21:00:00.000109	2.882176E-1	6.933320E-3
31/12/1903  21:00:00.000109	2.882176E-1	5.259760E-3
31/12/1903  21:00:00.000109	2.882176E-1	7.411480E-3
31/12/1903  21:00:00.000109	2.882176E-1	6.694240E-3
31/12/1903  21:00:00.000109	2.914928E-1	5.259760E-3
31/12/1903  21:00:00.000109	2.882176E-1	6.933320E-3
31/12/1903  21:00:00.000110	2.882176E-1	5.259760E-3
31/12/1903  21:00:00.000110	2.882176E-1	5.259760E-3
31/12/1903  21:00:00.000110	2.882176E-1	6.455160E-3
31/12/1903  21:00:00.000110	2.882176E-1	6.694240E-3
31/12/1903  21:00:00.000110	2.882176E-1	4.542520E-3
31/12/1903  21:00:00.000110	2.882176E-1	6.694240E-3
31/12/1903  21:00:00.000110	2.882176E-1	5.259760E-3
31/12/1903  21:00:00.000110	2.882176E-1	5.020680E-3
31/12/1903  21:00:00.000110	2.882176E-1	6.694240E-3
31/12/1903  21:00:00.000111	2.882176E-1	6.455160E-3
31/12/1903  21:00:00.000111	2.882176E-1	5.259760E-3
31/12/1903  21:00:00.000111	2.882176E-1	6.694240E-3
31/12/1903  21:00:00.000111	2.914928E-1	5.020680E-3
31/12/1903  21:00:00.000111	2.882176E-1	6.455160E-3
31/12/1903  21:00:00.000111	-2.751168E-1	-2.629880E-3
31/12/1903  21:00:00.000111	-2.751168E-1	-2.629880E-3
31/12/1903  21:00:00.000111	-2.882176E-1	-9.563200E-3
31/12/1903  21:00:00.000111	-2.882176E-1	-9.563200E-3
31/12/1903  21:00:00.000112	-2.914928E-1	-9.085040E-3
31/12/1903  21:00:00.000112	-2.914928E-1	-9.563200E-3
31/12/1903  21:00:00.000112	-2.947680E-1	-9.563200E-3
31/12/1903  21:00:00.000112	-2.947680E-1	-9.563200E-3
31/12/1903  21:00:00.000112	-2.980432E-1	-9.563200E-3
31/12/1903  21:00:00.000112	-2.980432E-1	-9.563200E-3
31/12/1903  21:00:00.000112	-3.013184E-1	-9.563200E-3
31/12/1903  21:00:00.000112	-3.013184E-1	-9.563200E-3
31/12/1903  21:00:00.000112	-3.045936E-1	-9.563200E-3
31/12/1903  21:00:00.000113	-3.045936E-1	-9.563200E-3
31/12/1903  21:00:00.000113	-3.045936E-1	-9.563200E-3
31/12/1903  21:00:00.000113	-3.045936E-1	-9.563200E-3
31/12/1903  21:00:00.000113	-3.078688E-1	-9.563200E-3
31/12/1903  21:00:00.000113	-3.045936E-1	-9.563200E-3
31/12/1903  21:00:00.000113	-3.078688E-1	-9.563200E-3
31/12/1903  21:00:00.000113	-3.078688E-1	-9.563200E-3
31/12/1903  21:00:00.000113	-3.078688E-1	-9.563200E-3
		
