00.000000000000	-6.007209E-1	2.068800E-3
00.000000124000	-6.007209E-1	2.275680E-3
00.000000248000	-6.007209E-1	1.655040E-3
00.000000372000	-6.007209E-1	2.275680E-3
00.000000496000	-6.007209E-1	1.861920E-3
00.000000620000	-6.007209E-1	2.068800E-3
00.000000744000	-6.007209E-1	1.861920E-3
00.000000868000	-6.007209E-1	2.275680E-3
00.000000992000	-6.007209E-1	2.275680E-3
00.000001116000	-6.007209E-1	1.861920E-3
00.000001240000	-6.007209E-1	1.861920E-3
00.000001364000	-6.007209E-1	2.068800E-3
00.000001488000	-6.007209E-1	1.861920E-3
00.000001612000	-6.007209E-1	2.275680E-3
00.000001736000	-6.007209E-1	1.861920E-3
00.000001860000	-6.007209E-1	2.275680E-3
00.000001984000	-6.007209E-1	2.275680E-3
00.000002108000	-6.007209E-1	1.861920E-3
00.000002232000	-6.007209E-1	2.275680E-3
00.000002356000	-6.007209E-1	1.655040E-3
00.000002480000	-6.007209E-1	2.275680E-3
00.000002604000	-6.007209E-1	1.655040E-3
00.000002728000	-6.007209E-1	1.861920E-3
00.000002852000	-6.007209E-1	2.275680E-3
00.000002976000	-6.007209E-1	2.275680E-3
00.000003100000	-6.007209E-1	1.655040E-3
00.000003224000	-6.007209E-1	1.861920E-3
00.000003348000	-6.007209E-1	2.275680E-3
00.000003472000	-6.007209E-1	1.861920E-3
00.000003596000	-6.007209E-1	2.068800E-3
00.000003720000	-6.007209E-1	1.861920E-3
00.000003844000	-6.007209E-1	2.482560E-3
00.000003968000	-6.007209E-1	1.861920E-3
00.000004092000	-6.007209E-1	2.275680E-3
00.000004216000	-6.007209E-1	1.861920E-3
00.000004340000	-6.007209E-1	2.068800E-3
00.000004464000	-6.007209E-1	2.068800E-3
00.000004588000	-6.007209E-1	1.861920E-3
00.000004712000	-6.007209E-1	2.275680E-3
00.000004836000	-6.007209E-1	1.861920E-3
00.000004960000	-6.007209E-1	2.275680E-3
00.000005084000	-6.007209E-1	1.861920E-3
00.000005208000	-6.007209E-1	2.068800E-3
00.000005332000	-6.007209E-1	1.861920E-3
00.000005456000	-6.007209E-1	2.068800E-3
00.000005580000	-6.007209E-1	1.861920E-3
00.000005704000	-6.007209E-1	1.861920E-3
00.000005828000	-6.007209E-1	2.275680E-3
00.000005952000	-6.007209E-1	1.861920E-3
00.000006076000	-6.007209E-1	2.482560E-3
00.000006200000	-6.007209E-1	2.275680E-3
00.000006324000	-6.007209E-1	1.861920E-3
00.000006448000	-6.007209E-1	2.275680E-3
00.000006572000	-6.007209E-1	1.861920E-3
00.000006696000	-6.007209E-1	2.068800E-3
00.000006820000	-6.007209E-1	1.861920E-3
00.000006944000	-6.007209E-1	2.275680E-3
00.000007068000	-6.007209E-1	1.861920E-3
00.000007192000	-6.007209E-1	2.275680E-3
00.000007316000	-6.007209E-1	1.655040E-3
00.000007440000	-6.007209E-1	2.482560E-3
00.000007564000	-6.007209E-1	1.655040E-3
00.000007688000	-6.007209E-1	1.861920E-3
00.000007812000	-6.007209E-1	2.275680E-3
00.000007936000	-6.007209E-1	1.861920E-3
00.000008060000	-6.007209E-1	2.275680E-3
00.000008184000	-6.007209E-1	2.275680E-3
00.000008308000	-6.007209E-1	1.655040E-3
00.000008432000	-6.007209E-1	2.482560E-3
00.000008556000	-6.007209E-1	1.655040E-3
00.000008680000	-6.007209E-1	2.482560E-3
00.000008804000	-6.007209E-1	1.655040E-3
00.000008928000	-6.007209E-1	2.275680E-3
00.000009052000	-6.007209E-1	1.655040E-3
00.000009176000	-6.007209E-1	1.861920E-3
00.000009300000	-6.007209E-1	2.275680E-3
00.000009424000	-6.007209E-1	2.275680E-3
00.000009548000	-6.007209E-1	1.861920E-3
00.000009672000	-6.007209E-1	2.275680E-3
00.000009796000	-6.007209E-1	1.861920E-3
00.000009920000	-6.007209E-1	2.275680E-3
00.000010044000	-6.007209E-1	1.655040E-3
00.000010168000	-6.007209E-1	1.655040E-3
00.000010292000	-6.007209E-1	2.275680E-3
00.000010416000	-6.007209E-1	1.861920E-3
00.000010540000	-6.007209E-1	2.275680E-3
00.000010664000	-6.007209E-1	1.861920E-3
00.000010788000	-6.007209E-1	2.275680E-3
00.000010912000	-6.007209E-1	2.068800E-3
00.000011036000	-6.007209E-1	1.655040E-3
00.000011160000	-6.007209E-1	1.655040E-3
00.000011284000	-6.007209E-1	2.275680E-3
00.000011408000	-6.007209E-1	1.861920E-3
00.000011532000	-6.007209E-1	2.068800E-3
00.000011656000	-6.007209E-1	2.068800E-3
00.000011780000	-6.007209E-1	1.861920E-3
00.000011904000	-6.372288E-1	1.655040E-3
00.000012028000	-7.633470E-2	4.137600E-3
00.000012152000	-8.629140E-2	5.172000E-3
00.000012276000	-4.314570E-2	1.779168E-2
00.000012400000	-4.314570E-2	1.779168E-2
00.000012524000	-2.987010E-2	2.813568E-2
00.000012648000	-2.987010E-2	2.813568E-2
00.000012772000	-2.655120E-2	3.537648E-2
00.000012896000	-2.655120E-2	3.516960E-2
00.000013020000	-2.323230E-2	3.930720E-2
00.000013144000	-2.323230E-2	3.910032E-2
00.000013268000	-1.659450E-2	4.116912E-2
00.000013392000	-1.659450E-2	4.054848E-2
00.000013516000	-1.327560E-2	4.158288E-2
00.000013640000	-1.327560E-2	4.178976E-2
00.000013764000	-1.327560E-2	4.096224E-2
00.000013888000	-1.327560E-2	4.116912E-2
00.000014012000	-1.327560E-2	4.013472E-2
00.000014136000	-1.327560E-2	4.034160E-2
00.000014260000	-9.956700E-3	3.889344E-2
00.000014384000	-9.956700E-3	3.910032E-2
00.000014508000	-9.956700E-3	3.723840E-2
00.000014632000	-9.956700E-3	3.744528E-2
00.000014756000	-9.956700E-3	3.620400E-2
00.000014880000	-9.956700E-3	3.599712E-2
00.000015004000	-9.956700E-3	3.454896E-2
00.000015128000	-9.956700E-3	3.454896E-2
00.000015252000	-9.956700E-3	3.289392E-2
00.000015376000	-9.956700E-3	3.289392E-2
00.000015500000	-9.956700E-3	3.144576E-2
00.000015624000	-9.956700E-3	3.144576E-2
00.000015748000	-6.637800E-3	3.041136E-2
00.000015872000	-6.637800E-3	3.041136E-2
00.000015996000	-6.637800E-3	2.958384E-2
00.000016120000	-6.637800E-3	2.958384E-2
00.000016244000	-6.637800E-3	2.854944E-2
00.000016368000	-6.637800E-3	2.875632E-2
00.000016492000	-6.637800E-3	2.813568E-2
00.000016616000	-6.637800E-3	2.834256E-2
00.000016740000	-6.637800E-3	2.751504E-2
00.000016864000	-6.637800E-3	2.751504E-2
00.000016988000	-6.637800E-3	2.689440E-2
00.000017112000	-6.637800E-3	2.710128E-2
00.000017236000	-6.637800E-3	2.606688E-2
00.000017360000	-6.637800E-3	2.648064E-2
00.000017484000	-6.637800E-3	2.565312E-2
00.000017608000	-6.637800E-3	2.586000E-2
00.000017732000	-6.637800E-3	2.503248E-2
00.000017856000	-6.637800E-3	2.523936E-2
00.000017980000	-6.637800E-3	2.461872E-2
00.000018104000	-6.637800E-3	2.461872E-2
00.000018228000	-6.637800E-3	2.379120E-2
00.000018352000	-6.637800E-3	2.379120E-2
00.000018476000	-6.637800E-3	2.317056E-2
00.000018600000	-6.637800E-3	2.337744E-2
00.000018724000	-6.637800E-3	2.254992E-2
00.000018848000	-6.637800E-3	2.275680E-2
00.000018972000	-6.637800E-3	2.192928E-2
00.000019096000	-6.637800E-3	2.213616E-2
00.000019220000	-6.637800E-3	2.110176E-2
00.000019344000	-6.637800E-3	2.130864E-2
00.000019468000	-6.637800E-3	2.068800E-2
00.000019592000	-6.637800E-3	2.068800E-2
00.000019716000	-6.637800E-3	2.006736E-2
00.000019840000	-6.637800E-3	2.006736E-2
00.000019964000	-6.637800E-3	1.923984E-2
00.000020088000	-6.637800E-3	1.923984E-2
00.000020212000	-6.637800E-3	1.861920E-2
00.000020336000	-6.637800E-3	1.861920E-2
00.000020460000	-6.637800E-3	1.779168E-2
00.000020584000	-6.637800E-3	1.779168E-2
00.000020708000	-6.637800E-3	1.737792E-2
00.000020832000	-6.637800E-3	1.737792E-2
00.000020956000	-6.637800E-3	1.655040E-2
00.000021080000	-6.637800E-3	1.675728E-2
00.000021204000	-6.637800E-3	1.572288E-2
00.000021328000	-6.637800E-3	1.572288E-2
00.000021452000	-6.637800E-3	1.489536E-2
00.000021576000	-6.637800E-3	1.510224E-2
00.000021700000	-6.637800E-3	1.406784E-2
00.000021824000	-6.637800E-3	1.427472E-2
00.000021948000	-6.637800E-3	1.365408E-2
00.000022072000	-6.637800E-3	1.365408E-2
00.000022196000	-6.637800E-3	1.282656E-2
00.000022320000	-6.637800E-3	1.303344E-2
00.000022444000	-6.637800E-3	1.199904E-2
00.000022568000	-6.637800E-3	1.220592E-2
00.000022692000	-6.637800E-3	1.137840E-2
00.000022816000	-6.637800E-3	1.158528E-2
00.000022940000	-6.637800E-3	1.075776E-2
00.000023064000	-6.637800E-3	1.096464E-2
00.000023188000	-6.637800E-3	1.013712E-2
00.000023312000	-6.637800E-3	1.034400E-2
00.000023436000	-6.637800E-3	9.516480E-3
00.000023560000	-6.637800E-3	9.723360E-3
00.000023684000	-6.637800E-3	8.688960E-3
00.000023808000	-6.637800E-3	9.102720E-3
00.000023932000	-6.637800E-3	8.275200E-3
00.000024056000	-6.637800E-3	8.482080E-3
00.000024180000	-6.637800E-3	7.861440E-3
00.000024304000	-6.637800E-3	7.861440E-3
00.000024428000	-6.637800E-3	7.447680E-3
00.000024552000	-6.637800E-3	7.447680E-3
00.000024676000	-6.637800E-3	6.827040E-3
00.000024800000	-6.637800E-3	6.827040E-3
00.000024924000	-6.637800E-3	6.413280E-3
00.000025048000	-6.637800E-3	6.413280E-3
00.000025172000	-6.637800E-3	5.999520E-3
00.000025296000	-6.637800E-3	5.999520E-3
00.000025420000	-6.637800E-3	5.792640E-3
00.000025544000	-6.637800E-3	5.792640E-3
00.000025668000	-6.637800E-3	5.172000E-3
00.000025792000	-6.637800E-3	5.172000E-3
00.000025916000	-6.637800E-3	4.965120E-3
00.000026040000	-6.637800E-3	4.965120E-3
00.000026164000	-6.637800E-3	4.551360E-3
00.000026288000	-6.637800E-3	4.758240E-3
00.000026412000	-6.637800E-3	4.344480E-3
00.000026536000	-6.637800E-3	4.551360E-3
00.000026660000	-6.637800E-3	4.137600E-3
00.000026784000	-6.637800E-3	3.723840E-3
00.000026908000	-6.637800E-3	4.344480E-3
00.000027032000	-6.637800E-3	4.137600E-3
00.000027156000	-6.637800E-3	3.516960E-3
00.000027280000	-6.637800E-3	3.930720E-3
00.000027404000	-6.637800E-3	3.516960E-3
00.000027528000	-6.637800E-3	3.930720E-3
00.000027652000	-6.637800E-3	3.310080E-3
00.000027776000	-6.637800E-3	3.723840E-3
00.000027900000	-6.637800E-3	3.103200E-3
00.000028024000	-6.637800E-3	3.723840E-3
00.000028148000	-6.637800E-3	2.896320E-3
00.000028272000	-6.637800E-3	2.896320E-3
00.000028396000	-6.637800E-3	3.723840E-3
00.000028520000	-6.637800E-3	2.896320E-3
00.000028644000	-6.637800E-3	3.516960E-3
00.000028768000	-6.637800E-3	3.103200E-3
00.000028892000	-6.637800E-3	3.516960E-3
00.000029016000	-6.637800E-3	3.516960E-3
00.000029140000	-6.637800E-3	2.896320E-3
00.000029264000	-6.637800E-3	3.310080E-3
00.000029388000	-6.637800E-3	2.896320E-3
00.000029512000	-6.637800E-3	2.896320E-3
00.000029636000	-6.637800E-3	3.310080E-3
00.000029760000	-6.637800E-3	3.310080E-3
00.000029884000	-6.637800E-3	3.103200E-3
00.000030008000	-6.637800E-3	3.516960E-3
00.000030132000	-6.637800E-3	3.103200E-3
00.000030256000	-6.637800E-3	3.103200E-3
00.000030380000	-6.637800E-3	3.516960E-3
00.000030504000	-6.637800E-3	2.896320E-3
00.000030628000	-6.637800E-3	3.723840E-3
00.000030752000	-6.637800E-3	3.103200E-3
00.000030876000	-6.637800E-3	3.723840E-3
00.000031000000	-6.637800E-3	3.723840E-3
00.000031124000	-6.637800E-3	3.310080E-3
00.000031248000	-6.637800E-3	3.723840E-3
00.000031372000	-6.637800E-3	3.310080E-3
00.000031496000	-6.637800E-3	3.310080E-3
00.000031620000	-6.637800E-3	3.930720E-3
00.000031744000	-6.637800E-3	3.516960E-3
00.000031868000	-6.637800E-3	3.930720E-3
00.000031992000	-6.637800E-3	3.516960E-3
00.000032116000	-6.637800E-3	4.137600E-3
00.000032240000	-6.637800E-3	3.723840E-3
00.000032364000	-6.637800E-3	4.137600E-3
00.000032488000	-6.637800E-3	4.137600E-3
00.000032612000	-6.637800E-3	3.516960E-3
00.000032736000	-6.637800E-3	3.723840E-3
00.000032860000	-6.637800E-3	4.344480E-3
00.000032984000	-6.637800E-3	4.137600E-3
00.000033108000	-6.637800E-3	4.344480E-3
00.000033232000	-6.637800E-3	4.137600E-3
00.000033356000	-6.637800E-3	4.551360E-3
00.000033480000	-6.637800E-3	3.930720E-3
00.000033604000	-6.637800E-3	4.758240E-3
00.000033728000	-6.637800E-3	4.137600E-3
00.000033852000	-6.637800E-3	4.758240E-3
00.000033976000	-6.637800E-3	4.551360E-3
00.000034100000	-6.637800E-3	4.965120E-3
00.000034224000	-6.637800E-3	4.965120E-3
00.000034348000	-6.637800E-3	4.551360E-3
00.000034472000	-6.637800E-3	5.172000E-3
00.000034596000	-6.637800E-3	4.551360E-3
00.000034720000	-6.637800E-3	4.758240E-3
00.000034844000	-6.637800E-3	4.965120E-3
00.000034968000	-6.637800E-3	4.758240E-3
00.000035092000	-6.637800E-3	5.172000E-3
00.000035216000	-6.637800E-3	5.172000E-3
00.000035340000	-6.637800E-3	5.378880E-3
00.000035464000	-6.637800E-3	5.378880E-3
00.000035588000	-6.637800E-3	5.172000E-3
00.000035712000	-6.637800E-3	5.585760E-3
00.000035836000	-6.637800E-3	5.172000E-3
00.000035960000	-6.637800E-3	5.378880E-3
00.000036084000	-6.637800E-3	5.585760E-3
00.000036208000	-6.637800E-3	5.585760E-3
00.000036332000	-6.637800E-3	5.378880E-3
00.000036456000	-6.637800E-3	5.792640E-3
00.000036580000	-6.637800E-3	5.378880E-3
00.000036704000	-6.637800E-3	5.792640E-3
00.000036828000	-6.637800E-3	5.585760E-3
00.000036952000	-6.637800E-3	5.792640E-3
00.000037076000	-6.637800E-3	5.378880E-3
00.000037200000	-6.637800E-3	5.585760E-3
00.000037324000	-6.637800E-3	5.999520E-3
00.000037448000	-6.637800E-3	6.206400E-3
00.000037572000	-6.637800E-3	5.585760E-3
00.000037696000	-6.637800E-3	5.792640E-3
00.000037820000	-6.637800E-3	6.206400E-3
00.000037944000	-6.637800E-3	5.792640E-3
00.000038068000	-6.637800E-3	5.999520E-3
00.000038192000	-6.637800E-3	5.792640E-3
00.000038316000	-6.637800E-3	6.206400E-3
00.000038440000	-6.637800E-3	5.792640E-3
00.000038564000	-6.637800E-3	6.413280E-3
00.000038688000	-6.637800E-3	5.792640E-3
00.000038812000	-6.637800E-3	6.413280E-3
00.000038936000	-6.637800E-3	5.999520E-3
00.000039060000	-6.637800E-3	6.413280E-3
00.000039184000	-6.637800E-3	5.999520E-3
00.000039308000	-6.637800E-3	6.413280E-3
00.000039432000	-6.637800E-3	5.999520E-3
00.000039556000	-6.637800E-3	6.413280E-3
00.000039680000	-6.637800E-3	6.206400E-3
00.000039804000	-6.637800E-3	6.413280E-3
00.000039928000	-6.637800E-3	6.413280E-3
00.000040052000	-6.637800E-3	5.999520E-3
00.000040176000	-6.637800E-3	5.999520E-3
00.000040300000	-6.637800E-3	6.620160E-3
00.000040424000	-6.637800E-3	6.620160E-3
00.000040548000	-6.637800E-3	5.999520E-3
00.000040672000	-6.637800E-3	5.999520E-3
00.000040796000	-6.637800E-3	6.620160E-3
00.000040920000	-6.637800E-3	6.620160E-3
00.000041044000	-6.637800E-3	6.206400E-3
00.000041168000	-6.637800E-3	6.206400E-3
00.000041292000	-6.637800E-3	6.827040E-3
00.000041416000	-6.637800E-3	6.620160E-3
00.000041540000	-6.637800E-3	6.206400E-3
00.000041664000	-6.637800E-3	5.999520E-3
00.000041788000	-6.637800E-3	6.620160E-3
00.000041912000	-6.637800E-3	6.620160E-3
00.000042036000	-6.637800E-3	5.999520E-3
00.000042160000	-6.637800E-3	6.620160E-3
00.000042284000	-6.637800E-3	5.999520E-3
00.000042408000	-6.637800E-3	6.206400E-3
00.000042532000	-6.637800E-3	6.620160E-3
00.000042656000	-6.637800E-3	6.206400E-3
00.000042780000	-6.637800E-3	6.827040E-3
00.000042904000	-6.637800E-3	6.620160E-3
00.000043028000	-6.637800E-3	5.999520E-3
00.000043152000	-6.637800E-3	6.620160E-3
00.000043276000	-6.637800E-3	6.413280E-3
00.000043400000	-6.637800E-3	6.413280E-3
00.000043524000	-6.637800E-3	6.620160E-3
00.000043648000	-6.637800E-3	6.206400E-3
00.000043772000	-6.637800E-3	6.620160E-3
00.000043896000	-6.637800E-3	6.413280E-3
00.000044020000	-6.637800E-3	6.206400E-3
00.000044144000	-6.637800E-3	6.620160E-3
00.000044268000	-6.637800E-3	6.206400E-3
00.000044392000	-6.637800E-3	6.206400E-3
00.000044516000	-6.637800E-3	6.620160E-3
00.000044640000	-6.637800E-3	6.206400E-3
00.000044764000	-6.637800E-3	6.827040E-3
00.000044888000	-6.637800E-3	5.999520E-3
00.000045012000	-6.637800E-3	6.620160E-3
00.000045136000	-6.637800E-3	6.413280E-3
00.000045260000	-6.637800E-3	6.206400E-3
00.000045384000	-6.637800E-3	6.206400E-3
00.000045508000	-6.637800E-3	6.413280E-3
00.000045632000	-6.637800E-3	6.827040E-3
00.000045756000	-6.637800E-3	6.206400E-3
00.000045880000	-6.637800E-3	6.206400E-3
00.000046004000	-6.637800E-3	6.620160E-3
00.000046128000	-6.637800E-3	6.206400E-3
00.000046252000	-6.637800E-3	6.620160E-3
00.000046376000	-6.637800E-3	6.413280E-3
00.000046500000	-6.637800E-3	6.206400E-3
00.000046624000	-6.637800E-3	6.827040E-3
00.000046748000	-6.637800E-3	5.792640E-3
00.000046872000	-6.637800E-3	6.827040E-3
00.000046996000	-6.637800E-3	5.792640E-3
00.000047120000	-6.637800E-3	6.620160E-3
00.000047244000	-6.637800E-3	5.792640E-3
00.000047368000	-6.637800E-3	6.620160E-3
00.000047492000	-6.637800E-3	5.792640E-3
00.000047616000	-6.637800E-3	5.999520E-3
00.000047740000	-6.637800E-3	6.620160E-3
00.000047864000	-6.637800E-3	5.999520E-3
00.000047988000	-6.637800E-3	6.620160E-3
00.000048112000	-6.637800E-3	5.999520E-3
00.000048236000	-6.637800E-3	6.413280E-3
00.000048360000	-6.637800E-3	6.413280E-3
00.000048484000	-6.637800E-3	5.999520E-3
00.000048608000	-6.637800E-3	5.999520E-3
00.000048732000	-6.637800E-3	6.413280E-3
00.000048856000	-6.637800E-3	5.999520E-3
00.000048980000	-6.637800E-3	6.413280E-3
00.000049104000	-6.637800E-3	6.206400E-3
00.000049228000	-6.637800E-3	5.999520E-3
00.000049352000	-6.637800E-3	5.999520E-3
00.000049476000	-6.637800E-3	6.206400E-3
00.000049600000	-6.637800E-3	5.999520E-3
00.000049724000	-6.637800E-3	6.413280E-3
00.000049848000	-6.637800E-3	6.206400E-3
00.000049972000	-6.637800E-3	5.999520E-3
00.000050096000	-6.637800E-3	6.206400E-3
00.000050220000	-6.637800E-3	5.999520E-3
00.000050344000	-6.637800E-3	6.206400E-3
00.000050468000	-6.637800E-3	5.792640E-3
00.000050592000	-6.637800E-3	5.792640E-3
00.000050716000	-6.637800E-3	6.413280E-3
00.000050840000	-6.637800E-3	6.413280E-3
00.000050964000	-6.637800E-3	5.792640E-3
00.000051088000	-6.637800E-3	6.206400E-3
00.000051212000	-6.637800E-3	5.792640E-3
00.000051336000	-6.637800E-3	6.413280E-3
00.000051460000	-6.637800E-3	5.792640E-3
00.000051584000	-6.637800E-3	5.999520E-3
00.000051708000	-6.637800E-3	6.206400E-3
00.000051832000	-6.637800E-3	5.792640E-3
00.000051956000	-6.637800E-3	6.206400E-3
00.000052080000	-6.637800E-3	5.585760E-3
00.000052204000	-6.637800E-3	6.206400E-3
00.000052328000	-6.637800E-3	6.206400E-3
00.000052452000	-6.637800E-3	5.792640E-3
00.000052576000	-6.637800E-3	5.792640E-3
00.000052700000	-6.637800E-3	6.413280E-3
00.000052824000	-6.637800E-3	6.413280E-3
00.000052948000	-6.637800E-3	5.585760E-3
00.000053072000	-6.637800E-3	6.413280E-3
00.000053196000	-6.637800E-3	5.792640E-3
00.000053320000	-6.637800E-3	5.999520E-3
00.000053444000	-6.637800E-3	6.206400E-3
00.000053568000	-6.637800E-3	6.206400E-3
00.000053692000	-6.637800E-3	5.792640E-3
00.000053816000	-6.637800E-3	6.206400E-3
00.000053940000	-6.637800E-3	5.792640E-3
00.000054064000	-6.637800E-3	6.206400E-3
00.000054188000	-6.637800E-3	5.792640E-3
00.000054312000	-6.637800E-3	5.792640E-3
00.000054436000	-6.637800E-3	6.206400E-3
00.000054560000	-6.637800E-3	6.206400E-3
00.000054684000	-6.637800E-3	5.792640E-3
00.000054808000	-6.637800E-3	5.792640E-3
00.000054932000	-6.637800E-3	6.206400E-3
00.000055056000	-6.637800E-3	5.792640E-3
00.000055180000	-6.637800E-3	6.206400E-3
00.000055304000	-6.637800E-3	5.792640E-3
00.000055428000	-6.637800E-3	6.413280E-3
00.000055552000	-6.637800E-3	5.792640E-3
00.000055676000	-6.637800E-3	6.206400E-3
00.000055800000	-6.637800E-3	6.206400E-3
00.000055924000	-6.637800E-3	5.999520E-3
00.000056048000	-6.637800E-3	6.206400E-3
00.000056172000	-6.637800E-3	5.792640E-3
00.000056296000	-6.637800E-3	6.206400E-3
00.000056420000	-6.637800E-3	5.792640E-3
00.000056544000	-6.637800E-3	5.792640E-3
00.000056668000	-6.637800E-3	6.206400E-3
00.000056792000	-6.637800E-3	6.413280E-3
00.000056916000	-6.637800E-3	5.792640E-3
00.000057040000	-6.637800E-3	6.206400E-3
00.000057164000	-6.637800E-3	5.792640E-3
00.000057288000	-6.637800E-3	5.792640E-3
00.000057412000	-6.637800E-3	6.206400E-3
00.000057536000	-6.637800E-3	5.792640E-3
00.000057660000	-6.637800E-3	6.413280E-3
00.000057784000	-6.637800E-3	6.413280E-3
00.000057908000	-6.637800E-3	5.999520E-3
00.000058032000	-6.637800E-3	5.792640E-3
00.000058156000	-6.637800E-3	6.413280E-3
00.000058280000	-6.637800E-3	6.206400E-3
00.000058404000	-6.637800E-3	5.792640E-3
00.000058528000	-6.637800E-3	6.206400E-3
00.000058652000	-6.637800E-3	5.792640E-3
00.000058776000	-6.637800E-3	6.206400E-3
00.000058900000	-6.637800E-3	5.792640E-3
00.000059024000	-6.637800E-3	6.206400E-3
00.000059148000	-6.637800E-3	5.999520E-3
00.000059272000	-6.637800E-3	6.413280E-3
00.000059396000	-6.637800E-3	5.792640E-3
00.000059520000	-6.637800E-3	6.206400E-3
00.000059644000	-6.637800E-3	5.792640E-3
00.000059768000	-6.637800E-3	5.792640E-3
00.000059892000	-6.637800E-3	6.413280E-3
00.000060016000	-6.637800E-3	6.206400E-3
00.000060140000	-6.637800E-3	5.792640E-3
00.000060264000	-6.637800E-3	6.206400E-3
00.000060388000	-6.637800E-3	5.792640E-3
00.000060512000	-6.637800E-3	6.413280E-3
00.000060636000	-6.637800E-3	5.792640E-3
00.000060760000	-6.637800E-3	5.792640E-3
00.000060884000	-6.637800E-3	6.413280E-3
00.000061008000	-6.637800E-3	6.206400E-3
00.000061132000	-6.637800E-3	5.792640E-3
00.000061256000	-6.637800E-3	5.792640E-3
00.000061380000	-6.637800E-3	6.413280E-3
00.000061504000	-6.637800E-3	6.206400E-3
00.000061628000	-6.637800E-3	5.792640E-3
00.000061752000	-6.637800E-3	5.792640E-3
00.000061876000	-6.637800E-3	6.206400E-3
00.000062000000	-6.637800E-3	6.206400E-3
00.000062124000	-6.637800E-3	5.792640E-3
00.000062248000	-6.637800E-3	6.206400E-3
00.000062372000	-6.637800E-3	5.792640E-3
00.000062496000	-6.637800E-3	6.206400E-3
00.000062620000	-6.637800E-3	5.792640E-3
00.000062744000	-6.637800E-3	6.413280E-3
00.000062868000	-6.637800E-3	5.792640E-3
00.000062992000	-6.637800E-3	6.413280E-3
00.000063116000	-6.637800E-3	5.792640E-3
00.000063240000	-6.637800E-3	5.999520E-3
00.000063364000	-6.637800E-3	6.413280E-3
00.000063488000	-6.637800E-3	6.413280E-3
00.000063612000	-6.637800E-3	5.792640E-3
00.000063736000	-6.637800E-3	5.999520E-3
00.000063860000	-6.637800E-3	6.413280E-3
00.000063984000	-6.637800E-3	5.792640E-3
00.000064108000	-6.637800E-3	6.413280E-3
00.000064232000	-6.637800E-3	6.413280E-3
00.000064356000	-6.637800E-3	5.585760E-3
00.000064480000	-6.637800E-3	6.413280E-3
00.000064604000	-6.637800E-3	5.792640E-3
00.000064728000	-6.637800E-3	5.999520E-3
00.000064852000	-6.637800E-3	6.413280E-3
00.000064976000	-6.637800E-3	6.206400E-3
00.000065100000	-6.637800E-3	5.792640E-3
00.000065224000	-6.637800E-3	6.206400E-3
00.000065348000	-6.637800E-3	5.792640E-3
00.000065472000	-6.637800E-3	6.413280E-3
00.000065596000	-6.637800E-3	5.792640E-3
00.000065720000	-6.637800E-3	6.206400E-3
00.000065844000	-6.637800E-3	5.999520E-3
00.000065968000	-6.637800E-3	6.206400E-3
00.000066092000	-6.637800E-3	5.792640E-3
00.000066216000	-6.637800E-3	5.792640E-3
00.000066340000	-6.637800E-3	6.206400E-3
00.000066464000	-6.637800E-3	6.206400E-3
00.000066588000	-6.637800E-3	5.999520E-3
00.000066712000	-6.637800E-3	5.999520E-3
00.000066836000	-6.637800E-3	6.413280E-3
00.000066960000	-6.637800E-3	6.620160E-3
00.000067084000	-6.637800E-3	5.792640E-3
00.000067208000	-6.637800E-3	5.792640E-3
00.000067332000	-6.637800E-3	6.413280E-3
00.000067456000	-6.637800E-3	5.792640E-3
00.000067580000	-6.637800E-3	6.413280E-3
00.000067704000	-6.637800E-3	5.999520E-3
00.000067828000	-6.637800E-3	6.413280E-3
00.000067952000	-6.637800E-3	5.999520E-3
00.000068076000	-6.637800E-3	6.413280E-3
00.000068200000	-6.637800E-3	5.999520E-3
00.000068324000	-6.637800E-3	6.413280E-3
00.000068448000	-6.637800E-3	6.413280E-3
00.000068572000	-6.637800E-3	5.999520E-3
00.000068696000	-6.637800E-3	5.999520E-3
00.000068820000	-6.637800E-3	6.620160E-3
00.000068944000	-6.637800E-3	5.999520E-3
00.000069068000	-6.637800E-3	6.413280E-3
00.000069192000	-6.637800E-3	6.413280E-3
00.000069316000	-6.637800E-3	5.999520E-3
00.000069440000	-6.637800E-3	6.413280E-3
00.000069564000	-6.637800E-3	5.792640E-3
00.000069688000	-6.637800E-3	6.413280E-3
00.000069812000	-6.637800E-3	5.792640E-3
00.000069936000	-6.637800E-3	6.413280E-3
00.000070060000	-6.637800E-3	5.999520E-3
00.000070184000	-6.637800E-3	6.206400E-3
00.000070308000	-6.637800E-3	6.413280E-3
00.000070432000	-6.637800E-3	6.206400E-3
00.000070556000	-6.637800E-3	6.413280E-3
00.000070680000	-6.637800E-3	6.206400E-3
00.000070804000	-6.637800E-3	6.413280E-3
00.000070928000	-6.637800E-3	5.999520E-3
00.000071052000	-6.637800E-3	6.413280E-3
00.000071176000	-6.637800E-3	6.413280E-3
00.000071300000	-6.637800E-3	5.999520E-3
00.000071424000	-6.637800E-3	6.413280E-3
00.000071548000	-6.637800E-3	5.999520E-3
00.000071672000	-6.637800E-3	6.206400E-3
00.000071796000	-6.637800E-3	6.620160E-3
00.000071920000	-6.637800E-3	6.206400E-3
00.000072044000	-6.637800E-3	6.413280E-3
00.000072168000	-6.637800E-3	5.999520E-3
00.000072292000	-6.637800E-3	6.620160E-3
00.000072416000	-6.637800E-3	5.999520E-3
00.000072540000	-6.637800E-3	6.413280E-3
00.000072664000	-6.637800E-3	6.206400E-3
00.000072788000	-6.637800E-3	6.620160E-3
00.000072912000	-6.637800E-3	6.413280E-3
00.000073036000	-6.637800E-3	5.999520E-3
00.000073160000	-6.637800E-3	5.999520E-3
00.000073284000	-6.637800E-3	6.620160E-3
00.000073408000	-6.637800E-3	6.206400E-3
00.000073532000	-6.637800E-3	6.413280E-3
00.000073656000	-6.637800E-3	6.206400E-3
00.000073780000	-6.637800E-3	6.413280E-3
00.000073904000	-6.637800E-3	6.206400E-3
00.000074028000	-6.637800E-3	6.620160E-3
00.000074152000	-6.637800E-3	6.413280E-3
00.000074276000	-6.637800E-3	6.206400E-3
00.000074400000	-6.637800E-3	6.413280E-3
00.000074524000	-6.637800E-3	5.999520E-3
00.000074648000	-6.637800E-3	6.413280E-3
00.000074772000	-6.637800E-3	5.999520E-3
00.000074896000	-6.637800E-3	6.413280E-3
00.000075020000	-6.637800E-3	5.999520E-3
00.000075144000	-6.637800E-3	6.206400E-3
00.000075268000	-6.637800E-3	6.620160E-3
00.000075392000	-6.637800E-3	6.206400E-3
00.000075516000	-6.637800E-3	6.620160E-3
00.000075640000	-6.637800E-3	5.999520E-3
00.000075764000	-6.637800E-3	6.620160E-3
00.000075888000	-6.637800E-3	5.999520E-3
00.000076012000	-6.637800E-3	6.620160E-3
00.000076136000	-6.637800E-3	6.413280E-3
00.000076260000	-6.637800E-3	6.206400E-3
00.000076384000	-6.637800E-3	6.620160E-3
00.000076508000	-6.637800E-3	5.999520E-3
00.000076632000	-6.637800E-3	6.206400E-3
00.000076756000	-6.637800E-3	6.620160E-3
00.000076880000	-6.637800E-3	5.999520E-3
00.000077004000	-6.637800E-3	6.620160E-3
00.000077128000	-6.637800E-3	5.999520E-3
00.000077252000	-6.637800E-3	6.620160E-3
00.000077376000	-6.637800E-3	6.413280E-3
00.000077500000	-6.637800E-3	5.999520E-3
00.000077624000	-6.637800E-3	6.620160E-3
00.000077748000	-6.637800E-3	5.792640E-3
00.000077872000	-6.637800E-3	6.620160E-3
00.000077996000	-6.637800E-3	5.999520E-3
00.000078120000	-6.637800E-3	6.206400E-3
00.000078244000	-6.637800E-3	6.620160E-3
00.000078368000	-6.637800E-3	5.999520E-3
00.000078492000	-6.637800E-3	6.620160E-3
00.000078616000	-6.637800E-3	5.999520E-3
00.000078740000	-6.637800E-3	6.413280E-3
00.000078864000	-6.637800E-3	5.999520E-3
00.000078988000	-6.637800E-3	6.620160E-3
00.000079112000	-6.637800E-3	5.792640E-3
00.000079236000	-6.637800E-3	6.620160E-3
00.000079360000	-6.637800E-3	5.999520E-3
00.000079484000	-6.637800E-3	6.620160E-3
00.000079608000	-6.637800E-3	6.206400E-3
00.000079732000	-6.637800E-3	6.413280E-3
00.000079856000	-6.637800E-3	6.620160E-3
00.000079980000	-6.637800E-3	6.206400E-3
00.000080104000	-6.637800E-3	6.620160E-3
00.000080228000	-6.637800E-3	6.206400E-3
00.000080352000	-6.637800E-3	6.620160E-3
00.000080476000	-6.637800E-3	6.206400E-3
00.000080600000	-6.637800E-3	6.620160E-3
00.000080724000	-6.637800E-3	5.999520E-3
00.000080848000	-6.637800E-3	6.206400E-3
00.000080972000	-6.637800E-3	6.827040E-3
00.000081096000	-6.637800E-3	6.620160E-3
00.000081220000	-6.637800E-3	6.206400E-3
00.000081344000	-6.637800E-3	6.620160E-3
00.000081468000	-6.637800E-3	6.206400E-3
00.000081592000	-6.637800E-3	6.206400E-3
00.000081716000	-6.637800E-3	6.620160E-3
00.000081840000	-6.637800E-3	5.999520E-3
00.000081964000	-6.637800E-3	6.620160E-3
00.000082088000	-6.637800E-3	6.620160E-3
00.000082212000	-6.637800E-3	5.999520E-3
00.000082336000	-6.637800E-3	6.620160E-3
00.000082460000	-6.637800E-3	5.999520E-3
00.000082584000	-6.637800E-3	6.620160E-3
00.000082708000	-6.637800E-3	6.206400E-3
00.000082832000	-6.637800E-3	6.827040E-3
00.000082956000	-6.637800E-3	5.999520E-3
00.000083080000	-6.637800E-3	5.999520E-3
00.000083204000	-6.637800E-3	6.827040E-3
00.000083328000	-6.637800E-3	5.999520E-3
00.000083452000	-6.637800E-3	6.620160E-3
00.000083576000	-6.637800E-3	6.620160E-3
00.000083700000	-6.637800E-3	6.206400E-3
00.000083824000	-6.637800E-3	6.620160E-3
00.000083948000	-6.637800E-3	6.206400E-3
00.000084072000	-6.637800E-3	6.620160E-3
00.000084196000	-6.637800E-3	5.999520E-3
00.000084320000	-6.637800E-3	5.999520E-3
00.000084444000	-6.637800E-3	6.620160E-3
00.000084568000	-6.637800E-3	6.413280E-3
00.000084692000	-6.637800E-3	6.206400E-3
00.000084816000	-6.637800E-3	6.206400E-3
00.000084940000	-6.637800E-3	6.620160E-3
00.000085064000	-6.637800E-3	5.999520E-3
00.000085188000	-6.637800E-3	6.620160E-3
00.000085312000	-6.637800E-3	6.620160E-3
00.000085436000	-6.637800E-3	6.206400E-3
00.000085560000	-6.637800E-3	6.620160E-3
00.000085684000	-6.637800E-3	5.999520E-3
00.000085808000	-6.637800E-3	6.620160E-3
00.000085932000	-6.637800E-3	6.206400E-3
00.000086056000	-6.637800E-3	6.206400E-3
00.000086180000	-6.637800E-3	6.620160E-3
00.000086304000	-6.637800E-3	6.413280E-3
00.000086428000	-6.637800E-3	6.206400E-3
00.000086552000	-6.637800E-3	6.620160E-3
00.000086676000	-6.637800E-3	6.206400E-3
00.000086800000	-6.637800E-3	6.827040E-3
00.000086924000	-6.637800E-3	6.206400E-3
00.000087048000	-6.637800E-3	6.827040E-3
00.000087172000	-6.637800E-3	6.206400E-3
00.000087296000	-6.637800E-3	6.620160E-3
00.000087420000	-6.637800E-3	5.999520E-3
00.000087544000	-6.637800E-3	5.792640E-3
00.000087668000	-6.637800E-3	6.827040E-3
00.000087792000	-6.637800E-3	6.206400E-3
00.000087916000	-6.637800E-3	6.827040E-3
00.000088040000	-6.637800E-3	6.620160E-3
00.000088164000	-6.637800E-3	6.206400E-3
00.000088288000	-6.637800E-3	6.206400E-3
00.000088412000	-6.637800E-3	6.620160E-3
00.000088536000	-6.637800E-3	6.620160E-3
00.000088660000	-6.637800E-3	5.999520E-3
00.000088784000	-6.637800E-3	6.206400E-3
00.000088908000	-6.637800E-3	6.620160E-3
00.000089032000	-6.637800E-3	6.206400E-3
00.000089156000	-6.637800E-3	6.620160E-3
00.000089280000	-6.637800E-3	6.206400E-3
00.000089404000	-6.637800E-3	6.827040E-3
00.000089528000	-6.637800E-3	6.620160E-3
00.000089652000	-6.637800E-3	5.999520E-3
00.000089776000	-6.637800E-3	6.827040E-3
00.000089900000	-6.637800E-3	6.206400E-3
00.000090024000	-6.637800E-3	6.827040E-3
00.000090148000	-6.637800E-3	6.206400E-3
00.000090272000	-6.637800E-3	6.206400E-3
00.000090396000	-6.637800E-3	6.620160E-3
00.000090520000	-6.637800E-3	6.620160E-3
00.000090644000	-6.637800E-3	6.206400E-3
00.000090768000	-6.637800E-3	6.620160E-3
00.000090892000	-6.637800E-3	6.206400E-3
00.000091016000	-6.637800E-3	6.620160E-3
00.000091140000	-6.637800E-3	6.206400E-3
00.000091264000	-6.637800E-3	6.620160E-3
00.000091388000	-6.637800E-3	6.206400E-3
00.000091512000	-6.637800E-3	6.827040E-3
00.000091636000	-6.637800E-3	6.206400E-3
00.000091760000	-6.637800E-3	6.620160E-3
00.000091884000	-6.637800E-3	6.206400E-3
00.000092008000	-6.637800E-3	6.206400E-3
00.000092132000	-6.637800E-3	6.620160E-3
00.000092256000	-6.637800E-3	6.206400E-3
00.000092380000	-6.637800E-3	6.827040E-3
00.000092504000	-6.637800E-3	6.206400E-3
00.000092628000	-6.637800E-3	6.827040E-3
00.000092752000	-6.637800E-3	6.620160E-3
00.000092876000	-6.637800E-3	6.206400E-3
00.000093000000	-6.637800E-3	6.206400E-3
00.000093124000	-6.637800E-3	6.620160E-3
00.000093248000	-6.637800E-3	6.827040E-3
00.000093372000	-6.637800E-3	6.206400E-3
00.000093496000	-6.637800E-3	6.620160E-3
00.000093620000	-6.637800E-3	6.413280E-3
00.000093744000	-6.637800E-3	6.620160E-3
00.000093868000	-6.637800E-3	6.206400E-3
00.000093992000	-6.637800E-3	6.206400E-3
00.000094116000	-6.637800E-3	6.620160E-3
00.000094240000	-6.637800E-3	6.620160E-3
00.000094364000	-6.637800E-3	6.206400E-3
00.000094488000	-6.637800E-3	6.827040E-3
00.000094612000	-6.637800E-3	6.206400E-3
00.000094736000	-6.637800E-3	6.827040E-3
00.000094860000	-6.637800E-3	6.413280E-3
00.000094984000	-6.637800E-3	6.620160E-3
00.000095108000	-6.637800E-3	6.206400E-3
00.000095232000	-6.637800E-3	6.206400E-3
00.000095356000	-6.637800E-3	6.827040E-3
00.000095480000	-6.637800E-3	6.413280E-3
00.000095604000	-6.637800E-3	6.827040E-3
00.000095728000	-6.637800E-3	6.827040E-3
00.000095852000	-6.637800E-3	6.206400E-3
00.000095976000	-6.637800E-3	6.620160E-3
00.000096100000	-6.637800E-3	6.206400E-3
00.000096224000	-6.637800E-3	6.827040E-3
00.000096348000	-6.637800E-3	6.413280E-3
00.000096472000	-6.637800E-3	6.827040E-3
00.000096596000	-6.637800E-3	6.206400E-3
00.000096720000	-6.637800E-3	6.413280E-3
00.000096844000	-6.637800E-3	6.827040E-3
00.000096968000	-6.637800E-3	6.206400E-3
00.000097092000	-6.637800E-3	7.033920E-3
00.000097216000	-6.637800E-3	6.206400E-3
00.000097340000	-6.637800E-3	7.033920E-3
00.000097464000	-6.637800E-3	6.206400E-3
00.000097588000	-6.637800E-3	6.827040E-3
00.000097712000	-6.637800E-3	6.827040E-3
00.000097836000	-6.637800E-3	6.206400E-3
00.000097960000	-6.637800E-3	6.413280E-3
00.000098084000	-6.637800E-3	6.827040E-3
00.000098208000	-6.637800E-3	6.620160E-3
00.000098332000	-6.637800E-3	6.413280E-3
00.000098456000	-6.637800E-3	6.620160E-3
00.000098580000	-6.637800E-3	6.206400E-3
00.000098704000	-6.637800E-3	6.827040E-3
00.000098828000	-6.637800E-3	6.206400E-3
00.000098952000	-6.637800E-3	6.413280E-3
00.000099076000	-6.637800E-3	6.827040E-3
00.000099200000	-6.637800E-3	6.413280E-3
00.000099324000	-6.637800E-3	6.827040E-3
00.000099448000	-6.637800E-3	6.413280E-3
00.000099572000	-6.637800E-3	6.620160E-3
00.000099696000	-6.637800E-3	6.206400E-3
00.000099820000	-6.637800E-3	6.620160E-3
00.000099944000	-6.637800E-3	6.206400E-3
00.000100068000	-6.637800E-3	6.827040E-3
00.000100192000	-6.637800E-3	6.620160E-3
00.000100316000	-6.637800E-3	6.413280E-3
00.000100440000	-6.637800E-3	6.620160E-3
00.000100564000	-6.637800E-3	6.206400E-3
00.000100688000	-6.637800E-3	6.413280E-3
00.000100812000	-6.637800E-3	6.620160E-3
00.000100936000	-6.637800E-3	6.206400E-3
00.000101060000	-6.637800E-3	6.827040E-3
00.000101184000	-6.637800E-3	6.413280E-3
00.000101308000	-6.637800E-3	6.827040E-3
00.000101432000	-6.637800E-3	6.413280E-3
00.000101556000	-6.637800E-3	6.827040E-3
00.000101680000	-6.637800E-3	6.413280E-3
00.000101804000	-6.637800E-3	6.620160E-3
00.000101928000	-6.637800E-3	6.827040E-3
00.000102052000	-6.637800E-3	6.413280E-3
00.000102176000	-6.637800E-3	6.827040E-3
00.000102300000	-6.637800E-3	6.413280E-3
00.000102424000	-6.637800E-3	6.413280E-3
00.000102548000	-6.637800E-3	6.827040E-3
00.000102672000	-6.637800E-3	6.827040E-3
00.000102796000	-6.637800E-3	6.413280E-3
00.000102920000	-6.637800E-3	6.413280E-3
00.000103044000	-6.637800E-3	6.827040E-3
00.000103168000	-6.637800E-3	6.827040E-3
00.000103292000	-6.637800E-3	6.413280E-3
00.000103416000	-6.637800E-3	6.827040E-3
00.000103540000	-6.637800E-3	6.413280E-3
00.000103664000	-6.637800E-3	6.827040E-3
00.000103788000	-6.637800E-3	6.413280E-3
00.000103912000	-6.637800E-3	6.827040E-3
00.000104036000	-6.637800E-3	6.413280E-3
00.000104160000	-6.637800E-3	6.413280E-3
00.000104284000	-6.637800E-3	6.620160E-3
00.000104408000	-6.637800E-3	6.413280E-3
00.000104532000	-6.637800E-3	6.827040E-3
00.000104656000	-6.637800E-3	6.413280E-3
00.000104780000	-6.637800E-3	6.827040E-3
00.000104904000	-6.637800E-3	6.413280E-3
00.000105028000	-6.637800E-3	6.827040E-3
00.000105152000	-6.637800E-3	6.827040E-3
00.000105276000	-6.637800E-3	6.413280E-3
00.000105400000	-6.637800E-3	6.413280E-3
00.000105524000	-6.637800E-3	6.827040E-3
00.000105648000	-6.637800E-3	6.620160E-3
00.000105772000	-6.637800E-3	6.827040E-3
00.000105896000	-6.637800E-3	6.620160E-3
00.000106020000	-6.637800E-3	6.827040E-3
00.000106144000	-6.637800E-3	6.620160E-3
00.000106268000	-6.637800E-3	6.413280E-3
00.000106392000	-6.637800E-3	6.827040E-3
00.000106516000	-6.637800E-3	6.413280E-3
00.000106640000	-6.637800E-3	6.827040E-3
00.000106764000	-6.637800E-3	6.413280E-3
00.000106888000	-6.637800E-3	6.827040E-3
00.000107012000	-6.637800E-3	6.413280E-3
00.000107136000	-6.637800E-3	6.413280E-3
00.000107260000	-6.637800E-3	7.033920E-3
00.000107384000	-6.637800E-3	6.413280E-3
00.000107508000	-6.637800E-3	6.827040E-3
00.000107632000	-6.637800E-3	6.206400E-3
00.000107756000	-6.637800E-3	7.033920E-3
00.000107880000	-6.637800E-3	6.827040E-3
00.000108004000	-6.637800E-3	6.413280E-3
00.000108128000	-6.637800E-3	6.827040E-3
00.000108252000	-6.637800E-3	6.413280E-3
00.000108376000	-6.637800E-3	6.413280E-3
00.000108500000	-6.637800E-3	6.827040E-3
00.000108624000	-6.637800E-3	6.413280E-3
00.000108748000	-6.637800E-3	6.827040E-3
00.000108872000	-6.637800E-3	6.827040E-3
00.000108996000	-6.637800E-3	6.413280E-3
00.000109120000	-6.637800E-3	6.827040E-3
00.000109244000	-6.637800E-3	6.413280E-3
00.000109368000	-6.637800E-3	6.827040E-3
00.000109492000	-6.637800E-3	6.413280E-3
00.000109616000	-6.637800E-3	6.827040E-3
00.000109740000	-6.637800E-3	6.413280E-3
00.000109864000	-6.637800E-3	6.620160E-3
00.000109988000	-6.637800E-3	6.827040E-3
00.000110112000	-6.637800E-3	6.413280E-3
00.000110236000	-6.637800E-3	6.827040E-3
00.000110360000	-6.637800E-3	6.827040E-3
00.000110484000	-6.637800E-3	6.413280E-3
00.000110608000	-6.637800E-3	6.827040E-3
00.000110732000	-6.637800E-3	6.413280E-3
00.000110856000	-6.637800E-3	6.827040E-3
00.000110980000	-6.637800E-3	6.413280E-3
00.000111104000	-6.637800E-3	6.413280E-3
00.000111228000	-6.637800E-3	7.033920E-3
00.000111352000	-6.637800E-3	6.413280E-3
00.000111476000	-6.637800E-3	6.827040E-3
00.000111600000	-6.637800E-3	6.413280E-3
00.000111724000	-6.637800E-3	6.620160E-3
00.000111848000	-9.956700E-3	6.413280E-3
00.000111972000	0.000000E+0	6.827040E-3
00.000112096000	2.987010E-2	7.033920E-3
00.000112220000	-5.575752E-1	-4.137600E-3
00.000112344000	-5.575752E-1	-3.516960E-3
00.000112468000	-5.708508E-1	-4.551360E-3
00.000112592000	-5.708508E-1	-4.551360E-3
00.000112716000	-5.774886E-1	-4.551360E-3
00.000112840000	-5.774886E-1	-4.551360E-3
00.000112964000	-5.841264E-1	-4.551360E-3
00.000113088000	-5.841264E-1	-4.551360E-3
00.000113212000	-5.874453E-1	-4.551360E-3
00.000113336000	-5.874453E-1	-4.551360E-3
00.000113460000	-5.907642E-1	-4.551360E-3
00.000113584000	-5.907642E-1	-4.551360E-3
00.000113708000	-5.940831E-1	-4.551360E-3
00.000113832000	-5.940831E-1	-4.551360E-3
00.000113956000	-5.940831E-1	-4.551360E-3
00.000114080000	-5.940831E-1	-4.551360E-3
00.000114204000	-5.940831E-1	-4.551360E-3
00.000114328000	-5.940831E-1	-4.551360E-3
00.000114452000	-5.974020E-1	-4.551360E-3
00.000114576000	-5.974020E-1	-4.551360E-3
00.000114700000	-5.974020E-1	-4.551360E-3
00.000114824000	-5.974020E-1	-4.551360E-3
00.000114948000	-5.974020E-1	-4.551360E-3
00.000115072000	-5.974020E-1	-4.551360E-3
00.000115196000	-5.974020E-1	-4.551360E-3
00.000115320000	-5.974020E-1	-4.551360E-3
00.000115444000	-5.974020E-1	-4.551360E-3
00.000115568000	-5.974020E-1	-4.551360E-3
00.000115692000	-6.007209E-1	-4.551360E-3
00.000115816000	-6.007209E-1	-4.551360E-3
00.000115940000	-6.007209E-1	-4.551360E-3
00.000116064000	-6.007209E-1	-4.551360E-3
00.000116188000	-6.007209E-1	-4.551360E-3
00.000116312000	-6.007209E-1	-4.551360E-3
00.000116436000	-6.007209E-1	-4.551360E-3
00.000116560000	-6.007209E-1	-4.551360E-3
00.000116684000	-6.007209E-1	-4.551360E-3
00.000116808000	-6.007209E-1	-4.551360E-3
00.000116932000	-6.007209E-1	-4.551360E-3
00.000117056000	-6.007209E-1	-4.551360E-3
00.000117180000	-6.007209E-1	-4.551360E-3
00.000117304000	-6.007209E-1	-4.551360E-3
00.000117428000	-6.007209E-1	-4.551360E-3
00.000117552000	-6.007209E-1	-4.551360E-3
00.000117676000	-6.007209E-1	-4.551360E-3
00.000117800000	-6.007209E-1	-4.551360E-3
00.000117924000	-6.007209E-1	-4.551360E-3
00.000118048000	-6.007209E-1	-4.551360E-3
00.000118172000	-6.007209E-1	-4.551360E-3
00.000118296000	-6.007209E-1	-4.551360E-3
00.000118420000	-6.007209E-1	-4.344480E-3
00.000118544000	-6.007209E-1	-4.344480E-3
00.000118668000	-6.007209E-1	-4.551360E-3
00.000118792000	-6.007209E-1	-4.344480E-3
00.000118916000	-6.007209E-1	-4.344480E-3
00.000119040000	-6.007209E-1	-4.344480E-3
00.000119164000	-6.007209E-1	-4.137600E-3
00.000119288000	-6.007209E-1	-4.344480E-3
00.000119412000	-6.007209E-1	-4.137600E-3
00.000119536000	-6.007209E-1	-4.137600E-3
00.000119660000	-6.007209E-1	-3.930720E-3
00.000119784000	-6.007209E-1	-3.930720E-3
00.000119908000	-6.007209E-1	-3.723840E-3
00.000120032000	-6.007209E-1	-3.723840E-3
00.000120156000	-6.007209E-1	-3.516960E-3
00.000120280000	-6.007209E-1	-3.516960E-3
00.000120404000	-6.007209E-1	-3.103200E-3
00.000120528000	-6.007209E-1	-3.310080E-3
00.000120652000	-6.007209E-1	-2.896320E-3
00.000120776000	-6.007209E-1	-2.896320E-3
00.000120900000	-6.007209E-1	-2.275680E-3
00.000121024000	-6.007209E-1	-2.482560E-3
00.000121148000	-6.007209E-1	-2.068800E-3
00.000121272000	-6.007209E-1	-2.275680E-3
00.000121396000	-6.007209E-1	-1.655040E-3
00.000121520000	-6.007209E-1	-1.861920E-3
00.000121644000	-6.007209E-1	-1.241280E-3
00.000121768000	-6.007209E-1	-1.448160E-3
00.000121892000	-6.007209E-1	-8.275200E-4
00.000122016000	-6.007209E-1	-1.034400E-3
00.000122140000	-6.007209E-1	-4.137600E-4
00.000122264000	-6.007209E-1	-4.137600E-4
00.000122388000	-6.007209E-1	-2.068800E-4
00.000122512000	-6.007209E-1	-2.068800E-4
00.000122636000	-6.007209E-1	2.068800E-4
00.000122760000	-6.007209E-1	0.000000E+0
00.000122884000	-6.007209E-1	6.206400E-4
00.000123008000	-6.007209E-1	4.137600E-4
00.000123132000	-6.007209E-1	1.241280E-3
00.000123256000	-6.007209E-1	8.275200E-4
00.000123380000	-6.007209E-1	1.655040E-3
00.000123504000	-6.007209E-1	1.448160E-3
00.000123628000	-6.007209E-1	1.241280E-3
00.000123752000	-6.007209E-1	1.448160E-3
00.000123876000	-6.007209E-1	1.655040E-3
		
