00.000000000000	-3.032534E-1	2.867760E-3
00.000000114000	-3.032534E-1	3.664360E-3
00.000000228000	-3.032534E-1	2.389800E-3
00.000000342000	-3.032534E-1	3.823680E-3
00.000000456000	-3.032534E-1	3.823680E-3
00.000000570000	-3.032534E-1	2.549120E-3
00.000000684000	-3.032534E-1	3.823680E-3
00.000000798000	-3.032534E-1	2.389800E-3
00.000000912000	-3.032534E-1	2.708440E-3
00.000001026000	-3.032534E-1	3.664360E-3
00.000001140000	-3.032534E-1	2.549120E-3
00.000001254000	-3.032534E-1	3.505040E-3
00.000001368000	-3.032534E-1	2.389800E-3
00.000001482000	-3.032534E-1	3.664360E-3
00.000001596000	-3.032534E-1	3.505040E-3
00.000001710000	-3.032534E-1	2.708440E-3
00.000001824000	-3.032534E-1	2.708440E-3
00.000001938000	-3.032534E-1	3.823680E-3
00.000002052000	-3.032534E-1	3.505040E-3
00.000002166000	-3.032534E-1	2.708440E-3
00.000002280000	-3.032534E-1	3.505040E-3
00.000002394000	-3.032534E-1	2.549120E-3
00.000002508000	-3.032534E-1	3.823680E-3
00.000002622000	-3.032534E-1	2.549120E-3
00.000002736000	-3.032534E-1	2.549120E-3
00.000002850000	-3.032534E-1	3.664360E-3
00.000002964000	-3.032534E-1	2.389800E-3
00.000003078000	-3.032534E-1	3.664360E-3
00.000003192000	-3.032534E-1	3.664360E-3
00.000003306000	-3.032534E-1	2.708440E-3
00.000003420000	-3.032534E-1	3.983000E-3
00.000003534000	-3.032534E-1	2.389800E-3
00.000003648000	-3.032534E-1	3.983000E-3
00.000003762000	-3.032534E-1	2.708440E-3
00.000003876000	-3.032534E-1	2.708440E-3
00.000003990000	-3.032534E-1	3.823680E-3
00.000004104000	-3.032534E-1	2.708440E-3
00.000004218000	-3.032534E-1	3.823680E-3
00.000004332000	-3.032534E-1	2.867760E-3
00.000004446000	-3.032534E-1	3.823680E-3
00.000004560000	-3.032534E-1	2.867760E-3
00.000004674000	-3.032534E-1	3.823680E-3
00.000004788000	-3.032534E-1	2.708440E-3
00.000004902000	-3.032534E-1	3.823680E-3
00.000005016000	-3.032534E-1	3.664360E-3
00.000005130000	-3.032534E-1	2.867760E-3
00.000005244000	-3.032534E-1	3.823680E-3
00.000005358000	-3.032534E-1	2.708440E-3
00.000005472000	-3.032534E-1	3.664360E-3
00.000005586000	-3.032534E-1	2.549120E-3
00.000005700000	-3.032534E-1	2.708440E-3
00.000005814000	-3.032534E-1	3.664360E-3
00.000005928000	-3.032534E-1	3.664360E-3
00.000006042000	-3.032534E-1	2.230480E-3
00.000006156000	-3.032534E-1	3.664360E-3
00.000006270000	-3.032534E-1	2.708440E-3
00.000006384000	-3.032534E-1	3.664360E-3
00.000006498000	-3.032534E-1	2.708440E-3
00.000006612000	-3.032534E-1	2.549120E-3
00.000006726000	-3.032534E-1	3.664360E-3
00.000006840000	-3.032534E-1	2.549120E-3
00.000006954000	-3.032534E-1	3.823680E-3
00.000007068000	-3.032534E-1	3.823680E-3
00.000007182000	-3.032534E-1	2.549120E-3
00.000007296000	-3.032534E-1	3.983000E-3
00.000007410000	-3.032534E-1	2.389800E-3
00.000007524000	-3.032534E-1	2.389800E-3
00.000007638000	-3.032534E-1	3.823680E-3
00.000007752000	-3.032534E-1	2.389800E-3
00.000007866000	-3.032534E-1	3.664360E-3
00.000007980000	-3.032534E-1	2.549120E-3
00.000008094000	-3.032534E-1	3.664360E-3
00.000008208000	-3.032534E-1	3.505040E-3
00.000008322000	-3.032534E-1	2.708440E-3
00.000008436000	-3.032534E-1	3.345720E-3
00.000008550000	-3.032534E-1	2.867760E-3
00.000008664000	-3.032534E-1	3.823680E-3
00.000008778000	-3.032534E-1	2.549120E-3
00.000008892000	-3.032534E-1	2.708440E-3
00.000009006000	-3.032534E-1	3.823680E-3
00.000009120000	-3.032534E-1	2.549120E-3
00.000009234000	-3.032534E-1	3.823680E-3
00.000009348000	-3.032534E-1	3.664360E-3
00.000009462000	-3.032534E-1	2.549120E-3
00.000009576000	-3.032534E-1	3.664360E-3
00.000009690000	-3.032534E-1	2.708440E-3
00.000009804000	-3.032534E-1	2.708440E-3
00.000009918000	-3.032534E-1	3.983000E-3
00.000010032000	-3.032534E-1	3.505040E-3
00.000010146000	-3.032534E-1	2.389800E-3
00.000010260000	-3.032534E-1	3.823680E-3
00.000010374000	-3.032534E-1	2.230480E-3
00.000010488000	-3.032534E-1	4.142320E-3
00.000010602000	-3.032534E-1	2.549120E-3
00.000010716000	-3.032534E-1	2.230480E-3
00.000010830000	-3.032534E-1	4.301640E-3
00.000010944000	-3.032534E-1	2.230480E-3
00.000011058000	-3.032534E-1	3.983000E-3
00.000011172000	-3.032534E-1	4.301640E-3
00.000011286000	-3.032534E-1	2.230480E-3
00.000011400000	-3.032534E-1	3.027080E-3
00.000011514000	2.677663E-1	7.966000E-3
00.000011628000	2.677663E-1	7.966000E-3
00.000011742000	2.806707E-1	1.720656E-2
00.000011856000	2.806707E-1	1.640996E-2
00.000011970000	2.838968E-1	2.517256E-2
00.000012084000	2.838968E-1	2.357936E-2
00.000012198000	2.871229E-1	2.915556E-2
00.000012312000	2.871229E-1	2.756236E-2
00.000012426000	2.871229E-1	3.043012E-2
00.000012540000	2.871229E-1	3.202332E-2
00.000012654000	2.903490E-1	2.963352E-2
00.000012768000	2.903490E-1	3.074876E-2
00.000012882000	2.935751E-1	3.329788E-2
00.000012996000	2.903490E-1	3.074876E-2
00.000013110000	2.935751E-1	3.377584E-2
00.000013224000	2.935751E-1	3.297924E-2
00.000013338000	2.935751E-1	3.154536E-2
00.000013452000	2.935751E-1	3.345720E-2
00.000013566000	2.935751E-1	3.138604E-2
00.000013680000	2.935751E-1	3.313856E-2
00.000013794000	2.935751E-1	3.106740E-2
00.000013908000	2.935751E-1	3.234196E-2
00.000014022000	2.935751E-1	3.106740E-2
00.000014136000	2.935751E-1	3.154536E-2
00.000014250000	2.935751E-1	3.074876E-2
00.000014364000	2.935751E-1	3.154536E-2
00.000014478000	2.935751E-1	3.011148E-2
00.000014592000	2.935751E-1	3.090808E-2
00.000014706000	2.935751E-1	2.979284E-2
00.000014820000	2.935751E-1	3.043012E-2
00.000014934000	2.935751E-1	2.931488E-2
00.000015048000	2.935751E-1	3.011148E-2
00.000015162000	2.968012E-1	2.899624E-2
00.000015276000	2.935751E-1	2.979284E-2
00.000015390000	2.968012E-1	2.867760E-2
00.000015504000	2.935751E-1	2.963352E-2
00.000015618000	2.968012E-1	2.867760E-2
00.000015732000	2.935751E-1	2.867760E-2
00.000015846000	2.968012E-1	2.963352E-2
00.000015960000	2.935751E-1	2.851828E-2
00.000016074000	2.968012E-1	2.947420E-2
00.000016188000	2.968012E-1	2.835896E-2
00.000016302000	2.935751E-1	2.995216E-2
00.000016416000	2.968012E-1	2.851828E-2
00.000016530000	2.935751E-1	2.979284E-2
00.000016644000	2.935751E-1	2.995216E-2
00.000016758000	2.968012E-1	2.867760E-2
00.000016872000	2.968012E-1	2.867760E-2
00.000016986000	2.935751E-1	2.979284E-2
00.000017100000	2.968012E-1	2.979284E-2
00.000017214000	2.935751E-1	2.835896E-2
00.000017328000	2.968012E-1	2.947420E-2
00.000017442000	2.935751E-1	2.867760E-2
00.000017556000	2.968012E-1	2.963352E-2
00.000017670000	2.935751E-1	2.851828E-2
00.000017784000	2.968012E-1	2.851828E-2
00.000017898000	2.968012E-1	2.947420E-2
00.000018012000	2.968012E-1	2.963352E-2
00.000018126000	2.968012E-1	2.835896E-2
00.000018240000	2.968012E-1	2.851828E-2
00.000018354000	2.935751E-1	2.947420E-2
00.000018468000	2.968012E-1	2.931488E-2
00.000018582000	2.935751E-1	2.819964E-2
00.000018696000	2.968012E-1	2.931488E-2
00.000018810000	2.935751E-1	2.804032E-2
00.000018924000	2.968012E-1	2.931488E-2
00.000019038000	2.935751E-1	2.804032E-2
00.000019152000	2.968012E-1	2.899624E-2
00.000019266000	2.935751E-1	2.772168E-2
00.000019380000	2.968012E-1	2.788100E-2
00.000019494000	2.968012E-1	2.899624E-2
00.000019608000	2.968012E-1	2.724372E-2
00.000019722000	2.968012E-1	2.931488E-2
00.000019836000	2.968012E-1	2.883692E-2
00.000019950000	2.935751E-1	2.676576E-2
00.000020064000	2.968012E-1	2.899624E-2
00.000020178000	2.935751E-1	2.660644E-2
00.000020292000	2.968012E-1	2.851828E-2
00.000020406000	2.935751E-1	2.644712E-2
00.000020520000	2.968012E-1	2.612848E-2
00.000020634000	2.935751E-1	2.804032E-2
00.000020748000	2.968012E-1	2.596916E-2
00.000020862000	2.935751E-1	2.756236E-2
00.000020976000	2.968012E-1	2.724372E-2
00.000021090000	2.935751E-1	2.596916E-2
00.000021204000	2.968012E-1	2.692508E-2
00.000021318000	2.935751E-1	2.565052E-2
00.000021432000	2.968012E-1	2.660644E-2
00.000021546000	2.935751E-1	2.517256E-2
00.000021660000	2.968012E-1	2.596916E-2
00.000021774000	2.935751E-1	2.469460E-2
00.000021888000	2.968012E-1	2.596916E-2
00.000022002000	2.935751E-1	2.421664E-2
00.000022116000	2.968012E-1	2.549120E-2
00.000022230000	2.935751E-1	2.405732E-2
00.000022344000	2.968012E-1	2.373868E-2
00.000022458000	2.935751E-1	2.469460E-2
00.000022572000	2.968012E-1	2.310140E-2
00.000022686000	2.935751E-1	2.453528E-2
00.000022800000	2.968012E-1	2.437596E-2
00.000022914000	2.935751E-1	2.246412E-2
00.000023028000	2.968012E-1	2.405732E-2
00.000023142000	2.935751E-1	2.198616E-2
00.000023256000	2.968012E-1	2.357936E-2
00.000023370000	2.935751E-1	2.150820E-2
00.000023484000	2.968012E-1	2.134888E-2
00.000023598000	2.935751E-1	2.278276E-2
00.000023712000	2.968012E-1	2.071160E-2
00.000023826000	2.935751E-1	2.230480E-2
00.000023940000	2.968012E-1	2.198616E-2
00.000024054000	2.935751E-1	2.007432E-2
00.000024168000	2.968012E-1	2.166752E-2
00.000024282000	2.935751E-1	1.959636E-2
00.000024396000	2.935751E-1	2.087092E-2
00.000024510000	2.968012E-1	1.927772E-2
00.000024624000	2.968012E-1	2.023364E-2
00.000024738000	2.935751E-1	1.895908E-2
00.000024852000	2.968012E-1	1.975568E-2
00.000024966000	2.935751E-1	1.848112E-2
00.000025080000	2.968012E-1	1.927772E-2
00.000025194000	2.935751E-1	1.816248E-2
00.000025308000	2.968012E-1	1.784384E-2
00.000025422000	2.935751E-1	1.895908E-2
00.000025536000	2.968012E-1	1.832180E-2
00.000025650000	2.935751E-1	1.752520E-2
00.000025764000	2.968012E-1	1.816248E-2
00.000025878000	2.935751E-1	1.688792E-2
00.000025992000	2.968012E-1	1.768452E-2
00.000026106000	2.935751E-1	1.609132E-2
00.000026220000	2.935751E-1	1.736588E-2
00.000026334000	2.968012E-1	1.577268E-2
00.000026448000	2.935751E-1	1.704724E-2
00.000026562000	2.968012E-1	1.529472E-2
00.000026676000	2.935751E-1	1.672860E-2
00.000026790000	2.968012E-1	1.497608E-2
00.000026904000	2.968012E-1	1.481676E-2
00.000027018000	2.935751E-1	1.625064E-2
00.000027132000	2.935751E-1	1.402016E-2
00.000027246000	2.968012E-1	1.577268E-2
00.000027360000	2.935751E-1	1.561336E-2
00.000027474000	2.968012E-1	1.370152E-2
00.000027588000	2.935751E-1	1.513540E-2
00.000027702000	2.968012E-1	1.354220E-2
00.000027816000	2.935751E-1	1.481676E-2
00.000027930000	2.968012E-1	1.306424E-2
00.000028044000	2.935751E-1	1.322356E-2
00.000028158000	2.968012E-1	1.465744E-2
00.000028272000	2.935751E-1	1.274560E-2
00.000028386000	2.968012E-1	1.417948E-2
00.000028500000	2.935751E-1	1.370152E-2
00.000028614000	2.968012E-1	1.242696E-2
00.000028728000	2.935751E-1	1.354220E-2
00.000028842000	2.968012E-1	1.210832E-2
00.000028956000	2.935751E-1	1.322356E-2
00.000029070000	2.968012E-1	1.194900E-2
00.000029184000	2.935751E-1	1.194900E-2
00.000029298000	2.968012E-1	1.274560E-2
00.000029412000	2.935751E-1	1.258628E-2
00.000029526000	2.968012E-1	1.147104E-2
00.000029640000	2.935751E-1	1.226764E-2
00.000029754000	2.968012E-1	1.131172E-2
00.000029868000	2.935751E-1	1.226764E-2
00.000029982000	2.968012E-1	1.099308E-2
00.000030096000	2.935751E-1	1.178968E-2
00.000030210000	2.968012E-1	1.115240E-2
00.000030324000	2.935751E-1	1.194900E-2
00.000030438000	2.968012E-1	1.035580E-2
00.000030552000	2.935751E-1	1.051512E-2
00.000030666000	2.968012E-1	1.163036E-2
00.000030780000	2.935751E-1	1.035580E-2
00.000030894000	2.968012E-1	1.147104E-2
00.000031008000	2.935751E-1	1.131172E-2
00.000031122000	2.968012E-1	1.003716E-2
00.000031236000	2.935751E-1	1.131172E-2
00.000031350000	2.968012E-1	1.003716E-2
00.000031464000	2.935751E-1	1.147104E-2
00.000031578000	2.935751E-1	9.877840E-3
00.000031692000	2.935751E-1	1.019648E-2
00.000031806000	2.935751E-1	1.083376E-2
00.000031920000	2.935751E-1	1.003716E-2
00.000032034000	2.968012E-1	1.083376E-2
00.000032148000	2.935751E-1	1.067444E-2
00.000032262000	2.935751E-1	9.718520E-3
00.000032376000	2.935751E-1	1.067444E-2
00.000032490000	2.935751E-1	9.559200E-3
00.000032604000	2.935751E-1	1.083376E-2
00.000032718000	2.935751E-1	9.399880E-3
00.000032832000	2.935751E-1	1.035580E-2
00.000032946000	2.935751E-1	9.559200E-3
00.000033060000	2.935751E-1	1.051512E-2
00.000033174000	2.968012E-1	9.081240E-3
00.000033288000	2.935751E-1	1.051512E-2
00.000033402000	2.935751E-1	9.081240E-3
00.000033516000	2.935751E-1	8.921920E-3
00.000033630000	2.935751E-1	1.051512E-2
00.000033744000	2.935751E-1	8.762600E-3
00.000033858000	2.935751E-1	1.051512E-2
00.000033972000	2.935751E-1	1.035580E-2
00.000034086000	2.935751E-1	8.921920E-3
00.000034200000	2.935751E-1	1.051512E-2
00.000034314000	2.968012E-1	9.081240E-3
00.000034428000	2.935751E-1	9.081240E-3
00.000034542000	2.968012E-1	1.067444E-2
00.000034656000	2.935751E-1	8.921920E-3
00.000034770000	2.935751E-1	1.035580E-2
00.000034884000	2.935751E-1	8.762600E-3
00.000034998000	2.935751E-1	1.035580E-2
00.000035112000	2.935751E-1	8.921920E-3
00.000035226000	2.935751E-1	1.035580E-2
00.000035340000	2.935751E-1	1.067444E-2
00.000035454000	2.935751E-1	8.603280E-3
00.000035568000	2.935751E-1	1.067444E-2
00.000035682000	2.935751E-1	8.921920E-3
00.000035796000	2.935751E-1	8.762600E-3
00.000035910000	2.935751E-1	1.067444E-2
00.000036024000	2.935751E-1	8.762600E-3
00.000036138000	2.935751E-1	1.051512E-2
00.000036252000	2.935751E-1	1.035580E-2
00.000036366000	2.935751E-1	9.081240E-3
00.000036480000	2.935751E-1	1.067444E-2
00.000036594000	2.935751E-1	9.240560E-3
00.000036708000	2.935751E-1	1.019648E-2
00.000036822000	2.968012E-1	9.240560E-3
00.000036936000	2.935751E-1	1.035580E-2
00.000037050000	2.935751E-1	9.240560E-3
00.000037164000	2.935751E-1	1.051512E-2
00.000037278000	2.935751E-1	9.240560E-3
00.000037392000	2.935751E-1	9.240560E-3
00.000037506000	2.935751E-1	1.051512E-2
00.000037620000	2.935751E-1	9.399880E-3
00.000037734000	2.935751E-1	1.051512E-2
00.000037848000	2.935751E-1	9.240560E-3
00.000037962000	2.935751E-1	1.051512E-2
00.000038076000	2.935751E-1	1.035580E-2
00.000038190000	2.935751E-1	8.762600E-3
00.000038304000	2.935751E-1	1.067444E-2
00.000038418000	2.935751E-1	9.399880E-3
00.000038532000	2.935751E-1	1.099308E-2
00.000038646000	2.935751E-1	9.240560E-3
00.000038760000	2.935751E-1	8.921920E-3
00.000038874000	2.935751E-1	1.083376E-2
00.000038988000	2.935751E-1	9.081240E-3
00.000039102000	2.935751E-1	1.147104E-2
00.000039216000	2.935751E-1	1.131172E-2
00.000039330000	2.935751E-1	8.921920E-3
00.000039444000	2.935751E-1	1.115240E-2
00.000039558000	2.935751E-1	8.921920E-3
00.000039672000	2.935751E-1	1.163036E-2
00.000039786000	2.935751E-1	9.081240E-3
00.000039900000	2.935751E-1	8.762600E-3
00.000040014000	2.935751E-1	1.258628E-2
00.000040128000	2.935751E-1	8.443960E-3
00.000040242000	2.935751E-1	1.194900E-2
00.000040356000	2.935751E-1	1.194900E-2
00.000040470000	2.935751E-1	8.443960E-3
00.000040584000	2.935751E-1	1.226764E-2
00.000040698000	2.935751E-1	8.921920E-3
00.000040812000	2.935751E-1	9.240560E-3
00.000040926000	2.935751E-1	1.210832E-2
00.000041040000	2.935751E-1	9.081240E-3
00.000041154000	2.935751E-1	1.210832E-2
00.000041268000	2.935751E-1	9.081240E-3
00.000041382000	2.935751E-1	1.163036E-2
00.000041496000	2.935751E-1	1.194900E-2
00.000041610000	2.935751E-1	9.081240E-3
00.000041724000	2.935751E-1	1.194900E-2
00.000041838000	2.935751E-1	9.399880E-3
00.000041952000	2.935751E-1	9.718520E-3
00.000042066000	2.935751E-1	1.178968E-2
00.000042180000	2.935751E-1	9.559200E-3
00.000042294000	2.935751E-1	1.178968E-2
00.000042408000	2.935751E-1	9.877840E-3
00.000042522000	2.935751E-1	1.178968E-2
00.000042636000	2.935751E-1	1.194900E-2
00.000042750000	2.935751E-1	9.877840E-3
00.000042864000	2.935751E-1	1.163036E-2
00.000042978000	2.935751E-1	1.019648E-2
00.000043092000	2.935751E-1	1.035580E-2
00.000043206000	2.935751E-1	1.147104E-2
00.000043320000	2.935751E-1	1.019648E-2
00.000043434000	2.935751E-1	1.147104E-2
00.000043548000	2.935751E-1	1.051512E-2
00.000043662000	2.935751E-1	1.178968E-2
00.000043776000	2.935751E-1	1.035580E-2
00.000043890000	2.935751E-1	1.163036E-2
00.000044004000	2.935751E-1	1.163036E-2
00.000044118000	2.935751E-1	1.067444E-2
00.000044232000	2.935751E-1	1.194900E-2
00.000044346000	2.935751E-1	1.051512E-2
00.000044460000	2.935751E-1	1.210832E-2
00.000044574000	2.935751E-1	1.019648E-2
00.000044688000	2.935751E-1	1.067444E-2
00.000044802000	2.935751E-1	1.210832E-2
00.000044916000	2.935751E-1	1.019648E-2
00.000045030000	2.935751E-1	1.178968E-2
00.000045144000	2.935751E-1	1.178968E-2
00.000045258000	2.968012E-1	1.083376E-2
00.000045372000	2.935751E-1	1.194900E-2
00.000045486000	2.935751E-1	1.067444E-2
00.000045600000	2.935751E-1	1.099308E-2
00.000045714000	2.935751E-1	1.226764E-2
00.000045828000	2.935751E-1	1.083376E-2
00.000045942000	2.935751E-1	1.242696E-2
00.000046056000	2.935751E-1	1.210832E-2
00.000046170000	2.935751E-1	1.067444E-2
00.000046284000	2.935751E-1	1.226764E-2
00.000046398000	2.935751E-1	1.083376E-2
00.000046512000	2.935751E-1	1.226764E-2
00.000046626000	2.935751E-1	1.099308E-2
00.000046740000	2.935751E-1	1.067444E-2
00.000046854000	2.935751E-1	1.226764E-2
00.000046968000	2.935751E-1	1.051512E-2
00.000047082000	2.935751E-1	1.242696E-2
00.000047196000	2.935751E-1	1.258628E-2
00.000047310000	2.935751E-1	1.067444E-2
00.000047424000	2.935751E-1	1.226764E-2
00.000047538000	2.935751E-1	1.051512E-2
00.000047652000	2.935751E-1	1.099308E-2
00.000047766000	2.935751E-1	1.226764E-2
00.000047880000	2.935751E-1	1.099308E-2
00.000047994000	2.935751E-1	1.210832E-2
00.000048108000	2.935751E-1	1.131172E-2
00.000048222000	2.935751E-1	1.258628E-2
00.000048336000	2.935751E-1	1.210832E-2
00.000048450000	2.935751E-1	1.131172E-2
00.000048564000	2.935751E-1	1.131172E-2
00.000048678000	2.935751E-1	1.210832E-2
00.000048792000	2.935751E-1	1.258628E-2
00.000048906000	2.935751E-1	1.083376E-2
00.000049020000	2.935751E-1	1.115240E-2
00.000049134000	2.935751E-1	1.210832E-2
00.000049248000	2.935751E-1	1.226764E-2
00.000049362000	2.935751E-1	1.115240E-2
00.000049476000	2.935751E-1	1.099308E-2
00.000049590000	2.935751E-1	1.226764E-2
00.000049704000	2.935751E-1	1.115240E-2
00.000049818000	2.935751E-1	1.242696E-2
00.000049932000	2.935751E-1	1.226764E-2
00.000050046000	2.935751E-1	1.131172E-2
00.000050160000	2.935751E-1	1.131172E-2
00.000050274000	2.935751E-1	1.226764E-2
00.000050388000	2.935751E-1	1.274560E-2
00.000050502000	2.935751E-1	1.131172E-2
00.000050616000	2.935751E-1	1.131172E-2
00.000050730000	2.935751E-1	1.274560E-2
00.000050844000	2.935751E-1	1.131172E-2
00.000050958000	2.968012E-1	1.242696E-2
00.000051072000	2.935751E-1	1.131172E-2
00.000051186000	2.968012E-1	1.258628E-2
00.000051300000	2.935751E-1	1.258628E-2
00.000051414000	2.935751E-1	1.131172E-2
00.000051528000	2.935751E-1	1.258628E-2
00.000051642000	2.935751E-1	1.131172E-2
00.000051756000	2.935751E-1	1.147104E-2
00.000051870000	2.968012E-1	1.290492E-2
00.000051984000	2.935751E-1	1.131172E-2
00.000052098000	2.935751E-1	1.274560E-2
00.000052212000	2.935751E-1	1.131172E-2
00.000052326000	2.935751E-1	1.274560E-2
00.000052440000	2.935751E-1	1.115240E-2
00.000052554000	2.935751E-1	1.274560E-2
00.000052668000	2.935751E-1	1.258628E-2
00.000052782000	2.935751E-1	1.131172E-2
00.000052896000	2.935751E-1	1.274560E-2
00.000053010000	2.935751E-1	1.115240E-2
00.000053124000	2.935751E-1	1.115240E-2
00.000053238000	2.968012E-1	1.258628E-2
00.000053352000	2.935751E-1	1.131172E-2
00.000053466000	2.968012E-1	1.274560E-2
00.000053580000	2.935751E-1	1.258628E-2
00.000053694000	2.935751E-1	1.099308E-2
00.000053808000	2.935751E-1	1.274560E-2
00.000053922000	2.968012E-1	1.131172E-2
00.000054036000	2.935751E-1	1.258628E-2
00.000054150000	2.968012E-1	1.147104E-2
00.000054264000	2.935751E-1	1.163036E-2
00.000054378000	2.968012E-1	1.274560E-2
00.000054492000	2.935751E-1	1.147104E-2
00.000054606000	2.935751E-1	1.242696E-2
00.000054720000	2.935751E-1	1.242696E-2
00.000054834000	2.935751E-1	1.115240E-2
00.000054948000	2.935751E-1	1.147104E-2
00.000055062000	2.968012E-1	1.258628E-2
00.000055176000	2.935751E-1	1.147104E-2
00.000055290000	2.968012E-1	1.258628E-2
00.000055404000	2.935751E-1	1.163036E-2
00.000055518000	2.968012E-1	1.274560E-2
00.000055632000	2.935751E-1	1.147104E-2
00.000055746000	2.935751E-1	1.258628E-2
00.000055860000	2.935751E-1	1.147104E-2
00.000055974000	2.968012E-1	1.242696E-2
00.000056088000	2.935751E-1	1.178968E-2
00.000056202000	2.968012E-1	1.258628E-2
00.000056316000	2.935751E-1	1.242696E-2
00.000056430000	2.968012E-1	1.147104E-2
00.000056544000	2.935751E-1	1.242696E-2
00.000056658000	2.935751E-1	1.131172E-2
00.000056772000	2.935751E-1	1.147104E-2
00.000056886000	2.935751E-1	1.258628E-2
00.000057000000	2.935751E-1	1.163036E-2
00.000057114000	2.968012E-1	1.274560E-2
00.000057228000	2.935751E-1	1.147104E-2
00.000057342000	2.968012E-1	1.258628E-2
00.000057456000	2.935751E-1	1.242696E-2
00.000057570000	2.968012E-1	1.147104E-2
00.000057684000	2.935751E-1	1.242696E-2
00.000057798000	2.968012E-1	1.131172E-2
00.000057912000	2.935751E-1	1.242696E-2
00.000058026000	2.968012E-1	1.147104E-2
00.000058140000	2.935751E-1	1.258628E-2
00.000058254000	2.935751E-1	1.131172E-2
00.000058368000	2.935751E-1	1.163036E-2
00.000058482000	2.968012E-1	1.258628E-2
00.000058596000	2.935751E-1	1.131172E-2
00.000058710000	2.968012E-1	1.274560E-2
00.000058824000	2.935751E-1	1.274560E-2
00.000058938000	2.968012E-1	1.131172E-2
00.000059052000	2.935751E-1	1.274560E-2
00.000059166000	2.968012E-1	1.131172E-2
00.000059280000	2.935751E-1	1.147104E-2
00.000059394000	2.968012E-1	1.274560E-2
00.000059508000	2.935751E-1	1.147104E-2
00.000059622000	2.968012E-1	1.306424E-2
00.000059736000	2.935751E-1	1.131172E-2
00.000059850000	2.935751E-1	1.290492E-2
00.000059964000	2.935751E-1	1.290492E-2
00.000060078000	2.968012E-1	1.163036E-2
00.000060192000	2.935751E-1	1.274560E-2
00.000060306000	2.968012E-1	1.147104E-2
00.000060420000	2.935751E-1	1.131172E-2
00.000060534000	2.968012E-1	1.274560E-2
00.000060648000	2.935751E-1	1.115240E-2
00.000060762000	2.968012E-1	1.290492E-2
00.000060876000	2.935751E-1	1.147104E-2
00.000060990000	2.968012E-1	1.274560E-2
00.000061104000	2.935751E-1	1.290492E-2
00.000061218000	2.935751E-1	1.147104E-2
00.000061332000	2.935751E-1	1.258628E-2
00.000061446000	2.935751E-1	1.178968E-2
00.000061560000	2.935751E-1	1.274560E-2
00.000061674000	2.935751E-1	1.178968E-2
00.000061788000	2.935751E-1	1.147104E-2
00.000061902000	2.968012E-1	1.274560E-2
00.000062016000	2.935751E-1	1.147104E-2
00.000062130000	2.968012E-1	1.274560E-2
00.000062244000	2.935751E-1	1.131172E-2
00.000062358000	2.935751E-1	1.274560E-2
00.000062472000	2.935751E-1	1.147104E-2
00.000062586000	2.968012E-1	1.258628E-2
00.000062700000	2.935751E-1	1.258628E-2
00.000062814000	2.968012E-1	1.163036E-2
00.000062928000	2.935751E-1	1.258628E-2
00.000063042000	2.968012E-1	1.163036E-2
00.000063156000	2.935751E-1	1.290492E-2
00.000063270000	2.968012E-1	1.131172E-2
00.000063384000	2.935751E-1	1.131172E-2
00.000063498000	2.935751E-1	1.306424E-2
00.000063612000	2.935751E-1	1.131172E-2
00.000063726000	2.968012E-1	1.290492E-2
00.000063840000	2.935751E-1	1.099308E-2
00.000063954000	2.968012E-1	1.258628E-2
00.000064068000	2.935751E-1	1.306424E-2
00.000064182000	2.968012E-1	1.083376E-2
00.000064296000	2.935751E-1	1.306424E-2
00.000064410000	2.968012E-1	1.115240E-2
00.000064524000	2.935751E-1	1.115240E-2
00.000064638000	2.968012E-1	1.306424E-2
00.000064752000	2.935751E-1	1.099308E-2
00.000064866000	2.968012E-1	1.322356E-2
00.000064980000	2.935751E-1	1.274560E-2
00.000065094000	2.968012E-1	1.099308E-2
00.000065208000	2.935751E-1	1.306424E-2
00.000065322000	2.968012E-1	1.099308E-2
00.000065436000	2.935751E-1	1.290492E-2
00.000065550000	2.968012E-1	1.163036E-2
00.000065664000	2.935751E-1	1.163036E-2
00.000065778000	2.968012E-1	1.274560E-2
00.000065892000	2.935751E-1	1.147104E-2
00.000066006000	2.968012E-1	1.274560E-2
00.000066120000	2.935751E-1	1.147104E-2
00.000066234000	2.968012E-1	1.274560E-2
00.000066348000	2.968012E-1	1.274560E-2
00.000066462000	2.935751E-1	1.163036E-2
00.000066576000	2.935751E-1	1.290492E-2
00.000066690000	2.968012E-1	1.147104E-2
00.000066804000	2.935751E-1	1.290492E-2
00.000066918000	2.968012E-1	1.147104E-2
00.000067032000	2.935751E-1	1.131172E-2
00.000067146000	2.968012E-1	1.274560E-2
00.000067260000	2.935751E-1	1.131172E-2
00.000067374000	2.968012E-1	1.274560E-2
00.000067488000	2.935751E-1	1.274560E-2
00.000067602000	2.968012E-1	1.131172E-2
00.000067716000	2.935751E-1	1.274560E-2
00.000067830000	2.968012E-1	1.147104E-2
00.000067944000	2.935751E-1	1.178968E-2
00.000068058000	2.968012E-1	1.258628E-2
00.000068172000	2.935751E-1	1.147104E-2
00.000068286000	2.968012E-1	1.274560E-2
00.000068400000	2.935751E-1	1.242696E-2
00.000068514000	2.968012E-1	1.163036E-2
00.000068628000	2.935751E-1	1.274560E-2
00.000068742000	2.968012E-1	1.147104E-2
00.000068856000	2.935751E-1	1.306424E-2
00.000068970000	2.968012E-1	1.147104E-2
00.000069084000	2.935751E-1	1.147104E-2
00.000069198000	2.968012E-1	1.338288E-2
00.000069312000	2.935751E-1	1.115240E-2
00.000069426000	2.968012E-1	1.338288E-2
00.000069540000	2.935751E-1	1.322356E-2
00.000069654000	2.968012E-1	1.083376E-2
00.000069768000	2.935751E-1	1.354220E-2
00.000069882000	2.968012E-1	1.067444E-2
00.000069996000	2.935751E-1	1.354220E-2
00.000070110000	2.968012E-1	1.083376E-2
00.000070224000	2.935751E-1	1.051512E-2
00.000070338000	2.968012E-1	1.386084E-2
00.000070452000	2.935751E-1	1.035580E-2
00.000070566000	2.968012E-1	1.370152E-2
00.000070680000	2.935751E-1	1.370152E-2
00.000070794000	2.968012E-1	1.051512E-2
00.000070908000	2.935751E-1	1.354220E-2
00.000071022000	2.968012E-1	1.083376E-2
00.000071136000	2.935751E-1	1.338288E-2
00.000071250000	2.968012E-1	1.099308E-2
00.000071364000	2.935751E-1	1.099308E-2
00.000071478000	2.968012E-1	1.322356E-2
00.000071592000	2.935751E-1	1.099308E-2
00.000071706000	2.968012E-1	1.354220E-2
00.000071820000	2.935751E-1	1.322356E-2
00.000071934000	2.968012E-1	1.115240E-2
00.000072048000	2.968012E-1	1.338288E-2
00.000072162000	2.935751E-1	1.099308E-2
00.000072276000	2.935751E-1	1.306424E-2
00.000072390000	2.968012E-1	1.099308E-2
00.000072504000	2.935751E-1	1.131172E-2
00.000072618000	2.968012E-1	1.338288E-2
00.000072732000	2.935751E-1	1.131172E-2
00.000072846000	2.968012E-1	1.322356E-2
00.000072960000	2.935751E-1	1.147104E-2
00.000073074000	2.968012E-1	1.306424E-2
00.000073188000	2.935751E-1	1.306424E-2
00.000073302000	2.968012E-1	1.163036E-2
00.000073416000	2.935751E-1	1.322356E-2
00.000073530000	2.968012E-1	1.147104E-2
00.000073644000	2.935751E-1	1.147104E-2
00.000073758000	2.968012E-1	1.338288E-2
00.000073872000	2.935751E-1	1.147104E-2
00.000073986000	2.968012E-1	1.306424E-2
00.000074100000	2.935751E-1	1.131172E-2
00.000074214000	2.968012E-1	1.306424E-2
00.000074328000	2.935751E-1	1.290492E-2
00.000074442000	2.968012E-1	1.163036E-2
00.000074556000	2.935751E-1	1.290492E-2
00.000074670000	2.968012E-1	1.178968E-2
00.000074784000	2.935751E-1	1.194900E-2
00.000074898000	2.968012E-1	1.306424E-2
00.000075012000	2.935751E-1	1.306424E-2
00.000075126000	2.968012E-1	1.178968E-2
00.000075240000	2.935751E-1	1.163036E-2
00.000075354000	2.968012E-1	1.290492E-2
00.000075468000	2.968012E-1	1.274560E-2
00.000075582000	2.935751E-1	1.163036E-2
00.000075696000	2.935751E-1	1.306424E-2
00.000075810000	2.968012E-1	1.147104E-2
00.000075924000	2.935751E-1	1.306424E-2
00.000076038000	2.968012E-1	1.163036E-2
00.000076152000	2.935751E-1	1.147104E-2
00.000076266000	2.968012E-1	1.322356E-2
00.000076380000	2.935751E-1	1.163036E-2
00.000076494000	2.968012E-1	1.322356E-2
00.000076608000	2.935751E-1	1.322356E-2
00.000076722000	2.968012E-1	1.163036E-2
00.000076836000	2.968012E-1	1.306424E-2
00.000076950000	2.935751E-1	1.163036E-2
00.000077064000	2.935751E-1	1.178968E-2
00.000077178000	2.968012E-1	1.306424E-2
00.000077292000	2.935751E-1	1.306424E-2
00.000077406000	2.968012E-1	1.178968E-2
00.000077520000	2.935751E-1	1.194900E-2
00.000077634000	2.968012E-1	1.322356E-2
00.000077748000	2.935751E-1	1.178968E-2
00.000077862000	2.968012E-1	1.322356E-2
00.000077976000	2.935751E-1	1.306424E-2
00.000078090000	2.968012E-1	1.194900E-2
00.000078204000	2.935751E-1	1.322356E-2
00.000078318000	2.968012E-1	1.163036E-2
00.000078432000	2.968012E-1	1.178968E-2
00.000078546000	2.935751E-1	1.306424E-2
00.000078660000	2.935751E-1	1.163036E-2
00.000078774000	2.968012E-1	1.338288E-2
00.000078888000	2.935751E-1	1.163036E-2
00.000079002000	2.968012E-1	1.306424E-2
00.000079116000	2.935751E-1	1.306424E-2
00.000079230000	2.968012E-1	1.178968E-2
00.000079344000	2.935751E-1	1.306424E-2
00.000079458000	2.968012E-1	1.178968E-2
00.000079572000	2.968012E-1	1.290492E-2
00.000079686000	2.935751E-1	1.194900E-2
00.000079800000	2.935751E-1	1.194900E-2
00.000079914000	2.968012E-1	1.306424E-2
00.000080028000	2.935751E-1	1.194900E-2
00.000080142000	2.968012E-1	1.274560E-2
00.000080256000	2.935751E-1	1.306424E-2
00.000080370000	2.968012E-1	1.147104E-2
00.000080484000	2.935751E-1	1.163036E-2
00.000080598000	2.968012E-1	1.322356E-2
00.000080712000	2.935751E-1	1.163036E-2
00.000080826000	2.968012E-1	1.290492E-2
00.000080940000	2.935751E-1	1.306424E-2
00.000081054000	2.968012E-1	1.194900E-2
00.000081168000	2.935751E-1	1.306424E-2
00.000081282000	2.968012E-1	1.178968E-2
00.000081396000	2.935751E-1	1.322356E-2
00.000081510000	2.968012E-1	1.163036E-2
00.000081624000	2.968012E-1	1.163036E-2
00.000081738000	2.935751E-1	1.322356E-2
00.000081852000	2.935751E-1	1.163036E-2
00.000081966000	2.968012E-1	1.306424E-2
00.000082080000	2.935751E-1	1.178968E-2
00.000082194000	2.968012E-1	1.290492E-2
00.000082308000	2.935751E-1	1.306424E-2
00.000082422000	2.968012E-1	1.178968E-2
00.000082536000	2.935751E-1	1.290492E-2
00.000082650000	2.968012E-1	1.163036E-2
00.000082764000	2.968012E-1	1.178968E-2
00.000082878000	2.935751E-1	1.306424E-2
00.000082992000	2.935751E-1	1.178968E-2
00.000083106000	2.968012E-1	1.338288E-2
00.000083220000	2.935751E-1	1.322356E-2
00.000083334000	2.968012E-1	1.163036E-2
00.000083448000	2.935751E-1	1.290492E-2
00.000083562000	2.968012E-1	1.163036E-2
00.000083676000	2.935751E-1	1.194900E-2
00.000083790000	2.968012E-1	1.322356E-2
00.000083904000	2.968012E-1	1.163036E-2
00.000084018000	2.935751E-1	1.290492E-2
00.000084132000	2.968012E-1	1.178968E-2
00.000084246000	2.935751E-1	1.322356E-2
00.000084360000	2.935751E-1	1.163036E-2
00.000084474000	2.968012E-1	1.322356E-2
00.000084588000	2.968012E-1	1.322356E-2
00.000084702000	2.935751E-1	1.178968E-2
00.000084816000	2.935751E-1	1.306424E-2
00.000084930000	2.968012E-1	1.194900E-2
00.000085044000	2.968012E-1	1.306424E-2
00.000085158000	2.935751E-1	1.163036E-2
00.000085272000	2.935751E-1	1.163036E-2
00.000085386000	2.968012E-1	1.306424E-2
00.000085500000	2.935751E-1	1.163036E-2
00.000085614000	2.968012E-1	1.306424E-2
00.000085728000	2.935751E-1	1.306424E-2
00.000085842000	2.968012E-1	1.178968E-2
00.000085956000	2.968012E-1	1.322356E-2
00.000086070000	2.935751E-1	1.163036E-2
00.000086184000	2.935751E-1	1.147104E-2
00.000086298000	2.968012E-1	1.306424E-2
00.000086412000	2.935751E-1	1.131172E-2
00.000086526000	2.968012E-1	1.338288E-2
00.000086640000	2.968012E-1	1.322356E-2
00.000086754000	2.935751E-1	1.194900E-2
00.000086868000	2.968012E-1	1.322356E-2
00.000086982000	2.935751E-1	1.163036E-2
00.000087096000	2.935751E-1	1.147104E-2
00.000087210000	2.968012E-1	1.338288E-2
00.000087324000	2.968012E-1	1.147104E-2
00.000087438000	2.935751E-1	1.322356E-2
00.000087552000	2.968012E-1	1.306424E-2
00.000087666000	2.935751E-1	1.163036E-2
00.000087780000	2.935751E-1	1.338288E-2
00.000087894000	2.968012E-1	1.194900E-2
00.000088008000	2.968012E-1	1.210832E-2
00.000088122000	2.935751E-1	1.338288E-2
00.000088236000	2.935751E-1	1.210832E-2
00.000088350000	2.968012E-1	1.338288E-2
00.000088464000	2.968012E-1	1.322356E-2
00.000088578000	2.935751E-1	1.194900E-2
00.000088692000	2.935751E-1	1.322356E-2
00.000088806000	2.968012E-1	1.178968E-2
00.000088920000	2.968012E-1	1.178968E-2
00.000089034000	2.935751E-1	1.306424E-2
00.000089148000	2.968012E-1	1.226764E-2
00.000089262000	2.935751E-1	1.306424E-2
00.000089376000	2.935751E-1	1.290492E-2
00.000089490000	2.968012E-1	1.194900E-2
00.000089604000	2.968012E-1	1.210832E-2
00.000089718000	2.935751E-1	1.290492E-2
00.000089832000	2.968012E-1	1.322356E-2
00.000089946000	2.935751E-1	1.194900E-2
00.000090060000	2.968012E-1	1.210832E-2
00.000090174000	2.935751E-1	1.290492E-2
00.000090288000	2.968012E-1	1.194900E-2
00.000090402000	2.935751E-1	1.306424E-2
00.000090516000	2.968012E-1	1.210832E-2
00.000090630000	2.935751E-1	1.306424E-2
00.000090744000	2.968012E-1	1.194900E-2
00.000090858000	2.935751E-1	1.322356E-2
00.000090972000	2.935751E-1	1.322356E-2
00.000091086000	2.968012E-1	1.210832E-2
00.000091200000	2.968012E-1	1.210832E-2
00.000091314000	2.935751E-1	1.306424E-2
00.000091428000	2.935751E-1	1.306424E-2
00.000091542000	2.968012E-1	1.210832E-2
00.000091656000	2.935751E-1	1.322356E-2
00.000091770000	2.968012E-1	1.210832E-2
00.000091884000	2.968012E-1	1.210832E-2
00.000091998000	2.935751E-1	1.370152E-2
00.000092112000	2.935751E-1	1.178968E-2
00.000092226000	2.968012E-1	1.354220E-2
00.000092340000	2.968012E-1	1.194900E-2
00.000092454000	2.935751E-1	1.322356E-2
00.000092568000	2.968012E-1	1.370152E-2
00.000092682000	2.935751E-1	1.178968E-2
00.000092796000	2.968012E-1	1.194900E-2
00.000092910000	2.935751E-1	1.354220E-2
00.000093024000	2.968012E-1	1.178968E-2
00.000093138000	2.935751E-1	1.370152E-2
00.000093252000	2.935751E-1	1.194900E-2
00.000093366000	2.968012E-1	1.338288E-2
00.000093480000	2.968012E-1	1.338288E-2
00.000093594000	2.935751E-1	1.210832E-2
00.000093708000	2.935751E-1	1.370152E-2
00.000093822000	2.968012E-1	1.178968E-2
00.000093936000	2.935751E-1	1.226764E-2
00.000094050000	2.968012E-1	1.338288E-2
00.000094164000	2.968012E-1	1.194900E-2
00.000094278000	2.935751E-1	1.370152E-2
00.000094392000	2.968012E-1	1.194900E-2
00.000094506000	2.935751E-1	1.322356E-2
00.000094620000	2.968012E-1	1.354220E-2
00.000094734000	2.935751E-1	1.178968E-2
00.000094848000	2.935751E-1	1.370152E-2
00.000094962000	2.968012E-1	1.178968E-2
00.000095076000	2.968012E-1	1.210832E-2
00.000095190000	2.935751E-1	1.354220E-2
00.000095304000	2.968012E-1	1.178968E-2
00.000095418000	2.935751E-1	1.370152E-2
00.000095532000	2.968012E-1	1.322356E-2
00.000095646000	2.935751E-1	1.178968E-2
00.000095760000	2.935751E-1	1.322356E-2
00.000095874000	2.968012E-1	1.210832E-2
00.000095988000	2.968012E-1	1.354220E-2
00.000096102000	2.935751E-1	1.210832E-2
00.000096216000	2.935751E-1	1.338288E-2
00.000096330000	2.968012E-1	1.226764E-2
00.000096444000	2.968012E-1	1.194900E-2
00.000096558000	2.935751E-1	1.338288E-2
00.000096672000	2.968012E-1	1.194900E-2
00.000096786000	2.935751E-1	1.338288E-2
00.000096900000	2.968012E-1	1.306424E-2
00.000097014000	2.935751E-1	1.210832E-2
00.000097128000	2.935751E-1	1.322356E-2
00.000097242000	2.968012E-1	1.226764E-2
00.000097356000	2.968012E-1	1.226764E-2
00.000097470000	2.935751E-1	1.290492E-2
00.000097584000	2.935751E-1	1.194900E-2
00.000097698000	2.968012E-1	1.306424E-2
00.000097812000	2.968012E-1	1.306424E-2
00.000097926000	2.935751E-1	1.210832E-2
00.000098040000	2.968012E-1	1.338288E-2
00.000098154000	2.935751E-1	1.194900E-2
00.000098268000	2.968012E-1	1.194900E-2
00.000098382000	2.935751E-1	1.306424E-2
00.000098496000	2.968012E-1	1.210832E-2
00.000098610000	2.935751E-1	1.354220E-2
00.000098724000	2.968012E-1	1.194900E-2
00.000098838000	2.935751E-1	1.354220E-2
00.000098952000	2.935751E-1	1.338288E-2
00.000099066000	2.968012E-1	1.226764E-2
00.000099180000	2.935751E-1	1.322356E-2
00.000099294000	2.968012E-1	1.194900E-2
00.000099408000	2.968012E-1	1.226764E-2
00.000099522000	2.935751E-1	1.354220E-2
00.000099636000	2.968012E-1	1.306424E-2
00.000099750000	2.935751E-1	1.210832E-2
00.000099864000	2.968012E-1	1.338288E-2
00.000099978000	2.935751E-1	1.194900E-2
00.000100092000	2.968012E-1	1.370152E-2
00.000100206000	2.935751E-1	1.210832E-2
00.000100320000	2.968012E-1	1.338288E-2
00.000100434000	2.935751E-1	1.210832E-2
00.000100548000	2.968012E-1	1.338288E-2
00.000100662000	2.935751E-1	1.210832E-2
00.000100776000	2.968012E-1	1.242696E-2
00.000100890000	2.935751E-1	1.306424E-2
00.000101004000	2.968012E-1	1.226764E-2
00.000101118000	2.935751E-1	1.338288E-2
00.000101232000	2.935751E-1	1.338288E-2
00.000101346000	2.968012E-1	1.194900E-2
00.000101460000	2.968012E-1	1.338288E-2
00.000101574000	2.935751E-1	1.178968E-2
00.000101688000	2.968012E-1	1.370152E-2
00.000101802000	2.935751E-1	1.210832E-2
00.000101916000	2.968012E-1	1.370152E-2
00.000102030000	2.935751E-1	1.210832E-2
00.000102144000	2.968012E-1	1.194900E-2
00.000102258000	2.935751E-1	1.354220E-2
00.000102372000	2.935751E-1	1.178968E-2
00.000102486000	2.968012E-1	1.370152E-2
00.000102600000	2.968012E-1	1.386084E-2
00.000102714000	2.935751E-1	1.163036E-2
00.000102828000	2.968012E-1	1.402016E-2
00.000102942000	2.935751E-1	1.178968E-2
00.000103056000	2.968012E-1	1.194900E-2
00.000103170000	2.935751E-1	1.417948E-2
00.000103284000	2.968012E-1	1.178968E-2
00.000103398000	2.935751E-1	1.386084E-2
00.000103512000	2.968012E-1	1.194900E-2
00.000103626000	2.935751E-1	1.354220E-2
00.000103740000	2.968012E-1	1.370152E-2
00.000103854000	2.935751E-1	1.178968E-2
00.000103968000	2.968012E-1	1.370152E-2
00.000104082000	2.935751E-1	1.210832E-2
00.000104196000	2.968012E-1	1.370152E-2
00.000104310000	2.935751E-1	1.178968E-2
00.000104424000	2.968012E-1	1.226764E-2
00.000104538000	2.935751E-1	1.370152E-2
00.000104652000	2.968012E-1	1.226764E-2
00.000104766000	2.935751E-1	1.370152E-2
00.000104880000	2.968012E-1	1.370152E-2
00.000104994000	2.935751E-1	1.194900E-2
00.000105108000	2.968012E-1	1.354220E-2
00.000105222000	2.935751E-1	1.226764E-2
00.000105336000	2.968012E-1	1.338288E-2
00.000105450000	2.935751E-1	1.242696E-2
00.000105564000	2.935751E-1	1.370152E-2
00.000105678000	2.968012E-1	1.226764E-2
00.000105792000	2.968012E-1	1.322356E-2
00.000105906000	2.935751E-1	1.258628E-2
00.000106020000	2.968012E-1	1.258628E-2
00.000106134000	2.935751E-1	1.338288E-2
00.000106248000	2.968012E-1	1.322356E-2
00.000106362000	2.935751E-1	1.226764E-2
00.000106476000	2.968012E-1	1.322356E-2
00.000106590000	2.935751E-1	1.178968E-2
00.000106704000	2.968012E-1	1.258628E-2
00.000106818000	2.935751E-1	1.370152E-2
00.000106932000	2.935751E-1	1.242696E-2
00.000107046000	2.968012E-1	1.338288E-2
00.000107160000	2.968012E-1	1.242696E-2
00.000107274000	2.935751E-1	1.322356E-2
00.000107388000	2.968012E-1	1.242696E-2
00.000107502000	2.935751E-1	1.354220E-2
00.000107616000	2.968012E-1	1.226764E-2
00.000107730000	2.935751E-1	1.370152E-2
00.000107844000	2.968012E-1	1.370152E-2
00.000107958000	2.935751E-1	1.242696E-2
00.000108072000	2.968012E-1	1.386084E-2
00.000108186000	2.935751E-1	1.226764E-2
00.000108300000	2.968012E-1	1.242696E-2
00.000108414000	2.935751E-1	1.338288E-2
00.000108528000	2.968012E-1	1.242696E-2
00.000108642000	2.935751E-1	1.338288E-2
00.000108756000	2.968012E-1	1.338288E-2
00.000108870000	2.935751E-1	1.210832E-2
00.000108984000	2.968012E-1	1.322356E-2
00.000109098000	2.935751E-1	1.226764E-2
00.000109212000	2.935751E-1	1.242696E-2
00.000109326000	2.968012E-1	1.338288E-2
00.000109440000	2.935751E-1	1.338288E-2
00.000109554000	2.968012E-1	1.226764E-2
00.000109668000	2.968012E-1	1.338288E-2
00.000109782000	2.935751E-1	1.226764E-2
00.000109896000	2.968012E-1	1.242696E-2
00.000110010000	2.935751E-1	1.354220E-2
00.000110124000	2.935751E-1	1.306424E-2
00.000110238000	2.968012E-1	1.226764E-2
00.000110352000	2.968012E-1	1.338288E-2
00.000110466000	2.935751E-1	1.210832E-2
00.000110580000	2.968012E-1	1.370152E-2
00.000110694000	2.935751E-1	1.242696E-2
00.000110808000	2.968012E-1	1.242696E-2
00.000110922000	2.935751E-1	1.322356E-2
00.000111036000	2.968012E-1	1.242696E-2
00.000111150000	2.935751E-1	1.402016E-2
00.000111264000	2.968012E-1	1.370152E-2
00.000111378000	2.935751E-1	1.194900E-2
00.000111492000	2.968012E-1	1.354220E-2
00.000111606000	-2.742185E-1	7.169400E-3
00.000111720000	-2.774446E-1	7.169400E-3
00.000111834000	-2.903490E-1	3.186400E-4
00.000111948000	-2.903490E-1	3.186400E-4
00.000112062000	-2.935751E-1	-1.911840E-3
00.000112176000	-2.903490E-1	-1.911840E-3
00.000112290000	-2.935751E-1	-2.230480E-3
00.000112404000	-2.935751E-1	-2.071160E-3
00.000112518000	-2.935751E-1	-2.230480E-3
00.000112632000	-2.935751E-1	-2.230480E-3
00.000112746000	-2.968012E-1	-2.071160E-3
00.000112860000	-2.968012E-1	-2.230480E-3
00.000112974000	-2.968012E-1	-2.230480E-3
00.000113088000	-2.968012E-1	-2.230480E-3
00.000113202000	-3.000273E-1	-2.230480E-3
00.000113316000	-3.000273E-1	-2.230480E-3
00.000113430000	-3.000273E-1	-2.230480E-3
00.000113544000	-3.000273E-1	-2.230480E-3
00.000113658000	-3.000273E-1	-2.230480E-3
00.000113772000	-3.000273E-1	-2.230480E-3
00.000113886000	-3.000273E-1	-2.230480E-3
		
