0.01	0.1648524
0.03	0.1646735
0.05	0.16513290000000003
0.06999999999999999	0.16561639999999997
0.09	0.16515280000000002
0.11	0.0812577
0.13	0.038909000000000006
0.15000000000000002	0.0335242
0.17	0.03375399999999999
0.19	0.0358466
0.21000000000000002	0.0377005
0.23	0.0402676
0.25	0.041546400000000004
0.27	0.043947099999999996
0.29000000000000004	0.0446697
0.31	0.0444306
0.33	0.0472742
0.35000000000000003	0.0460724
0.37	0.0470151
0.39	0.048178900000000004
0.41000000000000003	0.0471731
0.43	0.048884199999999996
0.45	0.0484283
0.47000000000000003	0.049199099999999996
0.49	0.04929750000000001
0.51	0.0490251
0.53	0.0500012
0.55	0.0495898
0.5700000000000001	0.05016929999999999
0.59	0.0504227
0.61	0.051286599999999995
0.63	0.050808200000000005
0.65	0.0511826
0.67	0.0513466
0.6900000000000001	0.05124049999999999
0.7100000000000001	0.0516162
0.73	0.051904500000000006
0.75	0.0518482
0.77	0.0522203
0.79	0.05188419999999999
0.81	0.053034099999999994
0.8300000000000001	0.052575899999999995
0.85	0.0527938
0.87	0.0541784
0.89	0.05312209999999999
0.91	0.0528093
0.93	0.054127100000000004
0.9500000000000001	0.0524559
0.97	0.0534998
0.99	0.05304180000000001
1.01	0.052527899999999995
1.03	0.0532315
1.05	0.053066
1.07	0.05261400000000001
1.09	0.053694
1.11	0.0528182
1.1300000000000001	0.0534519
1.1500000000000001	0.053457500000000005
1.17	0.0533254
1.19	0.052748100000000006
1.21	0.0532416
1.23	0.0527859
1.25	0.0526438
1.27	0.0535509
1.29	0.05222979999999999
1.31	0.0528483
1.33	0.05342
1.35	0.052177799999999996
1.37	0.053333
1.3900000000000001	0.052285500000000006
1.4100000000000001	0.052683100000000004
1.43	0.0537366
1.45	0.05202359999999999
1.47	0.05398689999999999
1.49	0.0535799
1.51	0.052680199999999996
1.53	0.05438860000000001
1.55	0.053581699999999996
1.57	0.053701399999999996
1.59	0.0554994