0.01	0.1713399
0.03	0.17082389999999997
0.05	0.17123820000000003
0.06999999999999999	0.17177879999999995
0.09	0.17046770000000003
0.11	0.0970462
0.13	0.05673469999999999
0.15000000000000002	0.0482905
0.17	0.0457972
0.19	0.0456504
0.21000000000000002	0.045557600000000004
0.23	0.046646
0.25	0.046819299999999994
0.27	0.04795209999999999
0.29000000000000004	0.048181999999999996
0.31	0.0484791
0.33	0.048592399999999994
0.35000000000000003	0.04837659999999999
0.37	0.048847600000000005
0.39	0.0498122
0.41000000000000003	0.0495249
0.43	0.0497252
0.45	0.0511521
0.47000000000000003	0.05092619999999999
0.49	0.05052759999999999
0.51	0.0512346
0.53	0.0511999
0.55	0.0514681
0.5700000000000001	0.05075919999999999
0.59	0.0521659
0.61	0.051684999999999995
0.63	0.05148670000000001
0.65	0.0525126
0.67	0.0519887
0.6900000000000001	0.0522261
0.7100000000000001	0.05261210000000001
0.73	0.05238949999999999
0.75	0.05277989999999999
0.77	0.0528589
0.79	0.0532687
0.81	0.05306999999999999
0.8300000000000001	0.0531078
0.85	0.053908500000000005
0.87	0.0533086
0.89	0.0528794
0.91	0.054305400000000004
0.93	0.0523718
0.9500000000000001	0.05353139999999999
0.97	0.05322199999999999
0.99	0.0534764
1.01	0.053390599999999996
1.03	0.0525616
1.05	0.05406019999999999
1.07	0.052900100000000005
1.09	0.05329740000000001
1.11	0.05442420000000001
1.1300000000000001	0.05296650000000001
1.1500000000000001	0.053399199999999994
1.17	0.0551656
1.19	0.05259319999999999
1.21	0.054632799999999995
1.23	0.0541528
1.25	0.053792099999999995
1.27	0.0555703
1.29	0.054056799999999995
1.31	0.05501609999999999
1.33	0.0555104
1.35	0.054284299999999994
1.37	0.05524819999999999
1.3900000000000001	0.05605119999999999
1.4100000000000001	0.054186500000000005
1.43	0.056258600000000006
1.45	0.055382299999999995
1.47	0.0543466
1.49	0.0568542
1.51	0.054434399999999994
1.53	0.05532020000000001
1.55	0.05640440000000001
1.57	0.05416069999999999
1.59	0.056601500000000006