31/12/1903  21:00:00.000000	-3.111440E-1	1.596000E-3
31/12/1903  21:00:00.000000	-3.144192E-1	7.980000E-4
31/12/1903  21:00:00.000000	-3.144192E-1	2.553600E-3
31/12/1903  21:00:00.000000	-3.111440E-1	7.980000E-4
31/12/1903  21:00:00.000000	-3.111440E-1	4.788000E-4
31/12/1903  21:00:00.000000	-3.144192E-1	3.032400E-3
31/12/1903  21:00:00.000000	-3.111440E-1	7.980000E-4
31/12/1903  21:00:00.000000	-3.144192E-1	2.553600E-3
31/12/1903  21:00:00.000000	-3.144192E-1	2.394000E-3
31/12/1903  21:00:00.000001	-3.111440E-1	4.788000E-4
31/12/1903  21:00:00.000001	-3.111440E-1	3.192000E-3
31/12/1903  21:00:00.000001	-3.144192E-1	4.788000E-4
31/12/1903  21:00:00.000001	-3.111440E-1	4.788000E-4
31/12/1903  21:00:00.000001	-3.144192E-1	2.553600E-3
31/12/1903  21:00:00.000001	-3.144192E-1	1.596000E-4
31/12/1903  21:00:00.000001	-3.111440E-1	2.872800E-3
31/12/1903  21:00:00.000001	-3.111440E-1	2.553600E-3
31/12/1903  21:00:00.000001	-3.144192E-1	6.384000E-4
31/12/1903  21:00:00.000002	-3.111440E-1	2.872800E-3
31/12/1903  21:00:00.000002	-3.144192E-1	4.788000E-4
31/12/1903  21:00:00.000002	-3.144192E-1	2.713200E-3
31/12/1903  21:00:00.000002	-3.111440E-1	9.576000E-4
31/12/1903  21:00:00.000002	-3.144192E-1	4.788000E-4
31/12/1903  21:00:00.000002	-3.111440E-1	2.553600E-3
31/12/1903  21:00:00.000002	-3.111440E-1	4.788000E-4
31/12/1903  21:00:00.000002	-3.144192E-1	2.394000E-3
31/12/1903  21:00:00.000002	-3.111440E-1	2.713200E-3
31/12/1903  21:00:00.000003	-3.144192E-1	1.596000E-4
31/12/1903  21:00:00.000003	-3.111440E-1	1.117200E-3
31/12/1903  21:00:00.000003	-3.144192E-1	2.553600E-3
31/12/1903  21:00:00.000003	-3.111440E-1	9.576000E-4
31/12/1903  21:00:00.000003	-3.144192E-1	2.553600E-3
31/12/1903  21:00:00.000003	-3.144192E-1	2.234400E-3
31/12/1903  21:00:00.000003	-3.111440E-1	7.980000E-4
31/12/1903  21:00:00.000003	-3.111440E-1	2.074800E-3
31/12/1903  21:00:00.000003	-3.144192E-1	1.117200E-3
31/12/1903  21:00:00.000004	-3.144192E-1	2.074800E-3
31/12/1903  21:00:00.000004	-3.111440E-1	1.117200E-3
31/12/1903  21:00:00.000004	-3.111440E-1	2.234400E-3
31/12/1903  21:00:00.000004	-3.144192E-1	1.117200E-3
31/12/1903  21:00:00.000004	-3.111440E-1	7.980000E-4
31/12/1903  21:00:00.000004	-3.144192E-1	2.234400E-3
31/12/1903  21:00:00.000004	-3.111440E-1	9.576000E-4
31/12/1903  21:00:00.000004	-3.144192E-1	2.394000E-3
31/12/1903  21:00:00.000005	-3.111440E-1	2.713200E-3
31/12/1903  21:00:00.000005	-3.144192E-1	9.576000E-4
31/12/1903  21:00:00.000005	-3.111440E-1	9.576000E-4
31/12/1903  21:00:00.000005	-3.144192E-1	1.915200E-3
31/12/1903  21:00:00.000005	-3.111440E-1	2.553600E-3
31/12/1903  21:00:00.000005	-3.144192E-1	1.117200E-3
31/12/1903  21:00:00.000005	-3.111440E-1	6.384000E-4
31/12/1903  21:00:00.000005	-3.144192E-1	2.074800E-3
31/12/1903  21:00:00.000005	-3.111440E-1	3.192000E-4
31/12/1903  21:00:00.000006	-3.144192E-1	2.553600E-3
31/12/1903  21:00:00.000006	-3.111440E-1	2.553600E-3
31/12/1903  21:00:00.000006	-3.144192E-1	6.384000E-4
31/12/1903  21:00:00.000006	-3.111440E-1	2.553600E-3
31/12/1903  21:00:00.000006	-3.144192E-1	6.384000E-4
31/12/1903  21:00:00.000006	-3.111440E-1	9.576000E-4
31/12/1903  21:00:00.000006	-3.144192E-1	2.713200E-3
31/12/1903  21:00:00.000006	-3.111440E-1	7.980000E-4
31/12/1903  21:00:00.000006	-3.144192E-1	2.872800E-3
31/12/1903  21:00:00.000007	-3.111440E-1	2.394000E-3
31/12/1903  21:00:00.000007	-3.144192E-1	9.576000E-4
31/12/1903  21:00:00.000007	-3.111440E-1	2.394000E-3
31/12/1903  21:00:00.000007	-3.144192E-1	7.980000E-4
31/12/1903  21:00:00.000007	-3.144192E-1	2.234400E-3
31/12/1903  21:00:00.000007	-3.111440E-1	6.384000E-4
31/12/1903  21:00:00.000007	-3.111440E-1	3.351600E-3
31/12/1903  21:00:00.000007	-3.144192E-1	1.117200E-3
31/12/1903  21:00:00.000007	-3.111440E-1	7.980000E-4
31/12/1903  21:00:00.000008	-3.144192E-1	2.872800E-3
31/12/1903  21:00:00.000008	-3.111440E-1	7.980000E-4
31/12/1903  21:00:00.000008	-3.144192E-1	2.553600E-3
31/12/1903  21:00:00.000008	-3.111440E-1	2.553600E-3
31/12/1903  21:00:00.000008	-3.144192E-1	7.980000E-4
31/12/1903  21:00:00.000008	-3.111440E-1	2.394000E-3
31/12/1903  21:00:00.000008	-3.144192E-1	9.576000E-4
31/12/1903  21:00:00.000008	-3.111440E-1	7.980000E-4
31/12/1903  21:00:00.000009	-3.144192E-1	2.394000E-3
31/12/1903  21:00:00.000009	-3.111440E-1	2.394000E-3
31/12/1903  21:00:00.000009	-3.144192E-1	7.980000E-4
31/12/1903  21:00:00.000009	-3.111440E-1	2.713200E-3
31/12/1903  21:00:00.000009	-3.144192E-1	1.596000E-4
31/12/1903  21:00:00.000009	-3.111440E-1	4.788000E-4
31/12/1903  21:00:00.000009	-3.144192E-1	2.713200E-3
31/12/1903  21:00:00.000009	-3.144192E-1	7.980000E-4
31/12/1903  21:00:00.000009	-3.111440E-1	3.511200E-3
31/12/1903  21:00:00.000010	-3.111440E-1	2.713200E-3
31/12/1903  21:00:00.000010	-3.144192E-1	3.192000E-4
31/12/1903  21:00:00.000010	-3.111440E-1	2.553600E-3
31/12/1903  21:00:00.000010	-3.144192E-1	9.576000E-4
31/12/1903  21:00:00.000010	-3.111440E-1	2.872800E-3
31/12/1903  21:00:00.000010	-3.144192E-1	7.980000E-4
31/12/1903  21:00:00.000010	-3.111440E-1	7.980000E-4
31/12/1903  21:00:00.000010	-3.144192E-1	2.394000E-3
31/12/1903  21:00:00.000010	-3.111440E-1	9.576000E-4
31/12/1903  21:00:00.000011	-3.144192E-1	2.553600E-3
31/12/1903  21:00:00.000011	-3.111440E-1	2.872800E-3
31/12/1903  21:00:00.000011	-3.144192E-1	7.980000E-4
31/12/1903  21:00:00.000011	-3.144192E-1	1.276800E-3
31/12/1903  21:00:00.000011	2.521904E-1	8.139600E-3
31/12/1903  21:00:00.000011	2.521904E-1	7.980000E-3
31/12/1903  21:00:00.000011	2.685664E-1	1.596000E-2
31/12/1903  21:00:00.000011	2.652912E-1	1.532160E-2
31/12/1903  21:00:00.000011	2.718416E-1	2.330160E-2
31/12/1903  21:00:00.000012	2.685664E-1	2.154600E-2
31/12/1903  21:00:00.000012	2.751168E-1	2.665320E-2
31/12/1903  21:00:00.000012	2.751168E-1	2.505720E-2
31/12/1903  21:00:00.000012	2.783920E-1	2.713200E-2
31/12/1903  21:00:00.000012	2.751168E-1	2.649360E-2
31/12/1903  21:00:00.000012	2.783920E-1	2.856840E-2
31/12/1903  21:00:00.000012	2.783920E-1	2.697240E-2
31/12/1903  21:00:00.000012	2.816672E-1	2.920680E-2
31/12/1903  21:00:00.000012	2.816672E-1	2.649360E-2
31/12/1903  21:00:00.000013	2.816672E-1	2.936640E-2
31/12/1903  21:00:00.000013	2.816672E-1	2.888760E-2
31/12/1903  21:00:00.000013	2.849424E-1	2.681280E-2
31/12/1903  21:00:00.000013	2.816672E-1	2.856840E-2
31/12/1903  21:00:00.000013	2.849424E-1	2.585520E-2
31/12/1903  21:00:00.000013	2.849424E-1	2.793000E-2
31/12/1903  21:00:00.000013	2.816672E-1	2.505720E-2
31/12/1903  21:00:00.000013	2.849424E-1	2.745120E-2
31/12/1903  21:00:00.000014	2.849424E-1	2.489760E-2
31/12/1903  21:00:00.000014	2.849424E-1	2.473800E-2
31/12/1903  21:00:00.000014	2.849424E-1	2.681280E-2
31/12/1903  21:00:00.000014	2.849424E-1	2.649360E-2
31/12/1903  21:00:00.000014	2.849424E-1	2.346120E-2
31/12/1903  21:00:00.000014	2.849424E-1	2.617440E-2
31/12/1903  21:00:00.000014	2.849424E-1	2.330160E-2
31/12/1903  21:00:00.000014	2.849424E-1	2.553600E-2
31/12/1903  21:00:00.000014	2.849424E-1	2.250360E-2
31/12/1903  21:00:00.000015	2.849424E-1	2.234400E-2
31/12/1903  21:00:00.000015	2.849424E-1	2.505720E-2
31/12/1903  21:00:00.000015	2.849424E-1	2.441880E-2
31/12/1903  21:00:00.000015	2.882176E-1	2.250360E-2
31/12/1903  21:00:00.000015	2.849424E-1	2.489760E-2
31/12/1903  21:00:00.000015	2.882176E-1	2.186520E-2
31/12/1903  21:00:00.000015	2.882176E-1	2.218440E-2
31/12/1903  21:00:00.000015	2.849424E-1	2.425920E-2
31/12/1903  21:00:00.000015	2.849424E-1	2.298240E-2
31/12/1903  21:00:00.000016	2.882176E-1	2.489760E-2
31/12/1903  21:00:00.000016	2.849424E-1	2.250360E-2
31/12/1903  21:00:00.000016	2.882176E-1	2.409960E-2
31/12/1903  21:00:00.000016	2.882176E-1	2.202480E-2
31/12/1903  21:00:00.000016	2.849424E-1	2.457840E-2
31/12/1903  21:00:00.000016	2.882176E-1	2.521680E-2
31/12/1903  21:00:00.000016	2.849424E-1	2.186520E-2
31/12/1903  21:00:00.000016	2.882176E-1	2.218440E-2
31/12/1903  21:00:00.000016	2.882176E-1	2.441880E-2
31/12/1903  21:00:00.000017	2.882176E-1	2.218440E-2
31/12/1903  21:00:00.000017	2.849424E-1	2.441880E-2
31/12/1903  21:00:00.000017	2.882176E-1	2.138640E-2
31/12/1903  21:00:00.000017	2.882176E-1	2.425920E-2
31/12/1903  21:00:00.000017	2.882176E-1	2.425920E-2
31/12/1903  21:00:00.000017	2.849424E-1	2.106720E-2
31/12/1903  21:00:00.000017	2.882176E-1	2.425920E-2
31/12/1903  21:00:00.000017	2.882176E-1	2.138640E-2
31/12/1903  21:00:00.000018	2.882176E-1	2.074800E-2
31/12/1903  21:00:00.000018	2.882176E-1	2.425920E-2
31/12/1903  21:00:00.000018	2.882176E-1	2.314200E-2
31/12/1903  21:00:00.000018	2.882176E-1	2.074800E-2
31/12/1903  21:00:00.000018	2.882176E-1	2.330160E-2
31/12/1903  21:00:00.000018	2.882176E-1	2.058840E-2
31/12/1903  21:00:00.000018	2.882176E-1	2.314200E-2
31/12/1903  21:00:00.000018	2.882176E-1	2.058840E-2
31/12/1903  21:00:00.000018	2.882176E-1	2.026920E-2
31/12/1903  21:00:00.000019	2.882176E-1	2.234400E-2
31/12/1903  21:00:00.000019	2.882176E-1	2.202480E-2
31/12/1903  21:00:00.000019	2.882176E-1	2.026920E-2
31/12/1903  21:00:00.000019	2.882176E-1	2.186520E-2
31/12/1903  21:00:00.000019	2.882176E-1	1.995000E-2
31/12/1903  21:00:00.000019	2.882176E-1	2.138640E-2
31/12/1903  21:00:00.000019	2.882176E-1	1.931160E-2
31/12/1903  21:00:00.000019	2.882176E-1	2.090760E-2
31/12/1903  21:00:00.000019	2.882176E-1	1.899240E-2
31/12/1903  21:00:00.000020	2.882176E-1	2.090760E-2
31/12/1903  21:00:00.000020	2.882176E-1	1.883280E-2
31/12/1903  21:00:00.000020	2.882176E-1	1.851360E-2
31/12/1903  21:00:00.000020	2.882176E-1	1.995000E-2
31/12/1903  21:00:00.000020	2.882176E-1	1.963080E-2
31/12/1903  21:00:00.000020	2.882176E-1	1.787520E-2
31/12/1903  21:00:00.000020	2.882176E-1	1.979040E-2
31/12/1903  21:00:00.000020	2.882176E-1	1.755600E-2
31/12/1903  21:00:00.000020	2.882176E-1	1.915200E-2
31/12/1903  21:00:00.000021	2.882176E-1	1.643880E-2
31/12/1903  21:00:00.000021	2.882176E-1	1.643880E-2
31/12/1903  21:00:00.000021	2.882176E-1	1.915200E-2
31/12/1903  21:00:00.000021	2.882176E-1	1.611960E-2
31/12/1903  21:00:00.000021	2.882176E-1	1.787520E-2
31/12/1903  21:00:00.000021	2.882176E-1	1.771560E-2
31/12/1903  21:00:00.000021	2.882176E-1	1.548120E-2
31/12/1903  21:00:00.000021	2.882176E-1	1.723680E-2
31/12/1903  21:00:00.000022	2.882176E-1	1.468320E-2
31/12/1903  21:00:00.000022	2.882176E-1	1.436400E-2
31/12/1903  21:00:00.000022	2.882176E-1	1.627920E-2
31/12/1903  21:00:00.000022	2.882176E-1	1.468320E-2
31/12/1903  21:00:00.000022	2.882176E-1	1.611960E-2
31/12/1903  21:00:00.000022	2.882176E-1	1.564080E-2
31/12/1903  21:00:00.000022	2.882176E-1	1.388520E-2
31/12/1903  21:00:00.000022	2.882176E-1	1.484280E-2
31/12/1903  21:00:00.000022	2.882176E-1	1.324680E-2
31/12/1903  21:00:00.000023	2.882176E-1	1.548120E-2
31/12/1903  21:00:00.000023	2.882176E-1	1.244880E-2
31/12/1903  21:00:00.000023	2.882176E-1	1.388520E-2
31/12/1903  21:00:00.000023	2.882176E-1	1.212960E-2
31/12/1903  21:00:00.000023	2.882176E-1	1.181040E-2
31/12/1903  21:00:00.000023	2.882176E-1	1.404480E-2
31/12/1903  21:00:00.000023	2.882176E-1	1.308720E-2
31/12/1903  21:00:00.000023	2.882176E-1	1.165080E-2
31/12/1903  21:00:00.000023	2.882176E-1	1.117200E-2
31/12/1903  21:00:00.000024	2.882176E-1	1.244880E-2
31/12/1903  21:00:00.000024	2.882176E-1	1.292760E-2
31/12/1903  21:00:00.000024	2.882176E-1	1.037400E-2
31/12/1903  21:00:00.000024	2.882176E-1	1.228920E-2
31/12/1903  21:00:00.000024	2.882176E-1	9.576000E-3
31/12/1903  21:00:00.000024	2.882176E-1	9.416400E-3
31/12/1903  21:00:00.000024	2.882176E-1	1.181040E-2
31/12/1903  21:00:00.000024	2.882176E-1	9.097200E-3
31/12/1903  21:00:00.000024	2.882176E-1	1.117200E-2
31/12/1903  21:00:00.000025	2.882176E-1	1.085280E-2
31/12/1903  21:00:00.000025	2.882176E-1	8.139600E-3
31/12/1903  21:00:00.000025	2.882176E-1	1.053360E-2
31/12/1903  21:00:00.000025	2.882176E-1	8.458800E-3
31/12/1903  21:00:00.000025	2.882176E-1	1.053360E-2
31/12/1903  21:00:00.000025	2.882176E-1	7.501200E-3
31/12/1903  21:00:00.000025	2.882176E-1	7.341600E-3
31/12/1903  21:00:00.000025	2.882176E-1	9.576000E-3
31/12/1903  21:00:00.000025	2.882176E-1	7.501200E-3
31/12/1903  21:00:00.000026	2.882176E-1	9.256800E-3
31/12/1903  21:00:00.000026	2.882176E-1	8.937600E-3
31/12/1903  21:00:00.000026	2.882176E-1	7.022400E-3
31/12/1903  21:00:00.000026	2.882176E-1	8.139600E-3
31/12/1903  21:00:00.000026	2.882176E-1	7.022400E-3
31/12/1903  21:00:00.000026	2.882176E-1	8.458800E-3
31/12/1903  21:00:00.000026	2.882176E-1	6.224400E-3
31/12/1903  21:00:00.000026	2.882176E-1	6.384000E-3
31/12/1903  21:00:00.000027	2.882176E-1	7.820400E-3
31/12/1903  21:00:00.000027	2.882176E-1	7.660800E-3
31/12/1903  21:00:00.000027	2.882176E-1	5.905200E-3
31/12/1903  21:00:00.000027	2.882176E-1	7.660800E-3
31/12/1903  21:00:00.000027	2.882176E-1	5.586000E-3
31/12/1903  21:00:00.000027	2.882176E-1	5.426400E-3
31/12/1903  21:00:00.000027	2.882176E-1	7.501200E-3
31/12/1903  21:00:00.000027	2.882176E-1	7.182000E-3
31/12/1903  21:00:00.000027	2.882176E-1	5.586000E-3
31/12/1903  21:00:00.000028	2.882176E-1	6.703200E-3
31/12/1903  21:00:00.000028	2.882176E-1	4.788000E-3
31/12/1903  21:00:00.000028	2.882176E-1	7.182000E-3
31/12/1903  21:00:00.000028	2.882176E-1	5.586000E-3
31/12/1903  21:00:00.000028	2.882176E-1	4.628400E-3
31/12/1903  21:00:00.000028	2.882176E-1	6.703200E-3
31/12/1903  21:00:00.000028	2.882176E-1	6.384000E-3
31/12/1903  21:00:00.000028	2.882176E-1	4.468800E-3
31/12/1903  21:00:00.000028	2.882176E-1	6.384000E-3
31/12/1903  21:00:00.000029	2.882176E-1	4.788000E-3
31/12/1903  21:00:00.000029	2.882176E-1	6.703200E-3
31/12/1903  21:00:00.000029	2.882176E-1	4.149600E-3
31/12/1903  21:00:00.000029	2.882176E-1	6.224400E-3
31/12/1903  21:00:00.000029	2.882176E-1	4.468800E-3
31/12/1903  21:00:00.000029	2.882176E-1	4.468800E-3
31/12/1903  21:00:00.000029	2.882176E-1	6.064800E-3
31/12/1903  21:00:00.000029	2.882176E-1	6.224400E-3
31/12/1903  21:00:00.000029	2.882176E-1	4.309200E-3
31/12/1903  21:00:00.000030	2.882176E-1	3.670800E-3
31/12/1903  21:00:00.000030	2.882176E-1	6.384000E-3
31/12/1903  21:00:00.000030	2.882176E-1	4.468800E-3
31/12/1903  21:00:00.000030	2.882176E-1	6.224400E-3
31/12/1903  21:00:00.000030	2.882176E-1	6.064800E-3
31/12/1903  21:00:00.000030	2.882176E-1	3.351600E-3
31/12/1903  21:00:00.000030	2.882176E-1	6.384000E-3
31/12/1903  21:00:00.000030	2.882176E-1	3.830400E-3
31/12/1903  21:00:00.000031	2.882176E-1	3.990000E-3
31/12/1903  21:00:00.000031	2.882176E-1	6.224400E-3
31/12/1903  21:00:00.000031	2.882176E-1	3.351600E-3
31/12/1903  21:00:00.000031	2.882176E-1	6.703200E-3
31/12/1903  21:00:00.000031	2.882176E-1	6.064800E-3
31/12/1903  21:00:00.000031	2.882176E-1	3.990000E-3
31/12/1903  21:00:00.000031	2.882176E-1	6.224400E-3
31/12/1903  21:00:00.000031	2.882176E-1	3.351600E-3
31/12/1903  21:00:00.000031	2.882176E-1	4.309200E-3
31/12/1903  21:00:00.000032	2.882176E-1	6.224400E-3
31/12/1903  21:00:00.000032	2.882176E-1	4.309200E-3
31/12/1903  21:00:00.000032	2.882176E-1	5.586000E-3
31/12/1903  21:00:00.000032	2.882176E-1	4.309200E-3
31/12/1903  21:00:00.000032	2.882176E-1	6.224400E-3
31/12/1903  21:00:00.000032	2.882176E-1	6.224400E-3
31/12/1903  21:00:00.000032	2.882176E-1	3.670800E-3
31/12/1903  21:00:00.000032	2.882176E-1	6.224400E-3
31/12/1903  21:00:00.000032	2.882176E-1	4.149600E-3
31/12/1903  21:00:00.000033	2.882176E-1	4.628400E-3
31/12/1903  21:00:00.000033	2.882176E-1	6.224400E-3
31/12/1903  21:00:00.000033	2.882176E-1	4.149600E-3
31/12/1903  21:00:00.000033	2.882176E-1	6.384000E-3
31/12/1903  21:00:00.000033	2.882176E-1	4.468800E-3
31/12/1903  21:00:00.000033	2.882176E-1	6.224400E-3
31/12/1903  21:00:00.000033	2.882176E-1	6.384000E-3
31/12/1903  21:00:00.000033	2.882176E-1	3.990000E-3
31/12/1903  21:00:00.000033	2.882176E-1	4.788000E-3
31/12/1903  21:00:00.000034	2.882176E-1	6.543600E-3
31/12/1903  21:00:00.000034	2.882176E-1	4.628400E-3
31/12/1903  21:00:00.000034	2.882176E-1	7.182000E-3
31/12/1903  21:00:00.000034	2.882176E-1	6.543600E-3
31/12/1903  21:00:00.000034	2.882176E-1	4.309200E-3
31/12/1903  21:00:00.000034	2.882176E-1	6.543600E-3
31/12/1903  21:00:00.000034	2.882176E-1	4.468800E-3
31/12/1903  21:00:00.000034	2.882176E-1	6.862800E-3
31/12/1903  21:00:00.000034	2.882176E-1	5.107200E-3
31/12/1903  21:00:00.000035	2.882176E-1	4.309200E-3
31/12/1903  21:00:00.000035	2.882176E-1	6.703200E-3
31/12/1903  21:00:00.000035	2.882176E-1	4.468800E-3
31/12/1903  21:00:00.000035	2.882176E-1	8.139600E-3
31/12/1903  21:00:00.000035	2.882176E-1	7.501200E-3
31/12/1903  21:00:00.000035	2.882176E-1	5.107200E-3
31/12/1903  21:00:00.000035	2.882176E-1	7.022400E-3
31/12/1903  21:00:00.000035	2.882176E-1	4.947600E-3
31/12/1903  21:00:00.000036	2.882176E-1	5.107200E-3
31/12/1903  21:00:00.000036	2.882176E-1	7.022400E-3
31/12/1903  21:00:00.000036	2.882176E-1	5.586000E-3
31/12/1903  21:00:00.000036	2.882176E-1	7.341600E-3
31/12/1903  21:00:00.000036	2.882176E-1	5.107200E-3
31/12/1903  21:00:00.000036	2.882176E-1	6.862800E-3
31/12/1903  21:00:00.000036	2.882176E-1	5.586000E-3
31/12/1903  21:00:00.000036	2.882176E-1	7.341600E-3
31/12/1903  21:00:00.000036	2.882176E-1	7.501200E-3
31/12/1903  21:00:00.000037	2.882176E-1	5.745600E-3
31/12/1903  21:00:00.000037	2.882176E-1	7.182000E-3
31/12/1903  21:00:00.000037	2.882176E-1	5.586000E-3
31/12/1903  21:00:00.000037	2.882176E-1	5.745600E-3
31/12/1903  21:00:00.000037	2.882176E-1	7.980000E-3
31/12/1903  21:00:00.000037	2.882176E-1	6.064800E-3
31/12/1903  21:00:00.000037	2.882176E-1	7.501200E-3
31/12/1903  21:00:00.000037	2.882176E-1	5.586000E-3
31/12/1903  21:00:00.000037	2.882176E-1	7.501200E-3
31/12/1903  21:00:00.000038	2.882176E-1	7.820400E-3
31/12/1903  21:00:00.000038	2.882176E-1	6.384000E-3
31/12/1903  21:00:00.000038	2.882176E-1	7.501200E-3
31/12/1903  21:00:00.000038	2.882176E-1	6.064800E-3
31/12/1903  21:00:00.000038	2.882176E-1	6.384000E-3
31/12/1903  21:00:00.000038	2.882176E-1	7.820400E-3
31/12/1903  21:00:00.000038	2.882176E-1	8.299200E-3
31/12/1903  21:00:00.000038	2.882176E-1	5.745600E-3
31/12/1903  21:00:00.000038	2.882176E-1	5.905200E-3
31/12/1903  21:00:00.000039	2.882176E-1	8.139600E-3
31/12/1903  21:00:00.000039	2.882176E-1	6.384000E-3
31/12/1903  21:00:00.000039	2.882176E-1	8.139600E-3
31/12/1903  21:00:00.000039	2.882176E-1	8.139600E-3
31/12/1903  21:00:00.000039	2.882176E-1	6.064800E-3
31/12/1903  21:00:00.000039	2.882176E-1	8.139600E-3
31/12/1903  21:00:00.000039	2.882176E-1	6.384000E-3
31/12/1903  21:00:00.000039	2.882176E-1	7.980000E-3
31/12/1903  21:00:00.000040	2.882176E-1	6.543600E-3
31/12/1903  21:00:00.000040	2.882176E-1	6.064800E-3
31/12/1903  21:00:00.000040	2.882176E-1	8.139600E-3
31/12/1903  21:00:00.000040	2.882176E-1	8.139600E-3
31/12/1903  21:00:00.000040	2.882176E-1	6.384000E-3
31/12/1903  21:00:00.000040	2.882176E-1	7.980000E-3
31/12/1903  21:00:00.000040	2.882176E-1	6.703200E-3
31/12/1903  21:00:00.000040	2.882176E-1	8.299200E-3
31/12/1903  21:00:00.000040	2.882176E-1	6.543600E-3
31/12/1903  21:00:00.000041	2.882176E-1	6.543600E-3
31/12/1903  21:00:00.000041	2.882176E-1	8.139600E-3
31/12/1903  21:00:00.000041	2.882176E-1	6.064800E-3
31/12/1903  21:00:00.000041	2.882176E-1	8.458800E-3
31/12/1903  21:00:00.000041	2.882176E-1	8.458800E-3
31/12/1903  21:00:00.000041	2.882176E-1	5.905200E-3
31/12/1903  21:00:00.000041	2.882176E-1	6.543600E-3
31/12/1903  21:00:00.000041	2.882176E-1	8.937600E-3
31/12/1903  21:00:00.000041	2.882176E-1	6.064800E-3
31/12/1903  21:00:00.000042	2.882176E-1	9.097200E-3
31/12/1903  21:00:00.000042	2.882176E-1	5.745600E-3
31/12/1903  21:00:00.000042	2.882176E-1	8.299200E-3
31/12/1903  21:00:00.000042	2.882176E-1	8.618400E-3
31/12/1903  21:00:00.000042	2.882176E-1	6.064800E-3
31/12/1903  21:00:00.000042	2.882176E-1	8.937600E-3
31/12/1903  21:00:00.000042	2.882176E-1	5.905200E-3
31/12/1903  21:00:00.000042	2.882176E-1	5.905200E-3
31/12/1903  21:00:00.000042	2.882176E-1	8.937600E-3
31/12/1903  21:00:00.000043	2.882176E-1	5.745600E-3
31/12/1903  21:00:00.000043	2.882176E-1	9.416400E-3
31/12/1903  21:00:00.000043	2.882176E-1	9.416400E-3
31/12/1903  21:00:00.000043	2.882176E-1	5.426400E-3
31/12/1903  21:00:00.000043	2.882176E-1	9.416400E-3
31/12/1903  21:00:00.000043	2.882176E-1	6.224400E-3
31/12/1903  21:00:00.000043	2.882176E-1	9.256800E-3
31/12/1903  21:00:00.000043	2.882176E-1	6.384000E-3
31/12/1903  21:00:00.000044	2.882176E-1	6.224400E-3
31/12/1903  21:00:00.000044	2.882176E-1	9.416400E-3
31/12/1903  21:00:00.000044	2.882176E-1	8.458800E-3
31/12/1903  21:00:00.000044	2.882176E-1	6.224400E-3
31/12/1903  21:00:00.000044	2.882176E-1	8.778000E-3
31/12/1903  21:00:00.000044	2.882176E-1	6.384000E-3
31/12/1903  21:00:00.000044	2.882176E-1	9.416400E-3
31/12/1903  21:00:00.000044	2.882176E-1	6.543600E-3
31/12/1903  21:00:00.000044	2.882176E-1	6.384000E-3
31/12/1903  21:00:00.000045	2.882176E-1	8.618400E-3
31/12/1903  21:00:00.000045	2.882176E-1	6.224400E-3
31/12/1903  21:00:00.000045	2.882176E-1	9.256800E-3
31/12/1903  21:00:00.000045	2.882176E-1	6.064800E-3
31/12/1903  21:00:00.000045	2.882176E-1	9.097200E-3
31/12/1903  21:00:00.000045	2.882176E-1	9.097200E-3
31/12/1903  21:00:00.000045	2.882176E-1	6.224400E-3
31/12/1903  21:00:00.000045	2.882176E-1	9.097200E-3
31/12/1903  21:00:00.000045	2.882176E-1	6.384000E-3
31/12/1903  21:00:00.000046	2.882176E-1	6.384000E-3
31/12/1903  21:00:00.000046	2.882176E-1	8.937600E-3
31/12/1903  21:00:00.000046	2.882176E-1	8.299200E-3
31/12/1903  21:00:00.000046	2.882176E-1	6.064800E-3
31/12/1903  21:00:00.000046	2.882176E-1	8.618400E-3
31/12/1903  21:00:00.000046	2.882176E-1	6.543600E-3
31/12/1903  21:00:00.000046	2.882176E-1	8.299200E-3
31/12/1903  21:00:00.000046	2.882176E-1	6.543600E-3
31/12/1903  21:00:00.000046	2.882176E-1	6.862800E-3
31/12/1903  21:00:00.000047	2.882176E-1	8.778000E-3
31/12/1903  21:00:00.000047	2.882176E-1	6.064800E-3
31/12/1903  21:00:00.000047	2.882176E-1	8.937600E-3
31/12/1903  21:00:00.000047	2.882176E-1	8.299200E-3
31/12/1903  21:00:00.000047	2.882176E-1	6.224400E-3
31/12/1903  21:00:00.000047	2.882176E-1	8.937600E-3
31/12/1903  21:00:00.000047	2.882176E-1	5.905200E-3
31/12/1903  21:00:00.000047	2.882176E-1	6.543600E-3
31/12/1903  21:00:00.000047	2.882176E-1	8.458800E-3
31/12/1903  21:00:00.000048	2.882176E-1	6.384000E-3
31/12/1903  21:00:00.000048	2.882176E-1	8.299200E-3
31/12/1903  21:00:00.000048	2.882176E-1	8.618400E-3
31/12/1903  21:00:00.000048	2.882176E-1	6.703200E-3
31/12/1903  21:00:00.000048	2.882176E-1	7.980000E-3
31/12/1903  21:00:00.000048	2.882176E-1	6.543600E-3
31/12/1903  21:00:00.000048	2.882176E-1	7.980000E-3
31/12/1903  21:00:00.000048	2.882176E-1	6.384000E-3
31/12/1903  21:00:00.000049	2.882176E-1	8.299200E-3
31/12/1903  21:00:00.000049	2.882176E-1	6.543600E-3
31/12/1903  21:00:00.000049	2.882176E-1	6.064800E-3
31/12/1903  21:00:00.000049	2.882176E-1	8.618400E-3
31/12/1903  21:00:00.000049	2.882176E-1	6.224400E-3
31/12/1903  21:00:00.000049	2.882176E-1	8.778000E-3
31/12/1903  21:00:00.000049	2.882176E-1	8.458800E-3
31/12/1903  21:00:00.000049	2.882176E-1	6.064800E-3
31/12/1903  21:00:00.000049	2.882176E-1	9.097200E-3
31/12/1903  21:00:00.000050	2.882176E-1	6.224400E-3
31/12/1903  21:00:00.000050	2.882176E-1	6.384000E-3
31/12/1903  21:00:00.000050	2.882176E-1	8.618400E-3
31/12/1903  21:00:00.000050	2.882176E-1	6.384000E-3
31/12/1903  21:00:00.000050	2.882176E-1	8.618400E-3
31/12/1903  21:00:00.000050	2.882176E-1	8.299200E-3
31/12/1903  21:00:00.000050	2.882176E-1	6.224400E-3
31/12/1903  21:00:00.000050	2.882176E-1	8.458800E-3
31/12/1903  21:00:00.000050	2.882176E-1	6.543600E-3
31/12/1903  21:00:00.000051	2.882176E-1	7.980000E-3
31/12/1903  21:00:00.000051	2.882176E-1	6.543600E-3
31/12/1903  21:00:00.000051	2.882176E-1	6.703200E-3
31/12/1903  21:00:00.000051	2.882176E-1	8.299200E-3
31/12/1903  21:00:00.000051	2.882176E-1	7.820400E-3
31/12/1903  21:00:00.000051	2.882176E-1	6.064800E-3
31/12/1903  21:00:00.000051	2.882176E-1	6.384000E-3
31/12/1903  21:00:00.000051	2.882176E-1	8.139600E-3
31/12/1903  21:00:00.000051	2.882176E-1	7.820400E-3
31/12/1903  21:00:00.000052	2.882176E-1	6.703200E-3
31/12/1903  21:00:00.000052	2.882176E-1	7.820400E-3
31/12/1903  21:00:00.000052	2.882176E-1	6.384000E-3
31/12/1903  21:00:00.000052	2.882176E-1	8.139600E-3
31/12/1903  21:00:00.000052	2.882176E-1	6.543600E-3
31/12/1903  21:00:00.000052	2.882176E-1	6.543600E-3
31/12/1903  21:00:00.000052	2.882176E-1	7.980000E-3
31/12/1903  21:00:00.000052	2.882176E-1	6.543600E-3
31/12/1903  21:00:00.000053	2.882176E-1	7.820400E-3
31/12/1903  21:00:00.000053	2.882176E-1	7.980000E-3
31/12/1903  21:00:00.000053	2.882176E-1	6.384000E-3
31/12/1903  21:00:00.000053	2.882176E-1	6.703200E-3
31/12/1903  21:00:00.000053	2.882176E-1	8.139600E-3
31/12/1903  21:00:00.000053	2.882176E-1	8.139600E-3
31/12/1903  21:00:00.000053	2.882176E-1	6.224400E-3
31/12/1903  21:00:00.000053	2.882176E-1	7.980000E-3
31/12/1903  21:00:00.000053	2.882176E-1	6.384000E-3
31/12/1903  21:00:00.000054	2.882176E-1	7.820400E-3
31/12/1903  21:00:00.000054	2.882176E-1	6.543600E-3
31/12/1903  21:00:00.000054	2.882176E-1	6.064800E-3
31/12/1903  21:00:00.000054	2.882176E-1	7.980000E-3
31/12/1903  21:00:00.000054	2.882176E-1	8.299200E-3
31/12/1903  21:00:00.000054	2.882176E-1	6.543600E-3
31/12/1903  21:00:00.000054	2.882176E-1	6.064800E-3
31/12/1903  21:00:00.000054	2.882176E-1	7.341600E-3
31/12/1903  21:00:00.000054	2.882176E-1	6.543600E-3
31/12/1903  21:00:00.000055	2.882176E-1	8.139600E-3
31/12/1903  21:00:00.000055	2.882176E-1	6.224400E-3
31/12/1903  21:00:00.000055	2.882176E-1	7.660800E-3
31/12/1903  21:00:00.000055	2.882176E-1	6.064800E-3
31/12/1903  21:00:00.000055	2.882176E-1	7.820400E-3
31/12/1903  21:00:00.000055	2.882176E-1	7.980000E-3
31/12/1903  21:00:00.000055	2.882176E-1	6.543600E-3
31/12/1903  21:00:00.000055	2.882176E-1	6.384000E-3
31/12/1903  21:00:00.000055	2.882176E-1	7.341600E-3
31/12/1903  21:00:00.000056	2.882176E-1	7.980000E-3
31/12/1903  21:00:00.000056	2.882176E-1	5.745600E-3
31/12/1903  21:00:00.000056	2.882176E-1	6.064800E-3
31/12/1903  21:00:00.000056	2.882176E-1	8.299200E-3
31/12/1903  21:00:00.000056	2.882176E-1	5.745600E-3
31/12/1903  21:00:00.000056	2.882176E-1	9.097200E-3
31/12/1903  21:00:00.000056	2.882176E-1	8.618400E-3
31/12/1903  21:00:00.000056	2.882176E-1	5.905200E-3
31/12/1903  21:00:00.000057	2.882176E-1	8.139600E-3
31/12/1903  21:00:00.000057	2.882176E-1	5.426400E-3
31/12/1903  21:00:00.000057	2.882176E-1	5.905200E-3
31/12/1903  21:00:00.000057	2.882176E-1	8.299200E-3
31/12/1903  21:00:00.000057	2.882176E-1	5.426400E-3
31/12/1903  21:00:00.000057	2.882176E-1	8.299200E-3
31/12/1903  21:00:00.000057	2.882176E-1	8.299200E-3
31/12/1903  21:00:00.000057	2.882176E-1	5.745600E-3
31/12/1903  21:00:00.000057	2.882176E-1	8.458800E-3
31/12/1903  21:00:00.000058	2.882176E-1	5.586000E-3
31/12/1903  21:00:00.000058	2.882176E-1	8.299200E-3
31/12/1903  21:00:00.000058	2.882176E-1	5.586000E-3
31/12/1903  21:00:00.000058	2.882176E-1	5.266800E-3
31/12/1903  21:00:00.000058	2.882176E-1	8.937600E-3
31/12/1903  21:00:00.000058	2.882176E-1	5.107200E-3
31/12/1903  21:00:00.000058	2.882176E-1	7.980000E-3
31/12/1903  21:00:00.000058	2.882176E-1	7.980000E-3
31/12/1903  21:00:00.000058	2.882176E-1	5.905200E-3
31/12/1903  21:00:00.000059	2.882176E-1	8.299200E-3
31/12/1903  21:00:00.000059	2.882176E-1	6.064800E-3
31/12/1903  21:00:00.000059	2.882176E-1	8.299200E-3
31/12/1903  21:00:00.000059	2.882176E-1	6.384000E-3
31/12/1903  21:00:00.000059	2.882176E-1	5.426400E-3
31/12/1903  21:00:00.000059	2.882176E-1	8.139600E-3
31/12/1903  21:00:00.000059	2.882176E-1	8.139600E-3
31/12/1903  21:00:00.000059	2.882176E-1	5.745600E-3
31/12/1903  21:00:00.000059	2.882176E-1	8.299200E-3
31/12/1903  21:00:00.000060	2.882176E-1	6.224400E-3
31/12/1903  21:00:00.000060	2.882176E-1	7.660800E-3
31/12/1903  21:00:00.000060	2.882176E-1	6.384000E-3
31/12/1903  21:00:00.000060	2.882176E-1	7.660800E-3
31/12/1903  21:00:00.000060	2.882176E-1	6.064800E-3
31/12/1903  21:00:00.000060	2.882176E-1	8.139600E-3
31/12/1903  21:00:00.000060	2.882176E-1	6.064800E-3
31/12/1903  21:00:00.000060	2.882176E-1	6.064800E-3
31/12/1903  21:00:00.000060	2.882176E-1	7.980000E-3
31/12/1903  21:00:00.000061	2.882176E-1	5.426400E-3
31/12/1903  21:00:00.000061	2.882176E-1	7.980000E-3
31/12/1903  21:00:00.000061	2.882176E-1	7.980000E-3
31/12/1903  21:00:00.000061	2.882176E-1	5.745600E-3
31/12/1903  21:00:00.000061	2.882176E-1	8.299200E-3
31/12/1903  21:00:00.000061	2.882176E-1	5.745600E-3
31/12/1903  21:00:00.000061	2.882176E-1	6.064800E-3
31/12/1903  21:00:00.000061	2.882176E-1	7.980000E-3
31/12/1903  21:00:00.000062	2.882176E-1	6.224400E-3
31/12/1903  21:00:00.000062	2.882176E-1	8.139600E-3
31/12/1903  21:00:00.000062	2.882176E-1	7.820400E-3
31/12/1903  21:00:00.000062	2.882176E-1	6.543600E-3
31/12/1903  21:00:00.000062	2.882176E-1	6.224400E-3
31/12/1903  21:00:00.000062	2.882176E-1	7.660800E-3
31/12/1903  21:00:00.000062	2.882176E-1	8.139600E-3
31/12/1903  21:00:00.000062	2.882176E-1	6.384000E-3
31/12/1903  21:00:00.000062	2.882176E-1	7.501200E-3
31/12/1903  21:00:00.000063	2.882176E-1	6.224400E-3
31/12/1903  21:00:00.000063	2.882176E-1	7.501200E-3
31/12/1903  21:00:00.000063	2.882176E-1	6.224400E-3
31/12/1903  21:00:00.000063	2.882176E-1	6.543600E-3
31/12/1903  21:00:00.000063	2.882176E-1	7.980000E-3
31/12/1903  21:00:00.000063	2.882176E-1	5.745600E-3
31/12/1903  21:00:00.000063	2.882176E-1	7.820400E-3
31/12/1903  21:00:00.000063	2.882176E-1	6.384000E-3
31/12/1903  21:00:00.000063	2.882176E-1	7.820400E-3
31/12/1903  21:00:00.000064	2.882176E-1	7.820400E-3
31/12/1903  21:00:00.000064	2.882176E-1	6.384000E-3
31/12/1903  21:00:00.000064	2.882176E-1	7.820400E-3
31/12/1903  21:00:00.000064	2.882176E-1	6.224400E-3
31/12/1903  21:00:00.000064	2.882176E-1	8.139600E-3
31/12/1903  21:00:00.000064	2.882176E-1	6.224400E-3
31/12/1903  21:00:00.000064	2.882176E-1	6.224400E-3
31/12/1903  21:00:00.000064	2.882176E-1	7.980000E-3
31/12/1903  21:00:00.000064	2.882176E-1	7.660800E-3
31/12/1903  21:00:00.000065	2.882176E-1	5.905200E-3
31/12/1903  21:00:00.000065	2.882176E-1	5.905200E-3
31/12/1903  21:00:00.000065	2.882176E-1	7.980000E-3
31/12/1903  21:00:00.000065	2.882176E-1	8.139600E-3
31/12/1903  21:00:00.000065	2.882176E-1	6.384000E-3
31/12/1903  21:00:00.000065	2.882176E-1	8.139600E-3
31/12/1903  21:00:00.000065	2.882176E-1	6.064800E-3
31/12/1903  21:00:00.000065	2.882176E-1	6.384000E-3
31/12/1903  21:00:00.000066	2.882176E-1	7.820400E-3
31/12/1903  21:00:00.000066	2.882176E-1	5.905200E-3
31/12/1903  21:00:00.000066	2.882176E-1	7.980000E-3
31/12/1903  21:00:00.000066	2.882176E-1	7.660800E-3
31/12/1903  21:00:00.000066	2.882176E-1	5.905200E-3
31/12/1903  21:00:00.000066	2.882176E-1	6.224400E-3
31/12/1903  21:00:00.000066	2.882176E-1	8.299200E-3
31/12/1903  21:00:00.000066	2.882176E-1	7.980000E-3
31/12/1903  21:00:00.000066	2.882176E-1	6.224400E-3
31/12/1903  21:00:00.000067	2.882176E-1	8.299200E-3
31/12/1903  21:00:00.000067	2.882176E-1	6.224400E-3
31/12/1903  21:00:00.000067	2.882176E-1	6.224400E-3
31/12/1903  21:00:00.000067	2.882176E-1	7.820400E-3
31/12/1903  21:00:00.000067	2.882176E-1	7.820400E-3
31/12/1903  21:00:00.000067	2.882176E-1	6.224400E-3
31/12/1903  21:00:00.000067	2.882176E-1	6.384000E-3
31/12/1903  21:00:00.000067	2.882176E-1	8.299200E-3
31/12/1903  21:00:00.000067	2.882176E-1	6.064800E-3
31/12/1903  21:00:00.000068	2.882176E-1	7.820400E-3
31/12/1903  21:00:00.000068	2.882176E-1	7.660800E-3
31/12/1903  21:00:00.000068	2.882176E-1	6.384000E-3
31/12/1903  21:00:00.000068	2.882176E-1	7.660800E-3
31/12/1903  21:00:00.000068	2.882176E-1	6.224400E-3
31/12/1903  21:00:00.000068	2.882176E-1	5.905200E-3
31/12/1903  21:00:00.000068	2.882176E-1	8.139600E-3
31/12/1903  21:00:00.000068	2.882176E-1	6.064800E-3
31/12/1903  21:00:00.000068	2.882176E-1	7.660800E-3
31/12/1903  21:00:00.000069	2.882176E-1	6.543600E-3
31/12/1903  21:00:00.000069	2.882176E-1	8.139600E-3
31/12/1903  21:00:00.000069	2.882176E-1	6.064800E-3
31/12/1903  21:00:00.000069	2.882176E-1	7.980000E-3
31/12/1903  21:00:00.000069	2.882176E-1	8.299200E-3
31/12/1903  21:00:00.000069	2.882176E-1	6.224400E-3
31/12/1903  21:00:00.000069	2.882176E-1	7.820400E-3
31/12/1903  21:00:00.000069	2.882176E-1	6.064800E-3
31/12/1903  21:00:00.000069	2.882176E-1	6.064800E-3
31/12/1903  21:00:00.000070	2.882176E-1	7.980000E-3
31/12/1903  21:00:00.000070	2.882176E-1	6.384000E-3
31/12/1903  21:00:00.000070	2.882176E-1	8.458800E-3
31/12/1903  21:00:00.000070	2.882176E-1	7.501200E-3
31/12/1903  21:00:00.000070	2.882176E-1	5.586000E-3
31/12/1903  21:00:00.000070	2.882176E-1	8.139600E-3
31/12/1903  21:00:00.000070	2.882176E-1	6.703200E-3
31/12/1903  21:00:00.000070	2.882176E-1	8.139600E-3
31/12/1903  21:00:00.000071	2.882176E-1	6.224400E-3
31/12/1903  21:00:00.000071	2.882176E-1	5.905200E-3
31/12/1903  21:00:00.000071	2.882176E-1	8.139600E-3
31/12/1903  21:00:00.000071	2.882176E-1	8.139600E-3
31/12/1903  21:00:00.000071	2.882176E-1	6.384000E-3
31/12/1903  21:00:00.000071	2.882176E-1	8.299200E-3
31/12/1903  21:00:00.000071	2.882176E-1	6.384000E-3
31/12/1903  21:00:00.000071	2.882176E-1	6.064800E-3
31/12/1903  21:00:00.000071	2.882176E-1	7.820400E-3
31/12/1903  21:00:00.000072	2.882176E-1	6.064800E-3
31/12/1903  21:00:00.000072	2.882176E-1	7.501200E-3
31/12/1903  21:00:00.000072	2.882176E-1	6.543600E-3
31/12/1903  21:00:00.000072	2.882176E-1	7.980000E-3
31/12/1903  21:00:00.000072	2.882176E-1	7.820400E-3
31/12/1903  21:00:00.000072	2.882176E-1	6.064800E-3
31/12/1903  21:00:00.000072	2.882176E-1	7.820400E-3
31/12/1903  21:00:00.000072	2.882176E-1	6.384000E-3
31/12/1903  21:00:00.000072	2.882176E-1	8.618400E-3
31/12/1903  21:00:00.000073	2.882176E-1	6.384000E-3
31/12/1903  21:00:00.000073	2.882176E-1	6.384000E-3
31/12/1903  21:00:00.000073	2.882176E-1	7.820400E-3
31/12/1903  21:00:00.000073	2.882176E-1	6.064800E-3
31/12/1903  21:00:00.000073	2.882176E-1	8.139600E-3
31/12/1903  21:00:00.000073	2.882176E-1	6.224400E-3
31/12/1903  21:00:00.000073	2.882176E-1	7.980000E-3
31/12/1903  21:00:00.000073	2.882176E-1	7.820400E-3
31/12/1903  21:00:00.000073	2.882176E-1	6.064800E-3
31/12/1903  21:00:00.000074	2.882176E-1	7.820400E-3
31/12/1903  21:00:00.000074	2.882176E-1	6.224400E-3
31/12/1903  21:00:00.000074	2.882176E-1	7.820400E-3
31/12/1903  21:00:00.000074	2.882176E-1	6.224400E-3
31/12/1903  21:00:00.000074	2.882176E-1	6.064800E-3
31/12/1903  21:00:00.000074	2.882176E-1	7.980000E-3
31/12/1903  21:00:00.000074	2.882176E-1	8.139600E-3
31/12/1903  21:00:00.000074	2.882176E-1	6.384000E-3
31/12/1903  21:00:00.000075	2.882176E-1	6.224400E-3
31/12/1903  21:00:00.000075	2.882176E-1	7.980000E-3
31/12/1903  21:00:00.000075	2.882176E-1	6.224400E-3
31/12/1903  21:00:00.000075	2.882176E-1	7.660800E-3
31/12/1903  21:00:00.000075	2.882176E-1	6.384000E-3
31/12/1903  21:00:00.000075	2.882176E-1	7.980000E-3
31/12/1903  21:00:00.000075	2.882176E-1	7.820400E-3
31/12/1903  21:00:00.000075	2.882176E-1	6.064800E-3
31/12/1903  21:00:00.000075	2.882176E-1	6.064800E-3
31/12/1903  21:00:00.000076	2.882176E-1	7.820400E-3
31/12/1903  21:00:00.000076	2.882176E-1	7.660800E-3
31/12/1903  21:00:00.000076	2.882176E-1	6.224400E-3
31/12/1903  21:00:00.000076	2.882176E-1	7.660800E-3
31/12/1903  21:00:00.000076	2.882176E-1	5.905200E-3
31/12/1903  21:00:00.000076	2.882176E-1	6.224400E-3
31/12/1903  21:00:00.000076	2.882176E-1	8.139600E-3
31/12/1903  21:00:00.000076	2.882176E-1	5.905200E-3
31/12/1903  21:00:00.000076	2.882176E-1	7.820400E-3
31/12/1903  21:00:00.000077	2.882176E-1	7.820400E-3
31/12/1903  21:00:00.000077	2.882176E-1	6.224400E-3
31/12/1903  21:00:00.000077	2.882176E-1	6.064800E-3
31/12/1903  21:00:00.000077	2.882176E-1	7.820400E-3
31/12/1903  21:00:00.000077	2.882176E-1	7.980000E-3
31/12/1903  21:00:00.000077	2.882176E-1	6.224400E-3
31/12/1903  21:00:00.000077	2.882176E-1	6.064800E-3
31/12/1903  21:00:00.000077	2.882176E-1	7.980000E-3
31/12/1903  21:00:00.000077	2.882176E-1	5.905200E-3
31/12/1903  21:00:00.000078	2.882176E-1	7.660800E-3
31/12/1903  21:00:00.000078	2.882176E-1	7.660800E-3
31/12/1903  21:00:00.000078	2.882176E-1	6.384000E-3
31/12/1903  21:00:00.000078	2.882176E-1	6.224400E-3
31/12/1903  21:00:00.000078	2.882176E-1	7.501200E-3
31/12/1903  21:00:00.000078	2.882176E-1	6.543600E-3
31/12/1903  21:00:00.000078	2.882176E-1	7.980000E-3
31/12/1903  21:00:00.000078	2.882176E-1	6.064800E-3
31/12/1903  21:00:00.000079	2.882176E-1	7.501200E-3
31/12/1903  21:00:00.000079	2.882176E-1	6.543600E-3
31/12/1903  21:00:00.000079	2.882176E-1	7.820400E-3
31/12/1903  21:00:00.000079	2.882176E-1	6.064800E-3
31/12/1903  21:00:00.000079	2.882176E-1	8.139600E-3
31/12/1903  21:00:00.000079	2.882176E-1	5.745600E-3
31/12/1903  21:00:00.000079	2.882176E-1	7.820400E-3
31/12/1903  21:00:00.000079	2.882176E-1	6.224400E-3
31/12/1903  21:00:00.000079	2.882176E-1	7.820400E-3
31/12/1903  21:00:00.000080	2.882176E-1	7.980000E-3
31/12/1903  21:00:00.000080	2.882176E-1	6.384000E-3
31/12/1903  21:00:00.000080	2.882176E-1	6.224400E-3
31/12/1903  21:00:00.000080	2.882176E-1	7.820400E-3
31/12/1903  21:00:00.000080	2.882176E-1	7.980000E-3
31/12/1903  21:00:00.000080	2.882176E-1	6.064800E-3
31/12/1903  21:00:00.000080	2.882176E-1	6.543600E-3
31/12/1903  21:00:00.000080	2.882176E-1	8.139600E-3
31/12/1903  21:00:00.000080	2.882176E-1	7.501200E-3
31/12/1903  21:00:00.000081	2.882176E-1	6.064800E-3
31/12/1903  21:00:00.000081	2.882176E-1	7.820400E-3
31/12/1903  21:00:00.000081	2.882176E-1	6.384000E-3
31/12/1903  21:00:00.000081	2.882176E-1	6.384000E-3
31/12/1903  21:00:00.000081	2.882176E-1	7.980000E-3
31/12/1903  21:00:00.000081	2.882176E-1	7.660800E-3
31/12/1903  21:00:00.000081	2.882176E-1	6.384000E-3
31/12/1903  21:00:00.000081	2.882176E-1	7.660800E-3
31/12/1903  21:00:00.000081	2.882176E-1	6.064800E-3
31/12/1903  21:00:00.000082	2.882176E-1	6.543600E-3
31/12/1903  21:00:00.000082	2.882176E-1	7.820400E-3
31/12/1903  21:00:00.000082	2.882176E-1	7.660800E-3
31/12/1903  21:00:00.000082	2.882176E-1	6.384000E-3
31/12/1903  21:00:00.000082	2.882176E-1	6.384000E-3
31/12/1903  21:00:00.000082	2.882176E-1	7.660800E-3
31/12/1903  21:00:00.000082	2.882176E-1	6.703200E-3
31/12/1903  21:00:00.000082	2.882176E-1	7.820400E-3
31/12/1903  21:00:00.000082	2.882176E-1	6.384000E-3
31/12/1903  21:00:00.000083	2.882176E-1	7.980000E-3
31/12/1903  21:00:00.000083	2.882176E-1	7.660800E-3
31/12/1903  21:00:00.000083	2.882176E-1	5.905200E-3
31/12/1903  21:00:00.000083	2.882176E-1	8.458800E-3
31/12/1903  21:00:00.000083	2.882176E-1	6.064800E-3
31/12/1903  21:00:00.000083	2.882176E-1	6.064800E-3
31/12/1903  21:00:00.000083	2.882176E-1	8.139600E-3
31/12/1903  21:00:00.000083	2.882176E-1	6.064800E-3
31/12/1903  21:00:00.000084	2.882176E-1	7.980000E-3
31/12/1903  21:00:00.000084	2.882176E-1	7.660800E-3
31/12/1903  21:00:00.000084	2.882176E-1	6.224400E-3
31/12/1903  21:00:00.000084	2.882176E-1	6.064800E-3
31/12/1903  21:00:00.000084	2.882176E-1	7.820400E-3
31/12/1903  21:00:00.000084	2.882176E-1	6.224400E-3
31/12/1903  21:00:00.000084	2.882176E-1	7.820400E-3
31/12/1903  21:00:00.000084	2.882176E-1	7.660800E-3
31/12/1903  21:00:00.000084	2.882176E-1	6.224400E-3
31/12/1903  21:00:00.000085	2.882176E-1	6.543600E-3
31/12/1903  21:00:00.000085	2.882176E-1	8.139600E-3
31/12/1903  21:00:00.000085	2.882176E-1	6.224400E-3
31/12/1903  21:00:00.000085	2.882176E-1	7.341600E-3
31/12/1903  21:00:00.000085	2.882176E-1	6.703200E-3
31/12/1903  21:00:00.000085	2.882176E-1	8.139600E-3
31/12/1903  21:00:00.000085	2.882176E-1	6.384000E-3
31/12/1903  21:00:00.000085	2.882176E-1	7.820400E-3
31/12/1903  21:00:00.000085	2.882176E-1	6.384000E-3
31/12/1903  21:00:00.000086	2.882176E-1	7.820400E-3
31/12/1903  21:00:00.000086	2.882176E-1	7.820400E-3
31/12/1903  21:00:00.000086	2.882176E-1	6.703200E-3
31/12/1903  21:00:00.000086	2.882176E-1	7.660800E-3
31/12/1903  21:00:00.000086	2.882176E-1	6.064800E-3
31/12/1903  21:00:00.000086	2.882176E-1	7.820400E-3
31/12/1903  21:00:00.000086	2.882176E-1	5.745600E-3
31/12/1903  21:00:00.000086	2.882176E-1	6.224400E-3
31/12/1903  21:00:00.000086	2.882176E-1	7.980000E-3
31/12/1903  21:00:00.000087	2.882176E-1	6.064800E-3
31/12/1903  21:00:00.000087	2.882176E-1	8.139600E-3
31/12/1903  21:00:00.000087	2.882176E-1	6.384000E-3
31/12/1903  21:00:00.000087	2.882176E-1	7.820400E-3
31/12/1903  21:00:00.000087	2.882176E-1	7.660800E-3
31/12/1903  21:00:00.000087	2.882176E-1	6.224400E-3
31/12/1903  21:00:00.000087	2.882176E-1	6.384000E-3
31/12/1903  21:00:00.000087	2.882176E-1	8.139600E-3
31/12/1903  21:00:00.000088	2.882176E-1	6.224400E-3
31/12/1903  21:00:00.000088	2.882176E-1	7.501200E-3
31/12/1903  21:00:00.000088	2.882176E-1	6.543600E-3
31/12/1903  21:00:00.000088	2.882176E-1	7.820400E-3
31/12/1903  21:00:00.000088	2.882176E-1	7.820400E-3
31/12/1903  21:00:00.000088	2.882176E-1	6.384000E-3
31/12/1903  21:00:00.000088	2.882176E-1	6.384000E-3
31/12/1903  21:00:00.000088	2.882176E-1	7.980000E-3
31/12/1903  21:00:00.000088	2.882176E-1	6.064800E-3
31/12/1903  21:00:00.000089	2.882176E-1	8.139600E-3
31/12/1903  21:00:00.000089	2.882176E-1	7.980000E-3
31/12/1903  21:00:00.000089	2.882176E-1	6.543600E-3
31/12/1903  21:00:00.000089	2.882176E-1	7.820400E-3
31/12/1903  21:00:00.000089	2.882176E-1	5.905200E-3
31/12/1903  21:00:00.000089	2.882176E-1	5.905200E-3
31/12/1903  21:00:00.000089	2.882176E-1	8.139600E-3
31/12/1903  21:00:00.000089	2.882176E-1	6.064800E-3
31/12/1903  21:00:00.000089	2.882176E-1	7.980000E-3
31/12/1903  21:00:00.000090	2.882176E-1	8.139600E-3
31/12/1903  21:00:00.000090	2.882176E-1	5.586000E-3
31/12/1903  21:00:00.000090	2.882176E-1	6.224400E-3
31/12/1903  21:00:00.000090	2.882176E-1	8.139600E-3
31/12/1903  21:00:00.000090	2.882176E-1	5.586000E-3
31/12/1903  21:00:00.000090	2.882176E-1	8.139600E-3
31/12/1903  21:00:00.000090	2.882176E-1	6.064800E-3
31/12/1903  21:00:00.000090	2.882176E-1	7.980000E-3
31/12/1903  21:00:00.000090	2.882176E-1	8.299200E-3
31/12/1903  21:00:00.000091	2.882176E-1	6.224400E-3
31/12/1903  21:00:00.000091	2.882176E-1	8.139600E-3
31/12/1903  21:00:00.000091	2.882176E-1	6.224400E-3
31/12/1903  21:00:00.000091	2.882176E-1	5.745600E-3
31/12/1903  21:00:00.000091	2.882176E-1	8.139600E-3
31/12/1903  21:00:00.000091	2.882176E-1	6.064800E-3
31/12/1903  21:00:00.000091	2.882176E-1	8.299200E-3
31/12/1903  21:00:00.000091	2.882176E-1	7.501200E-3
31/12/1903  21:00:00.000091	2.882176E-1	6.384000E-3
31/12/1903  21:00:00.000092	2.882176E-1	7.820400E-3
31/12/1903  21:00:00.000092	2.882176E-1	6.224400E-3
31/12/1903  21:00:00.000092	2.882176E-1	5.745600E-3
31/12/1903  21:00:00.000092	2.882176E-1	8.139600E-3
31/12/1903  21:00:00.000092	2.882176E-1	6.384000E-3
31/12/1903  21:00:00.000092	2.882176E-1	7.820400E-3
31/12/1903  21:00:00.000092	2.882176E-1	7.980000E-3
31/12/1903  21:00:00.000092	2.882176E-1	6.384000E-3
31/12/1903  21:00:00.000093	2.882176E-1	7.660800E-3
31/12/1903  21:00:00.000093	2.882176E-1	6.224400E-3
31/12/1903  21:00:00.000093	2.882176E-1	6.224400E-3
31/12/1903  21:00:00.000093	2.882176E-1	8.139600E-3
31/12/1903  21:00:00.000093	2.882176E-1	6.064800E-3
31/12/1903  21:00:00.000093	2.882176E-1	8.139600E-3
31/12/1903  21:00:00.000093	2.882176E-1	5.586000E-3
31/12/1903  21:00:00.000093	2.882176E-1	8.139600E-3
31/12/1903  21:00:00.000093	2.882176E-1	7.820400E-3
31/12/1903  21:00:00.000094	2.882176E-1	6.224400E-3
31/12/1903  21:00:00.000094	2.882176E-1	8.299200E-3
31/12/1903  21:00:00.000094	2.882176E-1	5.586000E-3
31/12/1903  21:00:00.000094	2.882176E-1	8.299200E-3
31/12/1903  21:00:00.000094	2.882176E-1	5.905200E-3
31/12/1903  21:00:00.000094	2.882176E-1	5.905200E-3
31/12/1903  21:00:00.000094	2.882176E-1	8.778000E-3
31/12/1903  21:00:00.000094	2.882176E-1	5.266800E-3
31/12/1903  21:00:00.000094	2.882176E-1	8.458800E-3
31/12/1903  21:00:00.000095	2.882176E-1	8.458800E-3
31/12/1903  21:00:00.000095	2.882176E-1	5.745600E-3
31/12/1903  21:00:00.000095	2.882176E-1	8.458800E-3
31/12/1903  21:00:00.000095	2.882176E-1	5.905200E-3
31/12/1903  21:00:00.000095	2.882176E-1	5.586000E-3
31/12/1903  21:00:00.000095	2.882176E-1	8.299200E-3
31/12/1903  21:00:00.000095	2.882176E-1	6.384000E-3
31/12/1903  21:00:00.000095	2.882176E-1	8.139600E-3
31/12/1903  21:00:00.000095	2.882176E-1	7.820400E-3
31/12/1903  21:00:00.000096	2.882176E-1	6.064800E-3
31/12/1903  21:00:00.000096	2.882176E-1	7.980000E-3
31/12/1903  21:00:00.000096	2.882176E-1	6.064800E-3
31/12/1903  21:00:00.000096	2.882176E-1	5.745600E-3
31/12/1903  21:00:00.000096	2.882176E-1	7.980000E-3
31/12/1903  21:00:00.000096	2.882176E-1	6.224400E-3
31/12/1903  21:00:00.000096	2.882176E-1	7.980000E-3
31/12/1903  21:00:00.000096	2.882176E-1	6.384000E-3
31/12/1903  21:00:00.000097	2.882176E-1	7.980000E-3
31/12/1903  21:00:00.000097	2.882176E-1	6.224400E-3
31/12/1903  21:00:00.000097	2.882176E-1	8.139600E-3
31/12/1903  21:00:00.000097	2.882176E-1	8.139600E-3
31/12/1903  21:00:00.000097	2.882176E-1	6.064800E-3
31/12/1903  21:00:00.000097	2.882176E-1	8.458800E-3
31/12/1903  21:00:00.000097	2.882176E-1	5.745600E-3
31/12/1903  21:00:00.000097	2.882176E-1	5.745600E-3
31/12/1903  21:00:00.000097	2.882176E-1	8.299200E-3
31/12/1903  21:00:00.000098	2.882176E-1	6.064800E-3
31/12/1903  21:00:00.000098	2.882176E-1	7.980000E-3
31/12/1903  21:00:00.000098	2.882176E-1	7.820400E-3
31/12/1903  21:00:00.000098	2.882176E-1	5.905200E-3
31/12/1903  21:00:00.000098	2.882176E-1	8.139600E-3
31/12/1903  21:00:00.000098	2.882176E-1	5.905200E-3
31/12/1903  21:00:00.000098	2.882176E-1	8.139600E-3
31/12/1903  21:00:00.000098	2.882176E-1	6.224400E-3
31/12/1903  21:00:00.000098	2.882176E-1	6.064800E-3
31/12/1903  21:00:00.000099	2.882176E-1	7.980000E-3
31/12/1903  21:00:00.000099	2.882176E-1	7.980000E-3
31/12/1903  21:00:00.000099	2.882176E-1	6.543600E-3
31/12/1903  21:00:00.000099	2.882176E-1	7.820400E-3
31/12/1903  21:00:00.000099	2.882176E-1	5.586000E-3
31/12/1903  21:00:00.000099	2.882176E-1	6.384000E-3
31/12/1903  21:00:00.000099	2.882176E-1	7.980000E-3
31/12/1903  21:00:00.000099	2.882176E-1	5.905200E-3
31/12/1903  21:00:00.000099	2.882176E-1	7.980000E-3
31/12/1903  21:00:00.000100	2.882176E-1	7.660800E-3
31/12/1903  21:00:00.000100	2.882176E-1	6.384000E-3
31/12/1903  21:00:00.000100	2.882176E-1	7.820400E-3
31/12/1903  21:00:00.000100	2.882176E-1	6.064800E-3
31/12/1903  21:00:00.000100	2.882176E-1	7.660800E-3
31/12/1903  21:00:00.000100	2.882176E-1	6.384000E-3
31/12/1903  21:00:00.000100	2.882176E-1	6.384000E-3
31/12/1903  21:00:00.000100	2.882176E-1	7.820400E-3
31/12/1903  21:00:00.000101	2.882176E-1	6.064800E-3
31/12/1903  21:00:00.000101	2.882176E-1	7.820400E-3
31/12/1903  21:00:00.000101	2.882176E-1	8.139600E-3
31/12/1903  21:00:00.000101	2.882176E-1	6.224400E-3
31/12/1903  21:00:00.000101	2.882176E-1	6.064800E-3
31/12/1903  21:00:00.000101	2.882176E-1	7.820400E-3
31/12/1903  21:00:00.000101	2.882176E-1	6.064800E-3
31/12/1903  21:00:00.000101	2.882176E-1	7.820400E-3
31/12/1903  21:00:00.000101	2.882176E-1	7.980000E-3
31/12/1903  21:00:00.000102	2.882176E-1	6.384000E-3
31/12/1903  21:00:00.000102	2.882176E-1	6.064800E-3
31/12/1903  21:00:00.000102	2.882176E-1	7.980000E-3
31/12/1903  21:00:00.000102	2.882176E-1	7.182000E-3
31/12/1903  21:00:00.000102	2.882176E-1	6.384000E-3
31/12/1903  21:00:00.000102	2.882176E-1	6.224400E-3
31/12/1903  21:00:00.000102	2.882176E-1	7.820400E-3
31/12/1903  21:00:00.000102	2.882176E-1	5.905200E-3
31/12/1903  21:00:00.000102	2.882176E-1	7.980000E-3
31/12/1903  21:00:00.000103	2.882176E-1	7.501200E-3
31/12/1903  21:00:00.000103	2.882176E-1	5.745600E-3
31/12/1903  21:00:00.000103	2.882176E-1	6.543600E-3
31/12/1903  21:00:00.000103	2.882176E-1	7.980000E-3
31/12/1903  21:00:00.000103	2.882176E-1	7.820400E-3
31/12/1903  21:00:00.000103	2.882176E-1	6.543600E-3
31/12/1903  21:00:00.000103	2.882176E-1	7.341600E-3
31/12/1903  21:00:00.000103	2.882176E-1	6.224400E-3
31/12/1903  21:00:00.000103	2.882176E-1	7.980000E-3
31/12/1903  21:00:00.000104	2.882176E-1	6.384000E-3
31/12/1903  21:00:00.000104	2.882176E-1	7.820400E-3
31/12/1903  21:00:00.000104	2.882176E-1	5.426400E-3
31/12/1903  21:00:00.000104	2.882176E-1	5.745600E-3
31/12/1903  21:00:00.000104	2.882176E-1	8.458800E-3
31/12/1903  21:00:00.000104	2.882176E-1	5.905200E-3
31/12/1903  21:00:00.000104	2.882176E-1	8.299200E-3
31/12/1903  21:00:00.000104	2.882176E-1	8.778000E-3
31/12/1903  21:00:00.000104	2.882176E-1	5.586000E-3
31/12/1903  21:00:00.000105	2.882176E-1	8.618400E-3
31/12/1903  21:00:00.000105	2.882176E-1	5.745600E-3
31/12/1903  21:00:00.000105	2.882176E-1	6.224400E-3
31/12/1903  21:00:00.000105	2.882176E-1	8.139600E-3
31/12/1903  21:00:00.000105	2.882176E-1	5.905200E-3
31/12/1903  21:00:00.000105	2.882176E-1	8.139600E-3
31/12/1903  21:00:00.000105	2.882176E-1	6.384000E-3
31/12/1903  21:00:00.000105	2.882176E-1	7.820400E-3
31/12/1903  21:00:00.000106	2.882176E-1	7.660800E-3
31/12/1903  21:00:00.000106	2.882176E-1	6.064800E-3
31/12/1903  21:00:00.000106	2.882176E-1	8.299200E-3
31/12/1903  21:00:00.000106	2.882176E-1	6.224400E-3
31/12/1903  21:00:00.000106	2.882176E-1	6.543600E-3
31/12/1903  21:00:00.000106	2.882176E-1	7.820400E-3
31/12/1903  21:00:00.000106	2.882176E-1	7.820400E-3
31/12/1903  21:00:00.000106	2.882176E-1	6.224400E-3
31/12/1903  21:00:00.000106	2.882176E-1	6.224400E-3
31/12/1903  21:00:00.000107	2.882176E-1	7.501200E-3
31/12/1903  21:00:00.000107	2.882176E-1	7.501200E-3
31/12/1903  21:00:00.000107	2.882176E-1	6.064800E-3
31/12/1903  21:00:00.000107	2.882176E-1	8.139600E-3
31/12/1903  21:00:00.000107	2.882176E-1	6.543600E-3
31/12/1903  21:00:00.000107	2.882176E-1	7.980000E-3
31/12/1903  21:00:00.000107	2.882176E-1	6.064800E-3
31/12/1903  21:00:00.000107	2.882176E-1	6.224400E-3
31/12/1903  21:00:00.000107	2.882176E-1	7.820400E-3
31/12/1903  21:00:00.000108	2.882176E-1	6.064800E-3
31/12/1903  21:00:00.000108	2.882176E-1	7.660800E-3
31/12/1903  21:00:00.000108	2.882176E-1	8.139600E-3
31/12/1903  21:00:00.000108	2.882176E-1	6.543600E-3
31/12/1903  21:00:00.000108	2.882176E-1	6.224400E-3
31/12/1903  21:00:00.000108	2.882176E-1	7.660800E-3
31/12/1903  21:00:00.000108	2.882176E-1	7.660800E-3
31/12/1903  21:00:00.000108	2.882176E-1	6.224400E-3
31/12/1903  21:00:00.000108	2.882176E-1	8.139600E-3
31/12/1903  21:00:00.000109	2.882176E-1	6.224400E-3
31/12/1903  21:00:00.000109	2.882176E-1	7.501200E-3
31/12/1903  21:00:00.000109	2.882176E-1	6.384000E-3
31/12/1903  21:00:00.000109	2.882176E-1	8.139600E-3
31/12/1903  21:00:00.000109	2.882176E-1	5.905200E-3
31/12/1903  21:00:00.000109	2.882176E-1	5.745600E-3
31/12/1903  21:00:00.000109	2.882176E-1	7.820400E-3
31/12/1903  21:00:00.000109	2.882176E-1	6.543600E-3
31/12/1903  21:00:00.000110	2.882176E-1	8.299200E-3
31/12/1903  21:00:00.000110	2.882176E-1	7.980000E-3
31/12/1903  21:00:00.000110	2.882176E-1	5.905200E-3
31/12/1903  21:00:00.000110	2.882176E-1	8.299200E-3
31/12/1903  21:00:00.000110	2.882176E-1	6.224400E-3
31/12/1903  21:00:00.000110	2.882176E-1	8.139600E-3
31/12/1903  21:00:00.000110	2.882176E-1	6.384000E-3
31/12/1903  21:00:00.000110	2.882176E-1	6.064800E-3
31/12/1903  21:00:00.000110	2.882176E-1	7.820400E-3
31/12/1903  21:00:00.000111	2.882176E-1	6.064800E-3
31/12/1903  21:00:00.000111	2.882176E-1	8.299200E-3
31/12/1903  21:00:00.000111	2.882176E-1	8.458800E-3
31/12/1903  21:00:00.000111	2.882176E-1	5.745600E-3
31/12/1903  21:00:00.000111	2.882176E-1	7.660800E-3
31/12/1903  21:00:00.000111	-2.816672E-1	-1.436400E-3
31/12/1903  21:00:00.000111	-2.816672E-1	-1.117200E-3
31/12/1903  21:00:00.000111	-2.914928E-1	-4.149600E-3
31/12/1903  21:00:00.000111	-2.914928E-1	-3.830400E-3
31/12/1903  21:00:00.000112	-2.980432E-1	-4.309200E-3
31/12/1903  21:00:00.000112	-2.947680E-1	-4.309200E-3
31/12/1903  21:00:00.000112	-2.980432E-1	-4.309200E-3
31/12/1903  21:00:00.000112	-2.980432E-1	-4.309200E-3
31/12/1903  21:00:00.000112	-3.013184E-1	-4.309200E-3
31/12/1903  21:00:00.000112	-3.013184E-1	-4.309200E-3
31/12/1903  21:00:00.000112	-3.045936E-1	-4.309200E-3
31/12/1903  21:00:00.000112	-3.045936E-1	-4.309200E-3
31/12/1903  21:00:00.000112	-3.045936E-1	-4.309200E-3
31/12/1903  21:00:00.000113	-3.045936E-1	-4.309200E-3
31/12/1903  21:00:00.000113	-3.078688E-1	-4.149600E-3
31/12/1903  21:00:00.000113	-3.045936E-1	-4.309200E-3
31/12/1903  21:00:00.000113	-3.078688E-1	-4.149600E-3
31/12/1903  21:00:00.000113	-3.078688E-1	-4.309200E-3
31/12/1903  21:00:00.000113	-3.045936E-1	-4.149600E-3
31/12/1903  21:00:00.000113	-3.078688E-1	-4.309200E-3
31/12/1903  21:00:00.000113	-3.078688E-1	-4.149600E-3
		
