0.01	0.334069
0.03	0.3340485000000001
0.05	0.3343967
0.06999999999999999	0.3349379
0.09	0.333394
0.11	0.2628239
0.13	0.1916535
0.15000000000000002	0.1554536
0.17	0.1307879
0.19	0.1137056
0.21000000000000002	0.10286050000000002
0.23	0.0937713
0.25	0.08843739999999999
0.27	0.08437059999999999
0.29000000000000004	0.0814098
0.31	0.07954159999999999
0.33	0.0776067
0.35000000000000003	0.0776936
0.37	0.0767554
0.39	0.075642
0.41000000000000003	0.07627120000000001
0.43	0.0765515
0.45	0.07474990000000001
0.47000000000000003	0.0759523
0.49	0.075974
0.51	0.07457699999999999
0.53	0.0756222
0.55	0.07513550000000001
0.5700000000000001	0.0748832
0.59	0.0755871
0.61	0.075627
0.63	0.07510390000000002
0.65	0.07541650000000001
0.67	0.0755074
0.6900000000000001	0.0753055
0.7100000000000001	0.07520019999999998
0.73	0.0755315
0.75	0.07509070000000001
0.77	0.0757256
0.79	0.0755729
0.81	0.0749324
0.8300000000000001	0.07562390000000001
0.85	0.0751667
0.87	0.0750847
0.89	0.0757874
0.91	0.07517789999999999
0.93	0.0758879
0.9500000000000001	0.0763251
0.97	0.0758692
0.99	0.0761163
1.01	0.0766818
1.03	0.07572290000000001
1.05	0.0765735
1.07	0.0762687
1.09	0.0761499
1.11	0.0769362
1.1300000000000001	0.07644920000000001
1.1500000000000001	0.0769895
1.17	0.0762364
1.19	0.07705139999999999
1.21	0.07671759999999998
1.23	0.0768638
1.25	0.0765911
1.27	0.0765846
1.29	0.07639090000000001
1.31	0.0752296
1.33	0.0766222
1.35	0.0762487
1.37	0.0761021
1.3900000000000001	0.0766023
1.4100000000000001	0.07600169999999999
1.43	0.0760664
1.45	0.07612339999999998
1.47	0.07528209999999999
1.49	0.0760026
1.51	0.0755214
1.53	0.0754548
1.55	0.0752672
1.57	0.07520539999999999
1.59	0.07568480000000001