0.01	0.2826152
0.03	0.28295729999999997
0.05	0.2830629
0.06999999999999999	0.2829141
0.09	0.283427
0.11	0.22934519999999997
0.13	0.1559659
0.15000000000000002	0.12372989999999999
0.17	0.10389630000000001
0.19	0.09042969999999999
0.21000000000000002	0.08208309999999999
0.23	0.0773829
0.25	0.0727209
0.27	0.0694322
0.29000000000000004	0.0689627
0.31	0.066518
0.33	0.0657593
0.35000000000000003	0.0660736
0.37	0.0652246
0.39	0.064948
0.41000000000000003	0.06574719999999999
0.43	0.0650876
0.45	0.06493279999999998
0.47000000000000003	0.06510360000000001
0.49	0.0643213
0.51	0.0655222
0.53	0.0641645
0.55	0.0658619
0.5700000000000001	0.06544029999999999
0.59	0.0643868
0.61	0.0658271
0.63	0.064653
0.65	0.0644822
0.67	0.0656939
0.6900000000000001	0.0638638
0.7100000000000001	0.06520150000000001
0.73	0.0649807
0.75	0.0642358
0.77	0.0651915
0.79	0.0643416
0.81	0.0650061
0.8300000000000001	0.06430040000000001
0.85	0.06361530000000001
0.87	0.0650763
0.89	0.0647347
0.91	0.0634932
0.93	0.0648227
0.9500000000000001	0.0643446
0.97	0.0639691
0.99	0.06481440000000001
1.01	0.0647164
1.03	0.0634992
1.05	0.0649906
1.07	0.0646808
1.09	0.06311789999999999
1.11	0.06398849999999999
1.1300000000000001	0.06425030000000001
1.1500000000000001	0.06251680000000001
1.17	0.0642485
1.19	0.0638608
1.21	0.06267559999999998
1.23	0.0639885
1.25	0.06328339999999999
1.27	0.0631063
1.29	0.063853
1.31	0.0638233
1.33	0.06331889999999998
1.35	0.06400000000000002
1.37	0.06325660000000001
1.3900000000000001	0.0633391
1.4100000000000001	0.06338389999999999
1.43	0.06280060000000001
1.45	0.0632393
1.47	0.0631699
1.49	0.0624947
1.51	0.0632331
1.53	0.06243610000000001
1.55	0.0619763
1.57	0.062289899999999995
1.59	0.06116139999999999