0.01	0.39746590000000004
0.03	0.39810939999999995
0.05	0.39787059999999996
0.06999999999999999	0.3976482
0.09	0.39711510000000005
0.11	0.3270575
0.13	0.2519237
0.15000000000000002	0.20914629999999995
0.17	0.18129259999999997
0.19	0.1612309
0.21000000000000002	0.1485754
0.23	0.13934960000000002
0.25	0.1324253
0.27	0.12972089999999997
0.29000000000000004	0.12603769999999997
0.31	0.12385900000000001
0.33	0.12359959999999999
0.35000000000000003	0.12262560000000003
0.37	0.1225607
0.39	0.12143280000000001
0.41000000000000003	0.12210889999999999
0.43	0.12254299999999999
0.45	0.12247060000000001
0.47000000000000003	0.1226769
0.49	0.12343299999999999
0.51	0.1238196
0.53	0.1239322
0.55	0.12457670000000001
0.5700000000000001	0.12481020000000001
0.59	0.12529739999999998
0.61	0.1256586
0.63	0.126229
0.65	0.1262758
0.67	0.1268941
0.6900000000000001	0.1268724
0.7100000000000001	0.12656639999999997
0.73	0.1277013
0.75	0.1282021
0.77	0.1282916
0.79	0.1285379
0.81	0.12846010000000002
0.8300000000000001	0.1291853
0.85	0.12993059999999998
0.87	0.12860370000000002
0.89	0.1297738
0.91	0.13081650000000003
0.93	0.1296023
0.9500000000000001	0.1313676
0.97	0.13059769999999998
0.99	0.13070690000000001
1.01	0.1316303
1.03	0.13109929999999997
1.05	0.13121919999999998
1.07	0.1320046
1.09	0.13124560000000002
1.11	0.1320406
1.1300000000000001	0.13249879999999997
1.1500000000000001	0.1320807
1.17	0.1325654
1.19	0.13245919999999997
1.21	0.1328944
1.23	0.1327156
1.25	0.132103
1.27	0.1337215
1.29	0.1324379
1.31	0.13381959999999998
1.33	0.1331326
1.35	0.1326161
1.37	0.13355820000000002
1.3900000000000001	0.1331836
1.4100000000000001	0.13235139999999998
1.43	0.13365570000000002
1.45	0.1331743
1.47	0.1335534
1.49	0.1336408
1.51	0.1335973
1.53	0.1334705
1.55	0.1335988
1.57	0.133722
1.59	0.1343928