0.01	0.5085072
0.03	0.5082810999999999
0.05	0.5078457
0.06999999999999999	0.5078226
0.09	0.5074941999999999
0.11	0.45224169999999997
0.13	0.3823889
0.15000000000000002	0.32525709999999997
0.17	0.27816890000000005
0.19	0.241962
0.21000000000000002	0.213827
0.23	0.1923419
0.25	0.17676460000000002
0.27	0.16440990000000003
0.29000000000000004	0.15536120000000003
0.31	0.14840899999999996
0.33	0.1432993
0.35000000000000003	0.1384699
0.37	0.1363432
0.39	0.13373859999999999
0.41000000000000003	0.1314915
0.43	0.1303654
0.45	0.12934249999999997
0.47000000000000003	0.1277588
0.49	0.12744909999999998
0.51	0.1264981
0.53	0.12606100000000003
0.55	0.12630080000000002
0.5700000000000001	0.1251029
0.59	0.12515300000000001
0.61	0.12521
0.63	0.125225
0.65	0.12504109999999996
0.67	0.1251754
0.6900000000000001	0.12630439999999998
0.7100000000000001	0.12578079999999997
0.73	0.12620340000000002
0.75	0.1267354
0.77	0.1261123
0.79	0.1262652
0.81	0.12664809999999999
0.8300000000000001	0.12633409999999998
0.85	0.12659959999999998
0.87	0.12703409999999998
0.89	0.1262137
0.91	0.12631949999999997
0.93	0.12644060000000001
0.9500000000000001	0.12636419999999998
0.97	0.1259011
0.99	0.1263343
1.01	0.12688850000000002
1.03	0.1265783
1.05	0.12740390000000001
1.07	0.1269511
1.09	0.1269236
1.11	0.12736930000000002
1.1300000000000001	0.1278514
1.1500000000000001	0.1273601
1.17	0.1266021
1.19	0.1277339
1.21	0.12695649999999997
1.23	0.12663809999999998
1.25	0.12720120000000001
1.27	0.12713270000000002
1.29	0.127495
1.31	0.12739090000000003
1.33	0.12744719999999998
1.35	0.1274314
1.37	0.1275614
1.3900000000000001	0.1278881
1.4100000000000001	0.1278991
1.43	0.12852230000000003
1.45	0.12787469999999998
1.47	0.1283727
1.49	0.12825250000000002
1.51	0.1281493
1.53	0.1285459
1.55	0.1279643
1.57	0.1286021
1.59	0.12881729999999997