0.01	0.2366899
0.03	0.23686959999999999
0.05	0.236797
0.06999999999999999	0.23668010000000006
0.09	0.2357338
0.11	0.1707032
0.13	0.12302220000000001
0.15000000000000002	0.1040254
0.17	0.0922867
0.19	0.08410549999999999
0.21000000000000002	0.078567
0.23	0.07533100000000001
0.25	0.0724537
0.27	0.0709943
0.29000000000000004	0.06929670000000002
0.31	0.0689134
0.33	0.067797
0.35000000000000003	0.0683426
0.37	0.0672912
0.39	0.06697070000000001
0.41000000000000003	0.0669121
0.43	0.0676359
0.45	0.0663934
0.47000000000000003	0.06702899999999999
0.49	0.06714260000000001
0.51	0.06675429999999999
0.53	0.06704950000000001
0.55	0.0675361
0.5700000000000001	0.06676309999999999
0.59	0.0673946
0.61	0.06665529999999999
0.63	0.0672775
0.65	0.0669997
0.67	0.0662752
0.6900000000000001	0.067519
0.7100000000000001	0.06632079999999999
0.73	0.06634799999999999
0.75	0.0666283
0.77	0.06632869999999999
0.79	0.0659593
0.81	0.0667061
0.8300000000000001	0.06566640000000001
0.85	0.0660322
0.87	0.06607600000000001
0.89	0.0655358
0.91	0.06634380000000001
0.93	0.0651418
0.9500000000000001	0.0661703
0.97	0.0659203
0.99	0.0648466
1.01	0.06613729999999998
1.03	0.0653338
1.05	0.06483029999999998
1.07	0.06572510000000001
1.09	0.06481909999999999
1.11	0.06509600000000001
1.1300000000000001	0.065485
1.1500000000000001	0.0652102
1.17	0.06575139999999999
1.19	0.06594449999999999
1.21	0.0652613
1.23	0.0662435
1.25	0.0665584
1.27	0.06510239999999999
1.29	0.065668
1.31	0.06655029999999999
1.33	0.06591009999999999
1.35	0.0659093
1.37	0.0669159
1.3900000000000001	0.0657424
1.4100000000000001	0.06679260000000001
1.43	0.0669891
1.45	0.0671457
1.47	0.0670616
1.49	0.0681252
1.51	0.0667423
1.53	0.0675761
1.55	0.0678548
1.57	0.06662130000000001
1.59	0.0679023