0.01	0.29605329999999996
0.03	0.2954882
0.05	0.29630809999999996
0.06999999999999999	0.29562950000000005
0.09	0.2946885
0.11	0.21741520000000003
0.13	0.14818360000000003
0.15000000000000002	0.11792830000000003
0.17	0.09916660000000001
0.19	0.086089
0.21000000000000002	0.0789869
0.23	0.07306939999999999
0.25	0.0698645
0.27	0.0682232
0.29000000000000004	0.0655728
0.31	0.06552369999999999
0.33	0.06515089999999998
0.35000000000000003	0.0645855
0.37	0.06484250000000001
0.39	0.06442410000000001
0.41000000000000003	0.06466859999999999
0.43	0.0641749
0.45	0.06486410000000001
0.47000000000000003	0.0640909
0.49	0.06445680000000001
0.51	0.0639542
0.53	0.0642274
0.55	0.06423880000000001
0.5700000000000001	0.0643546
0.59	0.0646156
0.61	0.0639769
0.63	0.064466
0.65	0.063983
0.67	0.0644074
0.6900000000000001	0.06415259999999999
0.7100000000000001	0.06437140000000001
0.73	0.0644656
0.75	0.0643346
0.77	0.06474120000000001
0.79	0.0642194
0.81	0.063725
0.8300000000000001	0.06429270000000001
0.85	0.0642601
0.87	0.0635149
0.89	0.0644725
0.91	0.0638486
0.93	0.063487
0.9500000000000001	0.06423849999999999
0.97	0.0634459
0.99	0.0626451
1.01	0.062968
1.03	0.062337699999999996
1.05	0.0629412
1.07	0.06250839999999999
1.09	0.0627192
1.11	0.06237670000000001
1.1300000000000001	0.0621513
1.1500000000000001	0.0629157
1.17	0.0624576
1.19	0.062010600000000006
1.21	0.06289979999999999
1.23	0.061786600000000004
1.25	0.062392800000000005
1.27	0.0619775
1.29	0.061911199999999986
1.31	0.06211680000000001
1.33	0.061845000000000004
1.35	0.0625726
1.37	0.06199790000000001
1.3900000000000001	0.0628414
1.4100000000000001	0.0625762
1.43	0.06268
1.45	0.06314879999999999
1.47	0.0626883
1.49	0.06326879999999999
1.51	0.06314520000000001
1.53	0.06313070000000001
1.55	0.0638099
1.57	0.0637151
1.59	0.0645004